[
  {
    "link_thumb": "https://live.staticflickr.com/65535/49890357341_c401355346_n.jpg",
    "id_album": "764198353",
    "description": "2012_rv_Lotus_rv_Elise_rv_S_rv_V2_rv_1440",
    "title": "2012_rv_Lotus_rv_Elise_rv_S_rv_V2_rv_1440",
    "link_img": "https://live.staticflickr.com/65535/49890357341_46a29de9a3_o.jpg",
    "id_image": "2012_rv_Lotus_rv_Elise_rv_S_rv_V2_rv_1440",
    "count_view": 0
  },
  {
    "link_thumb": "https://live.staticflickr.com/65535/49890414067_e2084fcc23_n.jpg",
    "id_album": "-59902933",
    "description": "2019_rv_Lamborghini_rv_Aventador_rv_SVJ_rv_V20_rv_1600",
    "title": "2019_rv_Lamborghini_rv_Aventador_rv_SVJ_rv_V20_rv_1600",
    "link_img": "https://live.staticflickr.com/65535/49890414067_e8d60cb064_o.jpg",
    "id_image": "2019_rv_Lamborghini_rv_Aventador_rv_SVJ_rv_V20_rv_1600",
    "count_view": 0
  },
  {
    "link_thumb": "https://live.staticflickr.com/65535/48113565583_f3023b66b1_n.jpg",
    "id_album": "-680120434",
    "description": "Cadillac_254235",
    "title": "Cadillac_254235",
    "link_img": "https://live.staticflickr.com/65535/48113565583_8b5da5911b_o.jpg",
    "id_image": "Cadillac_254235",
    "count_view": 0
  },
  {
    "link_thumb": "https://live.staticflickr.com/65535/48117397496_27cce60d62_n.jpg",
    "id_album": "-1846404630",
    "description": "Ford_720338",
    "title": "Ford_720338",
    "link_img": "https://live.staticflickr.com/65535/48117397496_141656f6e9_o.jpg",
    "id_image": "Ford_720338",
    "count_view": 0
  },
  {
    "link_thumb": "https://live.staticflickr.com/65535/48113670152_e3e857e95e_n.jpg",
    "id_album": "-680120434",
    "description": "Cadillac_471667",
    "title": "Cadillac_471667",
    "link_img": "https://live.staticflickr.com/65535/48113670152_e9c8678a1c_o.jpg",
    "id_image": "Cadillac_471667",
    "count_view": 0
  },
  {
    "link_thumb": "https://live.staticflickr.com/65535/48117584932_3ebc2fbb00_n.jpg",
    "id_album": "-1846404630",
    "description": "Ford_880948",
    "title": "Ford_880948",
    "link_img": "https://live.staticflickr.com/65535/48117584932_1ac062af66_o.jpg",
    "id_image": "Ford_880948",
    "count_view": 0
  },
  {
    "link_thumb": "https://live.staticflickr.com/65535/49889417027_d98e627f11_n.jpg",
    "id_album": "1225760451",
    "description": "1956_rv_BMW_rv_507_rv_Series_rv_1_rv_V1_rv_1440",
    "title": "1956_rv_BMW_rv_507_rv_Series_rv_1_rv_V1_rv_1440",
    "link_img": "https://live.staticflickr.com/65535/49889417027_32477d4b5d_o.jpg",
    "id_image": "1956_rv_BMW_rv_507_rv_Series_rv_1_rv_V1_rv_1440",
    "count_view": 0
  },
  {
    "link_thumb": "https://live.staticflickr.com/65535/48119322302_b9854723ff_n.jpg",
    "id_album": "898314866",
    "description": "Mazda_822132",
    "title": "Mazda_822132",
    "link_img": "https://live.staticflickr.com/65535/48119322302_4068d17965_o.jpg",
    "id_image": "Mazda_822132",
    "count_view": 0
  },
  {
    "link_thumb": "https://live.staticflickr.com/65535/49890297607_b53e6ae2f9_n.jpg",
    "id_album": "-1191355745",
    "description": "2017_rv_Jaguar_rv_F_rv_Type_rv_SVR_rv_Convertible_rv_V8_rv_2000",
    "title": "2017_rv_Jaguar_rv_F_rv_Type_rv_SVR_rv_Convertible_rv_V8_rv_2000",
    "link_img": "https://live.staticflickr.com/65535/49890297607_3231e9356f_o.jpg",
    "id_image": "2017_rv_Jaguar_rv_F_rv_Type_rv_SVR_rv_Convertible_rv_V8_rv_2000",
    "count_view": 0
  },
  {
    "link_thumb": "https://live.staticflickr.com/65535/48115239698_313dfbf86f_n.jpg",
    "id_album": "413141323",
    "description": "Dodge_398974",
    "title": "Dodge_398974",
    "link_img": "https://live.staticflickr.com/65535/48115239698_51e1161859_o.jpg",
    "id_image": "Dodge_398974",
    "count_view": 0
  },
  {
    "link_thumb": "https://live.staticflickr.com/65535/48115975701_a0e54df9ee_n.jpg",
    "id_album": "1364506720",
    "description": "Ferrari_453391",
    "title": "Ferrari_453391",
    "link_img": "https://live.staticflickr.com/65535/48115975701_aeb5d7f9bb_o.jpg",
    "id_image": "Ferrari_453391",
    "count_view": 0
  },
  {
    "link_thumb": "https://live.staticflickr.com/65535/48114986607_1798723d83_n.jpg",
    "id_album": "2072464184",
    "description": "Citroen_471956",
    "title": "Citroen_471956",
    "link_img": "https://live.staticflickr.com/65535/48114986607_7103667ac1_o.jpg",
    "id_image": "Citroen_471956",
    "count_view": 0
  },
  {
    "link_thumb": "https://live.staticflickr.com/65535/48116785103_de2407bc12_n.jpg",
    "id_album": "-1846404630",
    "description": "Ford_209565",
    "title": "Ford_209565",
    "link_img": "https://live.staticflickr.com/65535/48116785103_fbe1540e87_o.jpg",
    "id_image": "Ford_209565",
    "count_view": 0
  },
  {
    "link_thumb": "https://live.staticflickr.com/65535/48120807783_9197358d69_n.jpg",
    "id_album": "1952909762",
    "description": "Packard_927890",
    "title": "Packard_927890",
    "link_img": "https://live.staticflickr.com/65535/48120807783_0e25924f35_o.jpg",
    "id_image": "Packard_927890",
    "count_view": 0
  },
  {
    "link_thumb": "https://live.staticflickr.com/65535/48114777581_8a06128868_n.jpg",
    "id_album": "939606447",
    "description": "Chrysler_497373",
    "title": "Chrysler_497373",
    "link_img": "https://live.staticflickr.com/65535/48114777581_63854e9acb_o.jpg",
    "id_image": "Chrysler_497373",
    "count_view": 0
  },
  {
    "link_thumb": "https://live.staticflickr.com/65535/49891701078_14a68587fa_n.jpg",
    "id_album": "362387257",
    "description": "2015_rv_Audi_rv_R8_rv_LMS_rv_V4_rv_2000",
    "title": "2015_rv_Audi_rv_R8_rv_LMS_rv_V4_rv_2000",
    "link_img": "https://live.staticflickr.com/65535/49891701078_67b7cda37b_o.jpg",
    "id_image": "2015_rv_Audi_rv_R8_rv_LMS_rv_V4_rv_2000",
    "count_view": 0
  },
  {
    "link_thumb": "https://live.staticflickr.com/65535/48117040291_81c360b8a3_n.jpg",
    "id_album": "-1846404630",
    "description": "Ford_353930",
    "title": "Ford_353930",
    "link_img": "https://live.staticflickr.com/65535/48117040291_1609648bf2_o.jpg",
    "id_image": "Ford_353930",
    "count_view": 0
  },
  {
    "link_thumb": "https://live.staticflickr.com/65535/49888593148_387b69dd3e_n.jpg",
    "id_album": "-1839908067",
    "description": "2013_rv_BMW_rv_M6_rv_by_rv_Prior_rv_Design_rv_V3_rv_1440",
    "title": "2013_rv_BMW_rv_M6_rv_by_rv_Prior_rv_Design_rv_V3_rv_1440",
    "link_img": "https://live.staticflickr.com/65535/49888593148_d36c8f9b53_o.jpg",
    "id_image": "2013_rv_BMW_rv_M6_rv_by_rv_Prior_rv_Design_rv_V3_rv_1440",
    "count_view": 0
  },
  {
    "link_thumb": "https://live.staticflickr.com/65535/49890638182_de23559d0a_n.jpg",
    "id_album": "-1856303726",
    "description": "2015_rv_Nissan_rv_GT_rv_R_rv_LM_rv_Nismo_rv_V5_rv_1600",
    "title": "2015_rv_Nissan_rv_GT_rv_R_rv_LM_rv_Nismo_rv_V5_rv_1600",
    "link_img": "https://live.staticflickr.com/65535/49890638182_23a1375ddf_o.jpg",
    "id_image": "2015_rv_Nissan_rv_GT_rv_R_rv_LM_rv_Nismo_rv_V5_rv_1600",
    "count_view": 0
  },
  {
    "link_thumb": "https://live.staticflickr.com/65535/48122786157_8a1aa5801a_n.jpg",
    "id_album": "1274920659",
    "description": "Toyota_484704",
    "title": "Toyota_484704",
    "link_img": "https://live.staticflickr.com/65535/48122786157_6fbe8e79dd_o.jpg",
    "id_image": "Toyota_484704",
    "count_view": 0
  },
  {
    "link_thumb": "https://live.staticflickr.com/65535/48119677413_40b67f82d6_n.jpg",
    "id_album": "-731054311",
    "description": "MercedesBenz_393103",
    "title": "MercedesBenz_393103",
    "link_img": "https://live.staticflickr.com/65535/48119677413_aab42a2be6_o.jpg",
    "id_image": "MercedesBenz_393103",
    "count_view": 0
  },
  {
    "link_thumb": "https://live.staticflickr.com/65535/48112556753_be2fb003bf_n.jpg",
    "id_album": "2097036181",
    "description": "Bentley_382149",
    "title": "Bentley_382149",
    "link_img": "https://live.staticflickr.com/65535/48112556753_b1746f0323_o.jpg",
    "id_image": "Bentley_382149",
    "count_view": 0
  },
  {
    "link_thumb": "https://live.staticflickr.com/65535/49892232751_3f23cfea97_n.jpg",
    "id_album": "200874695",
    "description": "2012_rv_Renault_rv_Alpine_rv_A_rv_110_rv_50_rv_Concept_rv_V8_rv_1440",
    "title": "2012_rv_Renault_rv_Alpine_rv_A_rv_110_rv_50_rv_Concept_rv_V8_rv_1440",
    "link_img": "https://live.staticflickr.com/65535/49892232751_8cc1528f45_o.jpg",
    "id_image": "2012_rv_Renault_rv_Alpine_rv_A_rv_110_rv_50_rv_Concept_rv_V8_rv_1440",
    "count_view": 0
  },
  {
    "link_thumb": "https://live.staticflickr.com/65535/48119828616_f642043c70_n.jpg",
    "id_album": "-731054311",
    "description": "MercedesBenz_886057",
    "title": "MercedesBenz_886057",
    "link_img": "https://live.staticflickr.com/65535/48119828616_fd0e8aa696_o.jpg",
    "id_image": "MercedesBenz_886057",
    "count_view": 0
  },
  {
    "link_thumb": "https://live.staticflickr.com/65535/48118780903_c1f90c9068_n.jpg",
    "id_album": "-2100339805",
    "description": "Lamborghini_995213",
    "title": "Lamborghini_995213",
    "link_img": "https://live.staticflickr.com/65535/48118780903_5d3f8a066a_o.jpg",
    "id_image": "Lamborghini_995213",
    "count_view": 0
  },
  {
    "link_thumb": "https://live.staticflickr.com/65535/48112962436_9b19d4d974_n.jpg",
    "id_album": "727633301",
    "description": "BMW_518820",
    "title": "BMW_518820",
    "link_img": "https://live.staticflickr.com/65535/48112962436_f216421c74_o.jpg",
    "id_image": "BMW_518820",
    "count_view": 0
  },
  {
    "link_thumb": "https://live.staticflickr.com/65535/48119871366_7211666e2a_n.jpg",
    "id_album": "-731054311",
    "description": "MercedesBenz_921750",
    "title": "MercedesBenz_921750",
    "link_img": "https://live.staticflickr.com/65535/48119871366_5a66150f27_o.jpg",
    "id_image": "MercedesBenz_921750",
    "count_view": 0
  },
  {
    "link_thumb": "https://live.staticflickr.com/65535/48116833393_c6d659151c_n.jpg",
    "id_album": "-1846404630",
    "description": "Ford_238032",
    "title": "Ford_238032",
    "link_img": "https://live.staticflickr.com/65535/48116833393_350939a115_o.jpg",
    "id_image": "Ford_238032",
    "count_view": 0
  },
  {
    "link_thumb": "https://live.staticflickr.com/65535/49890578001_5aef34e123_n.jpg",
    "id_album": "-1374517427",
    "description": "2012_rv_McLaren_rv_X_rv_1_rv_Concept_rv_V6_rv_1440",
    "title": "2012_rv_McLaren_rv_X_rv_1_rv_Concept_rv_V6_rv_1440",
    "link_img": "https://live.staticflickr.com/65535/49890578001_2c91109960_o.jpg",
    "id_image": "2012_rv_McLaren_rv_X_rv_1_rv_Concept_rv_V6_rv_1440",
    "count_view": 0
  },
  {
    "link_thumb": "https://live.staticflickr.com/65535/49890427686_eaf3139673_n.jpg",
    "id_album": "-1470719774",
    "description": "2007_rv_Maserati_rv_GranTurismo_rv_V5_rv_1536",
    "title": "2007_rv_Maserati_rv_GranTurismo_rv_V5_rv_1536",
    "link_img": "https://live.staticflickr.com/65535/49890427686_1273926bb7_o.jpg",
    "id_image": "2007_rv_Maserati_rv_GranTurismo_rv_V5_rv_1536",
    "count_view": 0
  },
  {
    "link_thumb": "https://live.staticflickr.com/65535/48118904902_1c103de5de_n.jpg",
    "id_album": "1234246491",
    "description": "LandRover_891737",
    "title": "LandRover_891737",
    "link_img": "https://live.staticflickr.com/65535/48118904902_566d2407b1_o.jpg",
    "id_image": "LandRover_891737",
    "count_view": 0
  },
  {
    "link_thumb": "https://live.staticflickr.com/65535/48120495132_5e7f4dbfa5_n.jpg",
    "id_album": "810634050",
    "description": "Nissan_415450",
    "title": "Nissan_415450",
    "link_img": "https://live.staticflickr.com/65535/48120495132_e6b950876a_o.jpg",
    "id_image": "Nissan_415450",
    "count_view": 0
  },
  {
    "link_thumb": "https://live.staticflickr.com/65535/48112898156_404a715058_n.jpg",
    "id_album": "727633301",
    "description": "BMW_489172",
    "title": "BMW_489172",
    "link_img": "https://live.staticflickr.com/65535/48112898156_bb22790879_o.jpg",
    "id_image": "BMW_489172",
    "count_view": 0
  },
  {
    "link_thumb": "https://live.staticflickr.com/65535/49890216756_2b60313012_n.jpg",
    "id_album": "-842062148",
    "description": "2018_rv_Lamborghini_rv_Urus_rv_ST_rv_X_rv_Concept_rv_V1_rv_2000",
    "title": "2018_rv_Lamborghini_rv_Urus_rv_ST_rv_X_rv_Concept_rv_V1_rv_2000",
    "link_img": "https://live.staticflickr.com/65535/49890216756_1c05d3682f_o.jpg",
    "id_image": "2018_rv_Lamborghini_rv_Urus_rv_ST_rv_X_rv_Concept_rv_V1_rv_2000",
    "count_view": 0
  },
  {
    "link_thumb": "https://live.staticflickr.com/65535/49891648857_3b944c295d_n.jpg",
    "id_album": "-1178450892",
    "description": "2011_rv_Porsche_rv_918_rv_RSR_rv_Concept_rv_V3_rv_1536",
    "title": "2011_rv_Porsche_rv_918_rv_RSR_rv_Concept_rv_V3_rv_1536",
    "link_img": "https://live.staticflickr.com/65535/49891648857_9965da9eb1_o.jpg",
    "id_image": "2011_rv_Porsche_rv_918_rv_RSR_rv_Concept_rv_V3_rv_1536",
    "count_view": 0
  },
  {
    "link_thumb": "https://live.staticflickr.com/65535/48116313146_4ba263b79f_n.jpg",
    "id_album": "1364506720",
    "description": "Ferrari_81503",
    "title": "Ferrari_81503",
    "link_img": "https://live.staticflickr.com/65535/48116313146_9d0ac86f8d_o.jpg",
    "id_image": "Ferrari_81503",
    "count_view": 0
  },
  {
    "link_thumb": "https://live.staticflickr.com/65535/48113050556_7a09173425_n.jpg",
    "id_album": "727633301",
    "description": "BMW_758614",
    "title": "BMW_758614",
    "link_img": "https://live.staticflickr.com/65535/48113050556_1b16e630d5_o.jpg",
    "id_image": "BMW_758614",
    "count_view": 0
  },
  {
    "link_thumb": "https://live.staticflickr.com/65535/49890120141_c487608ed3_n.jpg",
    "id_album": "91448049",
    "description": "1973_rv_Lamborghini_rv_Countach_rv_V6_rv_1440",
    "title": "1973_rv_Lamborghini_rv_Countach_rv_V6_rv_1440",
    "link_img": "https://live.staticflickr.com/65535/49890120141_dfa0b35010_o.jpg",
    "id_image": "1973_rv_Lamborghini_rv_Countach_rv_V6_rv_1440",
    "count_view": 0
  },
  {
    "link_thumb": "https://live.staticflickr.com/65535/48118865588_2d060a1f47_n.jpg",
    "id_album": "446908717",
    "description": "Lexus_216637",
    "title": "Lexus_216637",
    "link_img": "https://live.staticflickr.com/65535/48118865588_c53288b1c9_o.jpg",
    "id_image": "Lexus_216637",
    "count_view": 0
  },
  {
    "link_thumb": "https://live.staticflickr.com/65535/48121684827_fd508e4290_n.jpg",
    "id_album": "-1178450892",
    "description": "Porsche_716001",
    "title": "Porsche_716001",
    "link_img": "https://live.staticflickr.com/65535/48121684827_a05b426948_o.jpg",
    "id_image": "Porsche_716001",
    "count_view": 0
  },
  {
    "link_thumb": "https://live.staticflickr.com/65535/48120222682_bf5936f327_n.jpg",
    "id_album": "666438681",
    "description": "Motorcycles_178806",
    "title": "Motorcycles_178806",
    "link_img": "https://live.staticflickr.com/65535/48120222682_366c007665_o.jpg",
    "id_image": "Motorcycles_178806",
    "count_view": 0
  },
  {
    "link_thumb": "https://live.staticflickr.com/65535/48122098446_2285f706a2_n.jpg",
    "id_album": "1536700661",
    "description": "RollsRoyce_273816",
    "title": "RollsRoyce_273816",
    "link_img": "https://live.staticflickr.com/65535/48122098446_6d53a05428_o.jpg",
    "id_image": "RollsRoyce_273816",
    "count_view": 0
  },
  {
    "link_thumb": "https://live.staticflickr.com/65535/48112715458_39b5de7014_n.jpg",
    "id_album": "727633301",
    "description": "BMW_264982",
    "title": "BMW_264982",
    "link_img": "https://live.staticflickr.com/65535/48112715458_3495248152_o.jpg",
    "id_image": "BMW_264982",
    "count_view": 0
  },
  {
    "link_thumb": "https://live.staticflickr.com/65535/48114283536_461fa8562f_n.jpg",
    "id_album": "-1721545051",
    "description": "Chevrolet_471707",
    "title": "Chevrolet_471707",
    "link_img": "https://live.staticflickr.com/65535/48114283536_4eb322dd37_o.jpg",
    "id_image": "Chevrolet_471707",
    "count_view": 0
  },
  {
    "link_thumb": "https://live.staticflickr.com/65535/48118166001_379f4dd259_n.jpg",
    "id_album": "-625217782",
    "description": "Kia_881123",
    "title": "Kia_881123",
    "link_img": "https://live.staticflickr.com/65535/48118166001_75bebce2de_o.jpg",
    "id_image": "Kia_881123",
    "count_view": 0
  },
  {
    "link_thumb": "https://live.staticflickr.com/65535/49892671602_4bf47d8845_n.jpg",
    "id_album": "2063224475",
    "description": "2015_rv_Ford_rv_Mustang_rv_GT_rv_V17_rv_2000",
    "title": "2015_rv_Ford_rv_Mustang_rv_GT_rv_V17_rv_2000",
    "link_img": "https://live.staticflickr.com/65535/49892671602_4bf76c6c5d_o.jpg",
    "id_image": "2015_rv_Ford_rv_Mustang_rv_GT_rv_V17_rv_2000",
    "count_view": 0
  },
  {
    "link_thumb": "https://live.staticflickr.com/65535/48113146361_b59a4c60d3_n.jpg",
    "id_album": "727633301",
    "description": "BMW_890316",
    "title": "BMW_890316",
    "link_img": "https://live.staticflickr.com/65535/48113146361_36897a74d8_o.jpg",
    "id_image": "BMW_890316",
    "count_view": 0
  },
  {
    "link_thumb": "https://live.staticflickr.com/65535/48112450437_c414caf475_n.jpg",
    "id_album": "-15119147",
    "description": "Audi_496437",
    "title": "Audi_496437",
    "link_img": "https://live.staticflickr.com/65535/48112450437_67e52e9e80_o.jpg",
    "id_image": "Audi_496437",
    "count_view": 0
  },
  {
    "link_thumb": "https://live.staticflickr.com/65535/49889765303_e58a840a4d_n.jpg",
    "id_album": "84688798",
    "description": "2013_rv_Lexus_rv_IS_rv_250_rv_F_rv_Sport_rv_V3_rv_1600",
    "title": "2013_rv_Lexus_rv_IS_rv_250_rv_F_rv_Sport_rv_V3_rv_1600",
    "link_img": "https://live.staticflickr.com/65535/49889765303_3c8bc317c2_o.jpg",
    "id_image": "2013_rv_Lexus_rv_IS_rv_250_rv_F_rv_Sport_rv_V3_rv_1600",
    "count_view": 0
  },
  {
    "link_thumb": "https://live.staticflickr.com/65535/48116042451_e0018326bc_n.jpg",
    "id_album": "1364506720",
    "description": "Ferrari_520553",
    "title": "Ferrari_520553",
    "link_img": "https://live.staticflickr.com/65535/48116042451_871e7b8aa9_o.jpg",
    "id_image": "Ferrari_520553",
    "count_view": 0
  },
  {
    "link_thumb": "https://live.staticflickr.com/65535/49889720983_3b7c44b643_n.jpg",
    "id_album": "-1839907970",
    "description": "2011_rv_BMW_rv_1_rv_Series_rv_M_rv_Coupe_rv_V1_rv_1536",
    "title": "2011_rv_BMW_rv_1_rv_Series_rv_M_rv_Coupe_rv_V1_rv_1536",
    "link_img": "https://live.staticflickr.com/65535/49889720983_631d9ac264_o.jpg",
    "id_image": "2011_rv_BMW_rv_1_rv_Series_rv_M_rv_Coupe_rv_V1_rv_1536",
    "count_view": 0
  },
  {
    "link_thumb": "https://live.staticflickr.com/65535/48121149653_3a78d499ed_n.jpg",
    "id_album": "-2099496752",
    "description": "Pontiac_274444",
    "title": "Pontiac_274444",
    "link_img": "https://live.staticflickr.com/65535/48121149653_7104cdf723_o.jpg",
    "id_image": "Pontiac_274444",
    "count_view": 0
  },
  {
    "link_thumb": "https://live.staticflickr.com/65535/48120842198_67e9c276aa_n.jpg",
    "id_album": "1952909762",
    "description": "Packard_928268",
    "title": "Packard_928268",
    "link_img": "https://live.staticflickr.com/65535/48120842198_f4a6e6db6d_o.jpg",
    "id_image": "Packard_928268",
    "count_view": 0
  },
  {
    "link_thumb": "https://live.staticflickr.com/65535/49889363407_f271702493_n.jpg",
    "id_album": "-1839907970",
    "description": "2018_rv_BMW_rv_M140i_rv_V5_rv_2000",
    "title": "2018_rv_BMW_rv_M140i_rv_V5_rv_2000",
    "link_img": "https://live.staticflickr.com/65535/49889363407_9744875698_o.jpg",
    "id_image": "2018_rv_BMW_rv_M140i_rv_V5_rv_2000",
    "count_view": 0
  },
  {
    "link_thumb": "https://live.staticflickr.com/65535/49891289132_4f0ebfefed_n.jpg",
    "id_album": "-163958736",
    "description": "2002_rv_Mitsubishi_rv_Magna_rv_Ralliart_rv_V9_rv_1536",
    "title": "2002_rv_Mitsubishi_rv_Magna_rv_Ralliart_rv_V9_rv_1536",
    "link_img": "https://live.staticflickr.com/65535/49891289132_2585e2f62b_o.jpg",
    "id_image": "2002_rv_Mitsubishi_rv_Magna_rv_Ralliart_rv_V9_rv_1536",
    "count_view": 0
  },
  {
    "link_thumb": "https://live.staticflickr.com/65535/48119317716_40b8b7f863_n.jpg",
    "id_album": "990865885",
    "description": "McLaren_657487",
    "title": "McLaren_657487",
    "link_img": "https://live.staticflickr.com/65535/48119317716_6152a0f6a8_o.jpg",
    "id_image": "McLaren_657487",
    "count_view": 0
  },
  {
    "link_thumb": "https://live.staticflickr.com/65535/49890129098_6bf3126561_n.jpg",
    "id_album": "1873728602",
    "description": "2018_rv_McLaren_rv_P1_rv_GTR_rv_Senna_rv_V3_rv_2000",
    "title": "2018_rv_McLaren_rv_P1_rv_GTR_rv_Senna_rv_V3_rv_2000",
    "link_img": "https://live.staticflickr.com/65535/49890129098_7dedfa2551_o.jpg",
    "id_image": "2018_rv_McLaren_rv_P1_rv_GTR_rv_Senna_rv_V3_rv_2000",
    "count_view": 0
  },
  {
    "link_thumb": "https://live.staticflickr.com/65535/49891894823_1b7fa4fa65_n.jpg",
    "id_album": "874272507",
    "description": "2011_rv_Subaru_rv_BRZ_rv_STI_rv_Concept_rv_V5_rv_1440",
    "title": "2011_rv_Subaru_rv_BRZ_rv_STI_rv_Concept_rv_V5_rv_1440",
    "link_img": "https://live.staticflickr.com/65535/49891894823_5083d43f61_o.jpg",
    "id_image": "2011_rv_Subaru_rv_BRZ_rv_STI_rv_Concept_rv_V5_rv_1440",
    "count_view": 0
  },
  {
    "link_thumb": "https://live.staticflickr.com/65535/48122901498_2d9b07474f_n.jpg",
    "id_album": "-150952028",
    "description": "Volkswagen_249972",
    "title": "Volkswagen_249972",
    "link_img": "https://live.staticflickr.com/65535/48122901498_bb4f314b43_o.jpg",
    "id_image": "Volkswagen_249972",
    "count_view": 0
  },
  {
    "link_thumb": "https://live.staticflickr.com/65535/48116263941_67aba55728_n.jpg",
    "id_album": "1364506720",
    "description": "Ferrari_758277",
    "title": "Ferrari_758277",
    "link_img": "https://live.staticflickr.com/65535/48116263941_c8182a4896_o.jpg",
    "id_image": "Ferrari_758277",
    "count_view": 0
  },
  {
    "link_thumb": "https://live.staticflickr.com/65535/48118613792_95cacf56cd_n.jpg",
    "id_album": "-2100339805",
    "description": "Lamborghini_542684",
    "title": "Lamborghini_542684",
    "link_img": "https://live.staticflickr.com/65535/48118613792_9fb8d93a83_o.jpg",
    "id_image": "Lamborghini_542684",
    "count_view": 0
  },
  {
    "link_thumb": "https://live.staticflickr.com/65535/48115362322_fcb2a0cac2_n.jpg",
    "id_album": "413141323",
    "description": "Dodge_454679",
    "title": "Dodge_454679",
    "link_img": "https://live.staticflickr.com/65535/48115362322_d63b7547d2_o.jpg",
    "id_image": "Dodge_454679",
    "count_view": 0
  },
  {
    "link_thumb": "https://live.staticflickr.com/65535/48116631823_7e2a981bda_n.jpg",
    "id_album": "-1846404630",
    "description": "Ford_158937",
    "title": "Ford_158937",
    "link_img": "https://live.staticflickr.com/65535/48116631823_86c4cafd15_o.jpg",
    "id_image": "Ford_158937",
    "count_view": 0
  },
  {
    "link_thumb": "https://live.staticflickr.com/65535/48119223876_813b00ac9e_n.jpg",
    "id_album": "898314866",
    "description": "Mazda_704745",
    "title": "Mazda_704745",
    "link_img": "https://live.staticflickr.com/65535/48119223876_722efb20a0_o.jpg",
    "id_image": "Mazda_704745",
    "count_view": 0
  },
  {
    "link_thumb": "https://live.staticflickr.com/65535/48115559631_f0973ff561_n.jpg",
    "id_album": "594975066",
    "description": "Duesenberg_194932",
    "title": "Duesenberg_194932",
    "link_img": "https://live.staticflickr.com/65535/48115559631_339b4c2659_o.jpg",
    "id_image": "Duesenberg_194932",
    "count_view": 0
  },
  {
    "link_thumb": "https://live.staticflickr.com/65535/48112583668_59908e393e_n.jpg",
    "id_album": "2097036181",
    "description": "Bentley_494682",
    "title": "Bentley_494682",
    "link_img": "https://live.staticflickr.com/65535/48112583668_8ff95eb4a8_o.jpg",
    "id_image": "Bentley_494682",
    "count_view": 0
  },
  {
    "link_thumb": "https://live.staticflickr.com/65535/49890366207_17608f0d75_n.jpg",
    "id_album": "-1833334379",
    "description": "2011_rv_Koenigsegg_rv_Agera_rv_R_rv_V7_rv_1440",
    "title": "2011_rv_Koenigsegg_rv_Agera_rv_R_rv_V7_rv_1440",
    "link_img": "https://live.staticflickr.com/65535/49890366207_8d292cbb99_o.jpg",
    "id_image": "2011_rv_Koenigsegg_rv_Agera_rv_R_rv_V7_rv_1440",
    "count_view": 0
  },
  {
    "link_thumb": "https://live.staticflickr.com/65535/48120162478_3a96d24627_n.jpg",
    "id_album": "666438681",
    "description": "Motorcycles_175724",
    "title": "Motorcycles_175724",
    "link_img": "https://live.staticflickr.com/65535/48120162478_9b2ab752f9_o.jpg",
    "id_image": "Motorcycles_175724",
    "count_view": 0
  },
  {
    "link_thumb": "https://live.staticflickr.com/65535/49890236412_cc582a5d3a_n.jpg",
    "id_album": "-2000594684",
    "description": "2014_rv_Holden_rv_HSV_rv_Gen_rv_F_rv_V2_rv_1440",
    "title": "2014_rv_Holden_rv_HSV_rv_Gen_rv_F_rv_V2_rv_1440",
    "link_img": "https://live.staticflickr.com/65535/49890236412_ab115bf4f9_o.jpg",
    "id_image": "2014_rv_Holden_rv_HSV_rv_Gen_rv_F_rv_V2_rv_1440",
    "count_view": 0
  },
  {
    "link_thumb": "https://live.staticflickr.com/65535/49891004907_f942555195_n.jpg",
    "id_album": "-538739456",
    "description": "2019_rv_Mercedes_rv_AMG_rv_C63_rv_S_rv_V3_rv_2000",
    "title": "2019_rv_Mercedes_rv_AMG_rv_C63_rv_S_rv_V3_rv_2000",
    "link_img": "https://live.staticflickr.com/65535/49891004907_2293fc8867_o.jpg",
    "id_image": "2019_rv_Mercedes_rv_AMG_rv_C63_rv_S_rv_V3_rv_2000",
    "count_view": 0
  },
  {
    "link_thumb": "https://live.staticflickr.com/65535/48113272031_57264fe182_n.jpg",
    "id_album": "727633301",
    "description": "BMW_968289",
    "title": "BMW_968289",
    "link_img": "https://live.staticflickr.com/65535/48113272031_a502834b01_o.jpg",
    "id_image": "BMW_968289",
    "count_view": 0
  },
  {
    "link_thumb": "https://live.staticflickr.com/65535/48122798991_9d7a0d6768_n.jpg",
    "id_album": "1274920659",
    "description": "Toyota_919009",
    "title": "Toyota_919009",
    "link_img": "https://live.staticflickr.com/65535/48122798991_66eea50451_o.jpg",
    "id_image": "Toyota_919009",
    "count_view": 0
  },
  {
    "link_thumb": "https://live.staticflickr.com/65535/49892900322_d427877ccc_n.jpg",
    "id_album": "-57589574",
    "description": "2008_rv_Audi_rv_R8_rv_TDI_rv_Le_rv_Mans_rv_V3_rv_1536",
    "title": "2008_rv_Audi_rv_R8_rv_TDI_rv_Le_rv_Mans_rv_V3_rv_1536",
    "link_img": "https://live.staticflickr.com/65535/49892900322_309e87a2dd_o.jpg",
    "id_image": "2008_rv_Audi_rv_R8_rv_TDI_rv_Le_rv_Mans_rv_V3_rv_1536",
    "count_view": 0
  },
  {
    "link_thumb": "https://live.staticflickr.com/65535/48112959162_f8c7345995_n.jpg",
    "id_album": "727633301",
    "description": "BMW_483183",
    "title": "BMW_483183",
    "link_img": "https://live.staticflickr.com/65535/48112959162_317a3069c2_o.jpg",
    "id_image": "BMW_483183",
    "count_view": 0
  },
  {
    "link_thumb": "https://live.staticflickr.com/65535/49888852036_583fc910c3_n.jpg",
    "id_album": "410055115",
    "description": "2013_rv_Aston_rv_Martin_rv_DB9_rv_V6_rv_1440",
    "title": "2013_rv_Aston_rv_Martin_rv_DB9_rv_V6_rv_1440",
    "link_img": "https://live.staticflickr.com/65535/49888852036_4f1d1c5f21_o.jpg",
    "id_image": "2013_rv_Aston_rv_Martin_rv_DB9_rv_V6_rv_1440",
    "count_view": 0
  },
  {
    "link_thumb": "https://live.staticflickr.com/65535/48121505127_7aff25b143_n.jpg",
    "id_album": "-1178450892",
    "description": "Porsche_490797",
    "title": "Porsche_490797",
    "link_img": "https://live.staticflickr.com/65535/48121505127_5b378c2e1b_o.jpg",
    "id_image": "Porsche_490797",
    "count_view": 0
  },
  {
    "link_thumb": "https://live.staticflickr.com/65535/48118943701_5855142db8_n.jpg",
    "id_album": "446908717",
    "description": "Lexus_921386",
    "title": "Lexus_921386",
    "link_img": "https://live.staticflickr.com/65535/48118943701_3d26020c2e_o.jpg",
    "id_image": "Lexus_921386",
    "count_view": 0
  },
  {
    "link_thumb": "https://live.staticflickr.com/65535/49890469117_8b900fef4e_n.jpg",
    "id_album": "-936716449",
    "description": "2018_rv_Lamborghini_rv_Huracan_rv_Performante_rv_V5_rv_2000",
    "title": "2018_rv_Lamborghini_rv_Huracan_rv_Performante_rv_V5_rv_2000",
    "link_img": "https://live.staticflickr.com/65535/49890469117_6ba25a5ec3_o.jpg",
    "id_image": "2018_rv_Lamborghini_rv_Huracan_rv_Performante_rv_V5_rv_2000",
    "count_view": 0
  },
  {
    "link_thumb": "https://live.staticflickr.com/65535/48120706858_079a608d59_n.jpg",
    "id_album": "-6897294",
    "description": "Opel_319350",
    "title": "Opel_319350",
    "link_img": "https://live.staticflickr.com/65535/48120706858_36f3a3fed9_o.jpg",
    "id_image": "Opel_319350",
    "count_view": 0
  },
  {
    "link_thumb": "https://live.staticflickr.com/65535/49892454431_76970553f2_n.jpg",
    "id_album": "1717130925",
    "description": "2020_rv_Tesla_rv_Roadster_rv_V9_rv_2000",
    "title": "2020_rv_Tesla_rv_Roadster_rv_V9_rv_2000",
    "link_img": "https://live.staticflickr.com/65535/49892454431_34516dc8f4_o.jpg",
    "id_image": "2020_rv_Tesla_rv_Roadster_rv_V9_rv_2000",
    "count_view": 0
  },
  {
    "link_thumb": "https://live.staticflickr.com/65535/48123169212_ff8b4829af_n.jpg",
    "id_album": "-150952028",
    "description": "Volkswagen_924417",
    "title": "Volkswagen_924417",
    "link_img": "https://live.staticflickr.com/65535/48123169212_cd6380bd18_o.jpg",
    "id_image": "Volkswagen_924417",
    "count_view": 0
  },
  {
    "link_thumb": "https://live.staticflickr.com/65535/49889691713_d5021baab0_n.jpg",
    "id_album": "-819445038",
    "description": "2020_rv_Lamborghini_rv_Sian_rv_V10_rv_2160",
    "title": "2020_rv_Lamborghini_rv_Sian_rv_V10_rv_2160",
    "link_img": "https://live.staticflickr.com/65535/49889691713_cfd88ea561_o.jpg",
    "id_image": "2020_rv_Lamborghini_rv_Sian_rv_V10_rv_2160",
    "count_view": 0
  },
  {
    "link_thumb": "https://live.staticflickr.com/65535/48118319336_ee7aae57d9_n.jpg",
    "id_album": "-2100339805",
    "description": "Lamborghini_318535",
    "title": "Lamborghini_318535",
    "link_img": "https://live.staticflickr.com/65535/48118319336_c55c9e6b38_o.jpg",
    "id_image": "Lamborghini_318535",
    "count_view": 0
  },
  {
    "link_thumb": "https://live.staticflickr.com/65535/49890227477_b144501afc_n.jpg",
    "id_album": "-865647970",
    "description": "2017_rv_Honda_rv_NSX_rv_V5_rv_2000",
    "title": "2017_rv_Honda_rv_NSX_rv_V5_rv_2000",
    "link_img": "https://live.staticflickr.com/65535/49890227477_f6550925a5_o.jpg",
    "id_image": "2017_rv_Honda_rv_NSX_rv_V5_rv_2000",
    "count_view": 0
  },
  {
    "link_thumb": "https://live.staticflickr.com/65535/48116926773_6099233a4e_n.jpg",
    "id_album": "-1846404630",
    "description": "Ford_255560",
    "title": "Ford_255560",
    "link_img": "https://live.staticflickr.com/65535/48116926773_4c240e0137_o.jpg",
    "id_image": "Ford_255560",
    "count_view": 0
  },
  {
    "link_thumb": "https://live.staticflickr.com/65535/48116229077_6e5705855f_n.jpg",
    "id_album": "1364506720",
    "description": "Ferrari_648420",
    "title": "Ferrari_648420",
    "link_img": "https://live.staticflickr.com/65535/48116229077_b0168ba30e_o.jpg",
    "id_image": "Ferrari_648420",
    "count_view": 0
  },
  {
    "link_thumb": "https://live.staticflickr.com/65535/49888933863_dc80d71fa6_n.jpg",
    "id_album": "1069142825",
    "description": "1994_rv_Ferrari_rv_F355_rv_V1_rv_2160",
    "title": "1994_rv_Ferrari_rv_F355_rv_V1_rv_2160",
    "link_img": "https://live.staticflickr.com/65535/49888933863_c9cdac2fcd_o.jpg",
    "id_image": "1994_rv_Ferrari_rv_F355_rv_V1_rv_2160",
    "count_view": 0
  },
  {
    "link_thumb": "https://live.staticflickr.com/65535/48119243566_5bc58b7b6a_n.jpg",
    "id_album": "898314866",
    "description": "Mazda_937295",
    "title": "Mazda_937295",
    "link_img": "https://live.staticflickr.com/65535/48119243566_1dab228d95_o.jpg",
    "id_image": "Mazda_937295",
    "count_view": 0
  },
  {
    "link_thumb": "https://live.staticflickr.com/65535/48117607027_74c01a8a84_n.jpg",
    "id_album": "-1846404630",
    "description": "Ford_898024",
    "title": "Ford_898024",
    "link_img": "https://live.staticflickr.com/65535/48117607027_83256cb27a_o.jpg",
    "id_image": "Ford_898024",
    "count_view": 0
  },
  {
    "link_thumb": "https://live.staticflickr.com/65535/49889753211_f8a4f01151_n.jpg",
    "id_album": "-559101122",
    "description": "2002_rv_Chevrolet_rv_Camaro_rv_SS_rv_V4_rv_1440",
    "title": "2002_rv_Chevrolet_rv_Camaro_rv_SS_rv_V4_rv_1440",
    "link_img": "https://live.staticflickr.com/65535/49889753211_45bd02110e_o.jpg",
    "id_image": "2002_rv_Chevrolet_rv_Camaro_rv_SS_rv_V4_rv_1440",
    "count_view": 0
  },
  {
    "link_thumb": "https://live.staticflickr.com/65535/48113744243_292f7cd999_n.jpg",
    "id_album": "-1721545051",
    "description": "Chevrolet_170674",
    "title": "Chevrolet_170674",
    "link_img": "https://live.staticflickr.com/65535/48113744243_6ff5fb2aca_o.jpg",
    "id_image": "Chevrolet_170674",
    "count_view": 0
  },
  {
    "link_thumb": "https://live.staticflickr.com/65535/48121450711_eaa7da3383_n.jpg",
    "id_album": "-1178450892",
    "description": "Porsche_597622",
    "title": "Porsche_597622",
    "link_img": "https://live.staticflickr.com/65535/48121450711_f6cb93d889_o.jpg",
    "id_image": "Porsche_597622",
    "count_view": 0
  },
  {
    "link_thumb": "https://live.staticflickr.com/65535/48113377496_09c6cd520b_n.jpg",
    "id_album": "1456070666",
    "description": "Bugatti_383264",
    "title": "Bugatti_383264",
    "link_img": "https://live.staticflickr.com/65535/48113377496_26c12fa55c_o.jpg",
    "id_image": "Bugatti_383264",
    "count_view": 0
  },
  {
    "link_thumb": "https://live.staticflickr.com/65535/48114255716_b5a1638219_n.jpg",
    "id_album": "-1721545051",
    "description": "Chevrolet_449642",
    "title": "Chevrolet_449642",
    "link_img": "https://live.staticflickr.com/65535/48114255716_5f575998da_o.jpg",
    "id_image": "Chevrolet_449642",
    "count_view": 0
  },
  {
    "link_thumb": "https://live.staticflickr.com/65535/48120238276_e9015bdf02_n.jpg",
    "id_album": "666438681",
    "description": "Motorcycles_583260",
    "title": "Motorcycles_583260",
    "link_img": "https://live.staticflickr.com/65535/48120238276_a5d088948e_o.jpg",
    "id_image": "Motorcycles_583260",
    "count_view": 0
  },
  {
    "link_thumb": "https://live.staticflickr.com/65535/48118618381_7d0905cde8_n.jpg",
    "id_album": "-2100339805",
    "description": "Lamborghini_844259",
    "title": "Lamborghini_844259",
    "link_img": "https://live.staticflickr.com/65535/48118618381_770bf0d504_o.jpg",
    "id_image": "Lamborghini_844259",
    "count_view": 0
  },
  {
    "link_thumb": "https://live.staticflickr.com/65535/48112405971_22fed4d7fc_n.jpg",
    "id_album": "-15119147",
    "description": "Audi_844263",
    "title": "Audi_844263",
    "link_img": "https://live.staticflickr.com/65535/48112405971_8fdacab382_o.jpg",
    "id_image": "Audi_844263",
    "count_view": 0
  },
  {
    "link_thumb": "https://live.staticflickr.com/65535/49890149276_371abb423f_n.jpg",
    "id_album": "-936716449",
    "description": "2015_rv_Lamborghini_rv_Huracan_rv_LP_rv_620_rv_2_rv_Super_rv_Trofeo_rv_V4_rv_1600",
    "title": "2015_rv_Lamborghini_rv_Huracan_rv_LP_rv_620_rv_2_rv_Super_rv_Trofeo_rv_V4_rv_1600",
    "link_img": "https://live.staticflickr.com/65535/49890149276_dd4db3f909_o.jpg",
    "id_image": "2015_rv_Lamborghini_rv_Huracan_rv_LP_rv_620_rv_2_rv_Super_rv_Trofeo_rv_V4_rv_1600",
    "count_view": 0
  },
  {
    "link_thumb": "https://live.staticflickr.com/65535/48117011173_1a9c4e957e_n.jpg",
    "id_album": "-1846404630",
    "description": "Ford_297143",
    "title": "Ford_297143",
    "link_img": "https://live.staticflickr.com/65535/48117011173_7cc1448486_o.jpg",
    "id_image": "Ford_297143",
    "count_view": 0
  },
  {
    "link_thumb": "https://live.staticflickr.com/65535/49888582878_c1f06f92e0_n.jpg",
    "id_album": "-1839907838",
    "description": "2012_rv_BMW_rv_M5_rv_V2_rv_1536",
    "title": "2012_rv_BMW_rv_M5_rv_V2_rv_1536",
    "link_img": "https://live.staticflickr.com/65535/49888582878_29d334e029_o.jpg",
    "id_image": "2012_rv_BMW_rv_M5_rv_V2_rv_1536",
    "count_view": 0
  },
  {
    "link_thumb": "https://live.staticflickr.com/65535/48122542096_3841a27ded_n.jpg",
    "id_album": "1645818674",
    "description": "Suzuki_825115",
    "title": "Suzuki_825115",
    "link_img": "https://live.staticflickr.com/65535/48122542096_c3b3a8d8fd_o.jpg",
    "id_image": "Suzuki_825115",
    "count_view": 0
  },
  {
    "link_thumb": "https://live.staticflickr.com/65535/48116113931_cf8af9cc53_n.jpg",
    "id_album": "1364506720",
    "description": "Ferrari_600910",
    "title": "Ferrari_600910",
    "link_img": "https://live.staticflickr.com/65535/48116113931_920aa856af_o.jpg",
    "id_image": "Ferrari_600910",
    "count_view": 0
  },
  {
    "link_thumb": "https://live.staticflickr.com/65535/48122744706_1e7421b681_n.jpg",
    "id_album": "1274920659",
    "description": "Toyota_554885",
    "title": "Toyota_554885",
    "link_img": "https://live.staticflickr.com/65535/48122744706_084083cbce_o.jpg",
    "id_image": "Toyota_554885",
    "count_view": 0
  },
  {
    "link_thumb": "https://live.staticflickr.com/65535/48116115722_dcbcc65e63_n.jpg",
    "id_album": "1364506720",
    "description": "Ferrari_478891",
    "title": "Ferrari_478891",
    "link_img": "https://live.staticflickr.com/65535/48116115722_078f68be96_o.jpg",
    "id_image": "Ferrari_478891",
    "count_view": 0
  },
  {
    "link_thumb": "https://live.staticflickr.com/65535/48118237186_e39e5cac78_n.jpg",
    "id_album": "-2100339805",
    "description": "Lamborghini_207187",
    "title": "Lamborghini_207187",
    "link_img": "https://live.staticflickr.com/65535/48118237186_b9995920c7_o.jpg",
    "id_image": "Lamborghini_207187",
    "count_view": 0
  },
  {
    "link_thumb": "https://live.staticflickr.com/65535/49890733887_caf1c6c0da_n.jpg",
    "id_album": "1595003913",
    "description": "2005_rv_Maserati_rv_GranSport_rv_V4_rv_1440",
    "title": "2005_rv_Maserati_rv_GranSport_rv_V4_rv_1440",
    "link_img": "https://live.staticflickr.com/65535/49890733887_c31ebee370_o.jpg",
    "id_image": "2005_rv_Maserati_rv_GranSport_rv_V4_rv_1440",
    "count_view": 0
  },
  {
    "link_thumb": "https://live.staticflickr.com/65535/48120970403_c7703bb6e2_n.jpg",
    "id_album": "-1123679742",
    "description": "Plymouth_170832",
    "title": "Plymouth_170832",
    "link_img": "https://live.staticflickr.com/65535/48120970403_046c9e995b_o.jpg",
    "id_image": "Plymouth_170832",
    "count_view": 0
  },
  {
    "link_thumb": "https://live.staticflickr.com/65535/48119764386_855b419cc9_n.jpg",
    "id_album": "-731054311",
    "description": "MercedesBenz_738686",
    "title": "MercedesBenz_738686",
    "link_img": "https://live.staticflickr.com/65535/48119764386_955bde4312_o.jpg",
    "id_image": "MercedesBenz_738686",
    "count_view": 0
  },
  {
    "link_thumb": "https://live.staticflickr.com/65535/49889578921_658bb547a2_n.jpg",
    "id_album": "723144483",
    "description": "2019_rv_Ferrari_rv_Monza_rv_SP1_rv_V1_rv_2000",
    "title": "2019_rv_Ferrari_rv_Monza_rv_SP1_rv_V1_rv_2000",
    "link_img": "https://live.staticflickr.com/65535/49889578921_f868acb554_o.jpg",
    "id_image": "2019_rv_Ferrari_rv_Monza_rv_SP1_rv_V1_rv_2000",
    "count_view": 0
  },
  {
    "link_thumb": "https://live.staticflickr.com/65535/48118944503_40298baec8_n.jpg",
    "id_album": "446908717",
    "description": "Lexus_881143",
    "title": "Lexus_881143",
    "link_img": "https://live.staticflickr.com/65535/48118944503_9d4350d047_o.jpg",
    "id_image": "Lexus_881143",
    "count_view": 0
  },
  {
    "link_thumb": "https://live.staticflickr.com/65535/49891147536_333792c9a9_n.jpg",
    "id_album": "1428366981",
    "description": "2014_rv_Noble_rv_M600_rv_Coupe_rv_V2_rv_1600",
    "title": "2014_rv_Noble_rv_M600_rv_Coupe_rv_V2_rv_1600",
    "link_img": "https://live.staticflickr.com/65535/49891147536_df262b919a_o.jpg",
    "id_image": "2014_rv_Noble_rv_M600_rv_Coupe_rv_V2_rv_1600",
    "count_view": 0
  },
  {
    "link_thumb": "https://live.staticflickr.com/65535/48112007218_fd9b3c6608_n.jpg",
    "id_album": "1906325017",
    "description": "Infiniti_449815",
    "title": "Infiniti_449815",
    "link_img": "https://live.staticflickr.com/65535/48112007218_4acfe3458c_o.jpg",
    "id_image": "Infiniti_449815",
    "count_view": 0
  },
  {
    "link_thumb": "https://live.staticflickr.com/65535/48116862753_b4038945da_n.jpg",
    "id_album": "-1846404630",
    "description": "Ford_244501",
    "title": "Ford_244501",
    "link_img": "https://live.staticflickr.com/65535/48116862753_58196f52e4_o.jpg",
    "id_image": "Ford_244501",
    "count_view": 0
  },
  {
    "link_thumb": "https://live.staticflickr.com/65535/48114109316_c9739e2e00_n.jpg",
    "id_album": "-1721545051",
    "description": "Chevrolet_318119",
    "title": "Chevrolet_318119",
    "link_img": "https://live.staticflickr.com/65535/48114109316_dd6d8c1b58_o.jpg",
    "id_image": "Chevrolet_318119",
    "count_view": 0
  },
  {
    "link_thumb": "https://live.staticflickr.com/65535/49889526451_dc6e8c0236_n.jpg",
    "id_album": "-64617260",
    "description": "2015_rv_Ferrari_rv_California_rv_T_rv_V14_rv_1600",
    "title": "2015_rv_Ferrari_rv_California_rv_T_rv_V14_rv_1600",
    "link_img": "https://live.staticflickr.com/65535/49889526451_8247bb30da_o.jpg",
    "id_image": "2015_rv_Ferrari_rv_California_rv_T_rv_V14_rv_1600",
    "count_view": 0
  },
  {
    "link_thumb": "https://live.staticflickr.com/65535/49041116512_8940b3bdfa_n.jpg",
    "id_album": "-495894181",
    "description": "AlfaRomeo_382120",
    "title": "AlfaRomeo_382120",
    "link_img": "https://live.staticflickr.com/65535/49041116512_3ba392f5a7_o.jpg",
    "id_image": "AlfaRomeo_382120",
    "count_view": 0
  },
  {
    "link_thumb": "https://live.staticflickr.com/65535/48112962192_a7d4f61b4f_n.jpg",
    "id_album": "727633301",
    "description": "BMW_484345",
    "title": "BMW_484345",
    "link_img": "https://live.staticflickr.com/65535/48112962192_1d998c8b7a_o.jpg",
    "id_image": "BMW_484345",
    "count_view": 0
  },
  {
    "link_thumb": "https://live.staticflickr.com/65535/48114775476_06efcc9d9b_n.jpg",
    "id_album": "939606447",
    "description": "Chrysler_497367",
    "title": "Chrysler_497367",
    "link_img": "https://live.staticflickr.com/65535/48114775476_2ea9f82bf7_o.jpg",
    "id_image": "Chrysler_497367",
    "count_view": 0
  },
  {
    "link_thumb": "https://live.staticflickr.com/65535/48121525263_6f57ce6d0c_n.jpg",
    "id_album": "-1178450892",
    "description": "Porsche_613272",
    "title": "Porsche_613272",
    "link_img": "https://live.staticflickr.com/65535/48121525263_0a0fb29440_o.jpg",
    "id_image": "Porsche_613272",
    "count_view": 0
  },
  {
    "link_thumb": "https://live.staticflickr.com/65535/48113510133_1278c6fb63_n.jpg",
    "id_album": "1246496342",
    "description": "Buick_288545",
    "title": "Buick_288545",
    "link_img": "https://live.staticflickr.com/65535/48113510133_9613fc5091_o.jpg",
    "id_image": "Buick_288545",
    "count_view": 0
  },
  {
    "link_thumb": "https://live.staticflickr.com/65535/49889783901_e1a5858e96_n.jpg",
    "id_album": "-1987353642",
    "description": "2015_rv_Galpin_rv_Auto_rv_Sports_rv_Rocket_rv_V3_rv_1600",
    "title": "2015_rv_Galpin_rv_Auto_rv_Sports_rv_Rocket_rv_V3_rv_1600",
    "link_img": "https://live.staticflickr.com/65535/49889783901_0b1a6a29ef_o.jpg",
    "id_image": "2015_rv_Galpin_rv_Auto_rv_Sports_rv_Rocket_rv_V3_rv_1600",
    "count_view": 0
  },
  {
    "link_thumb": "https://live.staticflickr.com/65535/48121504192_bb671e3be9_n.jpg",
    "id_album": "-1178450892",
    "description": "Porsche_490794",
    "title": "Porsche_490794",
    "link_img": "https://live.staticflickr.com/65535/48121504192_c9fb9af3c9_o.jpg",
    "id_image": "Porsche_490794",
    "count_view": 0
  },
  {
    "link_thumb": "https://live.staticflickr.com/65535/49888988343_d9bc10b7c8_n.jpg",
    "id_album": "1069273903",
    "description": "2005_rv_Ferrari_rv_575M_rv_Superamerica_rv_V4_rv_1600",
    "title": "2005_rv_Ferrari_rv_575M_rv_Superamerica_rv_V4_rv_1600",
    "link_img": "https://live.staticflickr.com/65535/49888988343_0fe1ba52c4_o.jpg",
    "id_image": "2005_rv_Ferrari_rv_575M_rv_Superamerica_rv_V4_rv_1600",
    "count_view": 0
  },
  {
    "link_thumb": "https://live.staticflickr.com/65535/48118831491_bcdfbe5fa2_n.jpg",
    "id_album": "446908717",
    "description": "Lexus_188125",
    "title": "Lexus_188125",
    "link_img": "https://live.staticflickr.com/65535/48118831491_735ae11abc_o.jpg",
    "id_image": "Lexus_188125",
    "count_view": 0
  },
  {
    "link_thumb": "https://live.staticflickr.com/65535/48112422391_75a3c2f2ca_n.jpg",
    "id_album": "-15119147",
    "description": "Audi_892578",
    "title": "Audi_892578",
    "link_img": "https://live.staticflickr.com/65535/48112422391_e6aea83e37_o.jpg",
    "id_image": "Audi_892578",
    "count_view": 0
  },
  {
    "link_thumb": "https://live.staticflickr.com/65535/49889700087_2c8b423e6a_n.jpg",
    "id_album": "715958079",
    "description": "2020_rv_Formula1_rv_Mercedes_rv_AMG_rv_W11_rv_EQ_rv_Performance_rv_V4_rv_2160",
    "title": "2020_rv_Formula1_rv_Mercedes_rv_AMG_rv_W11_rv_EQ_rv_Performance_rv_V4_rv_2160",
    "link_img": "https://live.staticflickr.com/65535/49889700087_3ecec1a796_o.jpg",
    "id_image": "2020_rv_Formula1_rv_Mercedes_rv_AMG_rv_W11_rv_EQ_rv_Performance_rv_V4_rv_2160",
    "count_view": 0
  },
  {
    "link_thumb": "https://live.staticflickr.com/65535/48123167848_468c805135_n.jpg",
    "id_album": "1159292543",
    "description": "Volvo_465548",
    "title": "Volvo_465548",
    "link_img": "https://live.staticflickr.com/65535/48123167848_97b8460ecd_o.jpg",
    "id_image": "Volvo_465548",
    "count_view": 0
  },
  {
    "link_thumb": "https://live.staticflickr.com/65535/48120912187_cae2fac09a_n.jpg",
    "id_album": "1965631892",
    "description": "Peugeot_100469",
    "title": "Peugeot_100469",
    "link_img": "https://live.staticflickr.com/65535/48120912187_5e590bb55c_o.jpg",
    "id_image": "Peugeot_100469",
    "count_view": 0
  },
  {
    "link_thumb": "https://live.staticflickr.com/65535/48116700076_437b69d9d9_n.jpg",
    "id_album": "-1846404630",
    "description": "Ford_189732",
    "title": "Ford_189732",
    "link_img": "https://live.staticflickr.com/65535/48116700076_346c86cd2f_o.jpg",
    "id_image": "Ford_189732",
    "count_view": 0
  },
  {
    "link_thumb": "https://live.staticflickr.com/65535/48117083776_1d4057c4dd_n.jpg",
    "id_album": "-1846404630",
    "description": "Ford_395032",
    "title": "Ford_395032",
    "link_img": "https://live.staticflickr.com/65535/48117083776_f15c46cc0e_o.jpg",
    "id_image": "Ford_395032",
    "count_view": 0
  },
  {
    "link_thumb": "https://live.staticflickr.com/65535/49890763172_1d3079a9bf_n.jpg",
    "id_album": "1935587636",
    "description": "2015_rv_Mazda_rv_RX_rv_Vision_rv_Concept_rv_V1_rv_1600",
    "title": "2015_rv_Mazda_rv_RX_rv_Vision_rv_Concept_rv_V1_rv_1600",
    "link_img": "https://live.staticflickr.com/65535/49890763172_7bec1ce389_o.jpg",
    "id_image": "2015_rv_Mazda_rv_RX_rv_Vision_rv_Concept_rv_V1_rv_1600",
    "count_view": 0
  },
  {
    "link_thumb": "https://live.staticflickr.com/65535/49889345232_e13df57b33_n.jpg",
    "id_album": "915915336",
    "description": "2017_rv_Bentley_rv_Flying_rv_Spur_rv_W12_rv_S_rv_V1_rv_2000",
    "title": "2017_rv_Bentley_rv_Flying_rv_Spur_rv_W12_rv_S_rv_V1_rv_2000",
    "link_img": "https://live.staticflickr.com/65535/49889345232_35bfdf1c99_o.jpg",
    "id_image": "2017_rv_Bentley_rv_Flying_rv_Spur_rv_W12_rv_S_rv_V1_rv_2000",
    "count_view": 0
  },
  {
    "link_thumb": "https://live.staticflickr.com/65535/48123077776_d38efef746_n.jpg",
    "id_album": "-150952028",
    "description": "Volkswagen_940432",
    "title": "Volkswagen_940432",
    "link_img": "https://live.staticflickr.com/65535/48123077776_73ec90a8f4_o.jpg",
    "id_image": "Volkswagen_940432",
    "count_view": 0
  },
  {
    "link_thumb": "https://live.staticflickr.com/65535/49892571641_055dbe4326_n.jpg",
    "id_album": "-1220388988",
    "description": "2010_rv_Audi_rv_R8_rv_GT_rv_V1_rv_1440",
    "title": "2010_rv_Audi_rv_R8_rv_GT_rv_V1_rv_1440",
    "link_img": "https://live.staticflickr.com/65535/49892571641_f7f133a5e3_o.jpg",
    "id_image": "2010_rv_Audi_rv_R8_rv_GT_rv_V1_rv_1440",
    "count_view": 0
  },
  {
    "link_thumb": "https://live.staticflickr.com/65535/49889212756_dc17c89fa5_n.jpg",
    "id_album": "-1678364421",
    "description": "2017_rv_Bugatti_rv_Chiron_rv_V10_rv_2000",
    "title": "2017_rv_Bugatti_rv_Chiron_rv_V10_rv_2000",
    "link_img": "https://live.staticflickr.com/65535/49889212756_4b05c48c7c_o.jpg",
    "id_image": "2017_rv_Bugatti_rv_Chiron_rv_V10_rv_2000",
    "count_view": 0
  },
  {
    "link_thumb": "https://live.staticflickr.com/65535/48119682281_3dc0cc4ef8_n.jpg",
    "id_album": "-731054311",
    "description": "MercedesBenz_480600",
    "title": "MercedesBenz_480600",
    "link_img": "https://live.staticflickr.com/65535/48119682281_db1e6688f3_o.jpg",
    "id_image": "MercedesBenz_480600",
    "count_view": 0
  },
  {
    "link_thumb": "https://live.staticflickr.com/65535/48117416893_dfd983cee4_n.jpg",
    "id_album": "-1846404630",
    "description": "Ford_698531",
    "title": "Ford_698531",
    "link_img": "https://live.staticflickr.com/65535/48117416893_75b401a4c0_o.jpg",
    "id_image": "Ford_698531",
    "count_view": 0
  },
  {
    "link_thumb": "https://live.staticflickr.com/65535/48120620863_6f8574fdb0_n.jpg",
    "id_album": "810634050",
    "description": "Nissan_906625",
    "title": "Nissan_906625",
    "link_img": "https://live.staticflickr.com/65535/48120620863_6873040459_o.jpg",
    "id_image": "Nissan_906625",
    "count_view": 0
  },
  {
    "link_thumb": "https://live.staticflickr.com/65535/48112430136_546dca0fd1_n.jpg",
    "id_album": "-15119147",
    "description": "Audi_906802",
    "title": "Audi_906802",
    "link_img": "https://live.staticflickr.com/65535/48112430136_3636d54a60_o.jpg",
    "id_image": "Audi_906802",
    "count_view": 0
  },
  {
    "link_thumb": "https://live.staticflickr.com/65535/48121741782_527c190c5c_n.jpg",
    "id_album": "-1178450892",
    "description": "Porsche_829267",
    "title": "Porsche_829267",
    "link_img": "https://live.staticflickr.com/65535/48121741782_bf7392111f_o.jpg",
    "id_image": "Porsche_829267",
    "count_view": 0
  },
  {
    "link_thumb": "https://live.staticflickr.com/65535/48119112487_573b22807f_n.jpg",
    "id_album": "-1153253263",
    "description": "Lotus_631119",
    "title": "Lotus_631119",
    "link_img": "https://live.staticflickr.com/65535/48119112487_93f5c10b87_o.jpg",
    "id_image": "Lotus_631119",
    "count_view": 0
  },
  {
    "link_thumb": "https://live.staticflickr.com/65535/48114432677_e0886d1fd6_n.jpg",
    "id_album": "-1721545051",
    "description": "Chevrolet_502339",
    "title": "Chevrolet_502339",
    "link_img": "https://live.staticflickr.com/65535/48114432677_c081d5b447_o.jpg",
    "id_image": "Chevrolet_502339",
    "count_view": 0
  },
  {
    "link_thumb": "https://live.staticflickr.com/65535/48120380692_6506f8fc72_n.jpg",
    "id_album": "666438681",
    "description": "Motorcycles_941134",
    "title": "Motorcycles_941134",
    "link_img": "https://live.staticflickr.com/65535/48120380692_89d9599837_o.jpg",
    "id_image": "Motorcycles_941134",
    "count_view": 0
  },
  {
    "link_thumb": "https://live.staticflickr.com/65535/49893010677_5374f8d25e_n.jpg",
    "id_album": "-1490990769",
    "description": "2016_rv_Vorsteiner_rv_Porsche_rv_Cayman_rv_GT4_rv_V_rv_CS_rv_Aero_rv_V1_rv_2000",
    "title": "2016_rv_Vorsteiner_rv_Porsche_rv_Cayman_rv_GT4_rv_V_rv_CS_rv_Aero_rv_V1_rv_2000",
    "link_img": "https://live.staticflickr.com/65535/49893010677_3d5e6e231f_o.jpg",
    "id_image": "2016_rv_Vorsteiner_rv_Porsche_rv_Cayman_rv_GT4_rv_V_rv_CS_rv_Aero_rv_V1_rv_2000",
    "count_view": 0
  },
  {
    "link_thumb": "https://live.staticflickr.com/65535/48120468667_f7efa759ce_n.jpg",
    "id_album": "810634050",
    "description": "Nissan_319339",
    "title": "Nissan_319339",
    "link_img": "https://live.staticflickr.com/65535/48120468667_3739fd44a0_o.jpg",
    "id_image": "Nissan_319339",
    "count_view": 0
  },
  {
    "link_thumb": "https://live.staticflickr.com/65535/48119241627_d78ec436fe_n.jpg",
    "id_album": "697984456",
    "description": "Maserati_895946",
    "title": "Maserati_895946",
    "link_img": "https://live.staticflickr.com/65535/48119241627_632e7928d5_o.jpg",
    "id_image": "Maserati_895946",
    "count_view": 0
  },
  {
    "link_thumb": "https://live.staticflickr.com/65535/48112060073_23dd50ed44_n.jpg",
    "id_album": "-843028318",
    "description": "Jaguar_323284",
    "title": "Jaguar_323284",
    "link_img": "https://live.staticflickr.com/65535/48112060073_3665d8c952_o.jpg",
    "id_image": "Jaguar_323284",
    "count_view": 0
  },
  {
    "link_thumb": "https://live.staticflickr.com/65535/49888807998_1530996281_n.jpg",
    "id_album": "42071222",
    "description": "2011_rv_Chevrolet_rv_COPO_rv_Camaro_rv_Concept_rv_V2_rv_1440",
    "title": "2011_rv_Chevrolet_rv_COPO_rv_Camaro_rv_Concept_rv_V2_rv_1440",
    "link_img": "https://live.staticflickr.com/65535/49888807998_f24f7ede6e_o.jpg",
    "id_image": "2011_rv_Chevrolet_rv_COPO_rv_Camaro_rv_Concept_rv_V2_rv_1440",
    "count_view": 0
  },
  {
    "link_thumb": "https://live.staticflickr.com/65535/48113491058_0a6b11c1ce_n.jpg",
    "id_album": "1456070666",
    "description": "Bugatti_958083",
    "title": "Bugatti_958083",
    "link_img": "https://live.staticflickr.com/65535/48113491058_eea59db32b_o.jpg",
    "id_image": "Bugatti_958083",
    "count_view": 0
  },
  {
    "link_thumb": "https://live.staticflickr.com/65535/48113078722_ae2025fee5_n.jpg",
    "id_album": "727633301",
    "description": "BMW_549773",
    "title": "BMW_549773",
    "link_img": "https://live.staticflickr.com/65535/48113078722_3c700feaa3_o.jpg",
    "id_image": "BMW_549773",
    "count_view": 0
  },
  {
    "link_thumb": "https://live.staticflickr.com/65535/49890675411_60c1527ffa_n.jpg",
    "id_album": "-538739456",
    "description": "2012_rv_Mercedes_rv_Benz_rv_C63_rv_AMG_rv_Coupe_rv_Black_rv_V2_rv_1536",
    "title": "2012_rv_Mercedes_rv_Benz_rv_C63_rv_AMG_rv_Coupe_rv_Black_rv_V2_rv_1536",
    "link_img": "https://live.staticflickr.com/65535/49890675411_31f19c2fe0_o.jpg",
    "id_image": "2012_rv_Mercedes_rv_Benz_rv_C63_rv_AMG_rv_Coupe_rv_Black_rv_V2_rv_1536",
    "count_view": 0
  },
  {
    "link_thumb": "https://live.staticflickr.com/65535/48118645543_922957f626_n.jpg",
    "id_album": "-2100339805",
    "description": "Lamborghini_841085",
    "title": "Lamborghini_841085",
    "link_img": "https://live.staticflickr.com/65535/48118645543_e98ae99190_o.jpg",
    "id_image": "Lamborghini_841085",
    "count_view": 0
  },
  {
    "link_thumb": "https://live.staticflickr.com/65535/48122232068_3a95ed0fc1_n.jpg",
    "id_album": "1536700661",
    "description": "RollsRoyce_993111",
    "title": "RollsRoyce_993111",
    "link_img": "https://live.staticflickr.com/65535/48122232068_e8bd941a86_o.jpg",
    "id_image": "RollsRoyce_993111",
    "count_view": 0
  },
  {
    "link_thumb": "https://live.staticflickr.com/65535/48112489836_1da9f0a92e_n.jpg",
    "id_album": "2097036181",
    "description": "Bentley_187403",
    "title": "Bentley_187403",
    "link_img": "https://live.staticflickr.com/65535/48112489836_5ab15d9251_o.jpg",
    "id_image": "Bentley_187403",
    "count_view": 0
  },
  {
    "link_thumb": "https://live.staticflickr.com/65535/48117490073_db7d0aa1db_n.jpg",
    "id_album": "-1846404630",
    "description": "Ford_778819",
    "title": "Ford_778819",
    "link_img": "https://live.staticflickr.com/65535/48117490073_b55ae345f8_o.jpg",
    "id_image": "Ford_778819",
    "count_view": 0
  },
  {
    "link_thumb": "https://live.staticflickr.com/65535/48113415451_1e5649027b_n.jpg",
    "id_album": "1456070666",
    "description": "Bugatti_587517",
    "title": "Bugatti_587517",
    "link_img": "https://live.staticflickr.com/65535/48113415451_b84ae8aabe_o.jpg",
    "id_image": "Bugatti_587517",
    "count_view": 0
  },
  {
    "link_thumb": "https://live.staticflickr.com/65535/48118377943_22fc585411_n.jpg",
    "id_album": "-2100339805",
    "description": "Lamborghini_326569",
    "title": "Lamborghini_326569",
    "link_img": "https://live.staticflickr.com/65535/48118377943_a89a9c0fa6_o.jpg",
    "id_image": "Lamborghini_326569",
    "count_view": 0
  },
  {
    "link_thumb": "https://live.staticflickr.com/65535/48114437732_a772074980_n.jpg",
    "id_album": "-1721545051",
    "description": "Chevrolet_503015",
    "title": "Chevrolet_503015",
    "link_img": "https://live.staticflickr.com/65535/48114437732_b8f5b46226_o.jpg",
    "id_image": "Chevrolet_503015",
    "count_view": 0
  },
  {
    "link_thumb": "https://live.staticflickr.com/65535/48115274136_e8169ebb68_n.jpg",
    "id_album": "413141323",
    "description": "Dodge_454689",
    "title": "Dodge_454689",
    "link_img": "https://live.staticflickr.com/65535/48115274136_1d623e97f4_o.jpg",
    "id_image": "Dodge_454689",
    "count_view": 0
  },
  {
    "link_thumb": "https://live.staticflickr.com/65535/48119044123_146cf1da01_n.jpg",
    "id_album": "-1153253263",
    "description": "Lotus_348398",
    "title": "Lotus_348398",
    "link_img": "https://live.staticflickr.com/65535/48119044123_d4d785a177_o.jpg",
    "id_image": "Lotus_348398",
    "count_view": 0
  },
  {
    "link_thumb": "https://live.staticflickr.com/65535/48112993883_ceab7a4b24_n.jpg",
    "id_album": "727633301",
    "description": "BMW_505682",
    "title": "BMW_505682",
    "link_img": "https://live.staticflickr.com/65535/48112993883_bc92677e50_o.jpg",
    "id_image": "BMW_505682",
    "count_view": 0
  },
  {
    "link_thumb": "https://live.staticflickr.com/65535/49040954811_282e07bbe5_n.jpg",
    "id_album": "-1428556500",
    "description": "AlfaRomeo_574480",
    "title": "AlfaRomeo_574480",
    "link_img": "https://live.staticflickr.com/65535/49040954811_74fc81b28a_o.jpg",
    "id_image": "AlfaRomeo_574480",
    "count_view": 0
  },
  {
    "link_thumb": "https://live.staticflickr.com/65535/48117605698_0dc1ab50ba_n.jpg",
    "id_album": "-1846404630",
    "description": "Ford_931622",
    "title": "Ford_931622",
    "link_img": "https://live.staticflickr.com/65535/48117605698_1b38bfa348_o.jpg",
    "id_image": "Ford_931622",
    "count_view": 0
  },
  {
    "link_thumb": "https://live.staticflickr.com/65535/48119595503_c96173489f_n.jpg",
    "id_album": "-731054311",
    "description": "MercedesBenz_273690",
    "title": "MercedesBenz_273690",
    "link_img": "https://live.staticflickr.com/65535/48119595503_e151f03a3a_o.jpg",
    "id_image": "MercedesBenz_273690",
    "count_view": 0
  },
  {
    "link_thumb": "https://live.staticflickr.com/65535/49889433027_53fd845081_n.jpg",
    "id_album": "-1839908265",
    "description": "1989_rv_BMW_rv_8_rv_Series_rv_V3_rv_1440",
    "title": "1989_rv_BMW_rv_8_rv_Series_rv_V3_rv_1440",
    "link_img": "https://live.staticflickr.com/65535/49889433027_4f1cfb779b_o.jpg",
    "id_image": "1989_rv_BMW_rv_8_rv_Series_rv_V3_rv_1440",
    "count_view": 0
  },
  {
    "link_thumb": "https://live.staticflickr.com/65535/48116350667_a9680a5d4c_n.jpg",
    "id_album": "1364506720",
    "description": "Ferrari_758259",
    "title": "Ferrari_758259",
    "link_img": "https://live.staticflickr.com/65535/48116350667_8a92772d06_o.jpg",
    "id_image": "Ferrari_758259",
    "count_view": 0
  },
  {
    "link_thumb": "https://live.staticflickr.com/65535/48120938796_5011e14e4d_n.jpg",
    "id_album": "-1123679742",
    "description": "Plymouth_173719",
    "title": "Plymouth_173719",
    "link_img": "https://live.staticflickr.com/65535/48120938796_ff6da23772_o.jpg",
    "id_image": "Plymouth_173719",
    "count_view": 0
  },
  {
    "link_thumb": "https://live.staticflickr.com/65535/48114735627_a0d799e282_n.jpg",
    "id_album": "-1721545051",
    "description": "Chevrolet_911771",
    "title": "Chevrolet_911771",
    "link_img": "https://live.staticflickr.com/65535/48114735627_6981194623_o.jpg",
    "id_image": "Chevrolet_911771",
    "count_view": 0
  },
  {
    "link_thumb": "https://live.staticflickr.com/65535/48115876652_3cbe34105a_n.jpg",
    "id_album": "1364506720",
    "description": "Ferrari_317731",
    "title": "Ferrari_317731",
    "link_img": "https://live.staticflickr.com/65535/48115876652_1342561922_o.jpg",
    "id_image": "Ferrari_317731",
    "count_view": 0
  },
  {
    "link_thumb": "https://live.staticflickr.com/65535/49889634183_510eed7ec9_n.jpg",
    "id_album": "-936716449",
    "description": "2015_rv_Lamborghini_rv_Huracan_rv_LP610_rv_4_rv_V16_rv_2160",
    "title": "2015_rv_Lamborghini_rv_Huracan_rv_LP610_rv_4_rv_V16_rv_2160",
    "link_img": "https://live.staticflickr.com/65535/49889634183_379d1d71a0_o.jpg",
    "id_image": "2015_rv_Lamborghini_rv_Huracan_rv_LP610_rv_4_rv_V16_rv_2160",
    "count_view": 0
  },
  {
    "link_thumb": "https://live.staticflickr.com/65535/49889711916_dc1301bf25_n.jpg",
    "id_album": "1345325637",
    "description": "2016_rv_Ford_rv_Focus_rv_RS_rv_V10_rv_2000",
    "title": "2016_rv_Ford_rv_Focus_rv_RS_rv_V10_rv_2000",
    "link_img": "https://live.staticflickr.com/65535/49889711916_b48819f65b_o.jpg",
    "id_image": "2016_rv_Ford_rv_Focus_rv_RS_rv_V10_rv_2000",
    "count_view": 0
  },
  {
    "link_thumb": "https://live.staticflickr.com/65535/48120640958_718459fde8_n.jpg",
    "id_album": "810634050",
    "description": "Nissan_930958",
    "title": "Nissan_930958",
    "link_img": "https://live.staticflickr.com/65535/48120640958_a765c2b2e9_o.jpg",
    "id_image": "Nissan_930958",
    "count_view": 0
  },
  {
    "link_thumb": "https://live.staticflickr.com/65535/49890931051_38f62d69ca_n.jpg",
    "id_album": "-1503939287",
    "description": "2014_rv_Mini_rv_Superleggera_rv_Vision_rv_Concept_rv_V1_rv_1600",
    "title": "2014_rv_Mini_rv_Superleggera_rv_Vision_rv_Concept_rv_V1_rv_1600",
    "link_img": "https://live.staticflickr.com/65535/49890931051_d28bc45d47_o.jpg",
    "id_image": "2014_rv_Mini_rv_Superleggera_rv_Vision_rv_Concept_rv_V1_rv_1600",
    "count_view": 0
  },
  {
    "link_thumb": "https://live.staticflickr.com/65535/48118970878_570be95a64_n.jpg",
    "id_album": "446908717",
    "description": "Lexus_920599",
    "title": "Lexus_920599",
    "link_img": "https://live.staticflickr.com/65535/48118970878_e3d018e498_o.jpg",
    "id_image": "Lexus_920599",
    "count_view": 0
  },
  {
    "link_thumb": "https://live.staticflickr.com/65535/48112555231_6ed6c46a89_n.jpg",
    "id_album": "2097036181",
    "description": "Bentley_823547",
    "title": "Bentley_823547",
    "link_img": "https://live.staticflickr.com/65535/48112555231_c6aa261af7_o.jpg",
    "id_image": "Bentley_823547",
    "count_view": 0
  },
  {
    "link_thumb": "https://live.staticflickr.com/65535/48112119832_153e16a439_n.jpg",
    "id_album": "-843028318",
    "description": "Jaguar_280464",
    "title": "Jaguar_280464",
    "link_img": "https://live.staticflickr.com/65535/48112119832_5fb30f012e_o.jpg",
    "id_image": "Jaguar_280464",
    "count_view": 0
  },
  {
    "link_thumb": "https://live.staticflickr.com/65535/49889675147_39a4fbf8cb_n.jpg",
    "id_album": "-39098563",
    "description": "2010_rv_Eagle_rv_Speedster_rv_V4_rv_1600",
    "title": "2010_rv_Eagle_rv_Speedster_rv_V4_rv_1600",
    "link_img": "https://live.staticflickr.com/65535/49889675147_c6710224d9_o.jpg",
    "id_image": "2010_rv_Eagle_rv_Speedster_rv_V4_rv_1600",
    "count_view": 0
  },
  {
    "link_thumb": "https://live.staticflickr.com/65535/48113628207_9c1697a2b8_n.jpg",
    "id_album": "-680120434",
    "description": "Cadillac_254245",
    "title": "Cadillac_254245",
    "link_img": "https://live.staticflickr.com/65535/48113628207_b34e989ce5_o.jpg",
    "id_image": "Cadillac_254245",
    "count_view": 0
  },
  {
    "link_thumb": "https://live.staticflickr.com/65535/48118880913_d1f703504f_n.jpg",
    "id_album": "446908717",
    "description": "Lexus_256396",
    "title": "Lexus_256396",
    "link_img": "https://live.staticflickr.com/65535/48118880913_db61b155e2_o.jpg",
    "id_image": "Lexus_256396",
    "count_view": 0
  },
  {
    "link_thumb": "https://live.staticflickr.com/65535/49890574683_d4c4e997d2_n.jpg",
    "id_album": "511911558",
    "description": "2015_rv_Nissan_rv_370Z_rv_Nismo_rv_Roadster_rv_Concept_rv_V1_rv_1600",
    "title": "2015_rv_Nissan_rv_370Z_rv_Nismo_rv_Roadster_rv_Concept_rv_V1_rv_1600",
    "link_img": "https://live.staticflickr.com/65535/49890574683_3dd66c07f7_o.jpg",
    "id_image": "2015_rv_Nissan_rv_370Z_rv_Nismo_rv_Roadster_rv_Concept_rv_V1_rv_1600",
    "count_view": 0
  },
  {
    "link_thumb": "https://live.staticflickr.com/65535/48118339653_5d3dbb69f4_n.jpg",
    "id_album": "-2100339805",
    "description": "Lamborghini_315118",
    "title": "Lamborghini_315118",
    "link_img": "https://live.staticflickr.com/65535/48118339653_63a4761117_o.jpg",
    "id_image": "Lamborghini_315118",
    "count_view": 0
  },
  {
    "link_thumb": "https://live.staticflickr.com/65535/48112444033_84387b63ff_n.jpg",
    "id_album": "-15119147",
    "description": "Audi_828064",
    "title": "Audi_828064",
    "link_img": "https://live.staticflickr.com/65535/48112444033_97b61d4f1f_o.jpg",
    "id_image": "Audi_828064",
    "count_view": 0
  },
  {
    "link_thumb": "https://live.staticflickr.com/65535/49891568242_7836c8d79e_n.jpg",
    "id_album": "-925276176",
    "description": "2006_rv_Peugeot_rv_908_rv_RC_rv_Concept_rv_V3_rv_1440",
    "title": "2006_rv_Peugeot_rv_908_rv_RC_rv_Concept_rv_V3_rv_1440",
    "link_img": "https://live.staticflickr.com/65535/49891568242_a4ee0e58cc_o.jpg",
    "id_image": "2006_rv_Peugeot_rv_908_rv_RC_rv_Concept_rv_V3_rv_1440",
    "count_view": 0
  },
  {
    "link_thumb": "https://live.staticflickr.com/65535/48120170691_2f23bb6863_n.jpg",
    "id_album": "666438681",
    "description": "Motorcycles_249654",
    "title": "Motorcycles_249654",
    "link_img": "https://live.staticflickr.com/65535/48120170691_f50a634a11_o.jpg",
    "id_image": "Motorcycles_249654",
    "count_view": 0
  },
  {
    "link_thumb": "https://live.staticflickr.com/65535/48121292186_ff1cb7edc0_n.jpg",
    "id_album": "-1178450892",
    "description": "Porsche_289423",
    "title": "Porsche_289423",
    "link_img": "https://live.staticflickr.com/65535/48121292186_429a43d09e_o.jpg",
    "id_image": "Porsche_289423",
    "count_view": 0
  },
  {
    "link_thumb": "https://live.staticflickr.com/65535/48117380012_a57de529b6_n.jpg",
    "id_album": "-1846404630",
    "description": "Ford_515089",
    "title": "Ford_515089",
    "link_img": "https://live.staticflickr.com/65535/48117380012_862bd13826_o.jpg",
    "id_image": "Ford_515089",
    "count_view": 0
  },
  {
    "link_thumb": "https://live.staticflickr.com/65535/49889463823_b9b3657f81_n.jpg",
    "id_album": "-1191355745",
    "description": "2014_rv_Jaguar_rv_F_rv_Type_rv_V6_rv_1440",
    "title": "2014_rv_Jaguar_rv_F_rv_Type_rv_V6_rv_1440",
    "link_img": "https://live.staticflickr.com/65535/49889463823_f920c053ce_o.jpg",
    "id_image": "2014_rv_Jaguar_rv_F_rv_Type_rv_V6_rv_1440",
    "count_view": 0
  },
  {
    "link_thumb": "https://live.staticflickr.com/65535/49888831716_5796a2d8bc_n.jpg",
    "id_album": "902292912",
    "description": "2019_rv_Aston_rv_Martin_rv_DB11_rv_Volante_rv_V6_rv_2000",
    "title": "2019_rv_Aston_rv_Martin_rv_DB11_rv_Volante_rv_V6_rv_2000",
    "link_img": "https://live.staticflickr.com/65535/49888831716_2336199178_o.jpg",
    "id_image": "2019_rv_Aston_rv_Martin_rv_DB11_rv_Volante_rv_V6_rv_2000",
    "count_view": 0
  },
  {
    "link_thumb": "https://live.staticflickr.com/65535/48116979442_009aa8da72_n.jpg",
    "id_album": "-1846404630",
    "description": "Ford_255426",
    "title": "Ford_255426",
    "link_img": "https://live.staticflickr.com/65535/48116979442_8893483380_o.jpg",
    "id_image": "Ford_255426",
    "count_view": 0
  },
  {
    "link_thumb": "https://live.staticflickr.com/65535/48122631897_414c6a6fae_n.jpg",
    "id_album": "1645818674",
    "description": "Suzuki_825089",
    "title": "Suzuki_825089",
    "link_img": "https://live.staticflickr.com/65535/48122631897_5efd920454_o.jpg",
    "id_image": "Suzuki_825089",
    "count_view": 0
  },
  {
    "link_thumb": "https://live.staticflickr.com/65535/49890451126_e712df94df_n.jpg",
    "id_album": "-1283634575",
    "description": "1962_rv_Maserati_rv_Tipo_rv_151_rv_V1_rv_1440",
    "title": "1962_rv_Maserati_rv_Tipo_rv_151_rv_V1_rv_1440",
    "link_img": "https://live.staticflickr.com/65535/49890451126_8ca5b67633_o.jpg",
    "id_image": "1962_rv_Maserati_rv_Tipo_rv_151_rv_V1_rv_1440",
    "count_view": 0
  },
  {
    "link_thumb": "https://live.staticflickr.com/65535/48119487603_993c3cea39_n.jpg",
    "id_album": "-731054311",
    "description": "MercedesBenz_171048",
    "title": "MercedesBenz_171048",
    "link_img": "https://live.staticflickr.com/65535/48119487603_17685f287a_o.jpg",
    "id_image": "MercedesBenz_171048",
    "count_view": 0
  },
  {
    "link_thumb": "https://live.staticflickr.com/65535/49891896143_ae5d7e377d_n.jpg",
    "id_album": "874272507",
    "description": "2013_rv_Subaru_rv_BRZ_rv_V11_rv_1440",
    "title": "2013_rv_Subaru_rv_BRZ_rv_V11_rv_1440",
    "link_img": "https://live.staticflickr.com/65535/49891896143_74459168f5_o.jpg",
    "id_image": "2013_rv_Subaru_rv_BRZ_rv_V11_rv_1440",
    "count_view": 0
  },
  {
    "link_thumb": "https://live.staticflickr.com/65535/48113551337_1705d67fd5_n.jpg",
    "id_album": "1456070666",
    "description": "Bugatti_954484",
    "title": "Bugatti_954484",
    "link_img": "https://live.staticflickr.com/65535/48113551337_0f5cf18b6f_o.jpg",
    "id_image": "Bugatti_954484",
    "count_view": 0
  },
  {
    "link_thumb": "https://live.staticflickr.com/65535/49040984786_9498946c25_n.jpg",
    "id_album": "-2126948992",
    "description": "AlfaRomeo_960854",
    "title": "AlfaRomeo_960854",
    "link_img": "https://live.staticflickr.com/65535/49040984786_b6aceaf665_o.jpg",
    "id_image": "AlfaRomeo_960854",
    "count_view": 0
  },
  {
    "link_thumb": "https://live.staticflickr.com/65535/48122891116_0e2449a719_n.jpg",
    "id_album": "-150952028",
    "description": "Volkswagen_259150",
    "title": "Volkswagen_259150",
    "link_img": "https://live.staticflickr.com/65535/48122891116_113b422a40_o.jpg",
    "id_image": "Volkswagen_259150",
    "count_view": 0
  },
  {
    "link_thumb": "https://live.staticflickr.com/65535/48117231133_704e2988f5_n.jpg",
    "id_album": "-1846404630",
    "description": "Ford_449904",
    "title": "Ford_449904",
    "link_img": "https://live.staticflickr.com/65535/48117231133_dde7086cb3_o.jpg",
    "id_image": "Ford_449904",
    "count_view": 0
  },
  {
    "link_thumb": "https://live.staticflickr.com/65535/49891931623_09f9e79e2d_n.jpg",
    "id_album": "-822601924",
    "description": "2018_rv_Tesla_rv_Model_rv_3_rv_V4_rv_2000",
    "title": "2018_rv_Tesla_rv_Model_rv_3_rv_V4_rv_2000",
    "link_img": "https://live.staticflickr.com/65535/49891931623_ab97ce180e_o.jpg",
    "id_image": "2018_rv_Tesla_rv_Model_rv_3_rv_V4_rv_2000",
    "count_view": 0
  },
  {
    "link_thumb": "https://live.staticflickr.com/65535/48115492878_8c2daa87ba_n.jpg",
    "id_album": "413141323",
    "description": "Dodge_759148",
    "title": "Dodge_759148",
    "link_img": "https://live.staticflickr.com/65535/48115492878_76e8b629b7_o.jpg",
    "id_image": "Dodge_759148",
    "count_view": 0
  },
  {
    "link_thumb": "https://live.staticflickr.com/65535/49890458523_7bb48e0906_n.jpg",
    "id_album": "-1894363968",
    "description": "1990_rv_Mitsubishi_rv_Eclipse_rv_V1_rv_1440",
    "title": "1990_rv_Mitsubishi_rv_Eclipse_rv_V1_rv_1440",
    "link_img": "https://live.staticflickr.com/65535/49890458523_b41c457794_o.jpg",
    "id_image": "1990_rv_Mitsubishi_rv_Eclipse_rv_V1_rv_1440",
    "count_view": 0
  },
  {
    "link_thumb": "https://live.staticflickr.com/65535/49889667917_c95ba3022d_n.jpg",
    "id_album": "-2027089129",
    "description": "1995_rv_BMW_rv_M3_rv_GT_rv_V5_rv_1600",
    "title": "1995_rv_BMW_rv_M3_rv_GT_rv_V5_rv_1600",
    "link_img": "https://live.staticflickr.com/65535/49889667917_a6368f2ca8_o.jpg",
    "id_image": "1995_rv_BMW_rv_M3_rv_GT_rv_V5_rv_1600",
    "count_view": 0
  },
  {
    "link_thumb": "https://live.staticflickr.com/65535/48112778976_d8b3958129_n.jpg",
    "id_album": "727633301",
    "description": "BMW_451693",
    "title": "BMW_451693",
    "link_img": "https://live.staticflickr.com/65535/48112778976_2a4ac16757_o.jpg",
    "id_image": "BMW_451693",
    "count_view": 0
  },
  {
    "link_thumb": "https://live.staticflickr.com/65535/48119539113_76eb60ddc5_n.jpg",
    "id_album": "-731054311",
    "description": "MercedesBenz_257104",
    "title": "MercedesBenz_257104",
    "link_img": "https://live.staticflickr.com/65535/48119539113_c1d588c7f6_o.jpg",
    "id_image": "MercedesBenz_257104",
    "count_view": 0
  },
  {
    "link_thumb": "https://live.staticflickr.com/65535/48112722882_da79ab29ca_n.jpg",
    "id_album": "727633301",
    "description": "BMW_225688",
    "title": "BMW_225688",
    "link_img": "https://live.staticflickr.com/65535/48112722882_dd1584a72a_o.jpg",
    "id_image": "BMW_225688",
    "count_view": 0
  },
  {
    "link_thumb": "https://live.staticflickr.com/65535/49889089637_92163c04ce_n.jpg",
    "id_album": "734590267",
    "description": "1983_rv_Alfa_rv_Romeo_rv_GTV6_rv_V10_rv_1536",
    "title": "1983_rv_Alfa_rv_Romeo_rv_GTV6_rv_V10_rv_1536",
    "link_img": "https://live.staticflickr.com/65535/49889089637_2673f0b473_o.jpg",
    "id_image": "1983_rv_Alfa_rv_Romeo_rv_GTV6_rv_V10_rv_1536",
    "count_view": 0
  },
  {
    "link_thumb": "https://live.staticflickr.com/65535/48119547143_0f633060a1_n.jpg",
    "id_album": "-731054311",
    "description": "MercedesBenz_257151",
    "title": "MercedesBenz_257151",
    "link_img": "https://live.staticflickr.com/65535/48119547143_56a82ce177_o.jpg",
    "id_image": "MercedesBenz_257151",
    "count_view": 0
  },
  {
    "link_thumb": "https://live.staticflickr.com/65535/48119273456_976e47ba13_n.jpg",
    "id_album": "990865885",
    "description": "McLaren_397125",
    "title": "McLaren_397125",
    "link_img": "https://live.staticflickr.com/65535/48119273456_b8dbe4b1e8_o.jpg",
    "id_image": "McLaren_397125",
    "count_view": 0
  },
  {
    "link_thumb": "https://live.staticflickr.com/65535/48113841252_6ed751b5da_n.jpg",
    "id_album": "-1721545051",
    "description": "Chevrolet_183684",
    "title": "Chevrolet_183684",
    "link_img": "https://live.staticflickr.com/65535/48113841252_4831928957_o.jpg",
    "id_image": "Chevrolet_183684",
    "count_view": 0
  },
  {
    "link_thumb": "https://live.staticflickr.com/65535/48118839946_acbd31114e_n.jpg",
    "id_album": "446908717",
    "description": "Lexus_256351",
    "title": "Lexus_256351",
    "link_img": "https://live.staticflickr.com/65535/48118839946_cf59899195_o.jpg",
    "id_image": "Lexus_256351",
    "count_view": 0
  },
  {
    "link_thumb": "https://live.staticflickr.com/65535/48118991952_1b7d21740f_n.jpg",
    "id_album": "446908717",
    "description": "Lexus_880188",
    "title": "Lexus_880188",
    "link_img": "https://live.staticflickr.com/65535/48118991952_4a7807c733_o.jpg",
    "id_image": "Lexus_880188",
    "count_view": 0
  },
  {
    "link_thumb": "https://live.staticflickr.com/65535/49890064801_0e82e30a75_n.jpg",
    "id_album": "-132134020",
    "description": "2009_rv_Koenigsegg_rv_CCX_rv_Edition_rv_V8_rv_1536",
    "title": "2009_rv_Koenigsegg_rv_CCX_rv_Edition_rv_V8_rv_1536",
    "link_img": "https://live.staticflickr.com/65535/49890064801_16dfb27a78_o.jpg",
    "id_image": "2009_rv_Koenigsegg_rv_CCX_rv_Edition_rv_V8_rv_1536",
    "count_view": 0
  },
  {
    "link_thumb": "https://live.staticflickr.com/65535/48113098797_b24be7cae7_n.jpg",
    "id_album": "727633301",
    "description": "BMW_649572",
    "title": "BMW_649572",
    "link_img": "https://live.staticflickr.com/65535/48113098797_206c1e7866_o.jpg",
    "id_image": "BMW_649572",
    "count_view": 0
  },
  {
    "link_thumb": "https://live.staticflickr.com/65535/49890092836_f3c1e00378_n.jpg",
    "id_album": "-59902933",
    "description": "2016_rv_Lamborghini_rv_Aventador_rv_LP750_rv_4_rv_SV_rv_Roadster_rv_V6_rv_2160",
    "title": "2016_rv_Lamborghini_rv_Aventador_rv_LP750_rv_4_rv_SV_rv_Roadster_rv_V6_rv_2160",
    "link_img": "https://live.staticflickr.com/65535/49890092836_54b41604a1_o.jpg",
    "id_image": "2016_rv_Lamborghini_rv_Aventador_rv_LP750_rv_4_rv_SV_rv_Roadster_rv_V6_rv_2160",
    "count_view": 0
  },
  {
    "link_thumb": "https://live.staticflickr.com/65535/48117943346_f5dda3366f_n.jpg",
    "id_album": "427416146",
    "description": "Hummer_256041",
    "title": "Hummer_256041",
    "link_img": "https://live.staticflickr.com/65535/48117943346_511665f244_o.jpg",
    "id_image": "Hummer_256041",
    "count_view": 0
  },
  {
    "link_thumb": "https://live.staticflickr.com/65535/48114748672_924e817188_n.jpg",
    "id_album": "-1721545051",
    "description": "Chevrolet_930185",
    "title": "Chevrolet_930185",
    "link_img": "https://live.staticflickr.com/65535/48114748672_9c53ce9fc2_o.jpg",
    "id_image": "Chevrolet_930185",
    "count_view": 0
  },
  {
    "link_thumb": "https://live.staticflickr.com/65535/49890012967_418fba54d5_n.jpg",
    "id_album": "1345325637",
    "description": "2002_rv_Ford_rv_Focus_rv_RS_rv_V4_rv_1440",
    "title": "2002_rv_Ford_rv_Focus_rv_RS_rv_V4_rv_1440",
    "link_img": "https://live.staticflickr.com/65535/49890012967_60e211279e_o.jpg",
    "id_image": "2002_rv_Ford_rv_Focus_rv_RS_rv_V4_rv_1440",
    "count_view": 0
  },
  {
    "link_thumb": "https://live.staticflickr.com/65535/49889819526_22ee044c3a_n.jpg",
    "id_album": "-1617578684",
    "description": "2014_rv_Porsche_rv_911_rv_GT3_rv_V2_rv_1600",
    "title": "2014_rv_Porsche_rv_911_rv_GT3_rv_V2_rv_1600",
    "link_img": "https://live.staticflickr.com/65535/49889819526_f45ec69159_o.jpg",
    "id_image": "2014_rv_Porsche_rv_911_rv_GT3_rv_V2_rv_1600",
    "count_view": 0
  },
  {
    "link_thumb": "https://live.staticflickr.com/65535/49889486368_3bcf8504e8_n.jpg",
    "id_album": "1773051543",
    "description": "2012_rv_Jaguar_rv_XF_rv_V3_rv_1536",
    "title": "2012_rv_Jaguar_rv_XF_rv_V3_rv_1536",
    "link_img": "https://live.staticflickr.com/65535/49889486368_8349edf119_o.jpg",
    "id_image": "2012_rv_Jaguar_rv_XF_rv_V3_rv_1536",
    "count_view": 0
  },
  {
    "link_thumb": "https://live.staticflickr.com/65535/49890552967_260245f1f2_n.jpg",
    "id_album": "1049518664",
    "description": "1992_rv_Lancia_rv_Delta_rv_HF_rv_Integrale_rv_Evoluzione_rv_V2_rv_1440",
    "title": "1992_rv_Lancia_rv_Delta_rv_HF_rv_Integrale_rv_Evoluzione_rv_V2_rv_1440",
    "link_img": "https://live.staticflickr.com/65535/49890552967_f9c805e8a6_o.jpg",
    "id_image": "1992_rv_Lancia_rv_Delta_rv_HF_rv_Integrale_rv_Evoluzione_rv_V2_rv_1440",
    "count_view": 0
  },
  {
    "link_thumb": "https://live.staticflickr.com/65535/48111821112_1578ec0391_n.jpg",
    "id_album": "1906325017",
    "description": "Infiniti_257168",
    "title": "Infiniti_257168",
    "link_img": "https://live.staticflickr.com/65535/48111821112_50cf4b7f2e_o.jpg",
    "id_image": "Infiniti_257168",
    "count_view": 0
  },
  {
    "link_thumb": "https://live.staticflickr.com/65535/48112656478_19d4531894_n.jpg",
    "id_album": "727633301",
    "description": "BMW_224194",
    "title": "BMW_224194",
    "link_img": "https://live.staticflickr.com/65535/48112656478_560cd246e8_o.jpg",
    "id_image": "BMW_224194",
    "count_view": 0
  },
  {
    "link_thumb": "https://live.staticflickr.com/65535/48112492868_28a115aeea_n.jpg",
    "id_album": "-15119147",
    "description": "Audi_937003",
    "title": "Audi_937003",
    "link_img": "https://live.staticflickr.com/65535/48112492868_e55b9a91e2_o.jpg",
    "id_image": "Audi_937003",
    "count_view": 0
  },
  {
    "link_thumb": "https://live.staticflickr.com/65535/48122828266_f8ce647aea_n.jpg",
    "id_album": "1274920659",
    "description": "Toyota_972212",
    "title": "Toyota_972212",
    "link_img": "https://live.staticflickr.com/65535/48122828266_8c4130f4cd_o.jpg",
    "id_image": "Toyota_972212",
    "count_view": 0
  },
  {
    "link_thumb": "https://live.staticflickr.com/65535/49889658232_1c78a87eae_n.jpg",
    "id_album": "1643248187",
    "description": "2015_rv_Ram_rv_1500_rv_Rebel_rv_V1_rv_1600",
    "title": "2015_rv_Ram_rv_1500_rv_Rebel_rv_V1_rv_1600",
    "link_img": "https://live.staticflickr.com/65535/49889658232_43a8fa3dcd_o.jpg",
    "id_image": "2015_rv_Ram_rv_1500_rv_Rebel_rv_V1_rv_1600",
    "count_view": 0
  },
  {
    "link_thumb": "https://live.staticflickr.com/65535/48117342596_2a18ef197b_n.jpg",
    "id_album": "-1846404630",
    "description": "Ford_614085",
    "title": "Ford_614085",
    "link_img": "https://live.staticflickr.com/65535/48117342596_c196055ce8_o.jpg",
    "id_image": "Ford_614085",
    "count_view": 0
  },
  {
    "link_thumb": "https://live.staticflickr.com/65535/49890041682_a9f838ef4a_n.jpg",
    "id_album": "524349362",
    "description": "2019_rv_Ford_rv_GT_rv_Heritage_rv_Edition_rv_V4_rv_2000",
    "title": "2019_rv_Ford_rv_GT_rv_Heritage_rv_Edition_rv_V4_rv_2000",
    "link_img": "https://live.staticflickr.com/65535/49890041682_77809e4e1c_o.jpg",
    "id_image": "2019_rv_Ford_rv_GT_rv_Heritage_rv_Edition_rv_V4_rv_2000",
    "count_view": 0
  },
  {
    "link_thumb": "https://live.staticflickr.com/65535/48121536023_d4f553a07d_n.jpg",
    "id_album": "-1178450892",
    "description": "Porsche_630842",
    "title": "Porsche_630842",
    "link_img": "https://live.staticflickr.com/65535/48121536023_881295b179_o.jpg",
    "id_image": "Porsche_630842",
    "count_view": 0
  },
  {
    "link_thumb": "https://live.staticflickr.com/65535/49890147612_9994da4bf1_n.jpg",
    "id_album": "-289181366",
    "description": "2016_rv_Ford_rv_Mustang_rv_Shelby_rv_GT350R_rv_V2_rv_1600",
    "title": "2016_rv_Ford_rv_Mustang_rv_Shelby_rv_GT350R_rv_V2_rv_1600",
    "link_img": "https://live.staticflickr.com/65535/49890147612_5c38cee16e_o.jpg",
    "id_image": "2016_rv_Ford_rv_Mustang_rv_Shelby_rv_GT350R_rv_V2_rv_1600",
    "count_view": 0
  },
  {
    "link_thumb": "https://live.staticflickr.com/65535/49892498797_cde77b8106_n.jpg",
    "id_album": "-461005169",
    "description": "2014_rv_Nissan_rv_GT_rv_R_rv_Track_rv_Edition_rv_V5_rv_1600",
    "title": "2014_rv_Nissan_rv_GT_rv_R_rv_Track_rv_Edition_rv_V5_rv_1600",
    "link_img": "https://live.staticflickr.com/65535/49892498797_a95464f299_o.jpg",
    "id_image": "2014_rv_Nissan_rv_GT_rv_R_rv_Track_rv_Edition_rv_V5_rv_1600",
    "count_view": 0
  },
  {
    "link_thumb": "https://live.staticflickr.com/65535/49889626828_6cc03e8219_n.jpg",
    "id_album": "636428280",
    "description": "2012_rv_Lamborghini_rv_Gallardo_rv_LP_rv_570_rv_4_rv_Super_rv_Trofeo_rv_Stradale_rv_V7_rv_1600",
    "title": "2012_rv_Lamborghini_rv_Gallardo_rv_LP_rv_570_rv_4_rv_Super_rv_Trofeo_rv_Stradale_rv_V7_rv_1600",
    "link_img": "https://live.staticflickr.com/65535/49889626828_a3d9085557_o.jpg",
    "id_image": "2012_rv_Lamborghini_rv_Gallardo_rv_LP_rv_570_rv_4_rv_Super_rv_Trofeo_rv_Stradale_rv_V7_rv_1600",
    "count_view": 0
  },
  {
    "link_thumb": "https://live.staticflickr.com/65535/49890095328_6dff2e3eda_n.jpg",
    "id_album": "1875498083",
    "description": "2020_rv_McLaren_rv_GT_rv_V5_rv_2160",
    "title": "2020_rv_McLaren_rv_GT_rv_V5_rv_2160",
    "link_img": "https://live.staticflickr.com/65535/49890095328_7358cc83c3_o.jpg",
    "id_image": "2020_rv_McLaren_rv_GT_rv_V5_rv_2160",
    "count_view": 0
  },
  {
    "link_thumb": "https://live.staticflickr.com/65535/48115108701_8efc8cefd0_n.jpg",
    "id_album": "413141323",
    "description": "Dodge_255004",
    "title": "Dodge_255004",
    "link_img": "https://live.staticflickr.com/65535/48115108701_c11cf53e70_o.jpg",
    "id_image": "Dodge_255004",
    "count_view": 0
  },
  {
    "link_thumb": "https://live.staticflickr.com/65535/48118129617_49fecdce20_n.jpg",
    "id_album": "-843028318",
    "description": "Jaguar_962765",
    "title": "Jaguar_962765",
    "link_img": "https://live.staticflickr.com/65535/48118129617_43a81e92e8_o.jpg",
    "id_image": "Jaguar_962765",
    "count_view": 0
  },
  {
    "link_thumb": "https://live.staticflickr.com/65535/49892702261_8b29f1b52b_n.jpg",
    "id_album": "552106220",
    "description": "2013_rv_W_rv_Motors_rv_Lykan_rv_Hypersport_rv_V1_rv_1600",
    "title": "2013_rv_W_rv_Motors_rv_Lykan_rv_Hypersport_rv_V1_rv_1600",
    "link_img": "https://live.staticflickr.com/65535/49892702261_d3732dfbb2_o.jpg",
    "id_image": "2013_rv_W_rv_Motors_rv_Lykan_rv_Hypersport_rv_V1_rv_1600",
    "count_view": 0
  },
  {
    "link_thumb": "https://live.staticflickr.com/65535/48123074507_4143eb09d1_n.jpg",
    "id_album": "-150952028",
    "description": "Volkswagen_484057",
    "title": "Volkswagen_484057",
    "link_img": "https://live.staticflickr.com/65535/48123074507_758c28001f_o.jpg",
    "id_image": "Volkswagen_484057",
    "count_view": 0
  },
  {
    "link_thumb": "https://live.staticflickr.com/65535/48117788842_10af971f66_n.jpg",
    "id_album": "-885504812",
    "description": "GMC_439225",
    "title": "GMC_439225",
    "link_img": "https://live.staticflickr.com/65535/48117788842_59df08bab9_o.jpg",
    "id_image": "GMC_439225",
    "count_view": 0
  },
  {
    "link_thumb": "https://live.staticflickr.com/65535/48114137451_214876588b_n.jpg",
    "id_album": "-1721545051",
    "description": "Chevrolet_354210",
    "title": "Chevrolet_354210",
    "link_img": "https://live.staticflickr.com/65535/48114137451_b558435fcd_o.jpg",
    "id_image": "Chevrolet_354210",
    "count_view": 0
  },
  {
    "link_thumb": "https://live.staticflickr.com/65535/49890239302_72cb4d3e76_n.jpg",
    "id_album": "-2000594684",
    "description": "2016_rv_Holden_rv_HSV_rv_Gen_rv_F2_rv_V8_rv_1600",
    "title": "2016_rv_Holden_rv_HSV_rv_Gen_rv_F2_rv_V8_rv_1600",
    "link_img": "https://live.staticflickr.com/65535/49890239302_765b85d441_o.jpg",
    "id_image": "2016_rv_Holden_rv_HSV_rv_Gen_rv_F2_rv_V8_rv_1600",
    "count_view": 0
  },
  {
    "link_thumb": "https://live.staticflickr.com/65535/48120407431_a772a7e279_n.jpg",
    "id_album": "810634050",
    "description": "Nissan_417509",
    "title": "Nissan_417509",
    "link_img": "https://live.staticflickr.com/65535/48120407431_2eb1909746_o.jpg",
    "id_image": "Nissan_417509",
    "count_view": 0
  },
  {
    "link_thumb": "https://live.staticflickr.com/65535/48114380268_417f2b5347_n.jpg",
    "id_album": "-1721545051",
    "description": "Chevrolet_503017",
    "title": "Chevrolet_503017",
    "link_img": "https://live.staticflickr.com/65535/48114380268_d7b0602669_o.jpg",
    "id_image": "Chevrolet_503017",
    "count_view": 0
  },
  {
    "link_thumb": "https://live.staticflickr.com/65535/48120505143_670381e0f5_n.jpg",
    "id_album": "810634050",
    "description": "Nissan_484039",
    "title": "Nissan_484039",
    "link_img": "https://live.staticflickr.com/65535/48120505143_6a6756d74b_o.jpg",
    "id_image": "Nissan_484039",
    "count_view": 0
  },
  {
    "link_thumb": "https://live.staticflickr.com/65535/48113302441_522986c710_n.jpg",
    "id_album": "727633301",
    "description": "BMW_994344",
    "title": "BMW_994344",
    "link_img": "https://live.staticflickr.com/65535/48113302441_a29518d690_o.jpg",
    "id_image": "BMW_994344",
    "count_view": 0
  },
  {
    "link_thumb": "https://live.staticflickr.com/65535/48120269448_32c6157f82_n.jpg",
    "id_album": "666438681",
    "description": "Motorcycles_598501",
    "title": "Motorcycles_598501",
    "link_img": "https://live.staticflickr.com/65535/48120269448_4d13700413_o.jpg",
    "id_image": "Motorcycles_598501",
    "count_view": 0
  },
  {
    "link_thumb": "https://live.staticflickr.com/65535/48119796772_ef3f65d5e9_n.jpg",
    "id_album": "-731054311",
    "description": "MercedesBenz_552275",
    "title": "MercedesBenz_552275",
    "link_img": "https://live.staticflickr.com/65535/48119796772_143fc1456a_o.jpg",
    "id_image": "MercedesBenz_552275",
    "count_view": 0
  },
  {
    "link_thumb": "https://live.staticflickr.com/65535/48113522452_111e00424e_n.jpg",
    "id_album": "1456070666",
    "description": "Bugatti_705509",
    "title": "Bugatti_705509",
    "link_img": "https://live.staticflickr.com/65535/48113522452_d1df6021b3_o.jpg",
    "id_image": "Bugatti_705509",
    "count_view": 0
  },
  {
    "link_thumb": "https://live.staticflickr.com/65535/48117506497_e648954914_n.jpg",
    "id_album": "-1846404630",
    "description": "Ford_740917",
    "title": "Ford_740917",
    "link_img": "https://live.staticflickr.com/65535/48117506497_16b29cf22a_o.jpg",
    "id_image": "Ford_740917",
    "count_view": 0
  },
  {
    "link_thumb": "https://live.staticflickr.com/65535/49889047903_8d4cb9bf2e_n.jpg",
    "id_album": "-1150105315",
    "description": "2014_rv_Formula1_rv_Ferrari_rv_F14_rv_T_rv_V1_rv_1600",
    "title": "2014_rv_Formula1_rv_Ferrari_rv_F14_rv_T_rv_V1_rv_1600",
    "link_img": "https://live.staticflickr.com/65535/49889047903_210472bafd_o.jpg",
    "id_image": "2014_rv_Formula1_rv_Ferrari_rv_F14_rv_T_rv_V1_rv_1600",
    "count_view": 0
  },
  {
    "link_thumb": "https://live.staticflickr.com/65535/49888986873_beb9623dc0_n.jpg",
    "id_album": "1069273903",
    "description": "2004_rv_Ferrari_rv_575_rv_GTC_rv_V2_rv_1440",
    "title": "2004_rv_Ferrari_rv_575_rv_GTC_rv_V2_rv_1440",
    "link_img": "https://live.staticflickr.com/65535/49888986873_e7e789e9e1_o.jpg",
    "id_image": "2004_rv_Ferrari_rv_575_rv_GTC_rv_V2_rv_1440",
    "count_view": 0
  },
  {
    "link_thumb": "https://live.staticflickr.com/65535/48114691432_3289107427_n.jpg",
    "id_album": "-1721545051",
    "description": "Chevrolet_880017",
    "title": "Chevrolet_880017",
    "link_img": "https://live.staticflickr.com/65535/48114691432_e8db78afb3_o.jpg",
    "id_image": "Chevrolet_880017",
    "count_view": 0
  },
  {
    "link_thumb": "https://live.staticflickr.com/65535/48116618163_cacd48b091_n.jpg",
    "id_album": "-1846404630",
    "description": "Ford_155781",
    "title": "Ford_155781",
    "link_img": "https://live.staticflickr.com/65535/48116618163_4134b2343f_o.jpg",
    "id_image": "Ford_155781",
    "count_view": 0
  }
]