[
  {
    "link_thumb": "https://live.staticflickr.com/65535/48112725911_1d29c9c677_n.jpg",
    "id_album": "727633301",
    "description": "BMW_366915",
    "title": "BMW_366915",
    "link_img": "https://live.staticflickr.com/65535/48112725911_4dfae60266_o.jpg",
    "id_image": "BMW_366915",
    "count_view": 0
  },
  {
    "link_thumb": "https://live.staticflickr.com/65535/49889996242_52ac771f82_n.jpg",
    "id_album": "423753153",
    "description": "2004_rv_Ford_rv_Mustang_rv_GT_rv_R_rv_Concept_rv_V1_rv_1440",
    "title": "2004_rv_Ford_rv_Mustang_rv_GT_rv_R_rv_Concept_rv_V1_rv_1440",
    "link_img": "https://live.staticflickr.com/65535/49889996242_1742288b66_o.jpg",
    "id_image": "2004_rv_Ford_rv_Mustang_rv_GT_rv_R_rv_Concept_rv_V1_rv_1440",
    "count_view": 0
  },
  {
    "link_thumb": "https://live.staticflickr.com/65535/48114830911_91aa5b7847_n.jpg",
    "id_album": "2072464184",
    "description": "Citroen_254302",
    "title": "Citroen_254302",
    "link_img": "https://live.staticflickr.com/65535/48114830911_9e90efeef7_o.jpg",
    "id_image": "Citroen_254302",
    "count_view": 0
  },
  {
    "link_thumb": "https://live.staticflickr.com/65535/49889200562_983e831900_n.jpg",
    "id_album": "-1398775009",
    "description": "2014_rv_Aston_rv_Martin_rv_Vanquish_rv_Volante_rv_V2_rv_1600",
    "title": "2014_rv_Aston_rv_Martin_rv_Vanquish_rv_Volante_rv_V2_rv_1600",
    "link_img": "https://live.staticflickr.com/65535/49889200562_0e0acfa743_o.jpg",
    "id_image": "2014_rv_Aston_rv_Martin_rv_Vanquish_rv_Volante_rv_V2_rv_1600",
    "count_view": 0
  },
  {
    "link_thumb": "https://live.staticflickr.com/65535/49890747557_895c57621d_n.jpg",
    "id_album": "-1708318206",
    "description": "2006_rv_Maserati_rv_MC12_rv_Corsa_rv_V3_rv_1440",
    "title": "2006_rv_Maserati_rv_MC12_rv_Corsa_rv_V3_rv_1440",
    "link_img": "https://live.staticflickr.com/65535/49890747557_f5bce59654_o.jpg",
    "id_image": "2006_rv_Maserati_rv_MC12_rv_Corsa_rv_V3_rv_1440",
    "count_view": 0
  },
  {
    "link_thumb": "https://live.staticflickr.com/65535/49889483456_bd0b06260b_n.jpg",
    "id_album": "1472427359",
    "description": "2015_rv_Ferrari_rv_458_rv_Speciale_rv_A_rv_V3_rv_1600",
    "title": "2015_rv_Ferrari_rv_458_rv_Speciale_rv_A_rv_V3_rv_1600",
    "link_img": "https://live.staticflickr.com/65535/49889483456_ceb5db1040_o.jpg",
    "id_image": "2015_rv_Ferrari_rv_458_rv_Speciale_rv_A_rv_V3_rv_1600",
    "count_view": 0
  },
  {
    "link_thumb": "https://live.staticflickr.com/65535/49889468323_c2ab5054a2_n.jpg",
    "id_album": "-1191355745",
    "description": "2016_rv_Jaguar_rv_F_rv_Type_rv_V6_rv_1600",
    "title": "2016_rv_Jaguar_rv_F_rv_Type_rv_V6_rv_1600",
    "link_img": "https://live.staticflickr.com/65535/49889468323_2961ed0380_o.jpg",
    "id_image": "2016_rv_Jaguar_rv_F_rv_Type_rv_V6_rv_1600",
    "count_view": 0
  },
  {
    "link_thumb": "https://live.staticflickr.com/65535/48118647436_7f7ca87c48_n.jpg",
    "id_album": "-2100339805",
    "description": "Lamborghini_896445",
    "title": "Lamborghini_896445",
    "link_img": "https://live.staticflickr.com/65535/48118647436_5662990e5d_o.jpg",
    "id_image": "Lamborghini_896445",
    "count_view": 0
  },
  {
    "link_thumb": "https://live.staticflickr.com/65535/48118650988_82f893861b_n.jpg",
    "id_album": "-2100339805",
    "description": "Lamborghini_844280",
    "title": "Lamborghini_844280",
    "link_img": "https://live.staticflickr.com/65535/48118650988_c97660447c_o.jpg",
    "id_image": "Lamborghini_844280",
    "count_view": 0
  },
  {
    "link_thumb": "https://live.staticflickr.com/65535/48116511707_a01102db6b_n.jpg",
    "id_album": "1364506720",
    "description": "Ferrari_945398",
    "title": "Ferrari_945398",
    "link_img": "https://live.staticflickr.com/65535/48116511707_2ea71eea5b_o.jpg",
    "id_image": "Ferrari_945398",
    "count_view": 0
  },
  {
    "link_thumb": "https://live.staticflickr.com/65535/48118151057_ff879a954c_n.jpg",
    "id_album": "-2009218697",
    "description": "Jeep_143623",
    "title": "Jeep_143623",
    "link_img": "https://live.staticflickr.com/65535/48118151057_8ca716a2c2_o.jpg",
    "id_image": "Jeep_143623",
    "count_view": 0
  },
  {
    "link_thumb": "https://live.staticflickr.com/65535/49889236321_98d8eb8805_n.jpg",
    "id_album": "-843466787",
    "description": "1959_rv_Chevrolet_rv_Corvette_rv_by_rv_Pogea_rv_Racing_rv_V3_rv_1440",
    "title": "1959_rv_Chevrolet_rv_Corvette_rv_by_rv_Pogea_rv_Racing_rv_V3_rv_1440",
    "link_img": "https://live.staticflickr.com/65535/49889236321_77b1df700b_o.jpg",
    "id_image": "1959_rv_Chevrolet_rv_Corvette_rv_by_rv_Pogea_rv_Racing_rv_V3_rv_1440",
    "count_view": 0
  },
  {
    "link_thumb": "https://live.staticflickr.com/65535/49888992413_471e78a3e8_n.jpg",
    "id_album": "-1257242429",
    "description": "2007_rv_Ferrari_rv_599_rv_GTO_rv_Vandenbrink_rv_V3_rv_1440",
    "title": "2007_rv_Ferrari_rv_599_rv_GTO_rv_Vandenbrink_rv_V3_rv_1440",
    "link_img": "https://live.staticflickr.com/65535/49888992413_7da02421e5_o.jpg",
    "id_image": "2007_rv_Ferrari_rv_599_rv_GTO_rv_Vandenbrink_rv_V3_rv_1440",
    "count_view": 0
  },
  {
    "link_thumb": "https://live.staticflickr.com/65535/49889964151_c32b7de047_n.jpg",
    "id_album": "796949652",
    "description": "2018_rv_Nissan_rv_GT_rv_R50_rv_by_rv_Italdesign_rv_Concept_rv_V2_rv_2000",
    "title": "2018_rv_Nissan_rv_GT_rv_R50_rv_by_rv_Italdesign_rv_Concept_rv_V2_rv_2000",
    "link_img": "https://live.staticflickr.com/65535/49889964151_e61b0032ae_o.jpg",
    "id_image": "2018_rv_Nissan_rv_GT_rv_R50_rv_by_rv_Italdesign_rv_Concept_rv_V2_rv_2000",
    "count_view": 0
  },
  {
    "link_thumb": "https://live.staticflickr.com/65535/48112244667_f819ca4aef_n.jpg",
    "id_album": "555757480",
    "description": "AstonMartin_470851",
    "title": "AstonMartin_470851",
    "link_img": "https://live.staticflickr.com/65535/48112244667_0b5eddbd9f_o.jpg",
    "id_image": "AstonMartin_470851",
    "count_view": 0
  },
  {
    "link_thumb": "https://live.staticflickr.com/65535/48112880031_2b37e0ba13_n.jpg",
    "id_album": "727633301",
    "description": "BMW_486704",
    "title": "BMW_486704",
    "link_img": "https://live.staticflickr.com/65535/48112880031_b633d179dc_o.jpg",
    "id_image": "BMW_486704",
    "count_view": 0
  },
  {
    "link_thumb": "https://live.staticflickr.com/65535/48113196386_8b1557d1ea_n.jpg",
    "id_album": "727633301",
    "description": "BMW_913076",
    "title": "BMW_913076",
    "link_img": "https://live.staticflickr.com/65535/48113196386_a2c50ee912_o.jpg",
    "id_image": "BMW_913076",
    "count_view": 0
  },
  {
    "link_thumb": "https://live.staticflickr.com/65535/49889404038_51d3ca1503_n.jpg",
    "id_album": "-359433426",
    "description": "2009_rv_Honda_rv_S2000_rv_Ultimate_rv_Edition_rv_V2_rv_1536",
    "title": "2009_rv_Honda_rv_S2000_rv_Ultimate_rv_Edition_rv_V2_rv_1536",
    "link_img": "https://live.staticflickr.com/65535/49889404038_4c7fa80c68_o.jpg",
    "id_image": "2009_rv_Honda_rv_S2000_rv_Ultimate_rv_Edition_rv_V2_rv_1536",
    "count_view": 0
  },
  {
    "link_thumb": "https://live.staticflickr.com/65535/48117061251_dc836370de_n.jpg",
    "id_album": "-1846404630",
    "description": "Ford_377418",
    "title": "Ford_377418",
    "link_img": "https://live.staticflickr.com/65535/48117061251_70744c286a_o.jpg",
    "id_image": "Ford_377418",
    "count_view": 0
  },
  {
    "link_thumb": "https://live.staticflickr.com/65535/48123200708_2b8cd4e88c_n.jpg",
    "id_album": "1159292543",
    "description": "Volvo_879521",
    "title": "Volvo_879521",
    "link_img": "https://live.staticflickr.com/65535/48123200708_6b10f7ef73_o.jpg",
    "id_image": "Volvo_879521",
    "count_view": 0
  },
  {
    "link_thumb": "https://live.staticflickr.com/65535/48119593092_e81b32a51e_n.jpg",
    "id_album": "-731054311",
    "description": "MercedesBenz_251441",
    "title": "MercedesBenz_251441",
    "link_img": "https://live.staticflickr.com/65535/48119593092_6a10582208_o.jpg",
    "id_image": "MercedesBenz_251441",
    "count_view": 0
  },
  {
    "link_thumb": "https://live.staticflickr.com/65535/48120449021_c099b2f354_n.jpg",
    "id_album": "810634050",
    "description": "Nissan_476140",
    "title": "Nissan_476140",
    "link_img": "https://live.staticflickr.com/65535/48120449021_bf5a577c60_o.jpg",
    "id_image": "Nissan_476140",
    "count_view": 0
  },
  {
    "link_thumb": "https://live.staticflickr.com/65535/49889906627_9d615bf206_n.jpg",
    "id_album": "-290692475",
    "description": "2019_rv_Novitec_rv_Ferrari_rv_812_rv_Superfast_rv_V5_rv_2160",
    "title": "2019_rv_Novitec_rv_Ferrari_rv_812_rv_Superfast_rv_V5_rv_2160",
    "link_img": "https://live.staticflickr.com/65535/49889906627_19fd628102_o.jpg",
    "id_image": "2019_rv_Novitec_rv_Ferrari_rv_812_rv_Superfast_rv_V5_rv_2160",
    "count_view": 0
  },
  {
    "link_thumb": "https://live.staticflickr.com/65535/48118779648_8313ebeb7d_n.jpg",
    "id_album": "-2100339805",
    "description": "Lamborghini_994762",
    "title": "Lamborghini_994762",
    "link_img": "https://live.staticflickr.com/65535/48118779648_c0b8661aa3_o.jpg",
    "id_image": "Lamborghini_994762",
    "count_view": 0
  },
  {
    "link_thumb": "https://live.staticflickr.com/65535/48115116408_e8ba20351b_n.jpg",
    "id_album": "413141323",
    "description": "Dodge_241088",
    "title": "Dodge_241088",
    "link_img": "https://live.staticflickr.com/65535/48115116408_a3c6f83968_o.jpg",
    "id_image": "Dodge_241088",
    "count_view": 0
  },
  {
    "link_thumb": "https://live.staticflickr.com/65535/49890395323_c429edac3b_n.jpg",
    "id_album": "-173102747",
    "description": "2008_rv_Mercedes_rv_Benz_rv_SLR_rv_McLaren_rv_Roadster_rv_V3_rv_1440",
    "title": "2008_rv_Mercedes_rv_Benz_rv_SLR_rv_McLaren_rv_Roadster_rv_V3_rv_1440",
    "link_img": "https://live.staticflickr.com/65535/49890395323_49ba719f2e_o.jpg",
    "id_image": "2008_rv_Mercedes_rv_Benz_rv_SLR_rv_McLaren_rv_Roadster_rv_V3_rv_1440",
    "count_view": 0
  },
  {
    "link_thumb": "https://live.staticflickr.com/65535/48111965866_730fa81741_n.jpg",
    "id_album": "1906325017",
    "description": "Infiniti_449804",
    "title": "Infiniti_449804",
    "link_img": "https://live.staticflickr.com/65535/48111965866_14d16fd724_o.jpg",
    "id_image": "Infiniti_449804",
    "count_view": 0
  },
  {
    "link_thumb": "https://live.staticflickr.com/65535/48119184017_11eef71e20_n.jpg",
    "id_album": "697984456",
    "description": "Maserati_450610",
    "title": "Maserati_450610",
    "link_img": "https://live.staticflickr.com/65535/48119184017_f0617c41dc_o.jpg",
    "id_image": "Maserati_450610",
    "count_view": 0
  },
  {
    "link_thumb": "https://live.staticflickr.com/65535/49890190687_c42f3541f7_n.jpg",
    "id_album": "-659575064",
    "description": "2012_rv_Hennessey_rv_Venom_rv_GT_rv_V2_rv_1600",
    "title": "2012_rv_Hennessey_rv_Venom_rv_GT_rv_V2_rv_1600",
    "link_img": "https://live.staticflickr.com/65535/49890190687_a79d07fb24_o.jpg",
    "id_image": "2012_rv_Hennessey_rv_Venom_rv_GT_rv_V2_rv_1600",
    "count_view": 0
  },
  {
    "link_thumb": "https://live.staticflickr.com/65535/49890142588_1c617da31f_n.jpg",
    "id_album": "1947812555",
    "description": "2010_rv_Mercedes_rv_Benz_rv_SLS_rv_AMG_rv_GT3_rv_V4_rv_1440",
    "title": "2010_rv_Mercedes_rv_Benz_rv_SLS_rv_AMG_rv_GT3_rv_V4_rv_1440",
    "link_img": "https://live.staticflickr.com/65535/49890142588_25fa6bfb19_o.jpg",
    "id_image": "2010_rv_Mercedes_rv_Benz_rv_SLS_rv_AMG_rv_GT3_rv_V4_rv_1440",
    "count_view": 0
  },
  {
    "link_thumb": "https://live.staticflickr.com/65535/49888751081_56bce9251c_n.jpg",
    "id_album": "1831597390",
    "description": "2015_rv_Alfa_rv_Romeo_rv_4C_rv_V6_rv_1600",
    "title": "2015_rv_Alfa_rv_Romeo_rv_4C_rv_V6_rv_1600",
    "link_img": "https://live.staticflickr.com/65535/49888751081_9e898c5655_o.jpg",
    "id_image": "2015_rv_Alfa_rv_Romeo_rv_4C_rv_V6_rv_1600",
    "count_view": 0
  },
  {
    "link_thumb": "https://live.staticflickr.com/65535/48122339123_07af603976_n.jpg",
    "id_album": "-58240507",
    "description": "Studebaker_928896",
    "title": "Studebaker_928896",
    "link_img": "https://live.staticflickr.com/65535/48122339123_072e700b6c_o.jpg",
    "id_image": "Studebaker_928896",
    "count_view": 0
  },
  {
    "link_thumb": "https://live.staticflickr.com/65535/48122045157_173fcf4a37_n.jpg",
    "id_album": "-1217333387",
    "description": "Renault_143140",
    "title": "Renault_143140",
    "link_img": "https://live.staticflickr.com/65535/48122045157_99314f4ff7_o.jpg",
    "id_image": "Renault_143140",
    "count_view": 0
  },
  {
    "link_thumb": "https://live.staticflickr.com/65535/48112093807_76b46988b4_n.jpg",
    "id_album": "1906325017",
    "description": "Infiniti_884887",
    "title": "Infiniti_884887",
    "link_img": "https://live.staticflickr.com/65535/48112093807_3135f06d5e_o.jpg",
    "id_image": "Infiniti_884887",
    "count_view": 0
  },
  {
    "link_thumb": "https://live.staticflickr.com/65535/49890000757_5ee0e7c8e5_n.jpg",
    "id_album": "-1870649696",
    "description": "1993_rv_Ford_rv_Escort_rv_RS_rv_Cosworth_rv_V4_rv_1600",
    "title": "1993_rv_Ford_rv_Escort_rv_RS_rv_Cosworth_rv_V4_rv_1600",
    "link_img": "https://live.staticflickr.com/65535/49890000757_8028a01bcc_o.jpg",
    "id_image": "1993_rv_Ford_rv_Escort_rv_RS_rv_Cosworth_rv_V4_rv_1600",
    "count_view": 0
  },
  {
    "link_thumb": "https://live.staticflickr.com/65535/48113331662_50c8d4ffb1_n.jpg",
    "id_album": "727633301",
    "description": "BMW_925271",
    "title": "BMW_925271",
    "link_img": "https://live.staticflickr.com/65535/48113331662_aa6ab74503_o.jpg",
    "id_image": "BMW_925271",
    "count_view": 0
  },
  {
    "link_thumb": "https://live.staticflickr.com/65535/49892838097_ec73f5f818_n.jpg",
    "id_album": "883034302",
    "description": "1993_rv_Toyota_rv_Supra_rv_V8_rv_1536",
    "title": "1993_rv_Toyota_rv_Supra_rv_V8_rv_1536",
    "link_img": "https://live.staticflickr.com/65535/49892838097_3d1bf0e20a_o.jpg",
    "id_image": "1993_rv_Toyota_rv_Supra_rv_V8_rv_1536",
    "count_view": 0
  },
  {
    "link_thumb": "https://live.staticflickr.com/65535/48117781611_7ff1e108dc_n.jpg",
    "id_album": "-354267407",
    "description": "Honda_321232",
    "title": "Honda_321232",
    "link_img": "https://live.staticflickr.com/65535/48117781611_961ce43fdf_o.jpg",
    "id_image": "Honda_321232",
    "count_view": 0
  },
  {
    "link_thumb": "https://live.staticflickr.com/65535/49891642438_ea4a393e4b_n.jpg",
    "id_album": "-1890503075",
    "description": "2013_rv_Porsche_rv_Panamera_rv_GTS_rv_V3_rv_1600",
    "title": "2013_rv_Porsche_rv_Panamera_rv_GTS_rv_V3_rv_1600",
    "link_img": "https://live.staticflickr.com/65535/49891642438_f2244eaa53_o.jpg",
    "id_image": "2013_rv_Porsche_rv_Panamera_rv_GTS_rv_V3_rv_1600",
    "count_view": 0
  },
  {
    "link_thumb": "https://live.staticflickr.com/65535/49890142302_e518ea3899_n.jpg",
    "id_album": "-289181366",
    "description": "1966_rv_Shelby_rv_GT350_rv_V9_rv_1536",
    "title": "1966_rv_Shelby_rv_GT350_rv_V9_rv_1536",
    "link_img": "https://live.staticflickr.com/65535/49890142302_0804fde7fd_o.jpg",
    "id_image": "1966_rv_Shelby_rv_GT350_rv_V9_rv_1536",
    "count_view": 0
  },
  {
    "link_thumb": "https://live.staticflickr.com/65535/48118691303_99d7260e04_n.jpg",
    "id_album": "-2100339805",
    "description": "Lamborghini_928076",
    "title": "Lamborghini_928076",
    "link_img": "https://live.staticflickr.com/65535/48118691303_8796dec4ec_o.jpg",
    "id_image": "Lamborghini_928076",
    "count_view": 0
  },
  {
    "link_thumb": "https://live.staticflickr.com/65535/49889008537_2704517535_n.jpg",
    "id_album": "-1199458397",
    "description": "2005_rv_Bugatti_rv_Veyron_rv_V4_rv_1440",
    "title": "2005_rv_Bugatti_rv_Veyron_rv_V4_rv_1440",
    "link_img": "https://live.staticflickr.com/65535/49889008537_7eb2b29231_o.jpg",
    "id_image": "2005_rv_Bugatti_rv_Veyron_rv_V4_rv_1440",
    "count_view": 0
  },
  {
    "link_thumb": "https://live.staticflickr.com/65535/48120542057_6c611f58dc_n.jpg",
    "id_album": "810634050",
    "description": "Nissan_477643",
    "title": "Nissan_477643",
    "link_img": "https://live.staticflickr.com/65535/48120542057_81afd777e9_o.jpg",
    "id_image": "Nissan_477643",
    "count_view": 0
  },
  {
    "link_thumb": "https://live.staticflickr.com/65535/48117857162_7eef896faf_n.jpg",
    "id_album": "-354267407",
    "description": "Honda_250994",
    "title": "Honda_250994",
    "link_img": "https://live.staticflickr.com/65535/48117857162_cc4852db94_o.jpg",
    "id_image": "Honda_250994",
    "count_view": 0
  },
  {
    "link_thumb": "https://live.staticflickr.com/65535/49889967351_1d11c8204d_n.jpg",
    "id_album": "-836585497",
    "description": "2007_rv_Mitsubishi_rv_Lancer_rv_Evolution_rv_IX_rv_MR_rv_FQ_rv_360_rv_V6_rv_1440",
    "title": "2007_rv_Mitsubishi_rv_Lancer_rv_Evolution_rv_IX_rv_MR_rv_FQ_rv_360_rv_V6_rv_1440",
    "link_img": "https://live.staticflickr.com/65535/49889967351_03da93d4bf_o.jpg",
    "id_image": "2007_rv_Mitsubishi_rv_Lancer_rv_Evolution_rv_IX_rv_MR_rv_FQ_rv_360_rv_V6_rv_1440",
    "count_view": 0
  },
  {
    "link_thumb": "https://live.staticflickr.com/65535/48120011532_42127ff1e5_n.jpg",
    "id_album": "-731054311",
    "description": "MercedesBenz_937047",
    "title": "MercedesBenz_937047",
    "link_img": "https://live.staticflickr.com/65535/48120011532_df1437199f_o.jpg",
    "id_image": "MercedesBenz_937047",
    "count_view": 0
  },
  {
    "link_thumb": "https://live.staticflickr.com/65535/48120445738_cd25d2a338_n.jpg",
    "id_album": "810634050",
    "description": "Nissan_444415",
    "title": "Nissan_444415",
    "link_img": "https://live.staticflickr.com/65535/48120445738_2dc93490a9_o.jpg",
    "id_image": "Nissan_444415",
    "count_view": 0
  },
  {
    "link_thumb": "https://live.staticflickr.com/65535/48117781498_46985b962d_n.jpg",
    "id_album": "249743491",
    "description": "HarleyDavidson_923521",
    "title": "HarleyDavidson_923521",
    "link_img": "https://live.staticflickr.com/65535/48117781498_654efba8cf_o.jpg",
    "id_image": "HarleyDavidson_923521",
    "count_view": 0
  },
  {
    "link_thumb": "https://live.staticflickr.com/65535/48112568638_b573517ac0_n.jpg",
    "id_album": "2097036181",
    "description": "Bentley_470765",
    "title": "Bentley_470765",
    "link_img": "https://live.staticflickr.com/65535/48112568638_18326c3b12_o.jpg",
    "id_image": "Bentley_470765",
    "count_view": 0
  },
  {
    "link_thumb": "https://live.staticflickr.com/65535/49892783217_b3a792c7f1_n.jpg",
    "id_album": "884492043",
    "description": "1967_rv_Toyota_rv_2000GT_rv_V9_rv_1536",
    "title": "1967_rv_Toyota_rv_2000GT_rv_V9_rv_1536",
    "link_img": "https://live.staticflickr.com/65535/49892783217_22dd88da9a_o.jpg",
    "id_image": "1967_rv_Toyota_rv_2000GT_rv_V9_rv_1536",
    "count_view": 0
  },
  {
    "link_thumb": "https://live.staticflickr.com/65535/48122723592_61a5b65416_n.jpg",
    "id_album": "1274920659",
    "description": "Toyota_259242",
    "title": "Toyota_259242",
    "link_img": "https://live.staticflickr.com/65535/48122723592_68a841bc5e_o.jpg",
    "id_image": "Toyota_259242",
    "count_view": 0
  },
  {
    "link_thumb": "https://live.staticflickr.com/65535/48117636928_c3a068c878_n.jpg",
    "id_album": "-1846404630",
    "description": "Ford_936253",
    "title": "Ford_936253",
    "link_img": "https://live.staticflickr.com/65535/48117636928_3e39505ae1_o.jpg",
    "id_image": "Ford_936253",
    "count_view": 0
  },
  {
    "link_thumb": "https://live.staticflickr.com/65535/48112661448_a169903073_n.jpg",
    "id_album": "727633301",
    "description": "BMW_228675",
    "title": "BMW_228675",
    "link_img": "https://live.staticflickr.com/65535/48112661448_b149a74024_o.jpg",
    "id_image": "BMW_228675",
    "count_view": 0
  },
  {
    "link_thumb": "https://live.staticflickr.com/65535/49890909401_9c16fafc10_n.jpg",
    "id_album": "-173102747",
    "description": "2004_rv_Mercedes_rv_Benz_rv_SLR_rv_McLaren_rv_V9_rv_1440",
    "title": "2004_rv_Mercedes_rv_Benz_rv_SLR_rv_McLaren_rv_V9_rv_1440",
    "link_img": "https://live.staticflickr.com/65535/49890909401_4140586d6c_o.jpg",
    "id_image": "2004_rv_Mercedes_rv_Benz_rv_SLR_rv_McLaren_rv_V9_rv_1440",
    "count_view": 0
  },
  {
    "link_thumb": "https://live.staticflickr.com/65535/48117599276_c0657afa30_n.jpg",
    "id_album": "-1846404630",
    "description": "Ford_935076",
    "title": "Ford_935076",
    "link_img": "https://live.staticflickr.com/65535/48117599276_b62a720be1_o.jpg",
    "id_image": "Ford_935076",
    "count_view": 0
  },
  {
    "link_thumb": "https://live.staticflickr.com/65535/49041165152_5395dd7580_n.jpg",
    "id_album": "-1428556500",
    "description": "AlfaRomeo_595513",
    "title": "AlfaRomeo_595513",
    "link_img": "https://live.staticflickr.com/65535/49041165152_a56e221987_o.jpg",
    "id_image": "AlfaRomeo_595513",
    "count_view": 0
  },
  {
    "link_thumb": "https://live.staticflickr.com/65535/49892673021_031a5e25c7_n.jpg",
    "id_album": "1497221812",
    "description": "2015_rv_Volkswagen_rv_Scirocco_rv_R_rv_V5_rv_1600",
    "title": "2015_rv_Volkswagen_rv_Scirocco_rv_R_rv_V5_rv_1600",
    "link_img": "https://live.staticflickr.com/65535/49892673021_a8afd5b358_o.jpg",
    "id_image": "2015_rv_Volkswagen_rv_Scirocco_rv_R_rv_V5_rv_1600",
    "count_view": 0
  },
  {
    "link_thumb": "https://live.staticflickr.com/65535/48112692251_0be7b9f250_n.jpg",
    "id_album": "727633301",
    "description": "BMW_291625",
    "title": "BMW_291625",
    "link_img": "https://live.staticflickr.com/65535/48112692251_3d6c94a658_o.jpg",
    "id_image": "BMW_291625",
    "count_view": 0
  },
  {
    "link_thumb": "https://live.staticflickr.com/65535/48118540572_e0463bd8dc_n.jpg",
    "id_album": "-2100339805",
    "description": "Lamborghini_431286",
    "title": "Lamborghini_431286",
    "link_img": "https://live.staticflickr.com/65535/48118540572_2839d364fd_o.jpg",
    "id_image": "Lamborghini_431286",
    "count_view": 0
  },
  {
    "link_thumb": "https://live.staticflickr.com/65535/48119441801_a8844f8c19_n.jpg",
    "id_album": "-731054311",
    "description": "MercedesBenz_142686",
    "title": "MercedesBenz_142686",
    "link_img": "https://live.staticflickr.com/65535/48119441801_be8ff2c62d_o.jpg",
    "id_image": "MercedesBenz_142686",
    "count_view": 0
  },
  {
    "link_thumb": "https://live.staticflickr.com/65535/49889075623_3b493d2965_n.jpg",
    "id_album": "-290692475",
    "description": "2019_rv_Novitec_rv_Ferrari_rv_488_rv_Pista_rv_V1_rv_2160",
    "title": "2019_rv_Novitec_rv_Ferrari_rv_488_rv_Pista_rv_V1_rv_2160",
    "link_img": "https://live.staticflickr.com/65535/49889075623_7b6c2a23af_o.jpg",
    "id_image": "2019_rv_Novitec_rv_Ferrari_rv_488_rv_Pista_rv_V1_rv_2160",
    "count_view": 0
  },
  {
    "link_thumb": "https://live.staticflickr.com/65535/49890905561_077235e405_n.jpg",
    "id_album": "-1836340891",
    "description": "2012_rv_Mercedes_rv_Benz_rv_SLK_rv_55_rv_AMG_rv_V5_rv_2000",
    "title": "2012_rv_Mercedes_rv_Benz_rv_SLK_rv_55_rv_AMG_rv_V5_rv_2000",
    "link_img": "https://live.staticflickr.com/65535/49890905561_aa616fb4f4_o.jpg",
    "id_image": "2012_rv_Mercedes_rv_Benz_rv_SLK_rv_55_rv_AMG_rv_V5_rv_2000",
    "count_view": 0
  },
  {
    "link_thumb": "https://live.staticflickr.com/65535/48119936142_4df8127972_n.jpg",
    "id_album": "-731054311",
    "description": "MercedesBenz_906634",
    "title": "MercedesBenz_906634",
    "link_img": "https://live.staticflickr.com/65535/48119936142_3b5d8b7f4a_o.jpg",
    "id_image": "MercedesBenz_906634",
    "count_view": 0
  },
  {
    "link_thumb": "https://live.staticflickr.com/65535/48112641007_c76260b338_n.jpg",
    "id_album": "2097036181",
    "description": "Bentley_481272",
    "title": "Bentley_481272",
    "link_img": "https://live.staticflickr.com/65535/48112641007_2443deda68_o.jpg",
    "id_image": "Bentley_481272",
    "count_view": 0
  },
  {
    "link_thumb": "https://live.staticflickr.com/65535/48122751042_5aca57dd30_n.jpg",
    "id_album": "1274920659",
    "description": "Toyota_400202",
    "title": "Toyota_400202",
    "link_img": "https://live.staticflickr.com/65535/48122751042_7067ed7444_o.jpg",
    "id_image": "Toyota_400202",
    "count_view": 0
  },
  {
    "link_thumb": "https://live.staticflickr.com/65535/48118722773_0e5fa38a9a_n.jpg",
    "id_album": "-2100339805",
    "description": "Lamborghini_941532",
    "title": "Lamborghini_941532",
    "link_img": "https://live.staticflickr.com/65535/48118722773_8fb1a902fb_o.jpg",
    "id_image": "Lamborghini_941532",
    "count_view": 0
  },
  {
    "link_thumb": "https://live.staticflickr.com/65535/48114342051_2b47664a09_n.jpg",
    "id_album": "-1721545051",
    "description": "Chevrolet_503014",
    "title": "Chevrolet_503014",
    "link_img": "https://live.staticflickr.com/65535/48114342051_c08d67a9d3_o.jpg",
    "id_image": "Chevrolet_503014",
    "count_view": 0
  },
  {
    "link_thumb": "https://live.staticflickr.com/65535/48122832766_9c86a1a0e5_n.jpg",
    "id_album": "1274920659",
    "description": "Toyota_977036",
    "title": "Toyota_977036",
    "link_img": "https://live.staticflickr.com/65535/48122832766_9e1c97ff77_o.jpg",
    "id_image": "Toyota_977036",
    "count_view": 0
  },
  {
    "link_thumb": "https://live.staticflickr.com/65535/48114691987_6351692fcb_n.jpg",
    "id_album": "-1721545051",
    "description": "Chevrolet_880020",
    "title": "Chevrolet_880020",
    "link_img": "https://live.staticflickr.com/65535/48114691987_9b5ff78c95_o.jpg",
    "id_image": "Chevrolet_880020",
    "count_view": 0
  },
  {
    "link_thumb": "https://live.staticflickr.com/65535/48119758407_45d0d6fd83_n.jpg",
    "id_album": "-731054311",
    "description": "MercedesBenz_434425",
    "title": "MercedesBenz_434425",
    "link_img": "https://live.staticflickr.com/65535/48119758407_ce8fac9bc0_o.jpg",
    "id_image": "MercedesBenz_434425",
    "count_view": 0
  },
  {
    "link_thumb": "https://live.staticflickr.com/65535/49888773963_8ee80b3e9a_n.jpg",
    "id_album": "1016927281",
    "description": "2018_rv_Porsche_rv_911_rv_Carrera_rv_T_rv_V4_rv_2000",
    "title": "2018_rv_Porsche_rv_911_rv_Carrera_rv_T_rv_V4_rv_2000",
    "link_img": "https://live.staticflickr.com/65535/49888773963_f2a7ff82c8_o.jpg",
    "id_image": "2018_rv_Porsche_rv_911_rv_Carrera_rv_T_rv_V4_rv_2000",
    "count_view": 0
  },
  {
    "link_thumb": "https://live.staticflickr.com/65535/49888647173_b7087e05d2_n.jpg",
    "id_album": "-1077631613",
    "description": "2019_rv_BMW_rv_Vision_rv_M_rv_Next_rv_Concept_rv_V6_rv_2160",
    "title": "2019_rv_BMW_rv_Vision_rv_M_rv_Next_rv_Concept_rv_V6_rv_2160",
    "link_img": "https://live.staticflickr.com/65535/49888647173_91aa4c9671_o.jpg",
    "id_image": "2019_rv_BMW_rv_Vision_rv_M_rv_Next_rv_Concept_rv_V6_rv_2160",
    "count_view": 0
  },
  {
    "link_thumb": "https://live.staticflickr.com/65535/48119302558_824c19cd5b_n.jpg",
    "id_album": "990865885",
    "description": "McLaren_348382",
    "title": "McLaren_348382",
    "link_img": "https://live.staticflickr.com/65535/48119302558_66eded997e_o.jpg",
    "id_image": "McLaren_348382",
    "count_view": 0
  },
  {
    "link_thumb": "https://live.staticflickr.com/65535/48123029891_c8351911c6_n.jpg",
    "id_album": "-150952028",
    "description": "Volkswagen_883915",
    "title": "Volkswagen_883915",
    "link_img": "https://live.staticflickr.com/65535/48123029891_0b71729545_o.jpg",
    "id_image": "Volkswagen_883915",
    "count_view": 0
  },
  {
    "link_thumb": "https://live.staticflickr.com/65535/49890259172_3f7e48291b_n.jpg",
    "id_album": "-45591240",
    "description": "2015_rv_Infiniti_rv_QX30_rv_Concept_rv_V3_rv_1600",
    "title": "2015_rv_Infiniti_rv_QX30_rv_Concept_rv_V3_rv_1600",
    "link_img": "https://live.staticflickr.com/65535/49890259172_ba195881cf_o.jpg",
    "id_image": "2015_rv_Infiniti_rv_QX30_rv_Concept_rv_V3_rv_1600",
    "count_view": 0
  },
  {
    "link_thumb": "https://live.staticflickr.com/65535/48117782133_a5da3efd57_n.jpg",
    "id_album": "249743491",
    "description": "HarleyDavidson_923525",
    "title": "HarleyDavidson_923525",
    "link_img": "https://live.staticflickr.com/65535/48117782133_877246aa6b_o.jpg",
    "id_image": "HarleyDavidson_923525",
    "count_view": 0
  },
  {
    "link_thumb": "https://live.staticflickr.com/65535/49889476331_4d01eff82f_n.jpg",
    "id_album": "1472427359",
    "description": "2011_rv_Ferrari_rv_458_rv_Italia_rv_V4_rv_1440",
    "title": "2011_rv_Ferrari_rv_458_rv_Italia_rv_V4_rv_1440",
    "link_img": "https://live.staticflickr.com/65535/49889476331_9fe6ea320f_o.jpg",
    "id_image": "2011_rv_Ferrari_rv_458_rv_Italia_rv_V4_rv_1440",
    "count_view": 0
  },
  {
    "link_thumb": "https://live.staticflickr.com/65535/48119117422_c4d73f65de_n.jpg",
    "id_album": "-1153253263",
    "description": "Lotus_80186",
    "title": "Lotus_80186",
    "link_img": "https://live.staticflickr.com/65535/48119117422_efa437cf5a_o.jpg",
    "id_image": "Lotus_80186",
    "count_view": 0
  },
  {
    "link_thumb": "https://live.staticflickr.com/65535/48117007363_b72c71a92c_n.jpg",
    "id_album": "-1846404630",
    "description": "Ford_296922",
    "title": "Ford_296922",
    "link_img": "https://live.staticflickr.com/65535/48117007363_0e4ba7f02a_o.jpg",
    "id_image": "Ford_296922",
    "count_view": 0
  },
  {
    "link_thumb": "https://live.staticflickr.com/65535/49889782541_c87d147fff_n.jpg",
    "id_album": "-2000398090",
    "description": "2011_rv_Ford_rv_FPV_rv_GT_rv_V1_rv_1440",
    "title": "2011_rv_Ford_rv_FPV_rv_GT_rv_V1_rv_1440",
    "link_img": "https://live.staticflickr.com/65535/49889782541_d6fa2d2565_o.jpg",
    "id_image": "2011_rv_Ford_rv_FPV_rv_GT_rv_V1_rv_1440",
    "count_view": 0
  },
  {
    "link_thumb": "https://live.staticflickr.com/65535/49890870298_30262e989e_n.jpg",
    "id_album": "-857328710",
    "description": "2013_rv_Porsche_rv_Boxster_rv_S_rv_V9_rv_1536",
    "title": "2013_rv_Porsche_rv_Boxster_rv_S_rv_V9_rv_1536",
    "link_img": "https://live.staticflickr.com/65535/49890870298_dbd57eb2cd_o.jpg",
    "id_image": "2013_rv_Porsche_rv_Boxster_rv_S_rv_V9_rv_1536",
    "count_view": 0
  },
  {
    "link_thumb": "https://live.staticflickr.com/65535/48115547738_c812215db4_n.jpg",
    "id_album": "413141323",
    "description": "Dodge_890217",
    "title": "Dodge_890217",
    "link_img": "https://live.staticflickr.com/65535/48115547738_68b9303863_o.jpg",
    "id_image": "Dodge_890217",
    "count_view": 0
  },
  {
    "link_thumb": "https://live.staticflickr.com/65535/48120775338_019b7f0639_n.jpg",
    "id_album": "1952909762",
    "description": "Packard_741785",
    "title": "Packard_741785",
    "link_img": "https://live.staticflickr.com/65535/48120775338_b1368e0c04_o.jpg",
    "id_image": "Packard_741785",
    "count_view": 0
  },
  {
    "link_thumb": "https://live.staticflickr.com/65535/48122017463_87ab5b31fb_n.jpg",
    "id_album": "-1217333387",
    "description": "Renault_257731",
    "title": "Renault_257731",
    "link_img": "https://live.staticflickr.com/65535/48122017463_f4c0f10436_o.jpg",
    "id_image": "Renault_257731",
    "count_view": 0
  },
  {
    "link_thumb": "https://live.staticflickr.com/65535/48116521411_6ebcd98001_n.jpg",
    "id_album": "-1846404630",
    "description": "Ford_124303",
    "title": "Ford_124303",
    "link_img": "https://live.staticflickr.com/65535/48116521411_33604a7dc7_o.jpg",
    "id_image": "Ford_124303",
    "count_view": 0
  },
  {
    "link_thumb": "https://live.staticflickr.com/65535/48121272328_1881bf3e2d_n.jpg",
    "id_album": "-1178450892",
    "description": "Porsche_250027",
    "title": "Porsche_250027",
    "link_img": "https://live.staticflickr.com/65535/48121272328_45540ef6f2_o.jpg",
    "id_image": "Porsche_250027",
    "count_view": 0
  },
  {
    "link_thumb": "https://live.staticflickr.com/65535/48116854873_18a89ea1b2_n.jpg",
    "id_album": "-1846404630",
    "description": "Ford_241480",
    "title": "Ford_241480",
    "link_img": "https://live.staticflickr.com/65535/48116854873_71c78706d5_o.jpg",
    "id_image": "Ford_241480",
    "count_view": 0
  },
  {
    "link_thumb": "https://live.staticflickr.com/65535/48112440553_4d3e3ea329_n.jpg",
    "id_album": "-15119147",
    "description": "Audi_814219",
    "title": "Audi_814219",
    "link_img": "https://live.staticflickr.com/65535/48112440553_06e997f23c_o.jpg",
    "id_image": "Audi_814219",
    "count_view": 0
  },
  {
    "link_thumb": "https://live.staticflickr.com/65535/48117987736_428fa5bd1a_n.jpg",
    "id_album": "-843028318",
    "description": "Jaguar_497825",
    "title": "Jaguar_497825",
    "link_img": "https://live.staticflickr.com/65535/48117987736_27b9534ed6_o.jpg",
    "id_image": "Jaguar_497825",
    "count_view": 0
  },
  {
    "link_thumb": "https://live.staticflickr.com/65535/49890160266_1f802be15e_n.jpg",
    "id_album": "-936716449",
    "description": "2018_rv_Lamborghini_rv_Huracan_rv_Performante_rv_V6_rv_2000",
    "title": "2018_rv_Lamborghini_rv_Huracan_rv_Performante_rv_V6_rv_2000",
    "link_img": "https://live.staticflickr.com/65535/49890160266_a3f091e53d_o.jpg",
    "id_image": "2018_rv_Lamborghini_rv_Huracan_rv_Performante_rv_V6_rv_2000",
    "count_view": 0
  },
  {
    "link_thumb": "https://live.staticflickr.com/65535/49890222252_35177fc431_n.jpg",
    "id_album": "-1858288861",
    "description": "2001_rv_Honda_rv_Integra_rv_Type_rv_R_rv_V4_rv_1536",
    "title": "2001_rv_Honda_rv_Integra_rv_Type_rv_R_rv_V4_rv_1536",
    "link_img": "https://live.staticflickr.com/65535/49890222252_cc91a9b39c_o.jpg",
    "id_image": "2001_rv_Honda_rv_Integra_rv_Type_rv_R_rv_V4_rv_1536",
    "count_view": 0
  },
  {
    "link_thumb": "https://live.staticflickr.com/65535/48112781847_79da1ff480_n.jpg",
    "id_album": "727633301",
    "description": "BMW_272820",
    "title": "BMW_272820",
    "link_img": "https://live.staticflickr.com/65535/48112781847_39b6f44149_o.jpg",
    "id_image": "BMW_272820",
    "count_view": 0
  },
  {
    "link_thumb": "https://live.staticflickr.com/65535/48119039166_d1f6e00974_n.jpg",
    "id_album": "-1153253263",
    "description": "Lotus_918582",
    "title": "Lotus_918582",
    "link_img": "https://live.staticflickr.com/65535/48119039166_9f9ed08d24_o.jpg",
    "id_image": "Lotus_918582",
    "count_view": 0
  },
  {
    "link_thumb": "https://live.staticflickr.com/65535/49889652311_1656ec89e9_n.jpg",
    "id_album": "-135411974",
    "description": "1965_rv_Ford_rv_Mustang_rv_Fastback_rv_V7_rv_1536",
    "title": "1965_rv_Ford_rv_Mustang_rv_Fastback_rv_V7_rv_1536",
    "link_img": "https://live.staticflickr.com/65535/49889652311_561f453bb0_o.jpg",
    "id_image": "1965_rv_Ford_rv_Mustang_rv_Fastback_rv_V7_rv_1536",
    "count_view": 0
  },
  {
    "link_thumb": "https://live.staticflickr.com/65535/49890088046_f391f74575_n.jpg",
    "id_album": "-59902933",
    "description": "2013_rv_Lamborghini_rv_Aventador_rv_LP720_rv_4_rv_50_rv_Anniversario_rv_V6_rv_1600",
    "title": "2013_rv_Lamborghini_rv_Aventador_rv_LP720_rv_4_rv_50_rv_Anniversario_rv_V6_rv_1600",
    "link_img": "https://live.staticflickr.com/65535/49890088046_24730c27e2_o.jpg",
    "id_image": "2013_rv_Lamborghini_rv_Aventador_rv_LP720_rv_4_rv_50_rv_Anniversario_rv_V6_rv_1600",
    "count_view": 0
  },
  {
    "link_thumb": "https://live.staticflickr.com/65535/49889809527_473beab5f5_n.jpg",
    "id_album": "665596160",
    "description": "1991_rv_Ferrari_rv_512_rv_TR_rv_V11_rv_2000",
    "title": "1991_rv_Ferrari_rv_512_rv_TR_rv_V11_rv_2000",
    "link_img": "https://live.staticflickr.com/65535/49889809527_d937bf9e8d_o.jpg",
    "id_image": "1991_rv_Ferrari_rv_512_rv_TR_rv_V11_rv_2000",
    "count_view": 0
  },
  {
    "link_thumb": "https://live.staticflickr.com/65535/49892638046_b1bda05c68_n.jpg",
    "id_album": "1976782767",
    "description": "2015_rv_Vencer_rv_Sarthe_rv_V3_rv_1600",
    "title": "2015_rv_Vencer_rv_Sarthe_rv_V3_rv_1600",
    "link_img": "https://live.staticflickr.com/65535/49892638046_6c015f0383_o.jpg",
    "id_image": "2015_rv_Vencer_rv_Sarthe_rv_V3_rv_1600",
    "count_view": 0
  },
  {
    "link_thumb": "https://live.staticflickr.com/65535/48112379992_0aab370729_n.jpg",
    "id_album": "-15119147",
    "description": "Audi_362249",
    "title": "Audi_362249",
    "link_img": "https://live.staticflickr.com/65535/48112379992_7db3a3dbfe_o.jpg",
    "id_image": "Audi_362249",
    "count_view": 0
  },
  {
    "link_thumb": "https://live.staticflickr.com/65535/48112669547_5365e50d98_n.jpg",
    "id_album": "2097036181",
    "description": "Bentley_891466",
    "title": "Bentley_891466",
    "link_img": "https://live.staticflickr.com/65535/48112669547_830963af08_o.jpg",
    "id_image": "Bentley_891466",
    "count_view": 0
  },
  {
    "link_thumb": "https://live.staticflickr.com/65535/48120829333_c19784b8c1_n.jpg",
    "id_album": "1952909762",
    "description": "Packard_928141",
    "title": "Packard_928141",
    "link_img": "https://live.staticflickr.com/65535/48120829333_59b869268b_o.jpg",
    "id_image": "Packard_928141",
    "count_view": 0
  },
  {
    "link_thumb": "https://live.staticflickr.com/65535/49892273901_7ef5248170_n.jpg",
    "id_album": "-135265162",
    "description": "2008_rv_Renault_rv_Twingo_rv_Sport_rv_V3_rv_1440",
    "title": "2008_rv_Renault_rv_Twingo_rv_Sport_rv_V3_rv_1440",
    "link_img": "https://live.staticflickr.com/65535/49892273901_800f18651b_o.jpg",
    "id_image": "2008_rv_Renault_rv_Twingo_rv_Sport_rv_V3_rv_1440",
    "count_view": 0
  },
  {
    "link_thumb": "https://live.staticflickr.com/65535/48117841821_0c15e2bef1_n.jpg",
    "id_album": "-354267407",
    "description": "Honda_681604",
    "title": "Honda_681604",
    "link_img": "https://live.staticflickr.com/65535/48117841821_1f332af188_o.jpg",
    "id_image": "Honda_681604",
    "count_view": 0
  },
  {
    "link_thumb": "https://live.staticflickr.com/65535/48123244881_f018e0c38f_n.jpg",
    "id_album": "-1178450892",
    "description": "Porsche_980264",
    "title": "Porsche_980264",
    "link_img": "https://live.staticflickr.com/65535/48123244881_9bd9ec2a7b_o.jpg",
    "id_image": "Porsche_980264",
    "count_view": 0
  },
  {
    "link_thumb": "https://live.staticflickr.com/65535/48112735787_6cde0b64ec_n.jpg",
    "id_album": "727633301",
    "description": "BMW_251800",
    "title": "BMW_251800",
    "link_img": "https://live.staticflickr.com/65535/48112735787_3952854913_o.jpg",
    "id_image": "BMW_251800",
    "count_view": 0
  },
  {
    "link_thumb": "https://live.staticflickr.com/65535/49890360633_a2a50c1d33_n.jpg",
    "id_album": "-504136416",
    "description": "2015_rv_Mercedes_rv_Benz_rv_S63_rv_AMG_rv_Coupe_rv_V11_rv_1600",
    "title": "2015_rv_Mercedes_rv_Benz_rv_S63_rv_AMG_rv_Coupe_rv_V11_rv_1600",
    "link_img": "https://live.staticflickr.com/65535/49890360633_b6fc114c81_o.jpg",
    "id_image": "2015_rv_Mercedes_rv_Benz_rv_S63_rv_AMG_rv_Coupe_rv_V11_rv_1600",
    "count_view": 0
  },
  {
    "link_thumb": "https://live.staticflickr.com/65535/48122625978_bf106a50d0_n.jpg",
    "id_album": "1822826527",
    "description": "TeslaMotors_942389",
    "title": "TeslaMotors_942389",
    "link_img": "https://live.staticflickr.com/65535/48122625978_2c88e696c3_o.jpg",
    "id_image": "TeslaMotors_942389",
    "count_view": 0
  },
  {
    "link_thumb": "https://live.staticflickr.com/65535/49890167928_b1f60925d5_n.jpg",
    "id_album": "-538739456",
    "description": "2015_rv_Mercedes_rv_Benz_rv_C63_rv_AMG_rv_V3_rv_1600",
    "title": "2015_rv_Mercedes_rv_Benz_rv_C63_rv_AMG_rv_V3_rv_1600",
    "link_img": "https://live.staticflickr.com/65535/49890167928_7e0051cd7b_o.jpg",
    "id_image": "2015_rv_Mercedes_rv_Benz_rv_C63_rv_AMG_rv_V3_rv_1600",
    "count_view": 0
  },
  {
    "link_thumb": "https://live.staticflickr.com/65535/49889913966_5a26487a3b_n.jpg",
    "id_album": "-865647970",
    "description": "1990_rv_Honda_rv_NSX_rv_V8_rv_1536",
    "title": "1990_rv_Honda_rv_NSX_rv_V8_rv_1536",
    "link_img": "https://live.staticflickr.com/65535/49889913966_371eb39fd6_o.jpg",
    "id_image": "1990_rv_Honda_rv_NSX_rv_V8_rv_1536",
    "count_view": 0
  },
  {
    "link_thumb": "https://live.staticflickr.com/65535/48112743626_ff6c57fbb8_n.jpg",
    "id_album": "727633301",
    "description": "BMW_405663",
    "title": "BMW_405663",
    "link_img": "https://live.staticflickr.com/65535/48112743626_8ce1d68816_o.jpg",
    "id_image": "BMW_405663",
    "count_view": 0
  },
  {
    "link_thumb": "https://live.staticflickr.com/65535/48123162068_f931d28af0_n.jpg",
    "id_album": "1159292543",
    "description": "Volvo_450518",
    "title": "Volvo_450518",
    "link_img": "https://live.staticflickr.com/65535/48123162068_f781c549c1_o.jpg",
    "id_image": "Volvo_450518",
    "count_view": 0
  },
  {
    "link_thumb": "https://live.staticflickr.com/65535/48118803162_ea3c81f0f4_n.jpg",
    "id_album": "-2100339805",
    "description": "Lamborghini_971267",
    "title": "Lamborghini_971267",
    "link_img": "https://live.staticflickr.com/65535/48118803162_2a4ffec0c2_o.jpg",
    "id_image": "Lamborghini_971267",
    "count_view": 0
  },
  {
    "link_thumb": "https://live.staticflickr.com/65535/48112270373_eeed137a21_n.jpg",
    "id_album": "-15119147",
    "description": "Audi_207214",
    "title": "Audi_207214",
    "link_img": "https://live.staticflickr.com/65535/48112270373_fc7a660e2b_o.jpg",
    "id_image": "Audi_207214",
    "count_view": 0
  },
  {
    "link_thumb": "https://live.staticflickr.com/65535/48118988768_57ef495195_n.jpg",
    "id_album": "446908717",
    "description": "Lexus_949758",
    "title": "Lexus_949758",
    "link_img": "https://live.staticflickr.com/65535/48118988768_f5e7df1e95_o.jpg",
    "id_image": "Lexus_949758",
    "count_view": 0
  },
  {
    "link_thumb": "https://live.staticflickr.com/65535/49889339863_f97ac45639_n.jpg",
    "id_album": "1891022534",
    "description": "2004_rv_Volkswagen_rv_Golf_rv_GTI_rv_V5_rv_1440",
    "title": "2004_rv_Volkswagen_rv_Golf_rv_GTI_rv_V5_rv_1440",
    "link_img": "https://live.staticflickr.com/65535/49889339863_5dbbb25146_o.jpg",
    "id_image": "2004_rv_Volkswagen_rv_Golf_rv_GTI_rv_V5_rv_1440",
    "count_view": 0
  },
  {
    "link_thumb": "https://live.staticflickr.com/65535/48118216003_3fc030a1c0_n.jpg",
    "id_album": "-625217782",
    "description": "Kia_985086",
    "title": "Kia_985086",
    "link_img": "https://live.staticflickr.com/65535/48118216003_3503b3f82f_o.jpg",
    "id_image": "Kia_985086",
    "count_view": 0
  },
  {
    "link_thumb": "https://live.staticflickr.com/65535/48121246601_3f704d59d2_n.jpg",
    "id_album": "-1178450892",
    "description": "Porsche_257620",
    "title": "Porsche_257620",
    "link_img": "https://live.staticflickr.com/65535/48121246601_9be12383d9_o.jpg",
    "id_image": "Porsche_257620",
    "count_view": 0
  },
  {
    "link_thumb": "https://live.staticflickr.com/65535/49892141996_44bb7bb77b_n.jpg",
    "id_album": "-522462605",
    "description": "1976_rv_Porsche_rv_935_rv_V2_rv_1440",
    "title": "1976_rv_Porsche_rv_935_rv_V2_rv_1440",
    "link_img": "https://live.staticflickr.com/65535/49892141996_1199487f52_o.jpg",
    "id_image": "1976_rv_Porsche_rv_935_rv_V2_rv_1440",
    "count_view": 0
  },
  {
    "link_thumb": "https://live.staticflickr.com/65535/49892630357_8849c740b2_n.jpg",
    "id_album": "-1205337898",
    "description": "2014_rv_Seat_rv_Leon_rv_Cupra_rv_280_rv_V2_rv_1600",
    "title": "2014_rv_Seat_rv_Leon_rv_Cupra_rv_280_rv_V2_rv_1600",
    "link_img": "https://live.staticflickr.com/65535/49892630357_6c57cc0d52_o.jpg",
    "id_image": "2014_rv_Seat_rv_Leon_rv_Cupra_rv_280_rv_V2_rv_1600",
    "count_view": 0
  },
  {
    "link_thumb": "https://live.staticflickr.com/65535/48118349858_2f5be07dae_n.jpg",
    "id_album": "-2100339805",
    "description": "Lamborghini_318525",
    "title": "Lamborghini_318525",
    "link_img": "https://live.staticflickr.com/65535/48118349858_79b45565e2_o.jpg",
    "id_image": "Lamborghini_318525",
    "count_view": 0
  },
  {
    "link_thumb": "https://live.staticflickr.com/65535/48113690267_b6d235a24e_n.jpg",
    "id_album": "-680120434",
    "description": "Cadillac_631183",
    "title": "Cadillac_631183",
    "link_img": "https://live.staticflickr.com/65535/48113690267_2097089ff1_o.jpg",
    "id_image": "Cadillac_631183",
    "count_view": 0
  },
  {
    "link_thumb": "https://live.staticflickr.com/65535/48112594766_611f76f1f1_n.jpg",
    "id_album": "727633301",
    "description": "BMW_107678",
    "title": "BMW_107678",
    "link_img": "https://live.staticflickr.com/65535/48112594766_ff28438786_o.jpg",
    "id_image": "BMW_107678",
    "count_view": 0
  },
  {
    "link_thumb": "https://live.staticflickr.com/65535/49040446538_e24913b669_n.jpg",
    "id_album": "-1428556500",
    "description": "AlfaRomeo_469107",
    "title": "AlfaRomeo_469107",
    "link_img": "https://live.staticflickr.com/65535/49040446538_2825058bf7_o.jpg",
    "id_image": "AlfaRomeo_469107",
    "count_view": 0
  },
  {
    "link_thumb": "https://live.staticflickr.com/65535/48117720298_fd2c012844_n.jpg",
    "id_album": "-885504812",
    "description": "GMC_179088",
    "title": "GMC_179088",
    "link_img": "https://live.staticflickr.com/65535/48117720298_b684ac0a85_o.jpg",
    "id_image": "GMC_179088",
    "count_view": 0
  },
  {
    "link_thumb": "https://live.staticflickr.com/65535/49891714963_056d8ea778_n.jpg",
    "id_album": "200874695",
    "description": "1985_rv_Renault_rv_Alpine_rv_GTA_rv_V6_rv_V1_rv_1536",
    "title": "1985_rv_Renault_rv_Alpine_rv_GTA_rv_V6_rv_V1_rv_1536",
    "link_img": "https://live.staticflickr.com/65535/49891714963_e879a71449_o.jpg",
    "id_image": "1985_rv_Renault_rv_Alpine_rv_GTA_rv_V6_rv_V1_rv_1536",
    "count_view": 0
  },
  {
    "link_thumb": "https://live.staticflickr.com/65535/48119290197_3fd49c16b8_n.jpg",
    "id_album": "898314866",
    "description": "Mazda_318873",
    "title": "Mazda_318873",
    "link_img": "https://live.staticflickr.com/65535/48119290197_58cba9c609_o.jpg",
    "id_image": "Mazda_318873",
    "count_view": 0
  },
  {
    "link_thumb": "https://live.staticflickr.com/65535/48118127788_a57e7f6ea8_n.jpg",
    "id_album": "-2009218697",
    "description": "Jeep_436067",
    "title": "Jeep_436067",
    "link_img": "https://live.staticflickr.com/65535/48118127788_68f2bb4237_o.jpg",
    "id_image": "Jeep_436067",
    "count_view": 0
  },
  {
    "link_thumb": "https://live.staticflickr.com/65535/49889665128_0cccb42193_n.jpg",
    "id_album": "-1038321311",
    "description": "1968_rv_Lamborghini_rv_Miura_rv_Jota_rv_SVR_rv_V1_rv_2000",
    "title": "1968_rv_Lamborghini_rv_Miura_rv_Jota_rv_SVR_rv_V1_rv_2000",
    "link_img": "https://live.staticflickr.com/65535/49889665128_2dc4c30ddb_o.jpg",
    "id_image": "1968_rv_Lamborghini_rv_Miura_rv_Jota_rv_SVR_rv_V1_rv_2000",
    "count_view": 0
  },
  {
    "link_thumb": "https://live.staticflickr.com/65535/49891420641_17c81057fc_n.jpg",
    "id_album": "-1183625650",
    "description": "2015_rv_Porsche_rv_Mission_rv_E_rv_Concept_rv_V4_rv_1600",
    "title": "2015_rv_Porsche_rv_Mission_rv_E_rv_Concept_rv_V4_rv_1600",
    "link_img": "https://live.staticflickr.com/65535/49891420641_fa3c8a4454_o.jpg",
    "id_image": "2015_rv_Porsche_rv_Mission_rv_E_rv_Concept_rv_V4_rv_1600",
    "count_view": 0
  },
  {
    "link_thumb": "https://live.staticflickr.com/65535/49890568672_d24c402707_n.jpg",
    "id_album": "-313731277",
    "description": "2013_rv_Laraki_rv_Epitome_rv_Concept_rv_V2_rv_1440",
    "title": "2013_rv_Laraki_rv_Epitome_rv_Concept_rv_V2_rv_1440",
    "link_img": "https://live.staticflickr.com/65535/49890568672_26ea66ed37_o.jpg",
    "id_image": "2013_rv_Laraki_rv_Epitome_rv_Concept_rv_V2_rv_1440",
    "count_view": 0
  },
  {
    "link_thumb": "https://live.staticflickr.com/65535/48120413751_1966144c08_n.jpg",
    "id_album": "810634050",
    "description": "Nissan_444406",
    "title": "Nissan_444406",
    "link_img": "https://live.staticflickr.com/65535/48120413751_cf1cd4348e_o.jpg",
    "id_image": "Nissan_444406",
    "count_view": 0
  },
  {
    "link_thumb": "https://live.staticflickr.com/65535/48115705403_1a5d488a54_n.jpg",
    "id_album": "1364506720",
    "description": "Ferrari_249407",
    "title": "Ferrari_249407",
    "link_img": "https://live.staticflickr.com/65535/48115705403_49945dbced_o.jpg",
    "id_image": "Ferrari_249407",
    "count_view": 0
  },
  {
    "link_thumb": "https://live.staticflickr.com/65535/48115734153_5dfc065e50_n.jpg",
    "id_album": "1364506720",
    "description": "Ferrari_265836",
    "title": "Ferrari_265836",
    "link_img": "https://live.staticflickr.com/65535/48115734153_cb411fd28e_o.jpg",
    "id_image": "Ferrari_265836",
    "count_view": 0
  },
  {
    "link_thumb": "https://live.staticflickr.com/65535/49892141121_d3605193a5_n.jpg",
    "id_album": "-1127516857",
    "description": "2012_rv_Novitec_rv_Rosso_rv_Ferrari_rv_458_rv_Spider_rv_V2_rv_1440",
    "title": "2012_rv_Novitec_rv_Rosso_rv_Ferrari_rv_458_rv_Spider_rv_V2_rv_1440",
    "link_img": "https://live.staticflickr.com/65535/49892141121_6c670a7432_o.jpg",
    "id_image": "2012_rv_Novitec_rv_Rosso_rv_Ferrari_rv_458_rv_Spider_rv_V2_rv_1440",
    "count_view": 0
  },
  {
    "link_thumb": "https://live.staticflickr.com/65535/48116337953_30647b8d53_n.jpg",
    "id_album": "1364506720",
    "description": "Ferrari_813190",
    "title": "Ferrari_813190",
    "link_img": "https://live.staticflickr.com/65535/48116337953_3b0cb5fea8_o.jpg",
    "id_image": "Ferrari_813190",
    "count_view": 0
  },
  {
    "link_thumb": "https://live.staticflickr.com/65535/48122858241_726972fc67_n.jpg",
    "id_album": "-150952028",
    "description": "Volkswagen_210422",
    "title": "Volkswagen_210422",
    "link_img": "https://live.staticflickr.com/65535/48122858241_a5d1e2193e_o.jpg",
    "id_image": "Volkswagen_210422",
    "count_view": 0
  },
  {
    "link_thumb": "https://live.staticflickr.com/65535/49889904952_28db669bcf_n.jpg",
    "id_album": "-290692475",
    "description": "2019_rv_Novitec_rv_Ferrari_rv_812_rv_Superfast_rv_N_rv_Largo_rv_V1_rv_2160",
    "title": "2019_rv_Novitec_rv_Ferrari_rv_812_rv_Superfast_rv_N_rv_Largo_rv_V1_rv_2160",
    "link_img": "https://live.staticflickr.com/65535/49889904952_7fc84a841b_o.jpg",
    "id_image": "2019_rv_Novitec_rv_Ferrari_rv_812_rv_Superfast_rv_N_rv_Largo_rv_V1_rv_2160",
    "count_view": 0
  },
  {
    "link_thumb": "https://live.staticflickr.com/65535/48115448491_f9de420e64_n.jpg",
    "id_album": "413141323",
    "description": "Dodge_685349",
    "title": "Dodge_685349",
    "link_img": "https://live.staticflickr.com/65535/48115448491_65c2d9fd0c_o.jpg",
    "id_image": "Dodge_685349",
    "count_view": 0
  },
  {
    "link_thumb": "https://live.staticflickr.com/65535/48122056908_013eec30b6_n.jpg",
    "id_album": "-1217333387",
    "description": "Renault_611661",
    "title": "Renault_611661",
    "link_img": "https://live.staticflickr.com/65535/48122056908_96e30480f3_o.jpg",
    "id_image": "Renault_611661",
    "count_view": 0
  },
  {
    "link_thumb": "https://live.staticflickr.com/65535/49892276511_5bac815470_n.jpg",
    "id_album": "-135265162",
    "description": "2017_rv_Renault_rv_Twingo_rv_GT_rv_V3_rv_2000",
    "title": "2017_rv_Renault_rv_Twingo_rv_GT_rv_V3_rv_2000",
    "link_img": "https://live.staticflickr.com/65535/49892276511_20e212a8fd_o.jpg",
    "id_image": "2017_rv_Renault_rv_Twingo_rv_GT_rv_V3_rv_2000",
    "count_view": 0
  },
  {
    "link_thumb": "https://live.staticflickr.com/65535/48112937697_a74b8baf2e_n.jpg",
    "id_album": "727633301",
    "description": "BMW_476760",
    "title": "BMW_476760",
    "link_img": "https://live.staticflickr.com/65535/48112937697_a6ef4a0744_o.jpg",
    "id_image": "BMW_476760",
    "count_view": 0
  },
  {
    "link_thumb": "https://live.staticflickr.com/65535/49890137426_5b050773e6_n.jpg",
    "id_album": "636428280",
    "description": "2006_rv_Lamborghini_rv_Gallardo_rv_Spyder_rv_V4_rv_1440",
    "title": "2006_rv_Lamborghini_rv_Gallardo_rv_Spyder_rv_V4_rv_1440",
    "link_img": "https://live.staticflickr.com/65535/49890137426_399a3f4cec_o.jpg",
    "id_image": "2006_rv_Lamborghini_rv_Gallardo_rv_Spyder_rv_V4_rv_1440",
    "count_view": 0
  },
  {
    "link_thumb": "https://live.staticflickr.com/65535/48113579671_13dd858fe5_n.jpg",
    "id_album": "-680120434",
    "description": "Cadillac_498519",
    "title": "Cadillac_498519",
    "link_img": "https://live.staticflickr.com/65535/48113579671_0e88bc7f06_o.jpg",
    "id_image": "Cadillac_498519",
    "count_view": 0
  },
  {
    "link_thumb": "https://live.staticflickr.com/65535/48122565201_b9c3f40ec6_n.jpg",
    "id_album": "1822826527",
    "description": "TeslaMotors_414183",
    "title": "TeslaMotors_414183",
    "link_img": "https://live.staticflickr.com/65535/48122565201_6ccb131051_o.jpg",
    "id_image": "TeslaMotors_414183",
    "count_view": 0
  },
  {
    "link_thumb": "https://live.staticflickr.com/65535/48119384208_aa20dd2eb8_n.jpg",
    "id_album": "990865885",
    "description": "McLaren_844346",
    "title": "McLaren_844346",
    "link_img": "https://live.staticflickr.com/65535/48119384208_cacd92817d_o.jpg",
    "id_image": "McLaren_844346",
    "count_view": 0
  },
  {
    "link_thumb": "https://live.staticflickr.com/65535/48121007357_af4e90c1c0_n.jpg",
    "id_album": "1965631892",
    "description": "Peugeot_994367",
    "title": "Peugeot_994367",
    "link_img": "https://live.staticflickr.com/65535/48121007357_bef6c66d44_o.jpg",
    "id_image": "Peugeot_994367",
    "count_view": 0
  },
  {
    "link_thumb": "https://live.staticflickr.com/65535/48115832646_b271f44040_n.jpg",
    "id_album": "1364506720",
    "description": "Ferrari_317886",
    "title": "Ferrari_317886",
    "link_img": "https://live.staticflickr.com/65535/48115832646_1d120b3b13_o.jpg",
    "id_image": "Ferrari_317886",
    "count_view": 0
  },
  {
    "link_thumb": "https://live.staticflickr.com/65535/49888989853_97443f0390_n.jpg",
    "id_album": "-1257242429",
    "description": "2006_rv_Ferrari_rv_599_rv_GTB_rv_V2_rv_1440",
    "title": "2006_rv_Ferrari_rv_599_rv_GTB_rv_V2_rv_1440",
    "link_img": "https://live.staticflickr.com/65535/49888989853_11fff514a8_o.jpg",
    "id_image": "2006_rv_Ferrari_rv_599_rv_GTB_rv_V2_rv_1440",
    "count_view": 0
  },
  {
    "link_thumb": "https://live.staticflickr.com/65535/48123120361_5b0669f9bb_n.jpg",
    "id_album": "1159292543",
    "description": "Volvo_319454",
    "title": "Volvo_319454",
    "link_img": "https://live.staticflickr.com/65535/48123120361_5a2997211e_o.jpg",
    "id_image": "Volvo_319454",
    "count_view": 0
  },
  {
    "link_thumb": "https://live.staticflickr.com/65535/48112661813_1f4c019a86_n.jpg",
    "id_album": "727633301",
    "description": "BMW_228834",
    "title": "BMW_228834",
    "link_img": "https://live.staticflickr.com/65535/48112661813_90834a9593_o.jpg",
    "id_image": "BMW_228834",
    "count_view": 0
  },
  {
    "link_thumb": "https://live.staticflickr.com/65535/49892066273_2ba0c84314_n.jpg",
    "id_album": "-1220388988",
    "description": "2017_rv_Audi_rv_R8_rv_Performance_rv_Parts_rv_V2_rv_2000",
    "title": "2017_rv_Audi_rv_R8_rv_Performance_rv_Parts_rv_V2_rv_2000",
    "link_img": "https://live.staticflickr.com/65535/49892066273_710b15ba3c_o.jpg",
    "id_image": "2017_rv_Audi_rv_R8_rv_Performance_rv_Parts_rv_V2_rv_2000",
    "count_view": 0
  },
  {
    "link_thumb": "https://live.staticflickr.com/65535/48112935758_cc1cc4ceda_n.jpg",
    "id_album": "727633301",
    "description": "BMW_488748",
    "title": "BMW_488748",
    "link_img": "https://live.staticflickr.com/65535/48112935758_17a3cd237d_o.jpg",
    "id_image": "BMW_488748",
    "count_view": 0
  },
  {
    "link_thumb": "https://live.staticflickr.com/65535/49890318292_4b0f6d9756_n.jpg",
    "id_album": "1773051543",
    "description": "2015_rv_Jaguar_rv_XFR_rv_S_rv_Sportbrake_rv_V7_rv_1600",
    "title": "2015_rv_Jaguar_rv_XFR_rv_S_rv_Sportbrake_rv_V7_rv_1600",
    "link_img": "https://live.staticflickr.com/65535/49890318292_91ca4fdb5f_o.jpg",
    "id_image": "2015_rv_Jaguar_rv_XFR_rv_S_rv_Sportbrake_rv_V7_rv_1600",
    "count_view": 0
  },
  {
    "link_thumb": "https://live.staticflickr.com/65535/48119934406_9cf591c68d_n.jpg",
    "id_album": "-731054311",
    "description": "MercedesBenz_958388",
    "title": "MercedesBenz_958388",
    "link_img": "https://live.staticflickr.com/65535/48119934406_9d8e83c56c_o.jpg",
    "id_image": "MercedesBenz_958388",
    "count_view": 0
  },
  {
    "link_thumb": "https://live.staticflickr.com/65535/49892735442_c1cae5b499_n.jpg",
    "id_album": "1416792536",
    "description": "2007_rv_Subaru_rv_Legacy_rv_GT_rv_Touring_rv_Wagon_rv_V3_rv_1440",
    "title": "2007_rv_Subaru_rv_Legacy_rv_GT_rv_Touring_rv_Wagon_rv_V3_rv_1440",
    "link_img": "https://live.staticflickr.com/65535/49892735442_2dea34ae75_o.jpg",
    "id_image": "2007_rv_Subaru_rv_Legacy_rv_GT_rv_Touring_rv_Wagon_rv_V3_rv_1440",
    "count_view": 0
  },
  {
    "link_thumb": "https://live.staticflickr.com/65535/48119883442_ac6ed34cff_n.jpg",
    "id_album": "-731054311",
    "description": "MercedesBenz_844130",
    "title": "MercedesBenz_844130",
    "link_img": "https://live.staticflickr.com/65535/48119883442_27ca339aca_o.jpg",
    "id_image": "MercedesBenz_844130",
    "count_view": 0
  },
  {
    "link_thumb": "https://live.staticflickr.com/65535/48111664116_cd24fc71da_n.jpg",
    "id_album": "1482519782",
    "description": "Hyundai_417515",
    "title": "Hyundai_417515",
    "link_img": "https://live.staticflickr.com/65535/48111664116_a90df6872d_o.jpg",
    "id_image": "Hyundai_417515",
    "count_view": 0
  },
  {
    "link_thumb": "https://live.staticflickr.com/65535/48122409143_fcd97b96a6_n.jpg",
    "id_album": "422322641",
    "description": "Subaru_211629",
    "title": "Subaru_211629",
    "link_img": "https://live.staticflickr.com/65535/48122409143_c4a0041274_o.jpg",
    "id_image": "Subaru_211629",
    "count_view": 0
  },
  {
    "link_thumb": "https://live.staticflickr.com/65535/49889923651_d815107123_n.jpg",
    "id_album": "-2000594684",
    "description": "2007_rv_Holden_rv_HSV_rv_E_rv_Series_rv_V2_rv_1536",
    "title": "2007_rv_Holden_rv_HSV_rv_E_rv_Series_rv_V2_rv_1536",
    "link_img": "https://live.staticflickr.com/65535/49889923651_9b0b70826a_o.jpg",
    "id_image": "2007_rv_Holden_rv_HSV_rv_E_rv_Series_rv_V2_rv_1536",
    "count_view": 0
  },
  {
    "link_thumb": "https://live.staticflickr.com/65535/48112636358_cdb23b2e16_n.jpg",
    "id_album": "727633301",
    "description": "BMW_107676",
    "title": "BMW_107676",
    "link_img": "https://live.staticflickr.com/65535/48112636358_570c30f586_o.jpg",
    "id_image": "BMW_107676",
    "count_view": 0
  },
  {
    "link_thumb": "https://live.staticflickr.com/65535/48118063766_9d1a3ff6f1_n.jpg",
    "id_album": "-2009218697",
    "description": "Jeep_188444",
    "title": "Jeep_188444",
    "link_img": "https://live.staticflickr.com/65535/48118063766_b0385890e3_o.jpg",
    "id_image": "Jeep_188444",
    "count_view": 0
  },
  {
    "link_thumb": "https://live.staticflickr.com/65535/48118107692_696b9ed3a0_n.jpg",
    "id_album": "-843028318",
    "description": "Jaguar_845728",
    "title": "Jaguar_845728",
    "link_img": "https://live.staticflickr.com/65535/48118107692_17cbf4e6d5_o.jpg",
    "id_image": "Jaguar_845728",
    "count_view": 0
  },
  {
    "link_thumb": "https://live.staticflickr.com/65535/48121065647_0990af1cda_n.jpg",
    "id_album": "-1123679742",
    "description": "Plymouth_242206",
    "title": "Plymouth_242206",
    "link_img": "https://live.staticflickr.com/65535/48121065647_c9f2ba71d1_o.jpg",
    "id_image": "Plymouth_242206",
    "count_view": 0
  },
  {
    "link_thumb": "https://live.staticflickr.com/65535/48113423112_473c5215e3_n.jpg",
    "id_album": "1456070666",
    "description": "Bugatti_229107",
    "title": "Bugatti_229107",
    "link_img": "https://live.staticflickr.com/65535/48113423112_eeddeb8b96_o.jpg",
    "id_image": "Bugatti_229107",
    "count_view": 0
  },
  {
    "link_thumb": "https://live.staticflickr.com/65535/49890720027_7c5c3f14bf_n.jpg",
    "id_album": "-1708734102",
    "description": "2014_rv_Maserati_rv_Alfieri_rv_Concept_rv_V3_rv_1600",
    "title": "2014_rv_Maserati_rv_Alfieri_rv_Concept_rv_V3_rv_1600",
    "link_img": "https://live.staticflickr.com/65535/49890720027_5bf71263ea_o.jpg",
    "id_image": "2014_rv_Maserati_rv_Alfieri_rv_Concept_rv_V3_rv_1600",
    "count_view": 0
  },
  {
    "link_thumb": "https://live.staticflickr.com/65535/49041180817_c42df20135_n.jpg",
    "id_album": "-1428556500",
    "description": "AlfaRomeo_960833",
    "title": "AlfaRomeo_960833",
    "link_img": "https://live.staticflickr.com/65535/49041180817_8e4676f646_o.jpg",
    "id_image": "AlfaRomeo_960833",
    "count_view": 0
  },
  {
    "link_thumb": "https://live.staticflickr.com/65535/48113631143_fc654f774a_n.jpg",
    "id_album": "-680120434",
    "description": "Cadillac_631440",
    "title": "Cadillac_631440",
    "link_img": "https://live.staticflickr.com/65535/48113631143_64d663786a_o.jpg",
    "id_image": "Cadillac_631440",
    "count_view": 0
  },
  {
    "link_thumb": "https://live.staticflickr.com/65535/48122060703_c6827414a4_n.jpg",
    "id_album": "-1217333387",
    "description": "Renault_694957",
    "title": "Renault_694957",
    "link_img": "https://live.staticflickr.com/65535/48122060703_281f0a7524_o.jpg",
    "id_image": "Renault_694957",
    "count_view": 0
  },
  {
    "link_thumb": "https://live.staticflickr.com/65535/48119178142_0fa3360c59_n.jpg",
    "id_album": "697984456",
    "description": "Maserati_450030",
    "title": "Maserati_450030",
    "link_img": "https://live.staticflickr.com/65535/48119178142_ec13ac8726_o.jpg",
    "id_image": "Maserati_450030",
    "count_view": 0
  },
  {
    "link_thumb": "https://live.staticflickr.com/65535/49890510471_e95d6781bb_n.jpg",
    "id_album": "-914737879",
    "description": "2012_rv_McLaren_rv_MP4_rv_12C_rv_V4_rv_1440",
    "title": "2012_rv_McLaren_rv_MP4_rv_12C_rv_V4_rv_1440",
    "link_img": "https://live.staticflickr.com/65535/49890510471_682d797348_o.jpg",
    "id_image": "2012_rv_McLaren_rv_MP4_rv_12C_rv_V4_rv_1440",
    "count_view": 0
  },
  {
    "link_thumb": "https://live.staticflickr.com/65535/49889491997_f9495486a9_n.jpg",
    "id_album": "-1839909257",
    "description": "2019_rv_BMW_rv_X2_rv_M35i_rv_V1_rv_2160",
    "title": "2019_rv_BMW_rv_X2_rv_M35i_rv_V1_rv_2160",
    "link_img": "https://live.staticflickr.com/65535/49889491997_2bd4e3d037_o.jpg",
    "id_image": "2019_rv_BMW_rv_X2_rv_M35i_rv_V1_rv_2160",
    "count_view": 0
  },
  {
    "link_thumb": "https://live.staticflickr.com/65535/48120007632_3c6e0b144d_n.jpg",
    "id_album": "-731054311",
    "description": "MercedesBenz_936101",
    "title": "MercedesBenz_936101",
    "link_img": "https://live.staticflickr.com/65535/48120007632_f4e81a6d44_o.jpg",
    "id_image": "MercedesBenz_936101",
    "count_view": 0
  },
  {
    "link_thumb": "https://live.staticflickr.com/65535/48123207342_4ba11323eb_n.jpg",
    "id_album": "1159292543",
    "description": "Volvo_273830",
    "title": "Volvo_273830",
    "link_img": "https://live.staticflickr.com/65535/48123207342_62cb80b3b2_o.jpg",
    "id_image": "Volvo_273830",
    "count_view": 0
  },
  {
    "link_thumb": "https://live.staticflickr.com/65535/48112219163_72ba63f4c0_n.jpg",
    "id_album": "1546790746",
    "description": "AstonMartin_879860",
    "title": "AstonMartin_879860",
    "link_img": "https://live.staticflickr.com/65535/48112219163_f12a5427f0_o.jpg",
    "id_image": "AstonMartin_879860",
    "count_view": 0
  },
  {
    "link_thumb": "https://live.staticflickr.com/65535/48117490371_d8f7c47043_n.jpg",
    "id_album": "-1846404630",
    "description": "Ford_87983",
    "title": "Ford_87983",
    "link_img": "https://live.staticflickr.com/65535/48117490371_d5ae573e85_o.jpg",
    "id_image": "Ford_87983",
    "count_view": 0
  },
  {
    "link_thumb": "https://live.staticflickr.com/65535/48112667721_c00470af56_n.jpg",
    "id_album": "727633301",
    "description": "BMW_254115",
    "title": "BMW_254115",
    "link_img": "https://live.staticflickr.com/65535/48112667721_da2d414635_o.jpg",
    "id_image": "BMW_254115",
    "count_view": 0
  },
  {
    "link_thumb": "https://live.staticflickr.com/65535/48122800101_9723c95953_n.jpg",
    "id_album": "1274920659",
    "description": "Toyota_919012",
    "title": "Toyota_919012",
    "link_img": "https://live.staticflickr.com/65535/48122800101_afb4a3719c_o.jpg",
    "id_image": "Toyota_919012",
    "count_view": 0
  },
  {
    "link_thumb": "https://live.staticflickr.com/65535/48115317797_d4955f6ecc_n.jpg",
    "id_album": "413141323",
    "description": "Dodge_426878",
    "title": "Dodge_426878",
    "link_img": "https://live.staticflickr.com/65535/48115317797_5361e7cdbd_o.jpg",
    "id_image": "Dodge_426878",
    "count_view": 0
  },
  {
    "link_thumb": "https://live.staticflickr.com/65535/48120488686_3f6d648fc4_n.jpg",
    "id_album": "810634050",
    "description": "Nissan_499292",
    "title": "Nissan_499292",
    "link_img": "https://live.staticflickr.com/65535/48120488686_07da377ac2_o.jpg",
    "id_image": "Nissan_499292",
    "count_view": 0
  },
  {
    "link_thumb": "https://live.staticflickr.com/65535/48113116276_a83d846a35_n.jpg",
    "id_album": "727633301",
    "description": "BMW_880593",
    "title": "BMW_880593",
    "link_img": "https://live.staticflickr.com/65535/48113116276_5c5e5a584b_o.jpg",
    "id_image": "BMW_880593",
    "count_view": 0
  },
  {
    "link_thumb": "https://live.staticflickr.com/65535/48116137462_817fc02fe7_n.jpg",
    "id_album": "1364506720",
    "description": "Ferrari_520924",
    "title": "Ferrari_520924",
    "link_img": "https://live.staticflickr.com/65535/48116137462_b4471e926b_o.jpg",
    "id_image": "Ferrari_520924",
    "count_view": 0
  },
  {
    "link_thumb": "https://live.staticflickr.com/65535/48112052817_a0ece01d75_n.jpg",
    "id_album": "1906325017",
    "description": "Infiniti_318430",
    "title": "Infiniti_318430",
    "link_img": "https://live.staticflickr.com/65535/48112052817_f34996291a_o.jpg",
    "id_image": "Infiniti_318430",
    "count_view": 0
  },
  {
    "link_thumb": "https://live.staticflickr.com/65535/49891705337_ffe27ae357_n.jpg",
    "id_album": "-857328710",
    "description": "2019_rv_Porsche_rv_718_rv_Boxster_rv_T_rv_V4_rv_2000",
    "title": "2019_rv_Porsche_rv_718_rv_Boxster_rv_T_rv_V4_rv_2000",
    "link_img": "https://live.staticflickr.com/65535/49891705337_2e238ca416_o.jpg",
    "id_image": "2019_rv_Porsche_rv_718_rv_Boxster_rv_T_rv_V4_rv_2000",
    "count_view": 0
  },
  {
    "link_thumb": "https://live.staticflickr.com/65535/49889978433_7cdb2a7426_n.jpg",
    "id_album": "653813832",
    "description": "2002_rv_Mazda_rv_RX_rv_7_rv_Spirit_rv_R_rv_V1_rv_1440",
    "title": "2002_rv_Mazda_rv_RX_rv_7_rv_Spirit_rv_R_rv_V1_rv_1440",
    "link_img": "https://live.staticflickr.com/65535/49889978433_41e1aa3fc8_o.jpg",
    "id_image": "2002_rv_Mazda_rv_RX_rv_7_rv_Spirit_rv_R_rv_V1_rv_1440",
    "count_view": 0
  },
  {
    "link_thumb": "https://live.staticflickr.com/65535/48117558031_a79693c031_n.jpg",
    "id_album": "-1846404630",
    "description": "Ford_931217",
    "title": "Ford_931217",
    "link_img": "https://live.staticflickr.com/65535/48117558031_b29f775c76_o.jpg",
    "id_image": "Ford_931217",
    "count_view": 0
  },
  {
    "link_thumb": "https://live.staticflickr.com/65535/48119400072_2ee49f43b7_n.jpg",
    "id_album": "990865885",
    "description": "McLaren_548870",
    "title": "McLaren_548870",
    "link_img": "https://live.staticflickr.com/65535/48119400072_32fda1802d_o.jpg",
    "id_image": "McLaren_548870",
    "count_view": 0
  },
  {
    "link_thumb": "https://live.staticflickr.com/65535/49889308698_4002a3ae96_n.jpg",
    "id_album": "-1617578684",
    "description": "2018_rv_Porsche_rv_911_rv_GT3_rv_Touring_rv_Package_rv_V3_rv_2000",
    "title": "2018_rv_Porsche_rv_911_rv_GT3_rv_Touring_rv_Package_rv_V3_rv_2000",
    "link_img": "https://live.staticflickr.com/65535/49889308698_b3c44c2acf_o.jpg",
    "id_image": "2018_rv_Porsche_rv_911_rv_GT3_rv_Touring_rv_Package_rv_V3_rv_2000",
    "count_view": 0
  },
  {
    "link_thumb": "https://live.staticflickr.com/65535/49892199393_29369ff42a_n.jpg",
    "id_album": "1158113959",
    "description": "2012_rv_BMW_rv_Zagato_rv_Coupe_rv_Concept_rv_V1_rv_1440",
    "title": "2012_rv_BMW_rv_Zagato_rv_Coupe_rv_Concept_rv_V1_rv_1440",
    "link_img": "https://live.staticflickr.com/65535/49892199393_e520a05bd7_o.jpg",
    "id_image": "2012_rv_BMW_rv_Zagato_rv_Coupe_rv_Concept_rv_V1_rv_1440",
    "count_view": 0
  },
  {
    "link_thumb": "https://live.staticflickr.com/65535/48116325948_1ac735d59f_n.jpg",
    "id_album": "1364506720",
    "description": "Ferrari_769504",
    "title": "Ferrari_769504",
    "link_img": "https://live.staticflickr.com/65535/48116325948_90ab58ffc9_o.jpg",
    "id_image": "Ferrari_769504",
    "count_view": 0
  },
  {
    "link_thumb": "https://live.staticflickr.com/65535/48120600377_08ee636cc7_n.jpg",
    "id_album": "810634050",
    "description": "Nissan_527839",
    "title": "Nissan_527839",
    "link_img": "https://live.staticflickr.com/65535/48120600377_07e1d1eb89_o.jpg",
    "id_image": "Nissan_527839",
    "count_view": 0
  },
  {
    "link_thumb": "https://live.staticflickr.com/65535/49888672183_3e30d14ce9_n.jpg",
    "id_album": "2084997585",
    "description": "1999_rv_BMW_rv_M_rv_Coupe_rv_V2_rv_1440",
    "title": "1999_rv_BMW_rv_M_rv_Coupe_rv_V2_rv_1440",
    "link_img": "https://live.staticflickr.com/65535/49888672183_a72dcbf098_o.jpg",
    "id_image": "1999_rv_BMW_rv_M_rv_Coupe_rv_V2_rv_1440",
    "count_view": 0
  },
  {
    "link_thumb": "https://live.staticflickr.com/65535/48112719252_ec502ae97b_n.jpg",
    "id_album": "727633301",
    "description": "BMW_223987",
    "title": "BMW_223987",
    "link_img": "https://live.staticflickr.com/65535/48112719252_1923716ac0_o.jpg",
    "id_image": "BMW_223987",
    "count_view": 0
  },
  {
    "link_thumb": "https://live.staticflickr.com/65535/48118873661_bc821f60af_n.jpg",
    "id_album": "446908717",
    "description": "Lexus_484150",
    "title": "Lexus_484150",
    "link_img": "https://live.staticflickr.com/65535/48118873661_b76f9b7858_o.jpg",
    "id_image": "Lexus_484150",
    "count_view": 0
  },
  {
    "link_thumb": "https://live.staticflickr.com/65535/49889394211_b1745082d1_n.jpg",
    "id_album": "942478219",
    "description": "2018_rv_Formula1_rv_Red_rv_Bull_rv_Racing_rv_RB14_rv_V3_rv_2000",
    "title": "2018_rv_Formula1_rv_Red_rv_Bull_rv_Racing_rv_RB14_rv_V3_rv_2000",
    "link_img": "https://live.staticflickr.com/65535/49889394211_64fcf6f646_o.jpg",
    "id_image": "2018_rv_Formula1_rv_Red_rv_Bull_rv_Racing_rv_RB14_rv_V3_rv_2000",
    "count_view": 0
  },
  {
    "link_thumb": "https://live.staticflickr.com/65535/48120194978_2d214d9a12_n.jpg",
    "id_album": "666438681",
    "description": "Motorcycles_235246",
    "title": "Motorcycles_235246",
    "link_img": "https://live.staticflickr.com/65535/48120194978_8dafa19f93_o.jpg",
    "id_image": "Motorcycles_235246",
    "count_view": 0
  },
  {
    "link_thumb": "https://live.staticflickr.com/65535/48113977693_2d61be21f6_n.jpg",
    "id_album": "-1721545051",
    "description": "Chevrolet_272877",
    "title": "Chevrolet_272877",
    "link_img": "https://live.staticflickr.com/65535/48113977693_dbfb4a62ba_o.jpg",
    "id_image": "Chevrolet_272877",
    "count_view": 0
  },
  {
    "link_thumb": "https://live.staticflickr.com/65535/49889635813_e286bc6456_n.jpg",
    "id_album": "-936716449",
    "description": "2015_rv_Lamborghini_rv_Huracan_rv_LP610_rv_4_rv_V8_rv_2160",
    "title": "2015_rv_Lamborghini_rv_Huracan_rv_LP610_rv_4_rv_V8_rv_2160",
    "link_img": "https://live.staticflickr.com/65535/49889635813_fec0e2a7d7_o.jpg",
    "id_image": "2015_rv_Lamborghini_rv_Huracan_rv_LP610_rv_4_rv_V8_rv_2160",
    "count_view": 0
  },
  {
    "link_thumb": "https://live.staticflickr.com/65535/48117633416_72fec63155_n.jpg",
    "id_album": "-1846404630",
    "description": "Ford_960009",
    "title": "Ford_960009",
    "link_img": "https://live.staticflickr.com/65535/48117633416_1de9b68e84_o.jpg",
    "id_image": "Ford_960009",
    "count_view": 0
  },
  {
    "link_thumb": "https://live.staticflickr.com/65535/48120950712_07d8192f7a_n.jpg",
    "id_album": "1965631892",
    "description": "Peugeot_323863",
    "title": "Peugeot_323863",
    "link_img": "https://live.staticflickr.com/65535/48120950712_bd2aa4cd17_o.jpg",
    "id_image": "Peugeot_323863",
    "count_view": 0
  },
  {
    "link_thumb": "https://live.staticflickr.com/65535/48115245157_aba89e091a_n.jpg",
    "id_album": "413141323",
    "description": "Dodge_289032",
    "title": "Dodge_289032",
    "link_img": "https://live.staticflickr.com/65535/48115245157_abd98b8507_o.jpg",
    "id_image": "Dodge_289032",
    "count_view": 0
  },
  {
    "link_thumb": "https://live.staticflickr.com/65535/48114794703_df5485af86_n.jpg",
    "id_album": "939606447",
    "description": "Chrysler_471725",
    "title": "Chrysler_471725",
    "link_img": "https://live.staticflickr.com/65535/48114794703_5e238077ec_o.jpg",
    "id_image": "Chrysler_471725",
    "count_view": 0
  },
  {
    "link_thumb": "https://live.staticflickr.com/65535/49892743947_313953eb92_n.jpg",
    "id_album": "-992651525",
    "description": "2015_rv_Subaru_rv_WRX_rv_STI_rv_V9_rv_1600",
    "title": "2015_rv_Subaru_rv_WRX_rv_STI_rv_V9_rv_1600",
    "link_img": "https://live.staticflickr.com/65535/49892743947_cb160dd699_o.jpg",
    "id_image": "2015_rv_Subaru_rv_WRX_rv_STI_rv_V9_rv_1600",
    "count_view": 0
  },
  {
    "link_thumb": "https://live.staticflickr.com/65535/49891325762_ee6f759a65_n.jpg",
    "id_album": "413820942",
    "description": "2009_rv_Honda_rv_Civic_rv_Type_rv_R_rv_Prototype_rv_by_rv_Mugen_rv_V6_rv_1440",
    "title": "2009_rv_Honda_rv_Civic_rv_Type_rv_R_rv_Prototype_rv_by_rv_Mugen_rv_V6_rv_1440",
    "link_img": "https://live.staticflickr.com/65535/49891325762_e70981f31c_o.jpg",
    "id_image": "2009_rv_Honda_rv_Civic_rv_Type_rv_R_rv_Prototype_rv_by_rv_Mugen_rv_V6_rv_1440",
    "count_view": 0
  },
  {
    "link_thumb": "https://live.staticflickr.com/65535/49889679482_6ccc09182c_n.jpg",
    "id_album": "-998418002",
    "description": "2020_rv_Formula1_rv_AlphaTauri_rv_AT01_rv_V2_rv_2160",
    "title": "2020_rv_Formula1_rv_AlphaTauri_rv_AT01_rv_V2_rv_2160",
    "link_img": "https://live.staticflickr.com/65535/49889679482_57249e4f45_o.jpg",
    "id_image": "2020_rv_Formula1_rv_AlphaTauri_rv_AT01_rv_V2_rv_2160",
    "count_view": 0
  },
  {
    "link_thumb": "https://live.staticflickr.com/65535/48113745216_028307a731_n.jpg",
    "id_album": "-1721545051",
    "description": "Chevrolet_188359",
    "title": "Chevrolet_188359",
    "link_img": "https://live.staticflickr.com/65535/48113745216_f94c8e0613_o.jpg",
    "id_image": "Chevrolet_188359",
    "count_view": 0
  },
  {
    "link_thumb": "https://live.staticflickr.com/65535/49889494807_432914c03a_n.jpg",
    "id_album": "-1839909257",
    "description": "2020_rv_BMW_rv_X3_rv_M_rv_Competition_rv_V4_rv_2160",
    "title": "2020_rv_BMW_rv_X3_rv_M_rv_Competition_rv_V4_rv_2160",
    "link_img": "https://live.staticflickr.com/65535/49889494807_d8f609b3a5_o.jpg",
    "id_image": "2020_rv_BMW_rv_X3_rv_M_rv_Competition_rv_V4_rv_2160",
    "count_view": 0
  },
  {
    "link_thumb": "https://live.staticflickr.com/65535/48112611321_9574587629_n.jpg",
    "id_album": "727633301",
    "description": "BMW_216612",
    "title": "BMW_216612",
    "link_img": "https://live.staticflickr.com/65535/48112611321_4ed42600e8_o.jpg",
    "id_image": "BMW_216612",
    "count_view": 0
  },
  {
    "link_thumb": "https://live.staticflickr.com/65535/49892816197_65b93d9f8f_n.jpg",
    "id_album": "22537530",
    "description": "2019_rv_Toyota_rv_LQ_rv_Concept_rv_V3_rv_2160",
    "title": "2019_rv_Toyota_rv_LQ_rv_Concept_rv_V3_rv_2160",
    "link_img": "https://live.staticflickr.com/65535/49892816197_a82e4df491_o.jpg",
    "id_image": "2019_rv_Toyota_rv_LQ_rv_Concept_rv_V3_rv_2160",
    "count_view": 0
  },
  {
    "link_thumb": "https://live.staticflickr.com/65535/48113425058_a477d8c41c_n.jpg",
    "id_album": "1456070666",
    "description": "Bugatti_431897",
    "title": "Bugatti_431897",
    "link_img": "https://live.staticflickr.com/65535/48113425058_ddbd567771_o.jpg",
    "id_image": "Bugatti_431897",
    "count_view": 0
  },
  {
    "link_thumb": "https://live.staticflickr.com/65535/48120558532_afd6f55533_n.jpg",
    "id_album": "810634050",
    "description": "Nissan_479331",
    "title": "Nissan_479331",
    "link_img": "https://live.staticflickr.com/65535/48120558532_5b5a7ee76d_o.jpg",
    "id_image": "Nissan_479331",
    "count_view": 0
  },
  {
    "link_thumb": "https://live.staticflickr.com/65535/48119450461_515bc16c49_n.jpg",
    "id_album": "-731054311",
    "description": "MercedesBenz_168025",
    "title": "MercedesBenz_168025",
    "link_img": "https://live.staticflickr.com/65535/48119450461_610b9e4805_o.jpg",
    "id_image": "MercedesBenz_168025",
    "count_view": 0
  },
  {
    "link_thumb": "https://live.staticflickr.com/65535/48117391658_6d8ca211a7_n.jpg",
    "id_album": "-1846404630",
    "description": "Ford_645876",
    "title": "Ford_645876",
    "link_img": "https://live.staticflickr.com/65535/48117391658_6821fddce9_o.jpg",
    "id_image": "Ford_645876",
    "count_view": 0
  },
  {
    "link_thumb": "https://live.staticflickr.com/65535/49889892083_bbd1a970f9_n.jpg",
    "id_album": "1418617149",
    "description": "1971_rv_Maserati_rv_Bora_rv_V1_rv_1440",
    "title": "1971_rv_Maserati_rv_Bora_rv_V1_rv_1440",
    "link_img": "https://live.staticflickr.com/65535/49889892083_199c01af87_o.jpg",
    "id_image": "1971_rv_Maserati_rv_Bora_rv_V1_rv_1440",
    "count_view": 0
  },
  {
    "link_thumb": "https://live.staticflickr.com/65535/49890354613_b60ca160d6_n.jpg",
    "id_album": "-504136416",
    "description": "2014_rv_Mercedes_rv_Benz_rv_S63_rv_AMG_rv_V2_rv_1600",
    "title": "2014_rv_Mercedes_rv_Benz_rv_S63_rv_AMG_rv_V2_rv_1600",
    "link_img": "https://live.staticflickr.com/65535/49890354613_b64c9e91f9_o.jpg",
    "id_image": "2014_rv_Mercedes_rv_Benz_rv_S63_rv_AMG_rv_V2_rv_1600",
    "count_view": 0
  },
  {
    "link_thumb": "https://live.staticflickr.com/65535/48113246898_1d6f37a9ea_n.jpg",
    "id_album": "727633301",
    "description": "BMW_919805",
    "title": "BMW_919805",
    "link_img": "https://live.staticflickr.com/65535/48113246898_415127ebe9_o.jpg",
    "id_image": "BMW_919805",
    "count_view": 0
  },
  {
    "link_thumb": "https://live.staticflickr.com/65535/48113479908_4b03aa5768_n.jpg",
    "id_album": "1456070666",
    "description": "Bugatti_883853",
    "title": "Bugatti_883853",
    "link_img": "https://live.staticflickr.com/65535/48113479908_ff01a0a0d7_o.jpg",
    "id_image": "Bugatti_883853",
    "count_view": 0
  },
  {
    "link_thumb": "https://live.staticflickr.com/65535/49890161311_be293009dc_n.jpg",
    "id_album": "-936716449",
    "description": "2018_rv_Lamborghini_rv_Huracan_rv_Super_rv_Trofeo_rv_Evo_rv_V2_rv_2160",
    "title": "2018_rv_Lamborghini_rv_Huracan_rv_Super_rv_Trofeo_rv_Evo_rv_V2_rv_2160",
    "link_img": "https://live.staticflickr.com/65535/49890161311_074199c7e8_o.jpg",
    "id_image": "2018_rv_Lamborghini_rv_Huracan_rv_Super_rv_Trofeo_rv_Evo_rv_V2_rv_2160",
    "count_view": 0
  },
  {
    "link_thumb": "https://live.staticflickr.com/65535/48121099353_96b4bee45a_n.jpg",
    "id_album": "-2099496752",
    "description": "Pontiac_182440",
    "title": "Pontiac_182440",
    "link_img": "https://live.staticflickr.com/65535/48121099353_de16c61f14_o.jpg",
    "id_image": "Pontiac_182440",
    "count_view": 0
  },
  {
    "link_thumb": "https://live.staticflickr.com/65535/48113421502_6b5f1a6e45_n.jpg",
    "id_album": "1456070666",
    "description": "Bugatti_217287",
    "title": "Bugatti_217287",
    "link_img": "https://live.staticflickr.com/65535/48113421502_de8514d7cb_o.jpg",
    "id_image": "Bugatti_217287",
    "count_view": 0
  },
  {
    "link_thumb": "https://live.staticflickr.com/65535/48114282333_fa733ffd23_n.jpg",
    "id_album": "-1721545051",
    "description": "Chevrolet_444500",
    "title": "Chevrolet_444500",
    "link_img": "https://live.staticflickr.com/65535/48114282333_044a630ddd_o.jpg",
    "id_image": "Chevrolet_444500",
    "count_view": 0
  },
  {
    "link_thumb": "https://live.staticflickr.com/65535/48113661477_c973cc05e2_n.jpg",
    "id_album": "-680120434",
    "description": "Cadillac_417608",
    "title": "Cadillac_417608",
    "link_img": "https://live.staticflickr.com/65535/48113661477_763952a01e_o.jpg",
    "id_image": "Cadillac_417608",
    "count_view": 0
  },
  {
    "link_thumb": "https://live.staticflickr.com/65535/49892492391_59f87263b6_n.jpg",
    "id_album": "-1642234658",
    "description": "1996_rv_Toyota_rv_Celica_rv_GT_rv_V2_rv_1536",
    "title": "1996_rv_Toyota_rv_Celica_rv_GT_rv_V2_rv_1536",
    "link_img": "https://live.staticflickr.com/65535/49892492391_41fe07af49_o.jpg",
    "id_image": "1996_rv_Toyota_rv_Celica_rv_GT_rv_V2_rv_1536",
    "count_view": 0
  },
  {
    "link_thumb": "https://live.staticflickr.com/65535/48112516527_90742f2a7c_n.jpg",
    "id_album": "-15119147",
    "description": "Audi_884329",
    "title": "Audi_884329",
    "link_img": "https://live.staticflickr.com/65535/48112516527_f272de122e_o.jpg",
    "id_image": "Audi_884329",
    "count_view": 0
  },
  {
    "link_thumb": "https://live.staticflickr.com/65535/48120866636_67915dd4fb_n.jpg",
    "id_album": "1965631892",
    "description": "Peugeot_449912",
    "title": "Peugeot_449912",
    "link_img": "https://live.staticflickr.com/65535/48120866636_28a5d2654f_o.jpg",
    "id_image": "Peugeot_449912",
    "count_view": 0
  },
  {
    "link_thumb": "https://live.staticflickr.com/65535/48114134361_725283f8ba_n.jpg",
    "id_album": "-1721545051",
    "description": "Chevrolet_348827",
    "title": "Chevrolet_348827",
    "link_img": "https://live.staticflickr.com/65535/48114134361_0bc81abc98_o.jpg",
    "id_image": "Chevrolet_348827",
    "count_view": 0
  },
  {
    "link_thumb": "https://live.staticflickr.com/65535/49888998933_85c3969c36_n.jpg",
    "id_album": "665596165",
    "description": "2018_rv_Ferrari_rv_812_rv_Superfast_rv_V1_rv_2160",
    "title": "2018_rv_Ferrari_rv_812_rv_Superfast_rv_V1_rv_2160",
    "link_img": "https://live.staticflickr.com/65535/49888998933_be0201840b_o.jpg",
    "id_image": "2018_rv_Ferrari_rv_812_rv_Superfast_rv_V1_rv_2160",
    "count_view": 0
  },
  {
    "link_thumb": "https://live.staticflickr.com/65535/49890821648_47eeb565b4_n.jpg",
    "id_album": "-923669998",
    "description": "1966_rv_Pontiac_rv_Tempest_rv_GTO_rv_V6_rv_1536",
    "title": "1966_rv_Pontiac_rv_Tempest_rv_GTO_rv_V6_rv_1536",
    "link_img": "https://live.staticflickr.com/65535/49890821648_23ebf7cf40_o.jpg",
    "id_image": "1966_rv_Pontiac_rv_Tempest_rv_GTO_rv_V6_rv_1536",
    "count_view": 0
  },
  {
    "link_thumb": "https://live.staticflickr.com/65535/48112481862_0cf6789246_n.jpg",
    "id_album": "-15119147",
    "description": "Audi_707882",
    "title": "Audi_707882",
    "link_img": "https://live.staticflickr.com/65535/48112481862_87462e8699_o.jpg",
    "id_image": "Audi_707882",
    "count_view": 0
  },
  {
    "link_thumb": "https://live.staticflickr.com/65535/48118597673_13f99e35f3_n.jpg",
    "id_album": "-2100339805",
    "description": "Lamborghini_685723",
    "title": "Lamborghini_685723",
    "link_img": "https://live.staticflickr.com/65535/48118597673_2940724d1b_o.jpg",
    "id_image": "Lamborghini_685723",
    "count_view": 0
  },
  {
    "link_thumb": "https://live.staticflickr.com/65535/49891072487_ebb7d407f0_n.jpg",
    "id_album": "-534151904",
    "description": "2014_rv_Mercedes_rv_Benz_rv_E_rv_Class_rv_Cabriolet_rv_V5_rv_1600",
    "title": "2014_rv_Mercedes_rv_Benz_rv_E_rv_Class_rv_Cabriolet_rv_V5_rv_1600",
    "link_img": "https://live.staticflickr.com/65535/49891072487_44b7616769_o.jpg",
    "id_image": "2014_rv_Mercedes_rv_Benz_rv_E_rv_Class_rv_Cabriolet_rv_V5_rv_1600",
    "count_view": 0
  },
  {
    "link_thumb": "https://live.staticflickr.com/65535/48115637878_09d319656b_n.jpg",
    "id_album": "594975066",
    "description": "Duesenberg_927534",
    "title": "Duesenberg_927534",
    "link_img": "https://live.staticflickr.com/65535/48115637878_d9f2fcc7de_o.jpg",
    "id_image": "Duesenberg_927534",
    "count_view": 0
  },
  {
    "link_thumb": "https://live.staticflickr.com/65535/48121587427_a7430853a3_n.jpg",
    "id_album": "-1178450892",
    "description": "Porsche_615328",
    "title": "Porsche_615328",
    "link_img": "https://live.staticflickr.com/65535/48121587427_110e1f99f2_o.jpg",
    "id_image": "Porsche_615328",
    "count_view": 0
  },
  {
    "link_thumb": "https://live.staticflickr.com/65535/48116063681_186b9de3c1_n.jpg",
    "id_album": "1364506720",
    "description": "Ferrari_525250",
    "title": "Ferrari_525250",
    "link_img": "https://live.staticflickr.com/65535/48116063681_639202123a_o.jpg",
    "id_image": "Ferrari_525250",
    "count_view": 0
  },
  {
    "link_thumb": "https://live.staticflickr.com/65535/48116996926_7fffa5a1bc_n.jpg",
    "id_album": "-1846404630",
    "description": "Ford_318060",
    "title": "Ford_318060",
    "link_img": "https://live.staticflickr.com/65535/48116996926_d5880c66b1_o.jpg",
    "id_image": "Ford_318060",
    "count_view": 0
  },
  {
    "link_thumb": "https://live.staticflickr.com/65535/48117054506_d203daca0f_n.jpg",
    "id_album": "-1846404630",
    "description": "Ford_363343",
    "title": "Ford_363343",
    "link_img": "https://live.staticflickr.com/65535/48117054506_f495dc0c07_o.jpg",
    "id_image": "Ford_363343",
    "count_view": 0
  },
  {
    "link_thumb": "https://live.staticflickr.com/65535/49890046453_0502fa00b9_n.jpg",
    "id_album": "1807183876",
    "description": "2018_rv_McLaren_rv_720S_rv_V16_rv_2000",
    "title": "2018_rv_McLaren_rv_720S_rv_V16_rv_2000",
    "link_img": "https://live.staticflickr.com/65535/49890046453_f5f5002465_o.jpg",
    "id_image": "2018_rv_McLaren_rv_720S_rv_V16_rv_2000",
    "count_view": 0
  },
  {
    "link_thumb": "https://live.staticflickr.com/65535/49890507566_c49f61c3f7_n.jpg",
    "id_album": "-914737879",
    "description": "2011_rv_McLaren_rv_MP4_rv_12C_rv_V10_rv_1440",
    "title": "2011_rv_McLaren_rv_MP4_rv_12C_rv_V10_rv_1440",
    "link_img": "https://live.staticflickr.com/65535/49890507566_15cdc04f75_o.jpg",
    "id_image": "2011_rv_McLaren_rv_MP4_rv_12C_rv_V10_rv_1440",
    "count_view": 0
  },
  {
    "link_thumb": "https://live.staticflickr.com/65535/49889650946_05218c1989_n.jpg",
    "id_album": "1558646706",
    "description": "2016_rv_Dodge_rv_Viper_rv_ACR_rv_V7_rv_1600",
    "title": "2016_rv_Dodge_rv_Viper_rv_ACR_rv_V7_rv_1600",
    "link_img": "https://live.staticflickr.com/65535/49889650946_bd0330d909_o.jpg",
    "id_image": "2016_rv_Dodge_rv_Viper_rv_ACR_rv_V7_rv_1600",
    "count_view": 0
  },
  {
    "link_thumb": "https://live.staticflickr.com/65535/49888839451_ce5f6d6bcf_n.jpg",
    "id_album": "-354618933",
    "description": "1964_rv_Aston_rv_Martin_rv_DB5_rv_V4_rv_1536",
    "title": "1964_rv_Aston_rv_Martin_rv_DB5_rv_V4_rv_1536",
    "link_img": "https://live.staticflickr.com/65535/49888839451_e44e1640f6_o.jpg",
    "id_image": "1964_rv_Aston_rv_Martin_rv_DB5_rv_V4_rv_1536",
    "count_view": 0
  },
  {
    "link_thumb": "https://live.staticflickr.com/65535/48122983902_f6585144d7_n.jpg",
    "id_album": "-150952028",
    "description": "Volkswagen_259138",
    "title": "Volkswagen_259138",
    "link_img": "https://live.staticflickr.com/65535/48122983902_3c704ed52b_o.jpg",
    "id_image": "Volkswagen_259138",
    "count_view": 0
  },
  {
    "link_thumb": "https://live.staticflickr.com/65535/49892396006_0e8526638f_n.jpg",
    "id_album": "-738164840",
    "description": "2015_rv_Bentley_rv_Continental_rv_GT_rv_Speed_rv_V1_rv_1600",
    "title": "2015_rv_Bentley_rv_Continental_rv_GT_rv_Speed_rv_V1_rv_1600",
    "link_img": "https://live.staticflickr.com/65535/49892396006_f8211eb3b5_o.jpg",
    "id_image": "2015_rv_Bentley_rv_Continental_rv_GT_rv_Speed_rv_V1_rv_1600",
    "count_view": 0
  },
  {
    "link_thumb": "https://live.staticflickr.com/65535/48115635318_1d02f1ce4f_n.jpg",
    "id_album": "594975066",
    "description": "Duesenberg_853915",
    "title": "Duesenberg_853915",
    "link_img": "https://live.staticflickr.com/65535/48115635318_1025ab70f6_o.jpg",
    "id_image": "Duesenberg_853915",
    "count_view": 0
  },
  {
    "link_thumb": "https://live.staticflickr.com/65535/49890555291_3f072b1545_n.jpg",
    "id_album": "-646872376",
    "description": "2016_rv_McLaren_rv_675LT_rv_V12_rv_1600",
    "title": "2016_rv_McLaren_rv_675LT_rv_V12_rv_1600",
    "link_img": "https://live.staticflickr.com/65535/49890555291_fba5c3b6be_o.jpg",
    "id_image": "2016_rv_McLaren_rv_675LT_rv_V12_rv_1600",
    "count_view": 0
  },
  {
    "link_thumb": "https://live.staticflickr.com/65535/48123194751_3e27139445_n.jpg",
    "id_album": "1159292543",
    "description": "Volvo_881403",
    "title": "Volvo_881403",
    "link_img": "https://live.staticflickr.com/65535/48123194751_656e17d6d9_o.jpg",
    "id_image": "Volvo_881403",
    "count_view": 0
  },
  {
    "link_thumb": "https://live.staticflickr.com/65535/48112559391_44da336503_n.jpg",
    "id_album": "2097036181",
    "description": "Bentley_865128",
    "title": "Bentley_865128",
    "link_img": "https://live.staticflickr.com/65535/48112559391_17b10df1fb_o.jpg",
    "id_image": "Bentley_865128",
    "count_view": 0
  },
  {
    "link_thumb": "https://live.staticflickr.com/65535/49892160366_203c49278e_n.jpg",
    "id_album": "-1352548977",
    "description": "2020_rv_Porsche_rv_Taycan_rv_V14_rv_2160",
    "title": "2020_rv_Porsche_rv_Taycan_rv_V14_rv_2160",
    "link_img": "https://live.staticflickr.com/65535/49892160366_a0667da358_o.jpg",
    "id_image": "2020_rv_Porsche_rv_Taycan_rv_V14_rv_2160",
    "count_view": 0
  },
  {
    "link_thumb": "https://live.staticflickr.com/65535/49891307961_dac2bf927c_n.jpg",
    "id_album": "-1209827947",
    "description": "2015_rv_Pogea_rv_Racing_rv_4C_rv_Centurion_rv_V5_rv_1600",
    "title": "2015_rv_Pogea_rv_Racing_rv_4C_rv_Centurion_rv_V5_rv_1600",
    "link_img": "https://live.staticflickr.com/65535/49891307961_98b02f492e_o.jpg",
    "id_image": "2015_rv_Pogea_rv_Racing_rv_4C_rv_Centurion_rv_V5_rv_1600",
    "count_view": 0
  },
  {
    "link_thumb": "https://live.staticflickr.com/65535/49891906918_06c94af587_n.jpg",
    "id_album": "1416792536",
    "description": "2006_rv_Subaru_rv_Legacy_rv_STI_rv_V4_rv_1440",
    "title": "2006_rv_Subaru_rv_Legacy_rv_STI_rv_V4_rv_1440",
    "link_img": "https://live.staticflickr.com/65535/49891906918_743a9f6e20_o.jpg",
    "id_image": "2006_rv_Subaru_rv_Legacy_rv_STI_rv_V4_rv_1440",
    "count_view": 0
  },
  {
    "link_thumb": "https://live.staticflickr.com/65535/48120398587_8c42074aba_n.jpg",
    "id_album": "810634050",
    "description": "Nissan_178397",
    "title": "Nissan_178397",
    "link_img": "https://live.staticflickr.com/65535/48120398587_a6cac8c4f1_o.jpg",
    "id_image": "Nissan_178397",
    "count_view": 0
  },
  {
    "link_thumb": "https://live.staticflickr.com/65535/48122708181_a8932346a1_n.jpg",
    "id_album": "1274920659",
    "description": "Toyota_504116",
    "title": "Toyota_504116",
    "link_img": "https://live.staticflickr.com/65535/48122708181_b2ecfcd0b5_o.jpg",
    "id_image": "Toyota_504116",
    "count_view": 0
  },
  {
    "link_thumb": "https://live.staticflickr.com/65535/48121248138_f0eec9009f_n.jpg",
    "id_album": "-1178450892",
    "description": "Porsche_230619",
    "title": "Porsche_230619",
    "link_img": "https://live.staticflickr.com/65535/48121248138_78b3b55fc9_o.jpg",
    "id_image": "Porsche_230619",
    "count_view": 0
  }
]