[
  {
    "link_thumb": "https://live.staticflickr.com/65535/49040453993_b4b41a686f_n.jpg",
    "id_album": "-1428556500",
    "description": "AlfaRomeo_907363",
    "title": "AlfaRomeo_907363",
    "link_img": "https://live.staticflickr.com/65535/49040453993_63cae5f50f_o.jpg",
    "id_image": "AlfaRomeo_907363",
    "count_view": 0
  },
  {
    "link_thumb": "https://live.staticflickr.com/65535/48113905271_0a68a042ec_n.jpg",
    "id_album": "-1721545051",
    "description": "Chevrolet_254911",
    "title": "Chevrolet_254911",
    "link_img": "https://live.staticflickr.com/65535/48113905271_5b0ca44343_o.jpg",
    "id_image": "Chevrolet_254911",
    "count_view": 0
  },
  {
    "link_thumb": "https://live.staticflickr.com/65535/49889175826_17eaa60ef8_n.jpg",
    "id_album": "-1839909978",
    "description": "2019_rv_BMW_rv_i8_rv_Roadster_rv_V6_rv_2000",
    "title": "2019_rv_BMW_rv_i8_rv_Roadster_rv_V6_rv_2000",
    "link_img": "https://live.staticflickr.com/65535/49889175826_32e406799a_o.jpg",
    "id_image": "2019_rv_BMW_rv_i8_rv_Roadster_rv_V6_rv_2000",
    "count_view": 0
  },
  {
    "link_thumb": "https://live.staticflickr.com/65535/48113028957_e65be5fc27_n.jpg",
    "id_album": "727633301",
    "description": "BMW_492566",
    "title": "BMW_492566",
    "link_img": "https://live.staticflickr.com/65535/48113028957_a4de6e446a_o.jpg",
    "id_image": "BMW_492566",
    "count_view": 0
  },
  {
    "link_thumb": "https://live.staticflickr.com/65535/48117612032_b8bfe0744a_n.jpg",
    "id_album": "-1846404630",
    "description": "Ford_906683",
    "title": "Ford_906683",
    "link_img": "https://live.staticflickr.com/65535/48117612032_1dddd2f243_o.jpg",
    "id_image": "Ford_906683",
    "count_view": 0
  },
  {
    "link_thumb": "https://live.staticflickr.com/65535/48118554606_59ba6621a7_n.jpg",
    "id_album": "-2100339805",
    "description": "Lamborghini_673423",
    "title": "Lamborghini_673423",
    "link_img": "https://live.staticflickr.com/65535/48118554606_e495897626_o.jpg",
    "id_image": "Lamborghini_673423",
    "count_view": 0
  },
  {
    "link_thumb": "https://live.staticflickr.com/65535/48112540632_8c77f0a5b3_n.jpg",
    "id_album": "-15119147",
    "description": "Audi_910652",
    "title": "Audi_910652",
    "link_img": "https://live.staticflickr.com/65535/48112540632_49a3a4df28_o.jpg",
    "id_image": "Audi_910652",
    "count_view": 0
  },
  {
    "link_thumb": "https://live.staticflickr.com/65535/49890390427_d8be42f94a_n.jpg",
    "id_album": "-2100339805",
    "description": "2000_rv_Lamborghini_rv_Diablo_rv_GT_rv_R_rv_V2_rv_1440",
    "title": "2000_rv_Lamborghini_rv_Diablo_rv_GT_rv_R_rv_V2_rv_1440",
    "link_img": "https://live.staticflickr.com/65535/49890390427_b40ae6366f_o.jpg",
    "id_image": "2000_rv_Lamborghini_rv_Diablo_rv_GT_rv_R_rv_V2_rv_1440",
    "count_view": 0
  },
  {
    "link_thumb": "https://live.staticflickr.com/65535/48114498388_f392478627_n.jpg",
    "id_album": "-1721545051",
    "description": "Chevrolet_700334",
    "title": "Chevrolet_700334",
    "link_img": "https://live.staticflickr.com/65535/48114498388_ccb8343282_o.jpg",
    "id_image": "Chevrolet_700334",
    "count_view": 0
  },
  {
    "link_thumb": "https://live.staticflickr.com/65535/48114282277_e48b97f767_n.jpg",
    "id_album": "-1721545051",
    "description": "Chevrolet_397078",
    "title": "Chevrolet_397078",
    "link_img": "https://live.staticflickr.com/65535/48114282277_65dce0c055_o.jpg",
    "id_image": "Chevrolet_397078",
    "count_view": 0
  },
  {
    "link_thumb": "https://live.staticflickr.com/65535/48118747362_9eeb05ea2b_n.jpg",
    "id_album": "-2100339805",
    "description": "Lamborghini_918607",
    "title": "Lamborghini_918607",
    "link_img": "https://live.staticflickr.com/65535/48118747362_4aa6e4d9d6_o.jpg",
    "id_image": "Lamborghini_918607",
    "count_view": 0
  },
  {
    "link_thumb": "https://live.staticflickr.com/65535/48119421746_53ee908503_n.jpg",
    "id_album": "990865885",
    "description": "McLaren_977857",
    "title": "McLaren_977857",
    "link_img": "https://live.staticflickr.com/65535/48119421746_de6b59d22e_o.jpg",
    "id_image": "McLaren_977857",
    "count_view": 0
  },
  {
    "link_thumb": "https://live.staticflickr.com/65535/48115217128_8da0fd0b20_n.jpg",
    "id_album": "413141323",
    "description": "Dodge_346654",
    "title": "Dodge_346654",
    "link_img": "https://live.staticflickr.com/65535/48115217128_6f35c407b1_o.jpg",
    "id_image": "Dodge_346654",
    "count_view": 0
  },
  {
    "link_thumb": "https://live.staticflickr.com/65535/48114577183_b92d3542c5_n.jpg",
    "id_album": "-1721545051",
    "description": "Chevrolet_768978",
    "title": "Chevrolet_768978",
    "link_img": "https://live.staticflickr.com/65535/48114577183_5f719bd13a_o.jpg",
    "id_image": "Chevrolet_768978",
    "count_view": 0
  },
  {
    "link_thumb": "https://live.staticflickr.com/65535/49892251646_f7a1d64962_n.jpg",
    "id_album": "-291190869",
    "description": "2006_rv_Formula1_rv_Renault_rv_R26_rv_V1_rv_1536",
    "title": "2006_rv_Formula1_rv_Renault_rv_R26_rv_V1_rv_1536",
    "link_img": "https://live.staticflickr.com/65535/49892251646_d5ea0b783d_o.jpg",
    "id_image": "2006_rv_Formula1_rv_Renault_rv_R26_rv_V1_rv_1536",
    "count_view": 0
  },
  {
    "link_thumb": "https://live.staticflickr.com/65535/49889530126_b6d2b41336_n.jpg",
    "id_album": "-2012649705",
    "description": "2006_rv_Ferrari_rv_Pininfarina_rv_P4_rv_5_rv_Concept_rv_V6_rv_1440",
    "title": "2006_rv_Ferrari_rv_Pininfarina_rv_P4_rv_5_rv_Concept_rv_V6_rv_1440",
    "link_img": "https://live.staticflickr.com/65535/49889530126_b4cc41d070_o.jpg",
    "id_image": "2006_rv_Ferrari_rv_Pininfarina_rv_P4_rv_5_rv_Concept_rv_V6_rv_1440",
    "count_view": 0
  },
  {
    "link_thumb": "https://live.staticflickr.com/65535/49888444873_698b49943a_n.jpg",
    "id_album": "-2012653187",
    "description": "2005_rv_Audi_rv_RS4_rv_V2_rv_1536",
    "title": "2005_rv_Audi_rv_RS4_rv_V2_rv_1536",
    "link_img": "https://live.staticflickr.com/65535/49888444873_2e2c3edff9_o.jpg",
    "id_image": "2005_rv_Audi_rv_RS4_rv_V2_rv_1536",
    "count_view": 0
  },
  {
    "link_thumb": "https://live.staticflickr.com/65535/49890147852_fa5a026fc8_n.jpg",
    "id_album": "-289181366",
    "description": "2016_rv_Ford_rv_Mustang_rv_Shelby_rv_GT350R_rv_V4_rv_1600",
    "title": "2016_rv_Ford_rv_Mustang_rv_Shelby_rv_GT350R_rv_V4_rv_1600",
    "link_img": "https://live.staticflickr.com/65535/49890147852_955defa239_o.jpg",
    "id_image": "2016_rv_Ford_rv_Mustang_rv_Shelby_rv_GT350R_rv_V4_rv_1600",
    "count_view": 0
  },
  {
    "link_thumb": "https://live.staticflickr.com/65535/48122231293_3b1ac3a506_n.jpg",
    "id_album": "1536700661",
    "description": "RollsRoyce_992006",
    "title": "RollsRoyce_992006",
    "link_img": "https://live.staticflickr.com/65535/48122231293_7083e0f8a3_o.jpg",
    "id_image": "RollsRoyce_992006",
    "count_view": 0
  },
  {
    "link_thumb": "https://live.staticflickr.com/65535/49892852817_7468a9db92_n.jpg",
    "id_album": "1662834735",
    "description": "2010_rv_Porsche_rv_911_rv_Turbo_rv_S_rv_V5_rv_1440",
    "title": "2010_rv_Porsche_rv_911_rv_Turbo_rv_S_rv_V5_rv_1440",
    "link_img": "https://live.staticflickr.com/65535/49892852817_b5284b3514_o.jpg",
    "id_image": "2010_rv_Porsche_rv_911_rv_Turbo_rv_S_rv_V5_rv_1440",
    "count_view": 0
  },
  {
    "link_thumb": "https://live.staticflickr.com/65535/48121756712_356c551d51_n.jpg",
    "id_album": "-1178450892",
    "description": "Porsche_844485",
    "title": "Porsche_844485",
    "link_img": "https://live.staticflickr.com/65535/48121756712_ff351fb55f_o.jpg",
    "id_image": "Porsche_844485",
    "count_view": 0
  },
  {
    "link_thumb": "https://live.staticflickr.com/65535/48112661671_8a03591775_n.jpg",
    "id_album": "727633301",
    "description": "BMW_254076",
    "title": "BMW_254076",
    "link_img": "https://live.staticflickr.com/65535/48112661671_bf09742b31_o.jpg",
    "id_image": "BMW_254076",
    "count_view": 0
  },
  {
    "link_thumb": "https://live.staticflickr.com/65535/48118404698_bee3478ac5_n.jpg",
    "id_album": "-2100339805",
    "description": "Lamborghini_363506",
    "title": "Lamborghini_363506",
    "link_img": "https://live.staticflickr.com/65535/48118404698_49eb81c361_o.jpg",
    "id_image": "Lamborghini_363506",
    "count_view": 0
  },
  {
    "link_thumb": "https://live.staticflickr.com/65535/48111759017_6dbe4bd65e_n.jpg",
    "id_album": "1482519782",
    "description": "Hyundai_256083",
    "title": "Hyundai_256083",
    "link_img": "https://live.staticflickr.com/65535/48111759017_9439b301b7_o.jpg",
    "id_image": "Hyundai_256083",
    "count_view": 0
  },
  {
    "link_thumb": "https://live.staticflickr.com/65535/49889957921_3d726f85d2_n.jpg",
    "id_album": "-1041728304",
    "description": "2014_rv_Infiniti_rv_Q50_rv_V6_rv_1600",
    "title": "2014_rv_Infiniti_rv_Q50_rv_V6_rv_1600",
    "link_img": "https://live.staticflickr.com/65535/49889957921_2e3b72d8c6_o.jpg",
    "id_image": "2014_rv_Infiniti_rv_Q50_rv_V6_rv_1600",
    "count_view": 0
  },
  {
    "link_thumb": "https://live.staticflickr.com/65535/48118247968_44bb3605ce_n.jpg",
    "id_album": "1911063798",
    "description": "Koenigsegg_76933",
    "title": "Koenigsegg_76933",
    "link_img": "https://live.staticflickr.com/65535/48118247968_163abb2040_o.jpg",
    "id_image": "Koenigsegg_76933",
    "count_view": 0
  },
  {
    "link_thumb": "https://live.staticflickr.com/65535/49889333238_45bf4900d4_n.jpg",
    "id_album": "-2047714402",
    "description": "2015_rv_GTA_rv_Spano_rv_V8_rv_1600",
    "title": "2015_rv_GTA_rv_Spano_rv_V8_rv_1600",
    "link_img": "https://live.staticflickr.com/65535/49889333238_e090825f02_o.jpg",
    "id_image": "2015_rv_GTA_rv_Spano_rv_V8_rv_1600",
    "count_view": 0
  },
  {
    "link_thumb": "https://live.staticflickr.com/65535/48114786327_d33fd92d43_n.jpg",
    "id_album": "-1721545051",
    "description": "Chevrolet_963807",
    "title": "Chevrolet_963807",
    "link_img": "https://live.staticflickr.com/65535/48114786327_d7d3d135e6_o.jpg",
    "id_image": "Chevrolet_963807",
    "count_view": 0
  },
  {
    "link_thumb": "https://live.staticflickr.com/65535/48117916882_80d6d0a101_n.jpg",
    "id_album": "-354267407",
    "description": "Honda_600210",
    "title": "Honda_600210",
    "link_img": "https://live.staticflickr.com/65535/48117916882_1f5ebe2edd_o.jpg",
    "id_image": "Honda_600210",
    "count_view": 0
  },
  {
    "link_thumb": "https://live.staticflickr.com/65535/48112718488_cafef7d14a_n.jpg",
    "id_album": "727633301",
    "description": "BMW_272812",
    "title": "BMW_272812",
    "link_img": "https://live.staticflickr.com/65535/48112718488_01f98cc783_o.jpg",
    "id_image": "BMW_272812",
    "count_view": 0
  },
  {
    "link_thumb": "https://live.staticflickr.com/65535/48119634771_7085b6a399_n.jpg",
    "id_album": "-731054311",
    "description": "MercedesBenz_353953",
    "title": "MercedesBenz_353953",
    "link_img": "https://live.staticflickr.com/65535/48119634771_6c5ae55b21_o.jpg",
    "id_image": "MercedesBenz_353953",
    "count_view": 0
  },
  {
    "link_thumb": "https://live.staticflickr.com/65535/49890135736_49f7a14c9c_n.jpg",
    "id_album": "1422448701",
    "description": "1972_rv_Lamborghini_rv_Espada_rv_400_rv_GTE_rv_V6_rv_1600",
    "title": "1972_rv_Lamborghini_rv_Espada_rv_400_rv_GTE_rv_V6_rv_1600",
    "link_img": "https://live.staticflickr.com/65535/49890135736_b1cbaa137e_o.jpg",
    "id_image": "1972_rv_Lamborghini_rv_Espada_rv_400_rv_GTE_rv_V6_rv_1600",
    "count_view": 0
  },
  {
    "link_thumb": "https://live.staticflickr.com/65535/49893010677_5374f8d25e_n.jpg",
    "id_album": "-1490990769",
    "description": "2016_rv_Vorsteiner_rv_Porsche_rv_Cayman_rv_GT4_rv_V_rv_CS_rv_Aero_rv_V1_rv_2000",
    "title": "2016_rv_Vorsteiner_rv_Porsche_rv_Cayman_rv_GT4_rv_V_rv_CS_rv_Aero_rv_V1_rv_2000",
    "link_img": "https://live.staticflickr.com/65535/49893010677_3d5e6e231f_o.jpg",
    "id_image": "2016_rv_Vorsteiner_rv_Porsche_rv_Cayman_rv_GT4_rv_V_rv_CS_rv_Aero_rv_V1_rv_2000",
    "count_view": 0
  },
  {
    "link_thumb": "https://live.staticflickr.com/65535/48115136346_cd9b79049f_n.jpg",
    "id_album": "413141323",
    "description": "Dodge_272939",
    "title": "Dodge_272939",
    "link_img": "https://live.staticflickr.com/65535/48115136346_475b6c76e5_o.jpg",
    "id_image": "Dodge_272939",
    "count_view": 0
  },
  {
    "link_thumb": "https://live.staticflickr.com/65535/49892160926_cd840b6b28_n.jpg",
    "id_album": "-1352548977",
    "description": "2020_rv_Porsche_rv_Taycan_rv_V5_rv_2160",
    "title": "2020_rv_Porsche_rv_Taycan_rv_V5_rv_2160",
    "link_img": "https://live.staticflickr.com/65535/49892160926_86b250205d_o.jpg",
    "id_image": "2020_rv_Porsche_rv_Taycan_rv_V5_rv_2160",
    "count_view": 0
  },
  {
    "link_thumb": "https://live.staticflickr.com/65535/48112873736_ffb85a4598_n.jpg",
    "id_album": "727633301",
    "description": "BMW_485349",
    "title": "BMW_485349",
    "link_img": "https://live.staticflickr.com/65535/48112873736_d190a553bb_o.jpg",
    "id_image": "BMW_485349",
    "count_view": 0
  },
  {
    "link_thumb": "https://live.staticflickr.com/65535/48118578847_49031139db_n.jpg",
    "id_album": "-2100339805",
    "description": "Lamborghini_467230",
    "title": "Lamborghini_467230",
    "link_img": "https://live.staticflickr.com/65535/48118578847_86b4323bc0_o.jpg",
    "id_image": "Lamborghini_467230",
    "count_view": 0
  },
  {
    "link_thumb": "https://live.staticflickr.com/65535/48117412957_f4766e578e_n.jpg",
    "id_album": "-1846404630",
    "description": "Ford_594829",
    "title": "Ford_594829",
    "link_img": "https://live.staticflickr.com/65535/48117412957_3883bd425e_o.jpg",
    "id_image": "Ford_594829",
    "count_view": 0
  },
  {
    "link_thumb": "https://live.staticflickr.com/65535/48119538878_89f2ed73ef_n.jpg",
    "id_album": "-731054311",
    "description": "MercedesBenz_257103",
    "title": "MercedesBenz_257103",
    "link_img": "https://live.staticflickr.com/65535/48119538878_f4d64e2a79_o.jpg",
    "id_image": "MercedesBenz_257103",
    "count_view": 0
  },
  {
    "link_thumb": "https://live.staticflickr.com/65535/48115006881_b8c4eebaed_n.jpg",
    "id_album": "413141323",
    "description": "Dodge_149956",
    "title": "Dodge_149956",
    "link_img": "https://live.staticflickr.com/65535/48115006881_5dfc79d583_o.jpg",
    "id_image": "Dodge_149956",
    "count_view": 0
  },
  {
    "link_thumb": "https://live.staticflickr.com/65535/49889258012_05b6dd88a9_n.jpg",
    "id_album": "-700989163",
    "description": "1985_rv_Audi_rv_Sport_rv_Quattro_rv_S1_rv_E2_rv_V4_rv_1440",
    "title": "1985_rv_Audi_rv_Sport_rv_Quattro_rv_S1_rv_E2_rv_V4_rv_1440",
    "link_img": "https://live.staticflickr.com/65535/49889258012_63301ae67b_o.jpg",
    "id_image": "1985_rv_Audi_rv_Sport_rv_Quattro_rv_S1_rv_E2_rv_V4_rv_1440",
    "count_view": 0
  },
  {
    "link_thumb": "https://live.staticflickr.com/65535/48118743557_cc8d45d44c_n.jpg",
    "id_album": "-2100339805",
    "description": "Lamborghini_908709",
    "title": "Lamborghini_908709",
    "link_img": "https://live.staticflickr.com/65535/48118743557_6b412be79e_o.jpg",
    "id_image": "Lamborghini_908709",
    "count_view": 0
  },
  {
    "link_thumb": "https://live.staticflickr.com/65535/48112572271_dcbd4ba0b7_n.jpg",
    "id_album": "2097036181",
    "description": "Bentley_936208",
    "title": "Bentley_936208",
    "link_img": "https://live.staticflickr.com/65535/48112572271_5df6099301_o.jpg",
    "id_image": "Bentley_936208",
    "count_view": 0
  },
  {
    "link_thumb": "https://live.staticflickr.com/65535/48121291137_379f4022af_n.jpg",
    "id_album": "-1178450892",
    "description": "Porsche_220153",
    "title": "Porsche_220153",
    "link_img": "https://live.staticflickr.com/65535/48121291137_3c4db39e63_o.jpg",
    "id_image": "Porsche_220153",
    "count_view": 0
  },
  {
    "link_thumb": "https://live.staticflickr.com/65535/49890352932_54b7d388e7_n.jpg",
    "id_album": "-1314216515",
    "description": "2017_rv_Kia_rv_Proceed_rv_Concept_rv_V2_rv_2000",
    "title": "2017_rv_Kia_rv_Proceed_rv_Concept_rv_V2_rv_2000",
    "link_img": "https://live.staticflickr.com/65535/49890352932_3f0dfb17ac_o.jpg",
    "id_image": "2017_rv_Kia_rv_Proceed_rv_Concept_rv_V2_rv_2000",
    "count_view": 0
  },
  {
    "link_thumb": "https://live.staticflickr.com/65535/48117507563_bdaaba0716_n.jpg",
    "id_album": "-1846404630",
    "description": "Ford_834191",
    "title": "Ford_834191",
    "link_img": "https://live.staticflickr.com/65535/48117507563_25b0145b5c_o.jpg",
    "id_image": "Ford_834191",
    "count_view": 0
  },
  {
    "link_thumb": "https://live.staticflickr.com/65535/48118587526_0f33b524b7_n.jpg",
    "id_album": "-2100339805",
    "description": "Lamborghini_720714",
    "title": "Lamborghini_720714",
    "link_img": "https://live.staticflickr.com/65535/48118587526_a77788f3e2_o.jpg",
    "id_image": "Lamborghini_720714",
    "count_view": 0
  },
  {
    "link_thumb": "https://live.staticflickr.com/65535/48112203628_024c06779f_n.jpg",
    "id_album": "555757480",
    "description": "AstonMartin_709634",
    "title": "AstonMartin_709634",
    "link_img": "https://live.staticflickr.com/65535/48112203628_a407d34921_o.jpg",
    "id_image": "AstonMartin_709634",
    "count_view": 0
  },
  {
    "link_thumb": "https://live.staticflickr.com/65535/48114848703_ebb93f846c_n.jpg",
    "id_album": "2072464184",
    "description": "Citroen_187934",
    "title": "Citroen_187934",
    "link_img": "https://live.staticflickr.com/65535/48114848703_3023a0ddb5_o.jpg",
    "id_image": "Citroen_187934",
    "count_view": 0
  },
  {
    "link_thumb": "https://live.staticflickr.com/65535/48116947786_787e911ae8_n.jpg",
    "id_album": "-1846404630",
    "description": "Ford_288811",
    "title": "Ford_288811",
    "link_img": "https://live.staticflickr.com/65535/48116947786_924a18d356_o.jpg",
    "id_image": "Ford_288811",
    "count_view": 0
  },
  {
    "link_thumb": "https://live.staticflickr.com/65535/48115523391_3fb16c6879_n.jpg",
    "id_album": "413141323",
    "description": "Dodge_89926",
    "title": "Dodge_89926",
    "link_img": "https://live.staticflickr.com/65535/48115523391_dc3bb403e4_o.jpg",
    "id_image": "Dodge_89926",
    "count_view": 0
  },
  {
    "link_thumb": "https://live.staticflickr.com/65535/48119534371_1475865c41_n.jpg",
    "id_album": "-731054311",
    "description": "MercedesBenz_257255",
    "title": "MercedesBenz_257255",
    "link_img": "https://live.staticflickr.com/65535/48119534371_7f3f1a7902_o.jpg",
    "id_image": "MercedesBenz_257255",
    "count_view": 0
  },
  {
    "link_thumb": "https://live.staticflickr.com/65535/49891456702_fa9e53a8f7_n.jpg",
    "id_album": "1428366981",
    "description": "2010_rv_Noble_rv_M600_rv_V1_rv_1440",
    "title": "2010_rv_Noble_rv_M600_rv_V1_rv_1440",
    "link_img": "https://live.staticflickr.com/65535/49891456702_98dba0b948_o.jpg",
    "id_image": "2010_rv_Noble_rv_M600_rv_V1_rv_1440",
    "count_view": 0
  },
  {
    "link_thumb": "https://live.staticflickr.com/65535/48113732747_6a13393c76_n.jpg",
    "id_album": "-1721545051",
    "description": "Chevrolet_151166",
    "title": "Chevrolet_151166",
    "link_img": "https://live.staticflickr.com/65535/48113732747_e1ab72c9a8_o.jpg",
    "id_image": "Chevrolet_151166",
    "count_view": 0
  },
  {
    "link_thumb": "https://live.staticflickr.com/65535/49889308828_9b4eb28055_n.jpg",
    "id_album": "-1617578684",
    "description": "2018_rv_Porsche_rv_911_rv_GT3_rv_V10_rv_2000",
    "title": "2018_rv_Porsche_rv_911_rv_GT3_rv_V10_rv_2000",
    "link_img": "https://live.staticflickr.com/65535/49889308828_5bdd585d53_o.jpg",
    "id_image": "2018_rv_Porsche_rv_911_rv_GT3_rv_V10_rv_2000",
    "count_view": 0
  },
  {
    "link_thumb": "https://live.staticflickr.com/65535/48121214497_294509aa6e_n.jpg",
    "id_album": "-2099496752",
    "description": "Pontiac_306520",
    "title": "Pontiac_306520",
    "link_img": "https://live.staticflickr.com/65535/48121214497_7484044e83_o.jpg",
    "id_image": "Pontiac_306520",
    "count_view": 0
  },
  {
    "link_thumb": "https://live.staticflickr.com/65535/48112180983_b10aee9877_n.jpg",
    "id_album": "1546790746",
    "description": "AstonMartin_470556",
    "title": "AstonMartin_470556",
    "link_img": "https://live.staticflickr.com/65535/48112180983_3574d7647d_o.jpg",
    "id_image": "AstonMartin_470556",
    "count_view": 0
  },
  {
    "link_thumb": "https://live.staticflickr.com/65535/49892859677_7897904168_n.jpg",
    "id_album": "1662834735",
    "description": "2020_rv_Porsche_rv_911_rv_Turbo_rv_S_rv_V1_rv_2160",
    "title": "2020_rv_Porsche_rv_911_rv_Turbo_rv_S_rv_V1_rv_2160",
    "link_img": "https://live.staticflickr.com/65535/49892859677_771056ce16_o.jpg",
    "id_image": "2020_rv_Porsche_rv_911_rv_Turbo_rv_S_rv_V1_rv_2160",
    "count_view": 0
  },
  {
    "link_thumb": "https://live.staticflickr.com/65535/48112981017_86f3a1757d_n.jpg",
    "id_album": "727633301",
    "description": "BMW_486596",
    "title": "BMW_486596",
    "link_img": "https://live.staticflickr.com/65535/48112981017_b81b8fef0d_o.jpg",
    "id_image": "BMW_486596",
    "count_view": 0
  },
  {
    "link_thumb": "https://live.staticflickr.com/65535/48116980811_a3ae48dab8_n.jpg",
    "id_album": "-1846404630",
    "description": "Ford_297181",
    "title": "Ford_297181",
    "link_img": "https://live.staticflickr.com/65535/48116980811_112b5b0d75_o.jpg",
    "id_image": "Ford_297181",
    "count_view": 0
  },
  {
    "link_thumb": "https://live.staticflickr.com/65535/49890173911_0f23efae02_n.jpg",
    "id_album": "-936716449",
    "description": "2020_rv_Lamborghini_rv_Huracan_rv_Evo_rv_GT_rv_Celebration_rv_V2_rv_2160",
    "title": "2020_rv_Lamborghini_rv_Huracan_rv_Evo_rv_GT_rv_Celebration_rv_V2_rv_2160",
    "link_img": "https://live.staticflickr.com/65535/49890173911_ee991cf25f_o.jpg",
    "id_image": "2020_rv_Lamborghini_rv_Huracan_rv_Evo_rv_GT_rv_Celebration_rv_V2_rv_2160",
    "count_view": 0
  },
  {
    "link_thumb": "https://live.staticflickr.com/65535/48120533998_07e129bff5_n.jpg",
    "id_album": "810634050",
    "description": "Nissan_514852",
    "title": "Nissan_514852",
    "link_img": "https://live.staticflickr.com/65535/48120533998_3d883b3a76_o.jpg",
    "id_image": "Nissan_514852",
    "count_view": 0
  },
  {
    "link_thumb": "https://live.staticflickr.com/65535/48112251551_53ca1b4076_n.jpg",
    "id_album": "-15119147",
    "description": "Audi_253677",
    "title": "Audi_253677",
    "link_img": "https://live.staticflickr.com/65535/48112251551_3ebdf7319a_o.jpg",
    "id_image": "Audi_253677",
    "count_view": 0
  },
  {
    "link_thumb": "https://live.staticflickr.com/65535/49891949423_2f0f2c0c0e_n.jpg",
    "id_album": "-91950429",
    "description": "2012_rv_Subaru_rv_Impreza_rv_WRX_rv_STI_rv_S206_rv_V2_rv_1536",
    "title": "2012_rv_Subaru_rv_Impreza_rv_WRX_rv_STI_rv_S206_rv_V2_rv_1536",
    "link_img": "https://live.staticflickr.com/65535/49891949423_a745944286_o.jpg",
    "id_image": "2012_rv_Subaru_rv_Impreza_rv_WRX_rv_STI_rv_S206_rv_V2_rv_1536",
    "count_view": 0
  },
  {
    "link_thumb": "https://live.staticflickr.com/65535/48117160552_b72bd62762_n.jpg",
    "id_album": "-1846404630",
    "description": "Ford_379226",
    "title": "Ford_379226",
    "link_img": "https://live.staticflickr.com/65535/48117160552_20b6849631_o.jpg",
    "id_image": "Ford_379226",
    "count_view": 0
  },
  {
    "link_thumb": "https://live.staticflickr.com/65535/48118823103_64beae738a_n.jpg",
    "id_album": "1234246491",
    "description": "LandRover_318803",
    "title": "LandRover_318803",
    "link_img": "https://live.staticflickr.com/65535/48118823103_710146ec9f_o.jpg",
    "id_image": "LandRover_318803",
    "count_view": 0
  },
  {
    "link_thumb": "https://live.staticflickr.com/65535/49892190291_d0bd23cbef_n.jpg",
    "id_album": "-461005169",
    "description": "2015_rv_Nissan_rv_GT_rv_R_rv_Nismo_rv_V6_rv_1600",
    "title": "2015_rv_Nissan_rv_GT_rv_R_rv_Nismo_rv_V6_rv_1600",
    "link_img": "https://live.staticflickr.com/65535/49892190291_e6243d33e8_o.jpg",
    "id_image": "2015_rv_Nissan_rv_GT_rv_R_rv_Nismo_rv_V6_rv_1600",
    "count_view": 0
  },
  {
    "link_thumb": "https://live.staticflickr.com/65535/49953905408_b13c988eaa_n.jpg",
    "id_album": "-924016578",
    "description": "2008_rv_Renault_rv_Megane_rv_RS_rv_R26.R_rv_V6_rv_1536",
    "title": "2008_rv_Renault_rv_Megane_rv_RS_rv_R26.R_rv_V6_rv_1536",
    "link_img": "https://live.staticflickr.com/65535/49953905408_2562bdc275_o.jpg",
    "id_image": "2008_rv_Renault_rv_Megane_rv_RS_rv_R26.R_rv_V6_rv_1536",
    "count_view": 0
  },
  {
    "link_thumb": "https://live.staticflickr.com/65535/48120164677_c0a3a2e347_n.jpg",
    "id_album": "-1116477526",
    "description": "Mitsubishi_505335",
    "title": "Mitsubishi_505335",
    "link_img": "https://live.staticflickr.com/65535/48120164677_dc6dc38d5e_o.jpg",
    "id_image": "Mitsubishi_505335",
    "count_view": 0
  },
  {
    "link_thumb": "https://live.staticflickr.com/65535/49892707871_6eef37830b_n.jpg",
    "id_album": "-1852700606",
    "description": "2013_rv_Wiesmann_rv_GT_rv_MF4_rv_CS_rv_V5_rv_1600",
    "title": "2013_rv_Wiesmann_rv_GT_rv_MF4_rv_CS_rv_V5_rv_1600",
    "link_img": "https://live.staticflickr.com/65535/49892707871_7ca346df21_o.jpg",
    "id_image": "2013_rv_Wiesmann_rv_GT_rv_MF4_rv_CS_rv_V5_rv_1600",
    "count_view": 0
  },
  {
    "link_thumb": "https://live.staticflickr.com/65535/48112787448_0b58bd4c4e_n.jpg",
    "id_album": "727633301",
    "description": "BMW_417609",
    "title": "BMW_417609",
    "link_img": "https://live.staticflickr.com/65535/48112787448_ec653c6f08_o.jpg",
    "id_image": "BMW_417609",
    "count_view": 0
  },
  {
    "link_thumb": "https://live.staticflickr.com/65535/48116997701_c56dfb27e8_n.jpg",
    "id_album": "-1846404630",
    "description": "Ford_318067",
    "title": "Ford_318067",
    "link_img": "https://live.staticflickr.com/65535/48116997701_fd0cb6d84d_o.jpg",
    "id_image": "Ford_318067",
    "count_view": 0
  },
  {
    "link_thumb": "https://live.staticflickr.com/65535/48116692921_eb17b80638_n.jpg",
    "id_album": "-1846404630",
    "description": "Ford_188421",
    "title": "Ford_188421",
    "link_img": "https://live.staticflickr.com/65535/48116692921_e4eac98038_o.jpg",
    "id_image": "Ford_188421",
    "count_view": 0
  },
  {
    "link_thumb": "https://live.staticflickr.com/65535/48121131136_dd4de81003_n.jpg",
    "id_album": "-2099496752",
    "description": "Pontiac_360821",
    "title": "Pontiac_360821",
    "link_img": "https://live.staticflickr.com/65535/48121131136_6dde53f2fd_o.jpg",
    "id_image": "Pontiac_360821",
    "count_view": 0
  },
  {
    "link_thumb": "https://live.staticflickr.com/65535/48114581436_2c5c2c3c5c_n.jpg",
    "id_album": "-1721545051",
    "description": "Chevrolet_844824",
    "title": "Chevrolet_844824",
    "link_img": "https://live.staticflickr.com/65535/48114581436_9c850fecdd_o.jpg",
    "id_image": "Chevrolet_844824",
    "count_view": 0
  },
  {
    "link_thumb": "https://live.staticflickr.com/65535/48120089988_42f19d7eb3_n.jpg",
    "id_album": "-1116477526",
    "description": "Mitsubishi_451767",
    "title": "Mitsubishi_451767",
    "link_img": "https://live.staticflickr.com/65535/48120089988_2fd7ea3bfb_o.jpg",
    "id_image": "Mitsubishi_451767",
    "count_view": 0
  },
  {
    "link_thumb": "https://live.staticflickr.com/65535/48120089962_b24c591678_n.jpg",
    "id_album": "-1366790033",
    "description": "Mercury_741514",
    "title": "Mercury_741514",
    "link_img": "https://live.staticflickr.com/65535/48120089962_53b43ba456_o.jpg",
    "id_image": "Mercury_741514",
    "count_view": 0
  },
  {
    "link_thumb": "https://live.staticflickr.com/65535/48121321421_79a2a1aa6d_n.jpg",
    "id_album": "-1178450892",
    "description": "Porsche_359935",
    "title": "Porsche_359935",
    "link_img": "https://live.staticflickr.com/65535/48121321421_09359e8991_o.jpg",
    "id_image": "Porsche_359935",
    "count_view": 0
  },
  {
    "link_thumb": "https://live.staticflickr.com/65535/49891659748_a25239859f_n.jpg",
    "id_album": "-1623804583",
    "description": "1995_rv_Nissan_rv_Skyline_rv_GT_rv_R_rv_V4_rv_2160",
    "title": "1995_rv_Nissan_rv_Skyline_rv_GT_rv_R_rv_V4_rv_2160",
    "link_img": "https://live.staticflickr.com/65535/49891659748_215fbbf77f_o.jpg",
    "id_image": "1995_rv_Nissan_rv_Skyline_rv_GT_rv_R_rv_V4_rv_2160",
    "count_view": 0
  },
  {
    "link_thumb": "https://live.staticflickr.com/65535/48113391942_37c41e0a72_n.jpg",
    "id_album": "727633301",
    "description": "BMW_989862",
    "title": "BMW_989862",
    "link_img": "https://live.staticflickr.com/65535/48113391942_f30b31eb3b_o.jpg",
    "id_image": "BMW_989862",
    "count_view": 0
  },
  {
    "link_thumb": "https://live.staticflickr.com/65535/49890834761_ac90c27b02_n.jpg",
    "id_album": "-21475779",
    "description": "2017_rv_Mercedes_rv_Benz_rv_AMG_rv_GT_rv_R_rv_V13_rv_2000",
    "title": "2017_rv_Mercedes_rv_Benz_rv_AMG_rv_GT_rv_R_rv_V13_rv_2000",
    "link_img": "https://live.staticflickr.com/65535/49890834761_c6a45bcbc6_o.jpg",
    "id_image": "2017_rv_Mercedes_rv_Benz_rv_AMG_rv_GT_rv_R_rv_V13_rv_2000",
    "count_view": 0
  },
  {
    "link_thumb": "https://live.staticflickr.com/65535/49889227868_1259caa362_n.jpg",
    "id_album": "-1834030884",
    "description": "1986_rv_Ford_rv_Sierra_rv_RS_rv_Cosworth_rv_V9_rv_1600",
    "title": "1986_rv_Ford_rv_Sierra_rv_RS_rv_Cosworth_rv_V9_rv_1600",
    "link_img": "https://live.staticflickr.com/65535/49889227868_152e10565b_o.jpg",
    "id_image": "1986_rv_Ford_rv_Sierra_rv_RS_rv_Cosworth_rv_V9_rv_1600",
    "count_view": 0
  },
  {
    "link_thumb": "https://live.staticflickr.com/65535/48120392633_5c08968e58_n.jpg",
    "id_album": "810634050",
    "description": "Nissan_273736",
    "title": "Nissan_273736",
    "link_img": "https://live.staticflickr.com/65535/48120392633_55b14beefe_o.jpg",
    "id_image": "Nissan_273736",
    "count_view": 0
  },
  {
    "link_thumb": "https://live.staticflickr.com/65535/48122541998_64f8d4ab0a_n.jpg",
    "id_album": "422322641",
    "description": "Subaru_718440",
    "title": "Subaru_718440",
    "link_img": "https://live.staticflickr.com/65535/48122541998_ca9797d52d_o.jpg",
    "id_image": "Subaru_718440",
    "count_view": 0
  },
  {
    "link_thumb": "https://live.staticflickr.com/65535/49889477273_f4846cfdb4_n.jpg",
    "id_album": "-526213488",
    "description": "1988_rv_Jaguar_rv_XJR9_rv_V8_rv_1600",
    "title": "1988_rv_Jaguar_rv_XJR9_rv_V8_rv_1600",
    "link_img": "https://live.staticflickr.com/65535/49889477273_a92bf041f3_o.jpg",
    "id_image": "1988_rv_Jaguar_rv_XJR9_rv_V8_rv_1600",
    "count_view": 0
  },
  {
    "link_thumb": "https://live.staticflickr.com/65535/48114950473_15dfc64744_n.jpg",
    "id_album": "2072464184",
    "description": "Citroen_510348",
    "title": "Citroen_510348",
    "link_img": "https://live.staticflickr.com/65535/48114950473_cdc7d0521b_o.jpg",
    "id_image": "Citroen_510348",
    "count_view": 0
  },
  {
    "link_thumb": "https://live.staticflickr.com/65535/48123362872_92c7ce4a40_n.jpg",
    "id_album": "-360260466",
    "description": "Yamaha_811404",
    "title": "Yamaha_811404",
    "link_img": "https://live.staticflickr.com/65535/48123362872_e5faf577df_o.jpg",
    "id_image": "Yamaha_811404",
    "count_view": 0
  },
  {
    "link_thumb": "https://live.staticflickr.com/65535/48116772446_761375e337_n.jpg",
    "id_album": "-1846404630",
    "description": "Ford_223004",
    "title": "Ford_223004",
    "link_img": "https://live.staticflickr.com/65535/48116772446_38918e8cbd_o.jpg",
    "id_image": "Ford_223004",
    "count_view": 0
  },
  {
    "link_thumb": "https://live.staticflickr.com/65535/48117442198_ca18cc288c_n.jpg",
    "id_album": "-1846404630",
    "description": "Ford_740647",
    "title": "Ford_740647",
    "link_img": "https://live.staticflickr.com/65535/48117442198_e723b4ea00_o.jpg",
    "id_image": "Ford_740647",
    "count_view": 0
  },
  {
    "link_thumb": "https://live.staticflickr.com/65535/48117787246_c421c34815_n.jpg",
    "id_album": "-354267407",
    "description": "Honda_363024",
    "title": "Honda_363024",
    "link_img": "https://live.staticflickr.com/65535/48117787246_8e3174e3ea_o.jpg",
    "id_image": "Honda_363024",
    "count_view": 0
  },
  {
    "link_thumb": "https://live.staticflickr.com/65535/48118121251_e622acc471_n.jpg",
    "id_album": "-2009218697",
    "description": "Jeep_889766",
    "title": "Jeep_889766",
    "link_img": "https://live.staticflickr.com/65535/48118121251_470093aac1_o.jpg",
    "id_image": "Jeep_889766",
    "count_view": 0
  },
  {
    "link_thumb": "https://live.staticflickr.com/65535/48118667242_d6b7e9c98b_n.jpg",
    "id_album": "-2100339805",
    "description": "Lamborghini_709725",
    "title": "Lamborghini_709725",
    "link_img": "https://live.staticflickr.com/65535/48118667242_af7395a2b3_o.jpg",
    "id_image": "Lamborghini_709725",
    "count_view": 0
  },
  {
    "link_thumb": "https://live.staticflickr.com/65535/49889553016_396f39a336_n.jpg",
    "id_album": "665596111",
    "description": "2016_rv_Ferrari_rv_F12tdf_rv_V15_rv_2000",
    "title": "2016_rv_Ferrari_rv_F12tdf_rv_V15_rv_2000",
    "link_img": "https://live.staticflickr.com/65535/49889553016_4414041640_o.jpg",
    "id_image": "2016_rv_Ferrari_rv_F12tdf_rv_V15_rv_2000",
    "count_view": 0
  },
  {
    "link_thumb": "https://live.staticflickr.com/65535/49889567441_df4c396f13_n.jpg",
    "id_album": "-1150105315",
    "description": "2015_rv_Formula1_rv_Ferrari_rv_SF15_rv_T_rv_V7_rv_1600",
    "title": "2015_rv_Formula1_rv_Ferrari_rv_SF15_rv_T_rv_V7_rv_1600",
    "link_img": "https://live.staticflickr.com/65535/49889567441_a4ff30102c_o.jpg",
    "id_image": "2015_rv_Formula1_rv_Ferrari_rv_SF15_rv_T_rv_V7_rv_1600",
    "count_view": 0
  },
  {
    "link_thumb": "https://live.staticflickr.com/65535/48120178632_bbb2533bc2_n.jpg",
    "id_album": "-1116477526",
    "description": "Mitsubishi_685648",
    "title": "Mitsubishi_685648",
    "link_img": "https://live.staticflickr.com/65535/48120178632_f4eb359ecc_o.jpg",
    "id_image": "Mitsubishi_685648",
    "count_view": 0
  },
  {
    "link_thumb": "https://live.staticflickr.com/65535/49890388321_4848032d28_n.jpg",
    "id_album": "-843792943",
    "description": "2013_rv_Lotus_rv_Exige_rv_S_rv_Roadster_rv_V8_rv_1440",
    "title": "2013_rv_Lotus_rv_Exige_rv_S_rv_Roadster_rv_V8_rv_1440",
    "link_img": "https://live.staticflickr.com/65535/49890388321_d4a2be22ed_o.jpg",
    "id_image": "2013_rv_Lotus_rv_Exige_rv_S_rv_Roadster_rv_V8_rv_1440",
    "count_view": 0
  },
  {
    "link_thumb": "https://live.staticflickr.com/65535/49889117551_b28bcb7d33_n.jpg",
    "id_album": "-1839908067",
    "description": "2016_rv_BMW_rv_M6_rv_GT3_rv_V5_rv_1600",
    "title": "2016_rv_BMW_rv_M6_rv_GT3_rv_V5_rv_1600",
    "link_img": "https://live.staticflickr.com/65535/49889117551_496e38f648_o.jpg",
    "id_image": "2016_rv_BMW_rv_M6_rv_GT3_rv_V5_rv_1600",
    "count_view": 0
  },
  {
    "link_thumb": "https://live.staticflickr.com/65535/48116399318_9ba6b899d4_n.jpg",
    "id_album": "1364506720",
    "description": "Ferrari_890232",
    "title": "Ferrari_890232",
    "link_img": "https://live.staticflickr.com/65535/48116399318_125ec4513e_o.jpg",
    "id_image": "Ferrari_890232",
    "count_view": 0
  },
  {
    "link_thumb": "https://live.staticflickr.com/65535/48118334171_e16a0c51e0_n.jpg",
    "id_album": "-2100339805",
    "description": "Lamborghini_318608",
    "title": "Lamborghini_318608",
    "link_img": "https://live.staticflickr.com/65535/48118334171_b0debe4ec7_o.jpg",
    "id_image": "Lamborghini_318608",
    "count_view": 0
  },
  {
    "link_thumb": "https://live.staticflickr.com/65535/48121778582_2f1ca227de_n.jpg",
    "id_album": "-1178450892",
    "description": "Porsche_880159",
    "title": "Porsche_880159",
    "link_img": "https://live.staticflickr.com/65535/48121778582_459c7a17f6_o.jpg",
    "id_image": "Porsche_880159",
    "count_view": 0
  },
  {
    "link_thumb": "https://live.staticflickr.com/65535/49889166027_f805130001_n.jpg",
    "id_album": "-329322037",
    "description": "2010_rv_Aston_rv_Martin_rv_DBS_rv_Volante_rv_V5_rv_2160",
    "title": "2010_rv_Aston_rv_Martin_rv_DBS_rv_Volante_rv_V5_rv_2160",
    "link_img": "https://live.staticflickr.com/65535/49889166027_d892318049_o.jpg",
    "id_image": "2010_rv_Aston_rv_Martin_rv_DBS_rv_Volante_rv_V5_rv_2160",
    "count_view": 0
  },
  {
    "link_thumb": "https://live.staticflickr.com/65535/48118357241_d3f60d543d_n.jpg",
    "id_album": "-2100339805",
    "description": "Lamborghini_345421",
    "title": "Lamborghini_345421",
    "link_img": "https://live.staticflickr.com/65535/48118357241_fa8a7e1917_o.jpg",
    "id_image": "Lamborghini_345421",
    "count_view": 0
  },
  {
    "link_thumb": "https://live.staticflickr.com/65535/49888685143_cb50137e91_n.jpg",
    "id_album": "2085456337",
    "description": "2000_rv_BMW_rv_Z8_rv_V1_rv_1440",
    "title": "2000_rv_BMW_rv_Z8_rv_V1_rv_1440",
    "link_img": "https://live.staticflickr.com/65535/49888685143_99b1e8f704_o.jpg",
    "id_image": "2000_rv_BMW_rv_Z8_rv_V1_rv_1440",
    "count_view": 0
  },
  {
    "link_thumb": "https://live.staticflickr.com/65535/49888529998_f02d7da959_n.jpg",
    "id_album": "-1839907970",
    "description": "2011_rv_BMW_rv_1_rv_Series_rv_M_rv_Coupe_rv_MotoGP_rv_Safety_rv_Car_rv_V6_rv_1440",
    "title": "2011_rv_BMW_rv_1_rv_Series_rv_M_rv_Coupe_rv_MotoGP_rv_Safety_rv_Car_rv_V6_rv_1440",
    "link_img": "https://live.staticflickr.com/65535/49888529998_105748a4ca_o.jpg",
    "id_image": "2011_rv_BMW_rv_1_rv_Series_rv_M_rv_Coupe_rv_MotoGP_rv_Safety_rv_Car_rv_V6_rv_1440",
    "count_view": 0
  },
  {
    "link_thumb": "https://live.staticflickr.com/65535/48121836701_59416fb194_n.jpg",
    "id_album": "-1178450892",
    "description": "Porsche_997495",
    "title": "Porsche_997495",
    "link_img": "https://live.staticflickr.com/65535/48121836701_319a58f0ae_o.jpg",
    "id_image": "Porsche_997495",
    "count_view": 0
  },
  {
    "link_thumb": "https://live.staticflickr.com/65535/48114878462_cd4eb4f15c_n.jpg",
    "id_album": "939606447",
    "description": "Chrysler_624548",
    "title": "Chrysler_624548",
    "link_img": "https://live.staticflickr.com/65535/48114878462_fa0c640f51_o.jpg",
    "id_image": "Chrysler_624548",
    "count_view": 0
  },
  {
    "link_thumb": "https://live.staticflickr.com/65535/48118972756_be94232136_n.jpg",
    "id_album": "-120702461",
    "description": "Lincoln_242951",
    "title": "Lincoln_242951",
    "link_img": "https://live.staticflickr.com/65535/48118972756_b1f034cdc0_o.jpg",
    "id_image": "Lincoln_242951",
    "count_view": 0
  },
  {
    "link_thumb": "https://live.staticflickr.com/65535/48114074656_500faf3cbf_n.jpg",
    "id_album": "-1721545051",
    "description": "Chevrolet_292263",
    "title": "Chevrolet_292263",
    "link_img": "https://live.staticflickr.com/65535/48114074656_86205b5d71_o.jpg",
    "id_image": "Chevrolet_292263",
    "count_view": 0
  },
  {
    "link_thumb": "https://live.staticflickr.com/65535/49040435893_75c316a1dc_n.jpg",
    "id_album": "-1428556500",
    "description": "AlfaRomeo_345284",
    "title": "AlfaRomeo_345284",
    "link_img": "https://live.staticflickr.com/65535/49040435893_1eab6bbc62_o.jpg",
    "id_image": "AlfaRomeo_345284",
    "count_view": 0
  },
  {
    "link_thumb": "https://live.staticflickr.com/65535/49890042813_d5748ac222_n.jpg",
    "id_album": "-646872376",
    "description": "2017_rv_McLaren_rv_675LT_rv_Spider_rv_V4_rv_2000",
    "title": "2017_rv_McLaren_rv_675LT_rv_Spider_rv_V4_rv_2000",
    "link_img": "https://live.staticflickr.com/65535/49890042813_bf4c7a01bc_o.jpg",
    "id_image": "2017_rv_McLaren_rv_675LT_rv_Spider_rv_V4_rv_2000",
    "count_view": 0
  },
  {
    "link_thumb": "https://live.staticflickr.com/65535/48120775601_7f100d8f1f_n.jpg",
    "id_album": "1952909762",
    "description": "Packard_927887",
    "title": "Packard_927887",
    "link_img": "https://live.staticflickr.com/65535/48120775601_cb431529cc_o.jpg",
    "id_image": "Packard_927887",
    "count_view": 0
  },
  {
    "link_thumb": "https://live.staticflickr.com/65535/49889885937_b8b23033f8_n.jpg",
    "id_album": "1445211981",
    "description": "2018_rv_Ferrari_rv_FXX_rv_K_rv_Evo_rv_V9_rv_2000",
    "title": "2018_rv_Ferrari_rv_FXX_rv_K_rv_Evo_rv_V9_rv_2000",
    "link_img": "https://live.staticflickr.com/65535/49889885937_9a9fab4e91_o.jpg",
    "id_image": "2018_rv_Ferrari_rv_FXX_rv_K_rv_Evo_rv_V9_rv_2000",
    "count_view": 0
  },
  {
    "link_thumb": "https://live.staticflickr.com/65535/48118296083_c14f505e3a_n.jpg",
    "id_album": "-2100339805",
    "description": "Lamborghini_256273",
    "title": "Lamborghini_256273",
    "link_img": "https://live.staticflickr.com/65535/48118296083_1316be68c4_o.jpg",
    "id_image": "Lamborghini_256273",
    "count_view": 0
  },
  {
    "link_thumb": "https://live.staticflickr.com/65535/48123052127_55c2bc4e5e_n.jpg",
    "id_album": "-150952028",
    "description": "Volkswagen_453272",
    "title": "Volkswagen_453272",
    "link_img": "https://live.staticflickr.com/65535/48123052127_0bd96b9bdb_o.jpg",
    "id_image": "Volkswagen_453272",
    "count_view": 0
  },
  {
    "link_thumb": "https://live.staticflickr.com/65535/49891959828_577de6f4c1_n.jpg",
    "id_album": "746165216",
    "description": "2014_rv_Toyota_rv_GT86_rv_TRD_rv_V8_rv_1600",
    "title": "2014_rv_Toyota_rv_GT86_rv_TRD_rv_V8_rv_1600",
    "link_img": "https://live.staticflickr.com/65535/49891959828_5f1eda3307_o.jpg",
    "id_image": "2014_rv_Toyota_rv_GT86_rv_TRD_rv_V8_rv_1600",
    "count_view": 0
  },
  {
    "link_thumb": "https://live.staticflickr.com/65535/48120101912_10b9405529_n.jpg",
    "id_album": "-1116477526",
    "description": "Mitsubishi_257383",
    "title": "Mitsubishi_257383",
    "link_img": "https://live.staticflickr.com/65535/48120101912_e8f1fef230_o.jpg",
    "id_image": "Mitsubishi_257383",
    "count_view": 0
  },
  {
    "link_thumb": "https://live.staticflickr.com/65535/48122564696_cafd4fc17d_n.jpg",
    "id_album": "1822826527",
    "description": "TeslaMotors_319427",
    "title": "TeslaMotors_319427",
    "link_img": "https://live.staticflickr.com/65535/48122564696_63656cf584_o.jpg",
    "id_image": "TeslaMotors_319427",
    "count_view": 0
  },
  {
    "link_thumb": "https://live.staticflickr.com/65535/48113957907_8f3e5d023e_n.jpg",
    "id_album": "-1721545051",
    "description": "Chevrolet_242199",
    "title": "Chevrolet_242199",
    "link_img": "https://live.staticflickr.com/65535/48113957907_6f2743e607_o.jpg",
    "id_image": "Chevrolet_242199",
    "count_view": 0
  },
  {
    "link_thumb": "https://live.staticflickr.com/65535/49892483186_038f56b685_n.jpg",
    "id_album": "-1628172382",
    "description": "1983_rv_Toyota_rv_Sprinter_rv_Trueno_rv_AE86_rv_V4_rv_1440",
    "title": "1983_rv_Toyota_rv_Sprinter_rv_Trueno_rv_AE86_rv_V4_rv_1440",
    "link_img": "https://live.staticflickr.com/65535/49892483186_a458eb3014_o.jpg",
    "id_image": "1983_rv_Toyota_rv_Sprinter_rv_Trueno_rv_AE86_rv_V4_rv_1440",
    "count_view": 0
  },
  {
    "link_thumb": "https://live.staticflickr.com/65535/48112402992_268169d69a_n.jpg",
    "id_album": "-15119147",
    "description": "Audi_451681",
    "title": "Audi_451681",
    "link_img": "https://live.staticflickr.com/65535/48112402992_243609a519_o.jpg",
    "id_image": "Audi_451681",
    "count_view": 0
  },
  {
    "link_thumb": "https://live.staticflickr.com/65535/48114376141_1f7937a44a_n.jpg",
    "id_album": "-1721545051",
    "description": "Chevrolet_507064",
    "title": "Chevrolet_507064",
    "link_img": "https://live.staticflickr.com/65535/48114376141_2bcb835b1b_o.jpg",
    "id_image": "Chevrolet_507064",
    "count_view": 0
  },
  {
    "link_thumb": "https://live.staticflickr.com/65535/48114628812_4115e16cc8_n.jpg",
    "id_album": "-1721545051",
    "description": "Chevrolet_768953",
    "title": "Chevrolet_768953",
    "link_img": "https://live.staticflickr.com/65535/48114628812_ffd8dce22b_o.jpg",
    "id_image": "Chevrolet_768953",
    "count_view": 0
  },
  {
    "link_thumb": "https://live.staticflickr.com/65535/48119931646_df6275f3b0_n.jpg",
    "id_album": "-731054311",
    "description": "MercedesBenz_951213",
    "title": "MercedesBenz_951213",
    "link_img": "https://live.staticflickr.com/65535/48119931646_0219490796_o.jpg",
    "id_image": "MercedesBenz_951213",
    "count_view": 0
  },
  {
    "link_thumb": "https://live.staticflickr.com/65535/48112598511_7455382aa8_n.jpg",
    "id_album": "727633301",
    "description": "BMW_144355",
    "title": "BMW_144355",
    "link_img": "https://live.staticflickr.com/65535/48112598511_00e3a29953_o.jpg",
    "id_image": "BMW_144355",
    "count_view": 0
  },
  {
    "link_thumb": "https://live.staticflickr.com/65535/49889923187_f5a72ae9a5_n.jpg",
    "id_album": "-807323181",
    "description": "2012_rv_Fiat_rv_500_rv_Abarth_rv_V8_rv_1440",
    "title": "2012_rv_Fiat_rv_500_rv_Abarth_rv_V8_rv_1440",
    "link_img": "https://live.staticflickr.com/65535/49889923187_9b3fc9dfea_o.jpg",
    "id_image": "2012_rv_Fiat_rv_500_rv_Abarth_rv_V8_rv_1440",
    "count_view": 0
  },
  {
    "link_thumb": "https://live.staticflickr.com/65535/48113621056_cae89ed67d_n.jpg",
    "id_album": "-1721545051",
    "description": "Chevrolet_141906",
    "title": "Chevrolet_141906",
    "link_img": "https://live.staticflickr.com/65535/48113621056_7e5b6dde6c_o.jpg",
    "id_image": "Chevrolet_141906",
    "count_view": 0
  },
  {
    "link_thumb": "https://live.staticflickr.com/65535/49890923086_bc091028f8_n.jpg",
    "id_album": "-2129417883",
    "description": "2013_rv_Mercedes_rv_Benz_rv_SLS_rv_AMG_rv_GT3_rv_45th_rv_Anniversary_rv_V9_rv_1440",
    "title": "2013_rv_Mercedes_rv_Benz_rv_SLS_rv_AMG_rv_GT3_rv_45th_rv_Anniversary_rv_V9_rv_1440",
    "link_img": "https://live.staticflickr.com/65535/49890923086_242d0086f6_o.jpg",
    "id_image": "2013_rv_Mercedes_rv_Benz_rv_SLS_rv_AMG_rv_GT3_rv_45th_rv_Anniversary_rv_V9_rv_1440",
    "count_view": 0
  },
  {
    "link_thumb": "https://live.staticflickr.com/65535/48117734781_3f57bf584d_n.jpg",
    "id_album": "249743491",
    "description": "HarleyDavidson_758458",
    "title": "HarleyDavidson_758458",
    "link_img": "https://live.staticflickr.com/65535/48117734781_ddbdce15d4_o.jpg",
    "id_image": "HarleyDavidson_758458",
    "count_view": 0
  },
  {
    "link_thumb": "https://live.staticflickr.com/65535/48121505127_7aff25b143_n.jpg",
    "id_album": "-1178450892",
    "description": "Porsche_490797",
    "title": "Porsche_490797",
    "link_img": "https://live.staticflickr.com/65535/48121505127_5b378c2e1b_o.jpg",
    "id_image": "Porsche_490797",
    "count_view": 0
  },
  {
    "link_thumb": "https://live.staticflickr.com/65535/49889243426_98f7cc75ed_n.jpg",
    "id_album": "-843663395",
    "description": "1987_rv_Chevrolet_rv_Corvette_rv_Convertible_rv_V3_rv_1440",
    "title": "1987_rv_Chevrolet_rv_Corvette_rv_Convertible_rv_V3_rv_1440",
    "link_img": "https://live.staticflickr.com/65535/49889243426_4ec22642e2_o.jpg",
    "id_image": "1987_rv_Chevrolet_rv_Corvette_rv_Convertible_rv_V3_rv_1440",
    "count_view": 0
  },
  {
    "link_thumb": "https://live.staticflickr.com/65535/49889097528_73d795c480_n.jpg",
    "id_album": "-76649968",
    "description": "2014_rv_Fiat_rv_595_rv_Abarth_rv_50th_rv_Anniversary_rv_V4_rv_1600",
    "title": "2014_rv_Fiat_rv_595_rv_Abarth_rv_50th_rv_Anniversary_rv_V4_rv_1600",
    "link_img": "https://live.staticflickr.com/65535/49889097528_b4a2023bcb_o.jpg",
    "id_image": "2014_rv_Fiat_rv_595_rv_Abarth_rv_50th_rv_Anniversary_rv_V4_rv_1600",
    "count_view": 0
  },
  {
    "link_thumb": "https://live.staticflickr.com/65535/48117999001_cc3da3040c_n.jpg",
    "id_album": "-843028318",
    "description": "Jaguar_665761",
    "title": "Jaguar_665761",
    "link_img": "https://live.staticflickr.com/65535/48117999001_7241cfcecb_o.jpg",
    "id_image": "Jaguar_665761",
    "count_view": 0
  },
  {
    "link_thumb": "https://live.staticflickr.com/65535/48115311912_c279565d5a_n.jpg",
    "id_album": "413141323",
    "description": "Dodge_417598",
    "title": "Dodge_417598",
    "link_img": "https://live.staticflickr.com/65535/48115311912_dc086da9b8_o.jpg",
    "id_image": "Dodge_417598",
    "count_view": 0
  },
  {
    "link_thumb": "https://live.staticflickr.com/65535/49889418306_a450dd7955_n.jpg",
    "id_album": "-1219799180",
    "description": "2015_rv_BMW_rv_M3_rv_Sedan_rv_V5_rv_1600",
    "title": "2015_rv_BMW_rv_M3_rv_Sedan_rv_V5_rv_1600",
    "link_img": "https://live.staticflickr.com/65535/49889418306_540a92890a_o.jpg",
    "id_image": "2015_rv_BMW_rv_M3_rv_Sedan_rv_V5_rv_1600",
    "count_view": 0
  },
  {
    "link_thumb": "https://live.staticflickr.com/65535/48112384051_aa0a1c03b6_n.jpg",
    "id_album": "-15119147",
    "description": "Audi_722821",
    "title": "Audi_722821",
    "link_img": "https://live.staticflickr.com/65535/48112384051_5856a280ce_o.jpg",
    "id_image": "Audi_722821",
    "count_view": 0
  },
  {
    "link_thumb": "https://live.staticflickr.com/65535/48115785961_6ae687450c_n.jpg",
    "id_album": "1364506720",
    "description": "Ferrari_317733",
    "title": "Ferrari_317733",
    "link_img": "https://live.staticflickr.com/65535/48115785961_6a4a8e9ef7_o.jpg",
    "id_image": "Ferrari_317733",
    "count_view": 0
  },
  {
    "link_thumb": "https://live.staticflickr.com/65535/48112778976_d8b3958129_n.jpg",
    "id_album": "727633301",
    "description": "BMW_451693",
    "title": "BMW_451693",
    "link_img": "https://live.staticflickr.com/65535/48112778976_2a4ac16757_o.jpg",
    "id_image": "BMW_451693",
    "count_view": 0
  },
  {
    "link_thumb": "https://live.staticflickr.com/65535/48113484982_364c8d58c1_n.jpg",
    "id_album": "1456070666",
    "description": "Bugatti_425876",
    "title": "Bugatti_425876",
    "link_img": "https://live.staticflickr.com/65535/48113484982_6f22aa8b18_o.jpg",
    "id_image": "Bugatti_425876",
    "count_view": 0
  },
  {
    "link_thumb": "https://live.staticflickr.com/65535/49889130046_bdd98152b3_n.jpg",
    "id_album": "-1839908265",
    "description": "2018_rv_BMW_rv_M8_rv_GTE_rv_Racecar_rv_V3_rv_2000",
    "title": "2018_rv_BMW_rv_M8_rv_GTE_rv_Racecar_rv_V3_rv_2000",
    "link_img": "https://live.staticflickr.com/65535/49889130046_8fe34f112e_o.jpg",
    "id_image": "2018_rv_BMW_rv_M8_rv_GTE_rv_Racecar_rv_V3_rv_2000",
    "count_view": 0
  },
  {
    "link_thumb": "https://live.staticflickr.com/65535/48115421881_62c44f3b09_n.jpg",
    "id_album": "413141323",
    "description": "Dodge_520249",
    "title": "Dodge_520249",
    "link_img": "https://live.staticflickr.com/65535/48115421881_efe27b0b7b_o.jpg",
    "id_image": "Dodge_520249",
    "count_view": 0
  },
  {
    "link_thumb": "https://live.staticflickr.com/65535/49889400563_3c7d4e1734_n.jpg",
    "id_album": "1986992453",
    "description": "1983_rv_Honda_rv_Prelude_rv_V1_rv_1536",
    "title": "1983_rv_Honda_rv_Prelude_rv_V1_rv_1536",
    "link_img": "https://live.staticflickr.com/65535/49889400563_56b5f9b182_o.jpg",
    "id_image": "1983_rv_Honda_rv_Prelude_rv_V1_rv_1536",
    "count_view": 0
  },
  {
    "link_thumb": "https://live.staticflickr.com/65535/48118379852_e02177b5b6_n.jpg",
    "id_album": "-2100339805",
    "description": "Lamborghini_282983",
    "title": "Lamborghini_282983",
    "link_img": "https://live.staticflickr.com/65535/48118379852_7012e115c3_o.jpg",
    "id_image": "Lamborghini_282983",
    "count_view": 0
  },
  {
    "link_thumb": "https://live.staticflickr.com/65535/48122796242_b2797c6abe_n.jpg",
    "id_album": "1274920659",
    "description": "Toyota_484737",
    "title": "Toyota_484737",
    "link_img": "https://live.staticflickr.com/65535/48122796242_244333d429_o.jpg",
    "id_image": "Toyota_484737",
    "count_view": 0
  },
  {
    "link_thumb": "https://live.staticflickr.com/65535/49890069817_5fc928fe41_n.jpg",
    "id_album": "1370790237",
    "description": "2011_rv_Dodge_rv_Challenger_rv_SRT8_rv_V1_rv_1440",
    "title": "2011_rv_Dodge_rv_Challenger_rv_SRT8_rv_V1_rv_1440",
    "link_img": "https://live.staticflickr.com/65535/49890069817_36fb833a7b_o.jpg",
    "id_image": "2011_rv_Dodge_rv_Challenger_rv_SRT8_rv_V1_rv_1440",
    "count_view": 0
  },
  {
    "link_thumb": "https://live.staticflickr.com/65535/49890480501_478579cccf_n.jpg",
    "id_album": "-1174261063",
    "description": "2012_rv_Mazda_rv_MX_rv_5_rv_Roadster_rv_Yusho_rv_Prototype_rv_V2_rv_1440",
    "title": "2012_rv_Mazda_rv_MX_rv_5_rv_Roadster_rv_Yusho_rv_Prototype_rv_V2_rv_1440",
    "link_img": "https://live.staticflickr.com/65535/49890480501_259fa5a169_o.jpg",
    "id_image": "2012_rv_Mazda_rv_MX_rv_5_rv_Roadster_rv_Yusho_rv_Prototype_rv_V2_rv_1440",
    "count_view": 0
  },
  {
    "link_thumb": "https://live.staticflickr.com/65535/48114136903_7c547c4f62_n.jpg",
    "id_album": "-1721545051",
    "description": "Chevrolet_309646",
    "title": "Chevrolet_309646",
    "link_img": "https://live.staticflickr.com/65535/48114136903_2e7d14c569_o.jpg",
    "id_image": "Chevrolet_309646",
    "count_view": 0
  },
  {
    "link_thumb": "https://live.staticflickr.com/65535/49888689383_3116de6904_n.jpg",
    "id_album": "-339563732",
    "description": "2015_rv_Brabus_rv_Mercedes_rv_Benz_rv_S_rv_63_rv_AMG_rv_Coupe_rv_V2_rv_1600",
    "title": "2015_rv_Brabus_rv_Mercedes_rv_Benz_rv_S_rv_63_rv_AMG_rv_Coupe_rv_V2_rv_1600",
    "link_img": "https://live.staticflickr.com/65535/49888689383_0066a5bc7b_o.jpg",
    "id_image": "2015_rv_Brabus_rv_Mercedes_rv_Benz_rv_S_rv_63_rv_AMG_rv_Coupe_rv_V2_rv_1600",
    "count_view": 0
  },
  {
    "link_thumb": "https://live.staticflickr.com/65535/49890058791_ed23d4bba6_n.jpg",
    "id_album": "-1833334379",
    "description": "2015_rv_Koenigsegg_rv_Agera_rv_RS_rv_V3_rv_1600",
    "title": "2015_rv_Koenigsegg_rv_Agera_rv_RS_rv_V3_rv_1600",
    "link_img": "https://live.staticflickr.com/65535/49890058791_30abc8275e_o.jpg",
    "id_image": "2015_rv_Koenigsegg_rv_Agera_rv_RS_rv_V3_rv_1600",
    "count_view": 0
  },
  {
    "link_thumb": "https://live.staticflickr.com/65535/48118430842_cbb223241c_n.jpg",
    "id_album": "-2100339805",
    "description": "Lamborghini_318649",
    "title": "Lamborghini_318649",
    "link_img": "https://live.staticflickr.com/65535/48118430842_f979caac34_o.jpg",
    "id_image": "Lamborghini_318649",
    "count_view": 0
  },
  {
    "link_thumb": "https://live.staticflickr.com/65535/49890994031_59733c4a81_n.jpg",
    "id_album": "535324403",
    "description": "2021_rv_Morgan_rv_Plus_rv_Four_rv_V4_rv_2160",
    "title": "2021_rv_Morgan_rv_Plus_rv_Four_rv_V4_rv_2160",
    "link_img": "https://live.staticflickr.com/65535/49890994031_3ce22f4415_o.jpg",
    "id_image": "2021_rv_Morgan_rv_Plus_rv_Four_rv_V4_rv_2160",
    "count_view": 0
  },
  {
    "link_thumb": "https://live.staticflickr.com/65535/49889499863_cbdf0a736d_n.jpg",
    "id_album": "-1171889069",
    "description": "1992_rv_Jaguar_rv_XJ220_rv_V6_rv_1440",
    "title": "1992_rv_Jaguar_rv_XJ220_rv_V6_rv_1440",
    "link_img": "https://live.staticflickr.com/65535/49889499863_dd119865ba_o.jpg",
    "id_image": "1992_rv_Jaguar_rv_XJ220_rv_V6_rv_1440",
    "count_view": 0
  },
  {
    "link_thumb": "https://live.staticflickr.com/65535/49889329697_0fba9474d5_n.jpg",
    "id_album": "-885766951",
    "description": "2021_rv_BAC_rv_Mono_rv_V3_rv_2160",
    "title": "2021_rv_BAC_rv_Mono_rv_V3_rv_2160",
    "link_img": "https://live.staticflickr.com/65535/49889329697_19be17a5dc_o.jpg",
    "id_image": "2021_rv_BAC_rv_Mono_rv_V3_rv_2160",
    "count_view": 0
  },
  {
    "link_thumb": "https://live.staticflickr.com/65535/49890190462_cde9d1f194_n.jpg",
    "id_album": "-659575064",
    "description": "2012_rv_Hennessey_rv_Venom_rv_GT_rv_V1_rv_1600",
    "title": "2012_rv_Hennessey_rv_Venom_rv_GT_rv_V1_rv_1600",
    "link_img": "https://live.staticflickr.com/65535/49890190462_6706643d9e_o.jpg",
    "id_image": "2012_rv_Hennessey_rv_Venom_rv_GT_rv_V1_rv_1600",
    "count_view": 0
  },
  {
    "link_thumb": "https://live.staticflickr.com/65535/49889978301_1793f8621c_n.jpg",
    "id_album": "988367143",
    "description": "2017_rv_Jaguar_rv_F_rv_Pace_rv_V4_rv_1600",
    "title": "2017_rv_Jaguar_rv_F_rv_Pace_rv_V4_rv_1600",
    "link_img": "https://live.staticflickr.com/65535/49889978301_8342f06074_o.jpg",
    "id_image": "2017_rv_Jaguar_rv_F_rv_Pace_rv_V4_rv_1600",
    "count_view": 0
  },
  {
    "link_thumb": "https://live.staticflickr.com/65535/48112410673_811793e564_n.jpg",
    "id_album": "-15119147",
    "description": "Audi_683799",
    "title": "Audi_683799",
    "link_img": "https://live.staticflickr.com/65535/48112410673_37836a5f48_o.jpg",
    "id_image": "Audi_683799",
    "count_view": 0
  },
  {
    "link_thumb": "https://live.staticflickr.com/65535/48115112236_c454c80d1d_n.jpg",
    "id_album": "413141323",
    "description": "Dodge_255019",
    "title": "Dodge_255019",
    "link_img": "https://live.staticflickr.com/65535/48115112236_cccfe72844_o.jpg",
    "id_image": "Dodge_255019",
    "count_view": 0
  },
  {
    "link_thumb": "https://live.staticflickr.com/65535/48112058603_9c9af451bb_n.jpg",
    "id_album": "-843028318",
    "description": "Jaguar_318440",
    "title": "Jaguar_318440",
    "link_img": "https://live.staticflickr.com/65535/48112058603_5ff87af16a_o.jpg",
    "id_image": "Jaguar_318440",
    "count_view": 0
  },
  {
    "link_thumb": "https://live.staticflickr.com/65535/48120088988_0b297ab6b5_n.jpg",
    "id_album": "-1116477526",
    "description": "Mitsubishi_450817",
    "title": "Mitsubishi_450817",
    "link_img": "https://live.staticflickr.com/65535/48120088988_754a325180_o.jpg",
    "id_image": "Mitsubishi_450817",
    "count_view": 0
  },
  {
    "link_thumb": "https://live.staticflickr.com/65535/49890178152_57ea3d8064_n.jpg",
    "id_album": "-1597375708",
    "description": "2015_rv_Porsche_rv_911_rv_Carrera_rv_GTS_rv_V6_rv_1600",
    "title": "2015_rv_Porsche_rv_911_rv_Carrera_rv_GTS_rv_V6_rv_1600",
    "link_img": "https://live.staticflickr.com/65535/49890178152_49e4298707_o.jpg",
    "id_image": "2015_rv_Porsche_rv_911_rv_Carrera_rv_GTS_rv_V6_rv_1600",
    "count_view": 0
  },
  {
    "link_thumb": "https://live.staticflickr.com/65535/48117750666_683072dd39_n.jpg",
    "id_album": "249743491",
    "description": "HarleyDavidson_923804",
    "title": "HarleyDavidson_923804",
    "link_img": "https://live.staticflickr.com/65535/48117750666_64ddbc1f8c_o.jpg",
    "id_image": "HarleyDavidson_923804",
    "count_view": 0
  },
  {
    "link_thumb": "https://live.staticflickr.com/65535/49889513578_03ed621a64_n.jpg",
    "id_album": "445241100",
    "description": "2020_rv_Karma_rv_Pininfarina_rv_GT_rv_V5_rv_2160",
    "title": "2020_rv_Karma_rv_Pininfarina_rv_GT_rv_V5_rv_2160",
    "link_img": "https://live.staticflickr.com/65535/49889513578_c2da36c9c3_o.jpg",
    "id_image": "2020_rv_Karma_rv_Pininfarina_rv_GT_rv_V5_rv_2160",
    "count_view": 0
  },
  {
    "link_thumb": "https://live.staticflickr.com/65535/48123257618_3de5907fc2_n.jpg",
    "id_album": "-360260466",
    "description": "Yamaha_363229",
    "title": "Yamaha_363229",
    "link_img": "https://live.staticflickr.com/65535/48123257618_4f6e4b1d72_o.jpg",
    "id_image": "Yamaha_363229",
    "count_view": 0
  },
  {
    "link_thumb": "https://live.staticflickr.com/65535/48118638033_fe42ee47ae_n.jpg",
    "id_album": "-2100339805",
    "description": "Lamborghini_814986",
    "title": "Lamborghini_814986",
    "link_img": "https://live.staticflickr.com/65535/48118638033_c0e876781a_o.jpg",
    "id_image": "Lamborghini_814986",
    "count_view": 0
  },
  {
    "link_thumb": "https://live.staticflickr.com/65535/49892606016_3c93fabe35_n.jpg",
    "id_album": "-842876950",
    "description": "2010_rv_Audi_rv_R8_rv_Spyder_rv_V1_rv_1440",
    "title": "2010_rv_Audi_rv_R8_rv_Spyder_rv_V1_rv_1440",
    "link_img": "https://live.staticflickr.com/65535/49892606016_bd604e3c46_o.jpg",
    "id_image": "2010_rv_Audi_rv_R8_rv_Spyder_rv_V1_rv_1440",
    "count_view": 0
  },
  {
    "link_thumb": "https://live.staticflickr.com/65535/48112608056_6b4479971f_n.jpg",
    "id_album": "727633301",
    "description": "BMW_210087",
    "title": "BMW_210087",
    "link_img": "https://live.staticflickr.com/65535/48112608056_0d8b85b305_o.jpg",
    "id_image": "BMW_210087",
    "count_view": 0
  },
  {
    "link_thumb": "https://live.staticflickr.com/65535/49891771918_03ca07bdf0_n.jpg",
    "id_album": "820813097",
    "description": "1969_rv_Ringbrothers_rv_Chevrolet_rv_Camaro_rv_G_rv_Code_rv_V1_rv_2000",
    "title": "1969_rv_Ringbrothers_rv_Chevrolet_rv_Camaro_rv_G_rv_Code_rv_V1_rv_2000",
    "link_img": "https://live.staticflickr.com/65535/49891771918_e22e2184b9_o.jpg",
    "id_image": "1969_rv_Ringbrothers_rv_Chevrolet_rv_Camaro_rv_G_rv_Code_rv_V1_rv_2000",
    "count_view": 0
  },
  {
    "link_thumb": "https://live.staticflickr.com/65535/48120722827_a0bd70021d_n.jpg",
    "id_album": "-2131154733",
    "description": "Oldsmobile_238382",
    "title": "Oldsmobile_238382",
    "link_img": "https://live.staticflickr.com/65535/48120722827_989f564045_o.jpg",
    "id_image": "Oldsmobile_238382",
    "count_view": 0
  },
  {
    "link_thumb": "https://live.staticflickr.com/65535/49889210531_34dc9b96be_n.jpg",
    "id_album": "6794735",
    "description": "2020_rv_Bugatti_rv_Centodieci_rv_V9_rv_2160",
    "title": "2020_rv_Bugatti_rv_Centodieci_rv_V9_rv_2160",
    "link_img": "https://live.staticflickr.com/65535/49889210531_5a729002e7_o.jpg",
    "id_image": "2020_rv_Bugatti_rv_Centodieci_rv_V9_rv_2160",
    "count_view": 0
  },
  {
    "link_thumb": "https://live.staticflickr.com/65535/49889671971_d595fa4459_n.jpg",
    "id_album": "-135411974",
    "description": "1971_rv_Ford_rv_Mustang_rv_Mach_rv_1_rv_V4_rv_1536",
    "title": "1971_rv_Ford_rv_Mustang_rv_Mach_rv_1_rv_V4_rv_1536",
    "link_img": "https://live.staticflickr.com/65535/49889671971_5d00d51bf4_o.jpg",
    "id_image": "1971_rv_Ford_rv_Mustang_rv_Mach_rv_1_rv_V4_rv_1536",
    "count_view": 0
  },
  {
    "link_thumb": "https://live.staticflickr.com/65535/48123359992_82270b9777_n.jpg",
    "id_album": "-360260466",
    "description": "Yamaha_807370",
    "title": "Yamaha_807370",
    "link_img": "https://live.staticflickr.com/65535/48123359992_71164e81bb_o.jpg",
    "id_image": "Yamaha_807370",
    "count_view": 0
  },
  {
    "link_thumb": "https://live.staticflickr.com/65535/48118151393_390522c492_n.jpg",
    "id_album": "-2009218697",
    "description": "Jeep_792617",
    "title": "Jeep_792617",
    "link_img": "https://live.staticflickr.com/65535/48118151393_674417872d_o.jpg",
    "id_image": "Jeep_792617",
    "count_view": 0
  },
  {
    "link_thumb": "https://live.staticflickr.com/65535/48112390881_e8d2738b96_n.jpg",
    "id_album": "-15119147",
    "description": "Audi_777877",
    "title": "Audi_777877",
    "link_img": "https://live.staticflickr.com/65535/48112390881_146b15f156_o.jpg",
    "id_image": "Audi_777877",
    "count_view": 0
  },
  {
    "link_thumb": "https://live.staticflickr.com/65535/48112711007_a06e6b519e_n.jpg",
    "id_album": "727633301",
    "description": "BMW_209740",
    "title": "BMW_209740",
    "link_img": "https://live.staticflickr.com/65535/48112711007_9e4d0a358d_o.jpg",
    "id_image": "BMW_209740",
    "count_view": 0
  },
  {
    "link_thumb": "https://live.staticflickr.com/65535/49890696887_c33d6b83ce_n.jpg",
    "id_album": "-843792943",
    "description": "2014_rv_Lotus_rv_Exige_rv_LF1_rv_V2_rv_1600",
    "title": "2014_rv_Lotus_rv_Exige_rv_LF1_rv_V2_rv_1600",
    "link_img": "https://live.staticflickr.com/65535/49890696887_bcab6c5d6f_o.jpg",
    "id_image": "2014_rv_Lotus_rv_Exige_rv_LF1_rv_V2_rv_1600",
    "count_view": 0
  },
  {
    "link_thumb": "https://live.staticflickr.com/65535/48118674798_92d7c0d799_n.jpg",
    "id_album": "-2100339805",
    "description": "Lamborghini_886866",
    "title": "Lamborghini_886866",
    "link_img": "https://live.staticflickr.com/65535/48118674798_eefb970306_o.jpg",
    "id_image": "Lamborghini_886866",
    "count_view": 0
  },
  {
    "link_thumb": "https://live.staticflickr.com/65535/48113702391_624f20df07_n.jpg",
    "id_album": "-1721545051",
    "description": "Chevrolet_169010",
    "title": "Chevrolet_169010",
    "link_img": "https://live.staticflickr.com/65535/48113702391_758ac7c281_o.jpg",
    "id_image": "Chevrolet_169010",
    "count_view": 0
  },
  {
    "link_thumb": "https://live.staticflickr.com/65535/48123064602_a860036eca_n.jpg",
    "id_album": "-150952028",
    "description": "Volkswagen_477307",
    "title": "Volkswagen_477307",
    "link_img": "https://live.staticflickr.com/65535/48123064602_571cf0314c_o.jpg",
    "id_image": "Volkswagen_477307",
    "count_view": 0
  },
  {
    "link_thumb": "https://live.staticflickr.com/65535/48118970878_570be95a64_n.jpg",
    "id_album": "446908717",
    "description": "Lexus_920599",
    "title": "Lexus_920599",
    "link_img": "https://live.staticflickr.com/65535/48118970878_e3d018e498_o.jpg",
    "id_image": "Lexus_920599",
    "count_view": 0
  },
  {
    "link_thumb": "https://live.staticflickr.com/65535/48118390686_3b80a46360_n.jpg",
    "id_album": "-2100339805",
    "description": "Lamborghini_377398",
    "title": "Lamborghini_377398",
    "link_img": "https://live.staticflickr.com/65535/48118390686_3ca8f69f54_o.jpg",
    "id_image": "Lamborghini_377398",
    "count_view": 0
  },
  {
    "link_thumb": "https://live.staticflickr.com/65535/49889408427_b0ce4a05aa_n.jpg",
    "id_album": "-1839907838",
    "description": "2011_rv_BMW_rv_M5_rv_Concept_rv_V3_rv_1440",
    "title": "2011_rv_BMW_rv_M5_rv_Concept_rv_V3_rv_1440",
    "link_img": "https://live.staticflickr.com/65535/49889408427_1e0b7d7f4c_o.jpg",
    "id_image": "2011_rv_BMW_rv_M5_rv_Concept_rv_V3_rv_1440",
    "count_view": 0
  },
  {
    "link_thumb": "https://live.staticflickr.com/65535/49889932322_3287f5f3fd_n.jpg",
    "id_album": "-1784064634",
    "description": "2003_rv_Fiat_rv_Barchetta_rv_V9_rv_1536",
    "title": "2003_rv_Fiat_rv_Barchetta_rv_V9_rv_1536",
    "link_img": "https://live.staticflickr.com/65535/49889932322_55479e2036_o.jpg",
    "id_image": "2003_rv_Fiat_rv_Barchetta_rv_V9_rv_1536",
    "count_view": 0
  },
  {
    "link_thumb": "https://live.staticflickr.com/65535/49889741201_b87a014701_n.jpg",
    "id_album": "697195276",
    "description": "1984_rv_Ford_rv_RS200_rv_V1_rv_1440",
    "title": "1984_rv_Ford_rv_RS200_rv_V1_rv_1440",
    "link_img": "https://live.staticflickr.com/65535/49889741201_e4e3009b10_o.jpg",
    "id_image": "1984_rv_Ford_rv_RS200_rv_V1_rv_1440",
    "count_view": 0
  },
  {
    "link_thumb": "https://live.staticflickr.com/65535/48116334301_34fd4d96d5_n.jpg",
    "id_album": "1364506720",
    "description": "Ferrari_820556",
    "title": "Ferrari_820556",
    "link_img": "https://live.staticflickr.com/65535/48116334301_2fce992f24_o.jpg",
    "id_image": "Ferrari_820556",
    "count_view": 0
  },
  {
    "link_thumb": "https://live.staticflickr.com/65535/48116654767_c8cefa55e5_n.jpg",
    "id_album": "-1846404630",
    "description": "Ford_143830",
    "title": "Ford_143830",
    "link_img": "https://live.staticflickr.com/65535/48116654767_9112dfc18d_o.jpg",
    "id_image": "Ford_143830",
    "count_view": 0
  },
  {
    "link_thumb": "https://live.staticflickr.com/65535/48116385492_a10c08f28a_n.jpg",
    "id_album": "1364506720",
    "description": "Ferrari_760853",
    "title": "Ferrari_760853",
    "link_img": "https://live.staticflickr.com/65535/48116385492_f79b416d6f_o.jpg",
    "id_image": "Ferrari_760853",
    "count_view": 0
  },
  {
    "link_thumb": "https://live.staticflickr.com/65535/48120407772_9ed86c8718_n.jpg",
    "id_album": "810634050",
    "description": "Nissan_209867",
    "title": "Nissan_209867",
    "link_img": "https://live.staticflickr.com/65535/48120407772_fafacf3bb0_o.jpg",
    "id_image": "Nissan_209867",
    "count_view": 0
  },
  {
    "link_thumb": "https://live.staticflickr.com/65535/48114818502_13287e7428_n.jpg",
    "id_album": "939606447",
    "description": "Chrysler_145305",
    "title": "Chrysler_145305",
    "link_img": "https://live.staticflickr.com/65535/48114818502_8d0964d05e_o.jpg",
    "id_image": "Chrysler_145305",
    "count_view": 0
  },
  {
    "link_thumb": "https://live.staticflickr.com/65535/48112746646_b6b5222848_n.jpg",
    "id_album": "727633301",
    "description": "BMW_420717",
    "title": "BMW_420717",
    "link_img": "https://live.staticflickr.com/65535/48112746646_169831c0b4_o.jpg",
    "id_image": "BMW_420717",
    "count_view": 0
  },
  {
    "link_thumb": "https://live.staticflickr.com/65535/49889056367_621418d1e1_n.jpg",
    "id_album": "1831597390",
    "description": "2015_rv_Alfa_rv_Romeo_rv_4C_rv_Spider_rv_V7_rv_1600",
    "title": "2015_rv_Alfa_rv_Romeo_rv_4C_rv_Spider_rv_V7_rv_1600",
    "link_img": "https://live.staticflickr.com/65535/49889056367_9e2f8c86d9_o.jpg",
    "id_image": "2015_rv_Alfa_rv_Romeo_rv_4C_rv_Spider_rv_V7_rv_1600",
    "count_view": 0
  },
  {
    "link_thumb": "https://live.staticflickr.com/65535/48115321477_01d6e26ce1_n.jpg",
    "id_album": "413141323",
    "description": "Dodge_441273",
    "title": "Dodge_441273",
    "link_img": "https://live.staticflickr.com/65535/48115321477_076fc18df7_o.jpg",
    "id_image": "Dodge_441273",
    "count_view": 0
  },
  {
    "link_thumb": "https://live.staticflickr.com/65535/48117899982_51efa09d9c_n.jpg",
    "id_album": "-354267407",
    "description": "Honda_484147",
    "title": "Honda_484147",
    "link_img": "https://live.staticflickr.com/65535/48117899982_b92338ab61_o.jpg",
    "id_image": "Honda_484147",
    "count_view": 0
  },
  {
    "link_thumb": "https://live.staticflickr.com/65535/48112353797_8e2a44cd08_n.jpg",
    "id_album": "-15119147",
    "description": "Audi_253656",
    "title": "Audi_253656",
    "link_img": "https://live.staticflickr.com/65535/48112353797_c31ddb8c95_o.jpg",
    "id_image": "Audi_253656",
    "count_view": 0
  },
  {
    "link_thumb": "https://live.staticflickr.com/65535/48116483326_a9d01c3cca_n.jpg",
    "id_album": "-803737857",
    "description": "Fiat_472212",
    "title": "Fiat_472212",
    "link_img": "https://live.staticflickr.com/65535/48116483326_74e9d1bfd8_o.jpg",
    "id_image": "Fiat_472212",
    "count_view": 0
  },
  {
    "link_thumb": "https://live.staticflickr.com/65535/48111969201_c12992de35_n.jpg",
    "id_album": "1906325017",
    "description": "Infiniti_486689",
    "title": "Infiniti_486689",
    "link_img": "https://live.staticflickr.com/65535/48111969201_9f6c7060ac_o.jpg",
    "id_image": "Infiniti_486689",
    "count_view": 0
  },
  {
    "link_thumb": "https://live.staticflickr.com/65535/49889775132_c25d8ab19e_n.jpg",
    "id_album": "1069339433",
    "description": "1973_rv_Ferrari_rv_365_rv_GT4_rv_Berlinetta_rv_Boxer_rv_V2_rv_1536",
    "title": "1973_rv_Ferrari_rv_365_rv_GT4_rv_Berlinetta_rv_Boxer_rv_V2_rv_1536",
    "link_img": "https://live.staticflickr.com/65535/49889775132_eb7d671170_o.jpg",
    "id_image": "1973_rv_Ferrari_rv_365_rv_GT4_rv_Berlinetta_rv_Boxer_rv_V2_rv_1536",
    "count_view": 0
  },
  {
    "link_thumb": "https://live.staticflickr.com/65535/48113354372_eb4eceaf24_n.jpg",
    "id_album": "727633301",
    "description": "BMW_937194",
    "title": "BMW_937194",
    "link_img": "https://live.staticflickr.com/65535/48113354372_e08da94b31_o.jpg",
    "id_image": "BMW_937194",
    "count_view": 0
  },
  {
    "link_thumb": "https://live.staticflickr.com/65535/49889878692_90be01c66e_n.jpg",
    "id_album": "-1150105315",
    "description": "2018_rv_Formula1_rv_Ferrari_rv_SF71H_rv_V4_rv_2000",
    "title": "2018_rv_Formula1_rv_Ferrari_rv_SF71H_rv_V4_rv_2000",
    "link_img": "https://live.staticflickr.com/65535/49889878692_e103a94047_o.jpg",
    "id_image": "2018_rv_Formula1_rv_Ferrari_rv_SF71H_rv_V4_rv_2000",
    "count_view": 0
  },
  {
    "link_thumb": "https://live.staticflickr.com/65535/48114332762_1acbef0c74_n.jpg",
    "id_album": "-1721545051",
    "description": "Chevrolet_438888",
    "title": "Chevrolet_438888",
    "link_img": "https://live.staticflickr.com/65535/48114332762_223a1ac352_o.jpg",
    "id_image": "Chevrolet_438888",
    "count_view": 0
  },
  {
    "link_thumb": "https://live.staticflickr.com/65535/48120391581_9c5c197cc7_n.jpg",
    "id_album": "810634050",
    "description": "Nissan_362548",
    "title": "Nissan_362548",
    "link_img": "https://live.staticflickr.com/65535/48120391581_dc171c7b44_o.jpg",
    "id_image": "Nissan_362548",
    "count_view": 0
  },
  {
    "link_thumb": "https://live.staticflickr.com/65535/49890280441_3f1b3902fd_n.jpg",
    "id_album": "84688798",
    "description": "2008_rv_Lexus_rv_IS_rv_F_rv_V9_rv_1440",
    "title": "2008_rv_Lexus_rv_IS_rv_F_rv_V9_rv_1440",
    "link_img": "https://live.staticflickr.com/65535/49890280441_0d717001f1_o.jpg",
    "id_image": "2008_rv_Lexus_rv_IS_rv_F_rv_V9_rv_1440",
    "count_view": 0
  },
  {
    "link_thumb": "https://live.staticflickr.com/65535/49889959937_129e9fd4f6_n.jpg",
    "id_album": "1558646706",
    "description": "2016_rv_Dodge_rv_Viper_rv_ACR_rv_V6_rv_1600",
    "title": "2016_rv_Dodge_rv_Viper_rv_ACR_rv_V6_rv_1600",
    "link_img": "https://live.staticflickr.com/65535/49889959937_6e68792aef_o.jpg",
    "id_image": "2016_rv_Dodge_rv_Viper_rv_ACR_rv_V6_rv_1600",
    "count_view": 0
  },
  {
    "link_thumb": "https://live.staticflickr.com/65535/48112568732_a306eb33b1_n.jpg",
    "id_album": "-15119147",
    "description": "Audi_960756",
    "title": "Audi_960756",
    "link_img": "https://live.staticflickr.com/65535/48112568732_79dffa5863_o.jpg",
    "id_image": "Audi_960756",
    "count_view": 0
  },
  {
    "link_thumb": "https://live.staticflickr.com/65535/48116014031_cd697e2455_n.jpg",
    "id_album": "1364506720",
    "description": "Ferrari_457631",
    "title": "Ferrari_457631",
    "link_img": "https://live.staticflickr.com/65535/48116014031_c20ffd5eb8_o.jpg",
    "id_image": "Ferrari_457631",
    "count_view": 0
  },
  {
    "link_thumb": "https://live.staticflickr.com/65535/49890862773_6efccc36de_n.jpg",
    "id_album": "-857328710",
    "description": "2000_rv_Porsche_rv_Boxster_rv_S_rv_V4_rv_1536",
    "title": "2000_rv_Porsche_rv_Boxster_rv_S_rv_V4_rv_1536",
    "link_img": "https://live.staticflickr.com/65535/49890862773_22f7954f45_o.jpg",
    "id_image": "2000_rv_Porsche_rv_Boxster_rv_S_rv_V4_rv_1536",
    "count_view": 0
  },
  {
    "link_thumb": "https://live.staticflickr.com/65535/48120789137_1c2c831bec_n.jpg",
    "id_album": "1952909762",
    "description": "Packard_189453",
    "title": "Packard_189453",
    "link_img": "https://live.staticflickr.com/65535/48120789137_a4e6d380d4_o.jpg",
    "id_image": "Packard_189453",
    "count_view": 0
  },
  {
    "link_thumb": "https://live.staticflickr.com/65535/48123256443_c835a6357d_n.jpg",
    "id_album": "-360260466",
    "description": "Yamaha_363031",
    "title": "Yamaha_363031",
    "link_img": "https://live.staticflickr.com/65535/48123256443_0fa45ec411_o.jpg",
    "id_image": "Yamaha_363031",
    "count_view": 0
  },
  {
    "link_thumb": "https://live.staticflickr.com/65535/48116379071_2893cf31f0_n.jpg",
    "id_album": "1364506720",
    "description": "Ferrari_906532",
    "title": "Ferrari_906532",
    "link_img": "https://live.staticflickr.com/65535/48116379071_273ef325a5_o.jpg",
    "id_image": "Ferrari_906532",
    "count_view": 0
  },
  {
    "link_thumb": "https://live.staticflickr.com/65535/48112900271_cedeb1e160_n.jpg",
    "id_album": "727633301",
    "description": "BMW_489458",
    "title": "BMW_489458",
    "link_img": "https://live.staticflickr.com/65535/48112900271_2ab1111558_o.jpg",
    "id_image": "BMW_489458",
    "count_view": 0
  },
  {
    "link_thumb": "https://live.staticflickr.com/65535/49889069337_c1a9caa1d5_n.jpg",
    "id_album": "955303706",
    "description": "1968_rv_Alfa_rv_Romeo_rv_Carabo_rv_Concept_rv_V1_rv_1440",
    "title": "1968_rv_Alfa_rv_Romeo_rv_Carabo_rv_Concept_rv_V1_rv_1440",
    "link_img": "https://live.staticflickr.com/65535/49889069337_059a649aa1_o.jpg",
    "id_image": "1968_rv_Alfa_rv_Romeo_rv_Carabo_rv_Concept_rv_V1_rv_1440",
    "count_view": 0
  },
  {
    "link_thumb": "https://live.staticflickr.com/65535/48117115848_ac7515b2da_n.jpg",
    "id_album": "-1846404630",
    "description": "Ford_395028",
    "title": "Ford_395028",
    "link_img": "https://live.staticflickr.com/65535/48117115848_c849eff32b_o.jpg",
    "id_image": "Ford_395028",
    "count_view": 0
  },
  {
    "link_thumb": "https://live.staticflickr.com/65535/48118065727_99c83411b7_n.jpg",
    "id_album": "-843028318",
    "description": "Jaguar_449670",
    "title": "Jaguar_449670",
    "link_img": "https://live.staticflickr.com/65535/48118065727_92c7902482_o.jpg",
    "id_image": "Jaguar_449670",
    "count_view": 0
  },
  {
    "link_thumb": "https://live.staticflickr.com/65535/48114285462_22d84fd7b3_n.jpg",
    "id_album": "-1721545051",
    "description": "Chevrolet_399987",
    "title": "Chevrolet_399987",
    "link_img": "https://live.staticflickr.com/65535/48114285462_1f230e03db_o.jpg",
    "id_image": "Chevrolet_399987",
    "count_view": 0
  },
  {
    "link_thumb": "https://live.staticflickr.com/65535/49889919536_0e25ccac24_n.jpg",
    "id_album": "-359433426",
    "description": "2003_rv_Honda_rv_S2000_rv_V11_rv_2000",
    "title": "2003_rv_Honda_rv_S2000_rv_V11_rv_2000",
    "link_img": "https://live.staticflickr.com/65535/49889919536_25b8d3fa0a_o.jpg",
    "id_image": "2003_rv_Honda_rv_S2000_rv_V11_rv_2000",
    "count_view": 0
  },
  {
    "link_thumb": "https://live.staticflickr.com/65535/48120903321_a999d250e7_n.jpg",
    "id_album": "1965631892",
    "description": "Peugeot_994360",
    "title": "Peugeot_994360",
    "link_img": "https://live.staticflickr.com/65535/48120903321_25abc389ab_o.jpg",
    "id_image": "Peugeot_994360",
    "count_view": 0
  },
  {
    "link_thumb": "https://live.staticflickr.com/65535/48112641007_c76260b338_n.jpg",
    "id_album": "2097036181",
    "description": "Bentley_481272",
    "title": "Bentley_481272",
    "link_img": "https://live.staticflickr.com/65535/48112641007_2443deda68_o.jpg",
    "id_image": "Bentley_481272",
    "count_view": 0
  },
  {
    "link_thumb": "https://live.staticflickr.com/65535/48116268076_b5999e4560_n.jpg",
    "id_album": "1364506720",
    "description": "Ferrari_758289",
    "title": "Ferrari_758289",
    "link_img": "https://live.staticflickr.com/65535/48116268076_0832a25caf_o.jpg",
    "id_image": "Ferrari_758289",
    "count_view": 0
  },
  {
    "link_thumb": "https://live.staticflickr.com/65535/49890283998_28cd4bb9fe_n.jpg",
    "id_album": "546154853",
    "description": "2016_rv_Mercedes_rv_Benz_rv_GLE_rv_63_rv_AMG_rv_V1_rv_1600",
    "title": "2016_rv_Mercedes_rv_Benz_rv_GLE_rv_63_rv_AMG_rv_V1_rv_1600",
    "link_img": "https://live.staticflickr.com/65535/49890283998_4e5d6308ea_o.jpg",
    "id_image": "2016_rv_Mercedes_rv_Benz_rv_GLE_rv_63_rv_AMG_rv_V1_rv_1600",
    "count_view": 0
  },
  {
    "link_thumb": "https://live.staticflickr.com/65535/48119637801_accbff2a15_n.jpg",
    "id_album": "-731054311",
    "description": "MercedesBenz_364312",
    "title": "MercedesBenz_364312",
    "link_img": "https://live.staticflickr.com/65535/48119637801_49ed573ba6_o.jpg",
    "id_image": "MercedesBenz_364312",
    "count_view": 0
  },
  {
    "link_thumb": "https://live.staticflickr.com/65535/48116002861_5dccddc150_n.jpg",
    "id_album": "1364506720",
    "description": "Ferrari_454720",
    "title": "Ferrari_454720",
    "link_img": "https://live.staticflickr.com/65535/48116002861_40741e03f8_o.jpg",
    "id_image": "Ferrari_454720",
    "count_view": 0
  },
  {
    "link_thumb": "https://live.staticflickr.com/65535/48112303666_30fe6140ac_n.jpg",
    "id_album": "-15119147",
    "description": "Audi_470711",
    "title": "Audi_470711",
    "link_img": "https://live.staticflickr.com/65535/48112303666_251381f788_o.jpg",
    "id_image": "Audi_470711",
    "count_view": 0
  },
  {
    "link_thumb": "https://live.staticflickr.com/65535/48120220533_ce2182f4be_n.jpg",
    "id_album": "666438681",
    "description": "Motorcycles_321416",
    "title": "Motorcycles_321416",
    "link_img": "https://live.staticflickr.com/65535/48120220533_c9cc8c75fc_o.jpg",
    "id_image": "Motorcycles_321416",
    "count_view": 0
  },
  {
    "link_thumb": "https://live.staticflickr.com/65535/48118496306_d8088e24fd_n.jpg",
    "id_album": "-2100339805",
    "description": "Lamborghini_488658",
    "title": "Lamborghini_488658",
    "link_img": "https://live.staticflickr.com/65535/48118496306_241661b660_o.jpg",
    "id_image": "Lamborghini_488658",
    "count_view": 0
  },
  {
    "link_thumb": "https://live.staticflickr.com/65535/48115091477_b068b99531_n.jpg",
    "id_album": "413141323",
    "description": "Dodge_143733",
    "title": "Dodge_143733",
    "link_img": "https://live.staticflickr.com/65535/48115091477_49705c5845_o.jpg",
    "id_image": "Dodge_143733",
    "count_view": 0
  },
  {
    "link_thumb": "https://live.staticflickr.com/65535/49041136252_1577d770ca_n.jpg",
    "id_album": "904180535",
    "description": "AlfaRomeo_644599",
    "title": "AlfaRomeo_644599",
    "link_img": "https://live.staticflickr.com/65535/49041136252_cc3db55528_o.jpg",
    "id_image": "AlfaRomeo_644599",
    "count_view": 0
  },
  {
    "link_thumb": "https://live.staticflickr.com/65535/48117887212_961a68f991_n.jpg",
    "id_album": "-354267407",
    "description": "Honda_426612",
    "title": "Honda_426612",
    "link_img": "https://live.staticflickr.com/65535/48117887212_27b6ecd2e7_o.jpg",
    "id_image": "Honda_426612",
    "count_view": 0
  },
  {
    "link_thumb": "https://live.staticflickr.com/65535/48116163927_fd47439e5b_n.jpg",
    "id_album": "1364506720",
    "description": "Ferrari_526044",
    "title": "Ferrari_526044",
    "link_img": "https://live.staticflickr.com/65535/48116163927_40a5155cef_o.jpg",
    "id_image": "Ferrari_526044",
    "count_view": 0
  },
  {
    "link_thumb": "https://live.staticflickr.com/65535/48112560958_5c0d92cb08_n.jpg",
    "id_album": "2097036181",
    "description": "Bentley_432720",
    "title": "Bentley_432720",
    "link_img": "https://live.staticflickr.com/65535/48112560958_5f507e1769_o.jpg",
    "id_image": "Bentley_432720",
    "count_view": 0
  },
  {
    "link_thumb": "https://live.staticflickr.com/65535/48121264827_22b5278707_n.jpg",
    "id_album": "-1178450892",
    "description": "Porsche_14459",
    "title": "Porsche_14459",
    "link_img": "https://live.staticflickr.com/65535/48121264827_af20056a5f_o.jpg",
    "id_image": "Porsche_14459",
    "count_view": 0
  },
  {
    "link_thumb": "https://live.staticflickr.com/65535/48115145422_b0c8a2759e_n.jpg",
    "id_album": "413141323",
    "description": "Dodge_205658",
    "title": "Dodge_205658",
    "link_img": "https://live.staticflickr.com/65535/48115145422_c2d3d663a9_o.jpg",
    "id_image": "Dodge_205658",
    "count_view": 0
  },
  {
    "link_thumb": "https://live.staticflickr.com/65535/49891699987_0a88ce41b1_n.jpg",
    "id_album": "-857328710",
    "description": "2016_rv_Porsche_rv_Boxster_rv_Spyder_rv_V1_rv_1600",
    "title": "2016_rv_Porsche_rv_Boxster_rv_Spyder_rv_V1_rv_1600",
    "link_img": "https://live.staticflickr.com/65535/49891699987_7826b6ebaf_o.jpg",
    "id_image": "2016_rv_Porsche_rv_Boxster_rv_Spyder_rv_V1_rv_1600",
    "count_view": 0
  },
  {
    "link_thumb": "https://live.staticflickr.com/65535/48115324798_486cb4c57f_n.jpg",
    "id_album": "413141323",
    "description": "Dodge_472058",
    "title": "Dodge_472058",
    "link_img": "https://live.staticflickr.com/65535/48115324798_5a9acbd27f_o.jpg",
    "id_image": "Dodge_472058",
    "count_view": 0
  },
  {
    "link_thumb": "https://live.staticflickr.com/65535/49892561187_845a134a01_n.jpg",
    "id_album": "-2006372324",
    "description": "2016_rv_Renault_rv_Trezor_rv_Concept_rv_V1_rv_2000",
    "title": "2016_rv_Renault_rv_Trezor_rv_Concept_rv_V1_rv_2000",
    "link_img": "https://live.staticflickr.com/65535/49892561187_2f23b1465e_o.jpg",
    "id_image": "2016_rv_Renault_rv_Trezor_rv_Concept_rv_V1_rv_2000",
    "count_view": 0
  },
  {
    "link_thumb": "https://live.staticflickr.com/65535/49892600967_1c5aa55b00_n.jpg",
    "id_album": "820813097",
    "description": "1971_rv_Ringbrothers_rv_De_rv_Tomaso_rv_Pantera_rv_V5_rv_2000",
    "title": "1971_rv_Ringbrothers_rv_De_rv_Tomaso_rv_Pantera_rv_V5_rv_2000",
    "link_img": "https://live.staticflickr.com/65535/49892600967_0c36a9b668_o.jpg",
    "id_image": "1971_rv_Ringbrothers_rv_De_rv_Tomaso_rv_Pantera_rv_V5_rv_2000",
    "count_view": 0
  },
  {
    "link_thumb": "https://live.staticflickr.com/65535/49890418673_765cb0e7e0_n.jpg",
    "id_album": "-1503939287",
    "description": "2017_rv_Mini_rv_John_rv_Cooper_rv_Works_rv_GP_rv_Concept_rv_V4_rv_2000",
    "title": "2017_rv_Mini_rv_John_rv_Cooper_rv_Works_rv_GP_rv_Concept_rv_V4_rv_2000",
    "link_img": "https://live.staticflickr.com/65535/49890418673_25672f0bc1_o.jpg",
    "id_image": "2017_rv_Mini_rv_John_rv_Cooper_rv_Works_rv_GP_rv_Concept_rv_V4_rv_2000",
    "count_view": 0
  },
  {
    "link_thumb": "https://live.staticflickr.com/65535/48119151413_cd2521c75b_n.jpg",
    "id_album": "697984456",
    "description": "Maserati_885595",
    "title": "Maserati_885595",
    "link_img": "https://live.staticflickr.com/65535/48119151413_0ca7a1ec70_o.jpg",
    "id_image": "Maserati_885595",
    "count_view": 0
  },
  {
    "link_thumb": "https://live.staticflickr.com/65535/49889522596_97d365b8b8_n.jpg",
    "id_album": "-64617260",
    "description": "2009_rv_Ferrari_rv_California_rv_V5_rv_1440",
    "title": "2009_rv_Ferrari_rv_California_rv_V5_rv_1440",
    "link_img": "https://live.staticflickr.com/65535/49889522596_f4293155fa_o.jpg",
    "id_image": "2009_rv_Ferrari_rv_California_rv_V5_rv_1440",
    "count_view": 0
  },
  {
    "link_thumb": "https://live.staticflickr.com/65535/48113882701_1f5f2e102e_n.jpg",
    "id_album": "-1721545051",
    "description": "Chevrolet_248662",
    "title": "Chevrolet_248662",
    "link_img": "https://live.staticflickr.com/65535/48113882701_f05e06455f_o.jpg",
    "id_image": "Chevrolet_248662",
    "count_view": 0
  },
  {
    "link_thumb": "https://live.staticflickr.com/65535/48114902173_4d558528b7_n.jpg",
    "id_album": "2072464184",
    "description": "Citroen_420683",
    "title": "Citroen_420683",
    "link_img": "https://live.staticflickr.com/65535/48114902173_3861b77f7e_o.jpg",
    "id_image": "Citroen_420683",
    "count_view": 0
  },
  {
    "link_thumb": "https://live.staticflickr.com/65535/49889721497_fe1fd543bc_n.jpg",
    "id_album": "-1783171482",
    "description": "1992_rv_Formula1_rv_Williams_rv_FW14B_rv_V3_rv_1440",
    "title": "1992_rv_Formula1_rv_Williams_rv_FW14B_rv_V3_rv_1440",
    "link_img": "https://live.staticflickr.com/65535/49889721497_458f84e07b_o.jpg",
    "id_image": "1992_rv_Formula1_rv_Williams_rv_FW14B_rv_V3_rv_1440",
    "count_view": 0
  },
  {
    "link_thumb": "https://live.staticflickr.com/65535/49889873122_a9e556a9f1_n.jpg",
    "id_album": "-1960252689",
    "description": "2012_rv_Ferrari_rv_FF_rv_V7_rv_1440",
    "title": "2012_rv_Ferrari_rv_FF_rv_V7_rv_1440",
    "link_img": "https://live.staticflickr.com/65535/49889873122_e485de465c_o.jpg",
    "id_image": "2012_rv_Ferrari_rv_FF_rv_V7_rv_1440",
    "count_view": 0
  },
  {
    "link_thumb": "https://live.staticflickr.com/65535/48116811973_c60bc8f8e3_n.jpg",
    "id_album": "-1846404630",
    "description": "Ford_229490",
    "title": "Ford_229490",
    "link_img": "https://live.staticflickr.com/65535/48116811973_2624350ec7_o.jpg",
    "id_image": "Ford_229490",
    "count_view": 0
  },
  {
    "link_thumb": "https://live.staticflickr.com/65535/48114046898_3875350efb_n.jpg",
    "id_album": "-1721545051",
    "description": "Chevrolet_288999",
    "title": "Chevrolet_288999",
    "link_img": "https://live.staticflickr.com/65535/48114046898_478b9aea2a_o.jpg",
    "id_image": "Chevrolet_288999",
    "count_view": 0
  },
  {
    "link_thumb": "https://live.staticflickr.com/65535/48112353503_982421e85c_n.jpg",
    "id_album": "-15119147",
    "description": "Audi_474778",
    "title": "Audi_474778",
    "link_img": "https://live.staticflickr.com/65535/48112353503_635b696885_o.jpg",
    "id_image": "Audi_474778",
    "count_view": 0
  },
  {
    "link_thumb": "https://live.staticflickr.com/65535/48114504861_e8b9314b1b_n.jpg",
    "id_album": "-1721545051",
    "description": "Chevrolet_742732",
    "title": "Chevrolet_742732",
    "link_img": "https://live.staticflickr.com/65535/48114504861_3734401617_o.jpg",
    "id_image": "Chevrolet_742732",
    "count_view": 0
  },
  {
    "link_thumb": "https://live.staticflickr.com/65535/48117179252_5cbd663b01_n.jpg",
    "id_album": "-1846404630",
    "description": "Ford_396154",
    "title": "Ford_396154",
    "link_img": "https://live.staticflickr.com/65535/48117179252_36ed7bb9b0_o.jpg",
    "id_image": "Ford_396154",
    "count_view": 0
  },
  {
    "link_thumb": "https://live.staticflickr.com/65535/49889658232_1c78a87eae_n.jpg",
    "id_album": "1643248187",
    "description": "2015_rv_Ram_rv_1500_rv_Rebel_rv_V1_rv_1600",
    "title": "2015_rv_Ram_rv_1500_rv_Rebel_rv_V1_rv_1600",
    "link_img": "https://live.staticflickr.com/65535/49889658232_43a8fa3dcd_o.jpg",
    "id_image": "2015_rv_Ram_rv_1500_rv_Rebel_rv_V1_rv_1600",
    "count_view": 0
  },
  {
    "link_thumb": "https://live.staticflickr.com/65535/49892180818_7f74d80b06_n.jpg",
    "id_album": "167614520",
    "description": "2014_rv_Volvo_rv_V60_rv_Polestar_rv_V2_rv_1600",
    "title": "2014_rv_Volvo_rv_V60_rv_Polestar_rv_V2_rv_1600",
    "link_img": "https://live.staticflickr.com/65535/49892180818_fcea296a4b_o.jpg",
    "id_image": "2014_rv_Volvo_rv_V60_rv_Polestar_rv_V2_rv_1600",
    "count_view": 0
  },
  {
    "link_thumb": "https://live.staticflickr.com/65535/48118576038_276d81abc2_n.jpg",
    "id_album": "-2100339805",
    "description": "Lamborghini_616740",
    "title": "Lamborghini_616740",
    "link_img": "https://live.staticflickr.com/65535/48118576038_ec4f481566_o.jpg",
    "id_image": "Lamborghini_616740",
    "count_view": 0
  },
  {
    "link_thumb": "https://live.staticflickr.com/65535/49889799337_b2918c77ba_n.jpg",
    "id_album": "1471706463",
    "description": "2016_rv_Ferrari_rv_488_rv_Spider_rv_V15_rv_2000",
    "title": "2016_rv_Ferrari_rv_488_rv_Spider_rv_V15_rv_2000",
    "link_img": "https://live.staticflickr.com/65535/49889799337_1dc034086b_o.jpg",
    "id_image": "2016_rv_Ferrari_rv_488_rv_Spider_rv_V15_rv_2000",
    "count_view": 0
  },
  {
    "link_thumb": "https://live.staticflickr.com/65535/48113204232_12696c265a_n.jpg",
    "id_album": "727633301",
    "description": "BMW_869335",
    "title": "BMW_869335",
    "link_img": "https://live.staticflickr.com/65535/48113204232_242824f2ac_o.jpg",
    "id_image": "BMW_869335",
    "count_view": 0
  }
]