[
  {
    "link_thumb": "https://live.staticflickr.com/65535/48113497431_e8a3309f47_n.jpg",
    "id_album": "-680120434",
    "description": "Cadillac_117431",
    "title": "Cadillac_117431",
    "link_img": "https://live.staticflickr.com/65535/48113497431_ef673462a9_o.jpg",
    "id_image": "Cadillac_117431",
    "count_view": 0
  },
  {
    "link_thumb": "https://live.staticflickr.com/65535/48117802178_849944e5d9_n.jpg",
    "id_album": "-354267407",
    "description": "Honda_256004",
    "title": "Honda_256004",
    "link_img": "https://live.staticflickr.com/65535/48117802178_7f22825a3a_o.jpg",
    "id_image": "Honda_256004",
    "count_view": 0
  },
  {
    "link_thumb": "https://live.staticflickr.com/65535/48113618608_c35560e3ac_n.jpg",
    "id_album": "-680120434",
    "description": "Cadillac_498314",
    "title": "Cadillac_498314",
    "link_img": "https://live.staticflickr.com/65535/48113618608_fc42417f87_o.jpg",
    "id_image": "Cadillac_498314",
    "count_view": 0
  },
  {
    "link_thumb": "https://live.staticflickr.com/65535/49888813558_e8e9526eb3_n.jpg",
    "id_album": "493722967",
    "description": "2018_rv_Chevrolet_rv_Camaro_rv_eCOPO_rv_Concept_rv_V4_rv_2000",
    "title": "2018_rv_Chevrolet_rv_Camaro_rv_eCOPO_rv_Concept_rv_V4_rv_2000",
    "link_img": "https://live.staticflickr.com/65535/49888813558_0aa708df7e_o.jpg",
    "id_image": "2018_rv_Chevrolet_rv_Camaro_rv_eCOPO_rv_Concept_rv_V4_rv_2000",
    "count_view": 0
  },
  {
    "link_thumb": "https://live.staticflickr.com/65535/48118570363_682e91803d_n.jpg",
    "id_album": "-2100339805",
    "description": "Lamborghini_594751",
    "title": "Lamborghini_594751",
    "link_img": "https://live.staticflickr.com/65535/48118570363_4f90dfcd76_o.jpg",
    "id_image": "Lamborghini_594751",
    "count_view": 0
  },
  {
    "link_thumb": "https://live.staticflickr.com/65535/48114264537_784e76baff_n.jpg",
    "id_album": "-1721545051",
    "description": "Chevrolet_379290",
    "title": "Chevrolet_379290",
    "link_img": "https://live.staticflickr.com/65535/48114264537_aab0f418cc_o.jpg",
    "id_image": "Chevrolet_379290",
    "count_view": 0
  },
  {
    "link_thumb": "https://live.staticflickr.com/65535/48113028787_7a9d6e8d8c_n.jpg",
    "id_album": "727633301",
    "description": "BMW_491972",
    "title": "BMW_491972",
    "link_img": "https://live.staticflickr.com/65535/48113028787_7e34421da5_o.jpg",
    "id_image": "BMW_491972",
    "count_view": 0
  },
  {
    "link_thumb": "https://live.staticflickr.com/65535/48114062898_f5e9d9f0e4_n.jpg",
    "id_album": "-1721545051",
    "description": "Chevrolet_289098",
    "title": "Chevrolet_289098",
    "link_img": "https://live.staticflickr.com/65535/48114062898_3eae72e9d9_o.jpg",
    "id_image": "Chevrolet_289098",
    "count_view": 0
  },
  {
    "link_thumb": "https://live.staticflickr.com/65535/49890100137_e7fa1abfc1_n.jpg",
    "id_album": "-837371943",
    "description": "2018_rv_Bentley_rv_Continental_rv_GT_rv_V7_rv_2000",
    "title": "2018_rv_Bentley_rv_Continental_rv_GT_rv_V7_rv_2000",
    "link_img": "https://live.staticflickr.com/65535/49890100137_bac0c5499a_o.jpg",
    "id_image": "2018_rv_Bentley_rv_Continental_rv_GT_rv_V7_rv_2000",
    "count_view": 0
  },
  {
    "link_thumb": "https://live.staticflickr.com/65535/49890259097_3b192fd784_n.jpg",
    "id_album": "-45591240",
    "description": "2015_rv_Infiniti_rv_QX30_rv_Concept_rv_V2_rv_1600",
    "title": "2015_rv_Infiniti_rv_QX30_rv_Concept_rv_V2_rv_1600",
    "link_img": "https://live.staticflickr.com/65535/49890259097_60fbfa6a61_o.jpg",
    "id_image": "2015_rv_Infiniti_rv_QX30_rv_Concept_rv_V2_rv_1600",
    "count_view": 0
  },
  {
    "link_thumb": "https://live.staticflickr.com/65535/48120751633_94cfbe7ea0_n.jpg",
    "id_album": "1952909762",
    "description": "Packard_741125",
    "title": "Packard_741125",
    "link_img": "https://live.staticflickr.com/65535/48120751633_6f6713615e_o.jpg",
    "id_image": "Packard_741125",
    "count_view": 0
  },
  {
    "link_thumb": "https://live.staticflickr.com/65535/48118072196_3a87a56782_n.jpg",
    "id_album": "-2009218697",
    "description": "Jeep_256176",
    "title": "Jeep_256176",
    "link_img": "https://live.staticflickr.com/65535/48118072196_8bdec844ea_o.jpg",
    "id_image": "Jeep_256176",
    "count_view": 0
  },
  {
    "link_thumb": "https://live.staticflickr.com/65535/49890530376_1e4e77b39b_n.jpg",
    "id_album": "819228677",
    "description": "2019_rv_McLaren_rv_600LT_rv_V4_rv_2160",
    "title": "2019_rv_McLaren_rv_600LT_rv_V4_rv_2160",
    "link_img": "https://live.staticflickr.com/65535/49890530376_25abc8d690_o.jpg",
    "id_image": "2019_rv_McLaren_rv_600LT_rv_V4_rv_2160",
    "count_view": 0
  },
  {
    "link_thumb": "https://live.staticflickr.com/65535/48112571703_a68466d228_n.jpg",
    "id_album": "2097036181",
    "description": "Bentley_470792",
    "title": "Bentley_470792",
    "link_img": "https://live.staticflickr.com/65535/48112571703_f59d869a63_o.jpg",
    "id_image": "Bentley_470792",
    "count_view": 0
  },
  {
    "link_thumb": "https://live.staticflickr.com/65535/48120854926_5b0774bac4_n.jpg",
    "id_album": "1965631892",
    "description": "Peugeot_296885",
    "title": "Peugeot_296885",
    "link_img": "https://live.staticflickr.com/65535/48120854926_b185468938_o.jpg",
    "id_image": "Peugeot_296885",
    "count_view": 0
  },
  {
    "link_thumb": "https://live.staticflickr.com/65535/48112125462_d82cb1645a_n.jpg",
    "id_album": "-843028318",
    "description": "Jaguar_388507",
    "title": "Jaguar_388507",
    "link_img": "https://live.staticflickr.com/65535/48112125462_a695c94ce1_o.jpg",
    "id_image": "Jaguar_388507",
    "count_view": 0
  },
  {
    "link_thumb": "https://live.staticflickr.com/65535/48114064081_7dc088898e_n.jpg",
    "id_album": "-1721545051",
    "description": "Chevrolet_289862",
    "title": "Chevrolet_289862",
    "link_img": "https://live.staticflickr.com/65535/48114064081_6f742ee8a0_o.jpg",
    "id_image": "Chevrolet_289862",
    "count_view": 0
  },
  {
    "link_thumb": "https://live.staticflickr.com/65535/48121506733_5fd8a328ab_n.jpg",
    "id_album": "-1178450892",
    "description": "Porsche_598056",
    "title": "Porsche_598056",
    "link_img": "https://live.staticflickr.com/65535/48121506733_2cc6c75510_o.jpg",
    "id_image": "Porsche_598056",
    "count_view": 0
  },
  {
    "link_thumb": "https://live.staticflickr.com/65535/48117591171_90d1716587_n.jpg",
    "id_album": "-1846404630",
    "description": "Ford_932329",
    "title": "Ford_932329",
    "link_img": "https://live.staticflickr.com/65535/48117591171_828d91fb76_o.jpg",
    "id_image": "Ford_932329",
    "count_view": 0
  },
  {
    "link_thumb": "https://live.staticflickr.com/65535/49889449118_7e448e490d_n.jpg",
    "id_album": "-836585497",
    "description": "2005_rv_Mitsubishi_rv_Lancer_rv_Evolution_rv_IX_rv_Wagon_rv_V3_rv_1440",
    "title": "2005_rv_Mitsubishi_rv_Lancer_rv_Evolution_rv_IX_rv_Wagon_rv_V3_rv_1440",
    "link_img": "https://live.staticflickr.com/65535/49889449118_68db1a94d1_o.jpg",
    "id_image": "2005_rv_Mitsubishi_rv_Lancer_rv_Evolution_rv_IX_rv_Wagon_rv_V3_rv_1440",
    "count_view": 0
  },
  {
    "link_thumb": "https://live.staticflickr.com/65535/48112412233_de0a5cc5c1_n.jpg",
    "id_album": "-15119147",
    "description": "Audi_683809",
    "title": "Audi_683809",
    "link_img": "https://live.staticflickr.com/65535/48112412233_f96f009274_o.jpg",
    "id_image": "Audi_683809",
    "count_view": 0
  },
  {
    "link_thumb": "https://live.staticflickr.com/65535/48117483336_db415bf8f7_n.jpg",
    "id_album": "-1846404630",
    "description": "Ford_860951",
    "title": "Ford_860951",
    "link_img": "https://live.staticflickr.com/65535/48117483336_d00199d62b_o.jpg",
    "id_image": "Ford_860951",
    "count_view": 0
  },
  {
    "link_thumb": "https://live.staticflickr.com/65535/48112275881_566331b046_n.jpg",
    "id_album": "-15119147",
    "description": "Audi_362289",
    "title": "Audi_362289",
    "link_img": "https://live.staticflickr.com/65535/48112275881_ba94e2237f_o.jpg",
    "id_image": "Audi_362289",
    "count_view": 0
  },
  {
    "link_thumb": "https://live.staticflickr.com/65535/48117097777_b465b46bb5_n.jpg",
    "id_album": "-1846404630",
    "description": "Ford_318107",
    "title": "Ford_318107",
    "link_img": "https://live.staticflickr.com/65535/48117097777_0400d353c7_o.jpg",
    "id_image": "Ford_318107",
    "count_view": 0
  },
  {
    "link_thumb": "https://live.staticflickr.com/65535/48120442883_9bc0d7f0f5_n.jpg",
    "id_album": "810634050",
    "description": "Nissan_444404",
    "title": "Nissan_444404",
    "link_img": "https://live.staticflickr.com/65535/48120442883_2b109e40e7_o.jpg",
    "id_image": "Nissan_444404",
    "count_view": 0
  },
  {
    "link_thumb": "https://live.staticflickr.com/65535/48119638691_7092374592_n.jpg",
    "id_album": "-731054311",
    "description": "MercedesBenz_366697",
    "title": "MercedesBenz_366697",
    "link_img": "https://live.staticflickr.com/65535/48119638691_8c098d635f_o.jpg",
    "id_image": "MercedesBenz_366697",
    "count_view": 0
  },
  {
    "link_thumb": "https://live.staticflickr.com/65535/49891315196_b9b5b35132_n.jpg",
    "id_album": "-2120272602",
    "description": "1973_rv_Pontiac_rv_Firebird_rv_Trans_rv_Am_rv_V3_rv_1536",
    "title": "1973_rv_Pontiac_rv_Firebird_rv_Trans_rv_Am_rv_V3_rv_1536",
    "link_img": "https://live.staticflickr.com/65535/49891315196_6d28c614f8_o.jpg",
    "id_image": "1973_rv_Pontiac_rv_Firebird_rv_Trans_rv_Am_rv_V3_rv_1536",
    "count_view": 0
  },
  {
    "link_thumb": "https://live.staticflickr.com/65535/48113456746_25bbcb8949_n.jpg",
    "id_album": "1456070666",
    "description": "Bugatti_998111",
    "title": "Bugatti_998111",
    "link_img": "https://live.staticflickr.com/65535/48113456746_fec7e161de_o.jpg",
    "id_image": "Bugatti_998111",
    "count_view": 0
  },
  {
    "link_thumb": "https://live.staticflickr.com/65535/48114592773_716d589b8b_n.jpg",
    "id_album": "-1721545051",
    "description": "Chevrolet_805367",
    "title": "Chevrolet_805367",
    "link_img": "https://live.staticflickr.com/65535/48114592773_e4d9b092e8_o.jpg",
    "id_image": "Chevrolet_805367",
    "count_view": 0
  },
  {
    "link_thumb": "https://live.staticflickr.com/65535/48117277791_9e0cbef756_n.jpg",
    "id_album": "-1846404630",
    "description": "Ford_490714",
    "title": "Ford_490714",
    "link_img": "https://live.staticflickr.com/65535/48117277791_cf268f6c7c_o.jpg",
    "id_image": "Ford_490714",
    "count_view": 0
  },
  {
    "link_thumb": "https://live.staticflickr.com/65535/48118835982_ddc15f8c41_n.jpg",
    "id_album": "-2100339805",
    "description": "Lamborghini_992756",
    "title": "Lamborghini_992756",
    "link_img": "https://live.staticflickr.com/65535/48118835982_8dfd30519e_o.jpg",
    "id_image": "Lamborghini_992756",
    "count_view": 0
  },
  {
    "link_thumb": "https://live.staticflickr.com/65535/48119292056_7dee26d89f_n.jpg",
    "id_album": "990865885",
    "description": "McLaren_507324",
    "title": "McLaren_507324",
    "link_img": "https://live.staticflickr.com/65535/48119292056_e96ff21f2a_o.jpg",
    "id_image": "McLaren_507324",
    "count_view": 0
  },
  {
    "link_thumb": "https://live.staticflickr.com/65535/48122651673_178a47094d_n.jpg",
    "id_album": "1274920659",
    "description": "Toyota_209454",
    "title": "Toyota_209454",
    "link_img": "https://live.staticflickr.com/65535/48122651673_70f363bab3_o.jpg",
    "id_image": "Toyota_209454",
    "count_view": 0
  },
  {
    "link_thumb": "https://live.staticflickr.com/65535/48120664331_e44bb79bbc_n.jpg",
    "id_album": "-6897294",
    "description": "Opel_209880",
    "title": "Opel_209880",
    "link_img": "https://live.staticflickr.com/65535/48120664331_6c625f0878_o.jpg",
    "id_image": "Opel_209880",
    "count_view": 0
  },
  {
    "link_thumb": "https://live.staticflickr.com/65535/48118388842_1598585cd4_n.jpg",
    "id_album": "-2100339805",
    "description": "Lamborghini_292248",
    "title": "Lamborghini_292248",
    "link_img": "https://live.staticflickr.com/65535/48118388842_b0dbe21f05_o.jpg",
    "id_image": "Lamborghini_292248",
    "count_view": 0
  },
  {
    "link_thumb": "https://live.staticflickr.com/65535/48119000973_ec7084f420_n.jpg",
    "id_album": "-120702461",
    "description": "Lincoln_208000",
    "title": "Lincoln_208000",
    "link_img": "https://live.staticflickr.com/65535/48119000973_9e0e4d1067_o.jpg",
    "id_image": "Lincoln_208000",
    "count_view": 0
  },
  {
    "link_thumb": "https://live.staticflickr.com/65535/48120156551_c3525e21fe_n.jpg",
    "id_album": "666438681",
    "description": "Motorcycles_197749",
    "title": "Motorcycles_197749",
    "link_img": "https://live.staticflickr.com/65535/48120156551_b055f522a5_o.jpg",
    "id_image": "Motorcycles_197749",
    "count_view": 0
  },
  {
    "link_thumb": "https://live.staticflickr.com/65535/48122149636_2b8cd5ac89_n.jpg",
    "id_album": "1536700661",
    "description": "RollsRoyce_886435",
    "title": "RollsRoyce_886435",
    "link_img": "https://live.staticflickr.com/65535/48122149636_7c42c077a2_o.jpg",
    "id_image": "RollsRoyce_886435",
    "count_view": 0
  },
  {
    "link_thumb": "https://live.staticflickr.com/65535/49889854038_86a6a1dc09_n.jpg",
    "id_album": "-391278537",
    "description": "2011_rv_Lotus_rv_Evora_rv_S_rv_V5_rv_1536",
    "title": "2011_rv_Lotus_rv_Evora_rv_S_rv_V5_rv_1536",
    "link_img": "https://live.staticflickr.com/65535/49889854038_9f245dd7f5_o.jpg",
    "id_image": "2011_rv_Lotus_rv_Evora_rv_S_rv_V5_rv_1536",
    "count_view": 0
  },
  {
    "link_thumb": "https://live.staticflickr.com/65535/48114191358_9fac964a2b_n.jpg",
    "id_album": "-1721545051",
    "description": "Chevrolet_374976",
    "title": "Chevrolet_374976",
    "link_img": "https://live.staticflickr.com/65535/48114191358_7818eef4e8_o.jpg",
    "id_image": "Chevrolet_374976",
    "count_view": 0
  },
  {
    "link_thumb": "https://live.staticflickr.com/65535/48119430292_ea88c591a9_n.jpg",
    "id_album": "990865885",
    "description": "McLaren_705623",
    "title": "McLaren_705623",
    "link_img": "https://live.staticflickr.com/65535/48119430292_6da2eb0d98_o.jpg",
    "id_image": "McLaren_705623",
    "count_view": 0
  },
  {
    "link_thumb": "https://live.staticflickr.com/65535/48116793453_c56ce45b9c_n.jpg",
    "id_album": "-1846404630",
    "description": "Ford_216055",
    "title": "Ford_216055",
    "link_img": "https://live.staticflickr.com/65535/48116793453_637458244a_o.jpg",
    "id_image": "Ford_216055",
    "count_view": 0
  },
  {
    "link_thumb": "https://live.staticflickr.com/65535/48112704272_52e2e01196_n.jpg",
    "id_album": "727633301",
    "description": "BMW_154272",
    "title": "BMW_154272",
    "link_img": "https://live.staticflickr.com/65535/48112704272_74bfb33729_o.jpg",
    "id_image": "BMW_154272",
    "count_view": 0
  },
  {
    "link_thumb": "https://live.staticflickr.com/65535/48112677582_1d77f36857_n.jpg",
    "id_album": "2097036181",
    "description": "Bentley_97595",
    "title": "Bentley_97595",
    "link_img": "https://live.staticflickr.com/65535/48112677582_874fce4721_o.jpg",
    "id_image": "Bentley_97595",
    "count_view": 0
  },
  {
    "link_thumb": "https://live.staticflickr.com/65535/48119125936_aced56c752_n.jpg",
    "id_album": "697984456",
    "description": "Maserati_891913",
    "title": "Maserati_891913",
    "link_img": "https://live.staticflickr.com/65535/48119125936_0b8e90b08e_o.jpg",
    "id_image": "Maserati_891913",
    "count_view": 0
  },
  {
    "link_thumb": "https://live.staticflickr.com/65535/48117491622_a3d24c9587_n.jpg",
    "id_album": "-1846404630",
    "description": "Ford_728303",
    "title": "Ford_728303",
    "link_img": "https://live.staticflickr.com/65535/48117491622_aa5dfbd6a0_o.jpg",
    "id_image": "Ford_728303",
    "count_view": 0
  },
  {
    "link_thumb": "https://live.staticflickr.com/65535/49889383933_ee313a9b94_n.jpg",
    "id_album": "-1822879856",
    "description": "2004_rv_Holden_rv_VZ_rv_Monaro_rv_CV8_rv_V4_rv_1440",
    "title": "2004_rv_Holden_rv_VZ_rv_Monaro_rv_CV8_rv_V4_rv_1440",
    "link_img": "https://live.staticflickr.com/65535/49889383933_dab25e231e_o.jpg",
    "id_image": "2004_rv_Holden_rv_VZ_rv_Monaro_rv_CV8_rv_V4_rv_1440",
    "count_view": 0
  },
  {
    "link_thumb": "https://live.staticflickr.com/65535/49889600727_1c84de2b6a_n.jpg",
    "id_album": "1016927281",
    "description": "2018_rv_Porsche_rv_911_rv_Carrera_rv_T_rv_V2_rv_2000",
    "title": "2018_rv_Porsche_rv_911_rv_Carrera_rv_T_rv_V2_rv_2000",
    "link_img": "https://live.staticflickr.com/65535/49889600727_ee3905d6ff_o.jpg",
    "id_image": "2018_rv_Porsche_rv_911_rv_Carrera_rv_T_rv_V2_rv_2000",
    "count_view": 0
  },
  {
    "link_thumb": "https://live.staticflickr.com/65535/48116517001_d2c49d80ea_n.jpg",
    "id_album": "-1846404630",
    "description": "Ford_119905",
    "title": "Ford_119905",
    "link_img": "https://live.staticflickr.com/65535/48116517001_134869352d_o.jpg",
    "id_image": "Ford_119905",
    "count_view": 0
  },
  {
    "link_thumb": "https://live.staticflickr.com/65535/49113026681_bbdb7b68b7_n.jpg",
    "id_album": "555757480",
    "description": "AstonMartin_186866_1",
    "title": "AstonMartin_186866_1",
    "link_img": "https://live.staticflickr.com/65535/49113026681_65f1c87721_o.jpg",
    "id_image": "AstonMartin_186866_1",
    "count_view": 0
  },
  {
    "link_thumb": "https://live.staticflickr.com/65535/48114519768_2eb3182f5c_n.jpg",
    "id_album": "-1721545051",
    "description": "Chevrolet_741538",
    "title": "Chevrolet_741538",
    "link_img": "https://live.staticflickr.com/65535/48114519768_5a87c3993f_o.jpg",
    "id_image": "Chevrolet_741538",
    "count_view": 0
  },
  {
    "link_thumb": "https://live.staticflickr.com/65535/48119452396_c646320bae_n.jpg",
    "id_album": "-731054311",
    "description": "MercedesBenz_170389",
    "title": "MercedesBenz_170389",
    "link_img": "https://live.staticflickr.com/65535/48119452396_e9a59e84bb_o.jpg",
    "id_image": "MercedesBenz_170389",
    "count_view": 0
  },
  {
    "link_thumb": "https://live.staticflickr.com/65535/48112054403_77a56c3985_n.jpg",
    "id_album": "-843028318",
    "description": "Jaguar_256159",
    "title": "Jaguar_256159",
    "link_img": "https://live.staticflickr.com/65535/48112054403_462c6b3257_o.jpg",
    "id_image": "Jaguar_256159",
    "count_view": 0
  },
  {
    "link_thumb": "https://live.staticflickr.com/65535/48114056197_bd6ee88f5a_n.jpg",
    "id_album": "-1721545051",
    "description": "Chevrolet_288050",
    "title": "Chevrolet_288050",
    "link_img": "https://live.staticflickr.com/65535/48114056197_8f4f53d7d0_o.jpg",
    "id_image": "Chevrolet_288050",
    "count_view": 0
  },
  {
    "link_thumb": "https://live.staticflickr.com/65535/48121463648_feb42e8826_n.jpg",
    "id_album": "-1178450892",
    "description": "Porsche_509249",
    "title": "Porsche_509249",
    "link_img": "https://live.staticflickr.com/65535/48121463648_b62efc76af_o.jpg",
    "id_image": "Porsche_509249",
    "count_view": 0
  },
  {
    "link_thumb": "https://live.staticflickr.com/65535/49892899157_662886191a_n.jpg",
    "id_album": "-1220388988",
    "description": "2020_rv_Audi_rv_R8_rv_V10_rv_RWD_rv_V5_rv_2160",
    "title": "2020_rv_Audi_rv_R8_rv_V10_rv_RWD_rv_V5_rv_2160",
    "link_img": "https://live.staticflickr.com/65535/49892899157_371ec0c000_o.jpg",
    "id_image": "2020_rv_Audi_rv_R8_rv_V10_rv_RWD_rv_V5_rv_2160",
    "count_view": 0
  },
  {
    "link_thumb": "https://live.staticflickr.com/65535/49892181498_5284c03ef4_n.jpg",
    "id_album": "-1788700616",
    "description": "1997_rv_Volvo_rv_V70_rv_R_rv_AWD_rv_V3_rv_1536",
    "title": "1997_rv_Volvo_rv_V70_rv_R_rv_AWD_rv_V3_rv_1536",
    "link_img": "https://live.staticflickr.com/65535/49892181498_6b6ba95759_o.jpg",
    "id_image": "1997_rv_Volvo_rv_V70_rv_R_rv_AWD_rv_V3_rv_1536",
    "count_view": 0
  },
  {
    "link_thumb": "https://live.staticflickr.com/65535/48122827543_c6c365c431_n.jpg",
    "id_album": "1274920659",
    "description": "Toyota_886362",
    "title": "Toyota_886362",
    "link_img": "https://live.staticflickr.com/65535/48122827543_16f2d9f54f_o.jpg",
    "id_image": "Toyota_886362",
    "count_view": 0
  },
  {
    "link_thumb": "https://live.staticflickr.com/65535/48118541488_278b4477a5_n.jpg",
    "id_album": "-2100339805",
    "description": "Lamborghini_519897",
    "title": "Lamborghini_519897",
    "link_img": "https://live.staticflickr.com/65535/48118541488_2dee265d0b_o.jpg",
    "id_image": "Lamborghini_519897",
    "count_view": 0
  },
  {
    "link_thumb": "https://live.staticflickr.com/65535/48112623406_154b2b7cc7_n.jpg",
    "id_album": "727633301",
    "description": "BMW_230601",
    "title": "BMW_230601",
    "link_img": "https://live.staticflickr.com/65535/48112623406_7e93b0165c_o.jpg",
    "id_image": "BMW_230601",
    "count_view": 0
  },
  {
    "link_thumb": "https://live.staticflickr.com/65535/48119293806_d543bc479f_n.jpg",
    "id_album": "990865885",
    "description": "McLaren_507335",
    "title": "McLaren_507335",
    "link_img": "https://live.staticflickr.com/65535/48119293806_6f77d884c6_o.jpg",
    "id_image": "McLaren_507335",
    "count_view": 0
  },
  {
    "link_thumb": "https://live.staticflickr.com/65535/48118715647_83475544f7_n.jpg",
    "id_album": "-2100339805",
    "description": "Lamborghini_844467",
    "title": "Lamborghini_844467",
    "link_img": "https://live.staticflickr.com/65535/48118715647_d60c25128e_o.jpg",
    "id_image": "Lamborghini_844467",
    "count_view": 0
  },
  {
    "link_thumb": "https://live.staticflickr.com/65535/48122831516_363675e0fb_n.jpg",
    "id_album": "1274920659",
    "description": "Toyota_976796",
    "title": "Toyota_976796",
    "link_img": "https://live.staticflickr.com/65535/48122831516_c0620196dc_o.jpg",
    "id_image": "Toyota_976796",
    "count_view": 0
  },
  {
    "link_thumb": "https://live.staticflickr.com/65535/48118265522_31e927936b_n.jpg",
    "id_album": "-625217782",
    "description": "Kia_935836",
    "title": "Kia_935836",
    "link_img": "https://live.staticflickr.com/65535/48118265522_43444b7df9_o.jpg",
    "id_image": "Kia_935836",
    "count_view": 0
  },
  {
    "link_thumb": "https://live.staticflickr.com/65535/48114045607_e27f37e549_n.jpg",
    "id_album": "-1721545051",
    "description": "Chevrolet_275385",
    "title": "Chevrolet_275385",
    "link_img": "https://live.staticflickr.com/65535/48114045607_3232a0d8e5_o.jpg",
    "id_image": "Chevrolet_275385",
    "count_view": 0
  },
  {
    "link_thumb": "https://live.staticflickr.com/65535/48117647228_2cc3396eef_n.jpg",
    "id_album": "-1846404630",
    "description": "Ford_940234",
    "title": "Ford_940234",
    "link_img": "https://live.staticflickr.com/65535/48117647228_fb508328a1_o.jpg",
    "id_image": "Ford_940234",
    "count_view": 0
  },
  {
    "link_thumb": "https://live.staticflickr.com/65535/48112781847_79da1ff480_n.jpg",
    "id_album": "727633301",
    "description": "BMW_272820",
    "title": "BMW_272820",
    "link_img": "https://live.staticflickr.com/65535/48112781847_39b6f44149_o.jpg",
    "id_image": "BMW_272820",
    "count_view": 0
  },
  {
    "link_thumb": "https://live.staticflickr.com/65535/49888422438_dcd712b211_n.jpg",
    "id_album": "1342281184",
    "description": "2014_rv_Audi_rv_R18_rv_E_rv_Tron_rv_Quattro_rv_LMP1_rv_V4_rv_1600",
    "title": "2014_rv_Audi_rv_R18_rv_E_rv_Tron_rv_Quattro_rv_LMP1_rv_V4_rv_1600",
    "link_img": "https://live.staticflickr.com/65535/49888422438_02fbdb4459_o.jpg",
    "id_image": "2014_rv_Audi_rv_R18_rv_E_rv_Tron_rv_Quattro_rv_LMP1_rv_V4_rv_1600",
    "count_view": 0
  },
  {
    "link_thumb": "https://live.staticflickr.com/65535/48111764572_bcc270e16a_n.jpg",
    "id_album": "1482519782",
    "description": "Hyundai_318411",
    "title": "Hyundai_318411",
    "link_img": "https://live.staticflickr.com/65535/48111764572_fbb77fac35_o.jpg",
    "id_image": "Hyundai_318411",
    "count_view": 0
  },
  {
    "link_thumb": "https://live.staticflickr.com/65535/49890136026_824e6cc267_n.jpg",
    "id_album": "1422448701",
    "description": "1972_rv_Lamborghini_rv_Espada_rv_400_rv_GTE_rv_V8_rv_1600",
    "title": "1972_rv_Lamborghini_rv_Espada_rv_400_rv_GTE_rv_V8_rv_1600",
    "link_img": "https://live.staticflickr.com/65535/49890136026_19c36a6516_o.jpg",
    "id_image": "1972_rv_Lamborghini_rv_Espada_rv_400_rv_GTE_rv_V8_rv_1600",
    "count_view": 0
  },
  {
    "link_thumb": "https://live.staticflickr.com/65535/49892727617_7590e2f113_n.jpg",
    "id_album": "1968261195",
    "description": "2017_rv_Subaru_rv_Viziv_rv_Performance_rv_Concept_rv_V1_rv_2000",
    "title": "2017_rv_Subaru_rv_Viziv_rv_Performance_rv_Concept_rv_V1_rv_2000",
    "link_img": "https://live.staticflickr.com/65535/49892727617_ef4afced5b_o.jpg",
    "id_image": "2017_rv_Subaru_rv_Viziv_rv_Performance_rv_Concept_rv_V1_rv_2000",
    "count_view": 0
  },
  {
    "link_thumb": "https://live.staticflickr.com/65535/48114497693_2292b0d465_n.jpg",
    "id_album": "-1721545051",
    "description": "Chevrolet_700330",
    "title": "Chevrolet_700330",
    "link_img": "https://live.staticflickr.com/65535/48114497693_158295d4d2_o.jpg",
    "id_image": "Chevrolet_700330",
    "count_view": 0
  },
  {
    "link_thumb": "https://live.staticflickr.com/65535/48116693416_40de9677a1_n.jpg",
    "id_album": "-1846404630",
    "description": "Ford_188428",
    "title": "Ford_188428",
    "link_img": "https://live.staticflickr.com/65535/48116693416_80e874100b_o.jpg",
    "id_image": "Ford_188428",
    "count_view": 0
  },
  {
    "link_thumb": "https://live.staticflickr.com/65535/48117681481_453abc00a5_n.jpg",
    "id_album": "-1846404630",
    "description": "Ford_993321",
    "title": "Ford_993321",
    "link_img": "https://live.staticflickr.com/65535/48117681481_106bea5393_o.jpg",
    "id_image": "Ford_993321",
    "count_view": 0
  },
  {
    "link_thumb": "https://live.staticflickr.com/65535/49891168841_be98a1fbe4_n.jpg",
    "id_album": "-1746133601",
    "description": "2020_rv_Novitec_rv_McLaren_rv_Senna_rv_V3_rv_2160",
    "title": "2020_rv_Novitec_rv_McLaren_rv_Senna_rv_V3_rv_2160",
    "link_img": "https://live.staticflickr.com/65535/49891168841_f41cfec6f1_o.jpg",
    "id_image": "2020_rv_Novitec_rv_McLaren_rv_Senna_rv_V3_rv_2160",
    "count_view": 0
  },
  {
    "link_thumb": "https://live.staticflickr.com/65535/48113820188_c834624bb5_n.jpg",
    "id_album": "-1721545051",
    "description": "Chevrolet_203676",
    "title": "Chevrolet_203676",
    "link_img": "https://live.staticflickr.com/65535/48113820188_70c4cc0444_o.jpg",
    "id_image": "Chevrolet_203676",
    "count_view": 0
  },
  {
    "link_thumb": "https://live.staticflickr.com/65535/48114400818_1edf0b8c16_n.jpg",
    "id_album": "-1721545051",
    "description": "Chevrolet_505562",
    "title": "Chevrolet_505562",
    "link_img": "https://live.staticflickr.com/65535/48114400818_a42c1db2c2_o.jpg",
    "id_image": "Chevrolet_505562",
    "count_view": 0
  },
  {
    "link_thumb": "https://live.staticflickr.com/65535/48123354592_2eda19632b_n.jpg",
    "id_album": "-360260466",
    "description": "Yamaha_648488",
    "title": "Yamaha_648488",
    "link_img": "https://live.staticflickr.com/65535/48123354592_2070c0cde9_o.jpg",
    "id_image": "Yamaha_648488",
    "count_view": 0
  },
  {
    "link_thumb": "https://live.staticflickr.com/65535/48120824846_397e8d7cf0_n.jpg",
    "id_album": "1965631892",
    "description": "Peugeot_144235",
    "title": "Peugeot_144235",
    "link_img": "https://live.staticflickr.com/65535/48120824846_efcbba870e_o.jpg",
    "id_image": "Peugeot_144235",
    "count_view": 0
  },
  {
    "link_thumb": "https://live.staticflickr.com/65535/48117603012_efb1ecb094_n.jpg",
    "id_album": "-1846404630",
    "description": "Ford_892277",
    "title": "Ford_892277",
    "link_img": "https://live.staticflickr.com/65535/48117603012_a863eb831f_o.jpg",
    "id_image": "Ford_892277",
    "count_view": 0
  },
  {
    "link_thumb": "https://live.staticflickr.com/65535/48121941353_a845facd69_n.jpg",
    "id_album": "-1377335499",
    "description": "RangeRover_612345",
    "title": "RangeRover_612345",
    "link_img": "https://live.staticflickr.com/65535/48121941353_0255f36c8a_o.jpg",
    "id_image": "RangeRover_612345",
    "count_view": 0
  },
  {
    "link_thumb": "https://live.staticflickr.com/65535/49889261227_30197236fd_n.jpg",
    "id_album": "1879029582",
    "description": "2012_rv_Audi_rv_RS3_rv_Sportback_rv_V3_rv_1440",
    "title": "2012_rv_Audi_rv_RS3_rv_Sportback_rv_V3_rv_1440",
    "link_img": "https://live.staticflickr.com/65535/49889261227_45fbc8e958_o.jpg",
    "id_image": "2012_rv_Audi_rv_RS3_rv_Sportback_rv_V3_rv_1440",
    "count_view": 0
  },
  {
    "link_thumb": "https://live.staticflickr.com/65535/49889831173_3702efdcc8_n.jpg",
    "id_album": "1503378901",
    "description": "2008_rv_Lotus_rv_2_rv_Eleven_rv_V3_rv_1600",
    "title": "2008_rv_Lotus_rv_2_rv_Eleven_rv_V3_rv_1600",
    "link_img": "https://live.staticflickr.com/65535/49889831173_7b29848750_o.jpg",
    "id_image": "2008_rv_Lotus_rv_2_rv_Eleven_rv_V3_rv_1600",
    "count_view": 0
  },
  {
    "link_thumb": "https://live.staticflickr.com/65535/48112271882_0395b4236a_n.jpg",
    "id_album": "555757480",
    "description": "AstonMartin_715641",
    "title": "AstonMartin_715641",
    "link_img": "https://live.staticflickr.com/65535/48112271882_b7ffe93b4a_o.jpg",
    "id_image": "AstonMartin_715641",
    "count_view": 0
  },
  {
    "link_thumb": "https://live.staticflickr.com/65535/49891653603_ed63316d27_n.jpg",
    "id_album": "-842352658",
    "description": "2010_rv_Volkswagen_rv_Golf_rv_R_rv_V7_rv_1440",
    "title": "2010_rv_Volkswagen_rv_Golf_rv_R_rv_V7_rv_1440",
    "link_img": "https://live.staticflickr.com/65535/49891653603_8b735e4637_o.jpg",
    "id_image": "2010_rv_Volkswagen_rv_Golf_rv_R_rv_V7_rv_1440",
    "count_view": 0
  },
  {
    "link_thumb": "https://live.staticflickr.com/65535/49892633036_df79ba5358_n.jpg",
    "id_album": "-1185886385",
    "description": "2013_rv_Vauxhall_rv_VXR8_rv_Tourer_rv_V4_rv_1600",
    "title": "2013_rv_Vauxhall_rv_VXR8_rv_Tourer_rv_V4_rv_1600",
    "link_img": "https://live.staticflickr.com/65535/49892633036_8efeba053a_o.jpg",
    "id_image": "2013_rv_Vauxhall_rv_VXR8_rv_Tourer_rv_V4_rv_1600",
    "count_view": 0
  },
  {
    "link_thumb": "https://live.staticflickr.com/65535/48122771213_cfd968a0cf_n.jpg",
    "id_album": "1274920659",
    "description": "Toyota_549215",
    "title": "Toyota_549215",
    "link_img": "https://live.staticflickr.com/65535/48122771213_08fcfe091c_o.jpg",
    "id_image": "Toyota_549215",
    "count_view": 0
  },
  {
    "link_thumb": "https://live.staticflickr.com/65535/49040956316_d49909483b_n.jpg",
    "id_album": "-1428556500",
    "description": "AlfaRomeo_698222",
    "title": "AlfaRomeo_698222",
    "link_img": "https://live.staticflickr.com/65535/49040956316_e261042252_o.jpg",
    "id_image": "AlfaRomeo_698222",
    "count_view": 0
  },
  {
    "link_thumb": "https://live.staticflickr.com/65535/48122107697_a2cebaa567_n.jpg",
    "id_album": "-1217333387",
    "description": "Renault_456220",
    "title": "Renault_456220",
    "link_img": "https://live.staticflickr.com/65535/48122107697_a1cf56feb4_o.jpg",
    "id_image": "Renault_456220",
    "count_view": 0
  },
  {
    "link_thumb": "https://live.staticflickr.com/65535/49889379593_de11a47f4f_n.jpg",
    "id_album": "2135768675",
    "description": "2014_rv_Holden_rv_HSV_rv_Gen_rv_F_rv_V3_rv_1440",
    "title": "2014_rv_Holden_rv_HSV_rv_Gen_rv_F_rv_V3_rv_1440",
    "link_img": "https://live.staticflickr.com/65535/49889379593_019c0ffb46_o.jpg",
    "id_image": "2014_rv_Holden_rv_HSV_rv_Gen_rv_F_rv_V3_rv_1440",
    "count_view": 0
  },
  {
    "link_thumb": "https://live.staticflickr.com/65535/48112924857_1419f969da_n.jpg",
    "id_album": "727633301",
    "description": "BMW_470992",
    "title": "BMW_470992",
    "link_img": "https://live.staticflickr.com/65535/48112924857_85fd3be97c_o.jpg",
    "id_image": "BMW_470992",
    "count_view": 0
  },
  {
    "link_thumb": "https://live.staticflickr.com/65535/48120303796_b73e7faf9b_n.jpg",
    "id_album": "810634050",
    "description": "Nissan_144257",
    "title": "Nissan_144257",
    "link_img": "https://live.staticflickr.com/65535/48120303796_3d8317dc82_o.jpg",
    "id_image": "Nissan_144257",
    "count_view": 0
  },
  {
    "link_thumb": "https://live.staticflickr.com/65535/48119417448_c67ef37226_n.jpg",
    "id_album": "990865885",
    "description": "McLaren_906837",
    "title": "McLaren_906837",
    "link_img": "https://live.staticflickr.com/65535/48119417448_d273e6cfae_o.jpg",
    "id_image": "McLaren_906837",
    "count_view": 0
  },
  {
    "link_thumb": "https://live.staticflickr.com/65535/48123246123_1bb6d80afb_n.jpg",
    "id_album": "-360260466",
    "description": "Yamaha_238726",
    "title": "Yamaha_238726",
    "link_img": "https://live.staticflickr.com/65535/48123246123_eacd1ef815_o.jpg",
    "id_image": "Yamaha_238726",
    "count_view": 0
  },
  {
    "link_thumb": "https://live.staticflickr.com/65535/49888984583_09f6625d1c_n.jpg",
    "id_album": "1828657718",
    "description": "1997_rv_Ferrari_rv_550_rv_Maranello_rv_V9_rv_2000",
    "title": "1997_rv_Ferrari_rv_550_rv_Maranello_rv_V9_rv_2000",
    "link_img": "https://live.staticflickr.com/65535/49888984583_cd51feef01_o.jpg",
    "id_image": "1997_rv_Ferrari_rv_550_rv_Maranello_rv_V9_rv_2000",
    "count_view": 0
  },
  {
    "link_thumb": "https://live.staticflickr.com/65535/49890511062_00f05c2400_n.jpg",
    "id_album": "1957300237",
    "description": "2016_rv_Novitec_rv_Torado_rv_Lamborghini_rv_Huracan_rv_Spyder_rv_V1_rv_2000",
    "title": "2016_rv_Novitec_rv_Torado_rv_Lamborghini_rv_Huracan_rv_Spyder_rv_V1_rv_2000",
    "link_img": "https://live.staticflickr.com/65535/49890511062_178890fc57_o.jpg",
    "id_image": "2016_rv_Novitec_rv_Torado_rv_Lamborghini_rv_Huracan_rv_Spyder_rv_V1_rv_2000",
    "count_view": 0
  },
  {
    "link_thumb": "https://live.staticflickr.com/65535/49889591797_08c4fb8485_n.jpg",
    "id_album": "1603947895",
    "description": "1979_rv_Canepa_rv_BMW_rv_M1_rv_Procar_rv_V6_rv_2000",
    "title": "1979_rv_Canepa_rv_BMW_rv_M1_rv_Procar_rv_V6_rv_2000",
    "link_img": "https://live.staticflickr.com/65535/49889591797_c99ba6a055_o.jpg",
    "id_image": "1979_rv_Canepa_rv_BMW_rv_M1_rv_Procar_rv_V6_rv_2000",
    "count_view": 0
  },
  {
    "link_thumb": "https://live.staticflickr.com/65535/48111982711_d745155117_n.jpg",
    "id_album": "1906325017",
    "description": "Infiniti_883957",
    "title": "Infiniti_883957",
    "link_img": "https://live.staticflickr.com/65535/48111982711_da8d7f9e11_o.jpg",
    "id_image": "Infiniti_883957",
    "count_view": 0
  },
  {
    "link_thumb": "https://live.staticflickr.com/65535/49889337962_489c2e7e1d_n.jpg",
    "id_album": "541293554",
    "description": "2016_rv_Bentley_rv_Bentayga_rv_V3_rv_1600",
    "title": "2016_rv_Bentley_rv_Bentayga_rv_V3_rv_1600",
    "link_img": "https://live.staticflickr.com/65535/49889337962_88475c33b3_o.jpg",
    "id_image": "2016_rv_Bentley_rv_Bentayga_rv_V3_rv_1600",
    "count_view": 0
  },
  {
    "link_thumb": "https://live.staticflickr.com/65535/48118177101_81bab6fecc_n.jpg",
    "id_album": "-625217782",
    "description": "Kia_935846",
    "title": "Kia_935846",
    "link_img": "https://live.staticflickr.com/65535/48118177101_1d418501a5_o.jpg",
    "id_image": "Kia_935846",
    "count_view": 0
  },
  {
    "link_thumb": "https://live.staticflickr.com/65535/48112232237_925dbc3910_n.jpg",
    "id_album": "996272974",
    "description": "AstonMartin_450681",
    "title": "AstonMartin_450681",
    "link_img": "https://live.staticflickr.com/65535/48112232237_346eb35a37_o.jpg",
    "id_image": "AstonMartin_450681",
    "count_view": 0
  },
  {
    "link_thumb": "https://live.staticflickr.com/65535/49112523608_4dd5afc95e_n.jpg",
    "id_album": "-1072797263",
    "description": "AstonMartin_253553_1",
    "title": "AstonMartin_253553_1",
    "link_img": "https://live.staticflickr.com/65535/49112523608_c3d779b7e2_o.jpg",
    "id_image": "AstonMartin_253553_1",
    "count_view": 0
  },
  {
    "link_thumb": "https://live.staticflickr.com/65535/48113766978_bd5144895c_n.jpg",
    "id_album": "-1721545051",
    "description": "Chevrolet_178853",
    "title": "Chevrolet_178853",
    "link_img": "https://live.staticflickr.com/65535/48113766978_c819fcf1dd_o.jpg",
    "id_image": "Chevrolet_178853",
    "count_view": 0
  },
  {
    "link_thumb": "https://live.staticflickr.com/65535/48121081657_b173b7946b_n.jpg",
    "id_album": "-1123679742",
    "description": "Plymouth_298084",
    "title": "Plymouth_298084",
    "link_img": "https://live.staticflickr.com/65535/48121081657_0c303e14ff_o.jpg",
    "id_image": "Plymouth_298084",
    "count_view": 0
  },
  {
    "link_thumb": "https://live.staticflickr.com/65535/49888939936_1ed6fd6a10_n.jpg",
    "id_album": "1342281184",
    "description": "2009_rv_Audi_rv_R15_rv_TDI_rv_V3_rv_1440",
    "title": "2009_rv_Audi_rv_R15_rv_TDI_rv_V3_rv_1440",
    "link_img": "https://live.staticflickr.com/65535/49888939936_58d8784575_o.jpg",
    "id_image": "2009_rv_Audi_rv_R15_rv_TDI_rv_V3_rv_1440",
    "count_view": 0
  },
  {
    "link_thumb": "https://live.staticflickr.com/65535/48119342697_e533c52588_n.jpg",
    "id_album": "898314866",
    "description": "Mazda_990716",
    "title": "Mazda_990716",
    "link_img": "https://live.staticflickr.com/65535/48119342697_19b0a844a0_o.jpg",
    "id_image": "Mazda_990716",
    "count_view": 0
  },
  {
    "link_thumb": "https://live.staticflickr.com/65535/48123279332_2e7407c437_n.jpg",
    "id_album": "1159292543",
    "description": "Volvo_879824",
    "title": "Volvo_879824",
    "link_img": "https://live.staticflickr.com/65535/48123279332_2a1b481ee5_o.jpg",
    "id_image": "Volvo_879824",
    "count_view": 0
  },
  {
    "link_thumb": "https://live.staticflickr.com/65535/49890045316_61e1a5ded0_n.jpg",
    "id_album": "631216607",
    "description": "2011_rv_Kia_rv_Optima_rv_V2_rv_1440",
    "title": "2011_rv_Kia_rv_Optima_rv_V2_rv_1440",
    "link_img": "https://live.staticflickr.com/65535/49890045316_467ce40688_o.jpg",
    "id_image": "2011_rv_Kia_rv_Optima_rv_V2_rv_1440",
    "count_view": 0
  },
  {
    "link_thumb": "https://live.staticflickr.com/65535/48122870506_4fcbfe30ff_n.jpg",
    "id_album": "-150952028",
    "description": "Volkswagen_249982",
    "title": "Volkswagen_249982",
    "link_img": "https://live.staticflickr.com/65535/48122870506_704b584848_o.jpg",
    "id_image": "Volkswagen_249982",
    "count_view": 0
  },
  {
    "link_thumb": "https://live.staticflickr.com/65535/49888864926_2ee3c6c51d_n.jpg",
    "id_album": "-329322037",
    "description": "2020_rv_Aston_rv_Martin_rv_DBS_rv_Superleggera_rv_Volante_rv_V3_rv_2160",
    "title": "2020_rv_Aston_rv_Martin_rv_DBS_rv_Superleggera_rv_Volante_rv_V3_rv_2160",
    "link_img": "https://live.staticflickr.com/65535/49888864926_dcf939db16_o.jpg",
    "id_image": "2020_rv_Aston_rv_Martin_rv_DBS_rv_Superleggera_rv_Volante_rv_V3_rv_2160",
    "count_view": 0
  },
  {
    "link_thumb": "https://live.staticflickr.com/65535/48119014268_68871ee54f_n.jpg",
    "id_album": "-120702461",
    "description": "Lincoln_480046",
    "title": "Lincoln_480046",
    "link_img": "https://live.staticflickr.com/65535/48119014268_33425b6f6d_o.jpg",
    "id_image": "Lincoln_480046",
    "count_view": 0
  },
  {
    "link_thumb": "https://live.staticflickr.com/65535/48117917636_e5b812aecc_n.jpg",
    "id_album": "-354267407",
    "description": "Honda_992731",
    "title": "Honda_992731",
    "link_img": "https://live.staticflickr.com/65535/48117917636_9f6e5cc045_o.jpg",
    "id_image": "Honda_992731",
    "count_view": 0
  },
  {
    "link_thumb": "https://live.staticflickr.com/65535/48115059236_90b2be35a8_n.jpg",
    "id_album": "413141323",
    "description": "Dodge_211317",
    "title": "Dodge_211317",
    "link_img": "https://live.staticflickr.com/65535/48115059236_f485e1bc87_o.jpg",
    "id_image": "Dodge_211317",
    "count_view": 0
  },
  {
    "link_thumb": "https://live.staticflickr.com/65535/49889038917_13d28ceca1_n.jpg",
    "id_album": "504832144",
    "description": "2019_rv_Acura_rv_NSX_rv_V8_rv_2000",
    "title": "2019_rv_Acura_rv_NSX_rv_V8_rv_2000",
    "link_img": "https://live.staticflickr.com/65535/49889038917_d21ec2a993_o.jpg",
    "id_image": "2019_rv_Acura_rv_NSX_rv_V8_rv_2000",
    "count_view": 0
  },
  {
    "link_thumb": "https://live.staticflickr.com/65535/48120079377_e38095e465_n.jpg",
    "id_album": "-1366790033",
    "description": "Mercury_353214",
    "title": "Mercury_353214",
    "link_img": "https://live.staticflickr.com/65535/48120079377_8fedaa7c73_o.jpg",
    "id_image": "Mercury_353214",
    "count_view": 0
  },
  {
    "link_thumb": "https://live.staticflickr.com/65535/48117334078_a8d03f9cb3_n.jpg",
    "id_album": "-1846404630",
    "description": "Ford_540850",
    "title": "Ford_540850",
    "link_img": "https://live.staticflickr.com/65535/48117334078_185a911cfb_o.jpg",
    "id_image": "Ford_540850",
    "count_view": 0
  },
  {
    "link_thumb": "https://live.staticflickr.com/65535/48113924832_d1c12f47d7_n.jpg",
    "id_album": "-1721545051",
    "description": "Chevrolet_218200",
    "title": "Chevrolet_218200",
    "link_img": "https://live.staticflickr.com/65535/48113924832_e608e83e95_o.jpg",
    "id_image": "Chevrolet_218200",
    "count_view": 0
  },
  {
    "link_thumb": "https://live.staticflickr.com/65535/48112822307_203a2b1c4e_n.jpg",
    "id_album": "727633301",
    "description": "BMW_350520",
    "title": "BMW_350520",
    "link_img": "https://live.staticflickr.com/65535/48112822307_9c1e5740ee_o.jpg",
    "id_image": "BMW_350520",
    "count_view": 0
  },
  {
    "link_thumb": "https://live.staticflickr.com/65535/48118493111_418e00189b_n.jpg",
    "id_album": "-2100339805",
    "description": "Lamborghini_478895",
    "title": "Lamborghini_478895",
    "link_img": "https://live.staticflickr.com/65535/48118493111_eb02107d84_o.jpg",
    "id_image": "Lamborghini_478895",
    "count_view": 0
  },
  {
    "link_thumb": "https://live.staticflickr.com/65535/49890710726_058781cfed_n.jpg",
    "id_album": "1310566757",
    "description": "2016_rv_Mercedes_rv_Benz_rv_CLA45_rv_AMG_rv_Shooting_rv_Brake_rv_V1_rv_1600",
    "title": "2016_rv_Mercedes_rv_Benz_rv_CLA45_rv_AMG_rv_Shooting_rv_Brake_rv_V1_rv_1600",
    "link_img": "https://live.staticflickr.com/65535/49890710726_323fc15c22_o.jpg",
    "id_image": "2016_rv_Mercedes_rv_Benz_rv_CLA45_rv_AMG_rv_Shooting_rv_Brake_rv_V1_rv_1600",
    "count_view": 0
  },
  {
    "link_thumb": "https://live.staticflickr.com/65535/49892566137_a991d45781_n.jpg",
    "id_album": "-291190869",
    "description": "2010_rv_Formula1_rv_Renault_rv_R30_rv_V1_rv_1200",
    "title": "2010_rv_Formula1_rv_Renault_rv_R30_rv_V1_rv_1200",
    "link_img": "https://live.staticflickr.com/65535/49892566137_b2a6edcd11_o.jpg",
    "id_image": "2010_rv_Formula1_rv_Renault_rv_R30_rv_V1_rv_1200",
    "count_view": 0
  },
  {
    "link_thumb": "https://live.staticflickr.com/65535/48118061332_06e05a495b_n.jpg",
    "id_album": "-843028318",
    "description": "Jaguar_417498",
    "title": "Jaguar_417498",
    "link_img": "https://live.staticflickr.com/65535/48118061332_babd7ea875_o.jpg",
    "id_image": "Jaguar_417498",
    "count_view": 0
  },
  {
    "link_thumb": "https://live.staticflickr.com/65535/48112656811_469d559174_n.jpg",
    "id_album": "727633301",
    "description": "BMW_254033",
    "title": "BMW_254033",
    "link_img": "https://live.staticflickr.com/65535/48112656811_c13180ca91_o.jpg",
    "id_image": "BMW_254033",
    "count_view": 0
  },
  {
    "link_thumb": "https://live.staticflickr.com/65535/48113350036_f2e9028834_n.jpg",
    "id_album": "1456070666",
    "description": "Bugatti_354132",
    "title": "Bugatti_354132",
    "link_img": "https://live.staticflickr.com/65535/48113350036_9d351792f6_o.jpg",
    "id_image": "Bugatti_354132",
    "count_view": 0
  },
  {
    "link_thumb": "https://live.staticflickr.com/65535/48119307271_cda135b026_n.jpg",
    "id_album": "990865885",
    "description": "McLaren_548869",
    "title": "McLaren_548869",
    "link_img": "https://live.staticflickr.com/65535/48119307271_d5917e526b_o.jpg",
    "id_image": "McLaren_548869",
    "count_view": 0
  },
  {
    "link_thumb": "https://live.staticflickr.com/65535/48122672308_99dd967f13_n.jpg",
    "id_album": "1274920659",
    "description": "Toyota_300265",
    "title": "Toyota_300265",
    "link_img": "https://live.staticflickr.com/65535/48122672308_6dab8713c7_o.jpg",
    "id_image": "Toyota_300265",
    "count_view": 0
  },
  {
    "link_thumb": "https://live.staticflickr.com/65535/48122512716_eb83bb94ac_n.jpg",
    "id_album": "422322641",
    "description": "Subaru_814453",
    "title": "Subaru_814453",
    "link_img": "https://live.staticflickr.com/65535/48122512716_fe2027d0bf_o.jpg",
    "id_image": "Subaru_814453",
    "count_view": 0
  },
  {
    "link_thumb": "https://live.staticflickr.com/65535/49889121763_3aa74825ca_n.jpg",
    "id_album": "1558646706",
    "description": "2013_rv_Dodge_rv_SRT_rv_Viper_rv_GTS_rv_V7_rv_1600",
    "title": "2013_rv_Dodge_rv_SRT_rv_Viper_rv_GTS_rv_V7_rv_1600",
    "link_img": "https://live.staticflickr.com/65535/49889121763_3853f1356d_o.jpg",
    "id_image": "2013_rv_Dodge_rv_SRT_rv_Viper_rv_GTS_rv_V7_rv_1600",
    "count_view": 0
  },
  {
    "link_thumb": "https://live.staticflickr.com/65535/48115369313_e5a4ac7170_n.jpg",
    "id_album": "413141323",
    "description": "Dodge_483315",
    "title": "Dodge_483315",
    "link_img": "https://live.staticflickr.com/65535/48115369313_2fea6c536b_o.jpg",
    "id_image": "Dodge_483315",
    "count_view": 0
  },
  {
    "link_thumb": "https://live.staticflickr.com/65535/48120903321_a999d250e7_n.jpg",
    "id_album": "1965631892",
    "description": "Peugeot_994360",
    "title": "Peugeot_994360",
    "link_img": "https://live.staticflickr.com/65535/48120903321_25abc389ab_o.jpg",
    "id_image": "Peugeot_994360",
    "count_view": 0
  },
  {
    "link_thumb": "https://live.staticflickr.com/65535/48118009146_07a23b6f5f_n.jpg",
    "id_album": "-843028318",
    "description": "Jaguar_792360",
    "title": "Jaguar_792360",
    "link_img": "https://live.staticflickr.com/65535/48118009146_b3bb87e2aa_o.jpg",
    "id_image": "Jaguar_792360",
    "count_view": 0
  },
  {
    "link_thumb": "https://live.staticflickr.com/65535/48123060971_6e44f1c749_n.jpg",
    "id_album": "-150952028",
    "description": "Volkswagen_924086",
    "title": "Volkswagen_924086",
    "link_img": "https://live.staticflickr.com/65535/48123060971_020043273c_o.jpg",
    "id_image": "Volkswagen_924086",
    "count_view": 0
  },
  {
    "link_thumb": "https://live.staticflickr.com/65535/49040911761_dd8dc7c191_n.jpg",
    "id_album": "-1109579119",
    "description": "AlfaRomeo_960405",
    "title": "AlfaRomeo_960405",
    "link_img": "https://live.staticflickr.com/65535/49040911761_246319433b_o.jpg",
    "id_image": "AlfaRomeo_960405",
    "count_view": 0
  },
  {
    "link_thumb": "https://live.staticflickr.com/65535/48120831608_2d9e67a643_n.jpg",
    "id_album": "1952909762",
    "description": "Packard_928238",
    "title": "Packard_928238",
    "link_img": "https://live.staticflickr.com/65535/48120831608_064c163726_o.jpg",
    "id_image": "Packard_928238",
    "count_view": 0
  },
  {
    "link_thumb": "https://live.staticflickr.com/65535/48121025962_0545488804_n.jpg",
    "id_album": "-1123679742",
    "description": "Plymouth_170305",
    "title": "Plymouth_170305",
    "link_img": "https://live.staticflickr.com/65535/48121025962_197eac119c_o.jpg",
    "id_image": "Plymouth_170305",
    "count_view": 0
  },
  {
    "link_thumb": "https://live.staticflickr.com/65535/49889119257_83b7859a05_n.jpg",
    "id_album": "1997504810",
    "description": "2011_rv_Aston_rv_Martin_rv_Vantage_rv_GT4_rv_V3_rv_1536",
    "title": "2011_rv_Aston_rv_Martin_rv_Vantage_rv_GT4_rv_V3_rv_1536",
    "link_img": "https://live.staticflickr.com/65535/49889119257_b0ddc5ecd1_o.jpg",
    "id_image": "2011_rv_Aston_rv_Martin_rv_Vantage_rv_GT4_rv_V3_rv_1536",
    "count_view": 0
  },
  {
    "link_thumb": "https://live.staticflickr.com/65535/48115399451_904294bd2d_n.jpg",
    "id_album": "413141323",
    "description": "Dodge_513577",
    "title": "Dodge_513577",
    "link_img": "https://live.staticflickr.com/65535/48115399451_3f2a865c2a_o.jpg",
    "id_image": "Dodge_513577",
    "count_view": 0
  },
  {
    "link_thumb": "https://live.staticflickr.com/65535/48120098223_1447f9ea68_n.jpg",
    "id_album": "-1116477526",
    "description": "Mitsubishi_484153",
    "title": "Mitsubishi_484153",
    "link_img": "https://live.staticflickr.com/65535/48120098223_78c112d5a1_o.jpg",
    "id_image": "Mitsubishi_484153",
    "count_view": 0
  },
  {
    "link_thumb": "https://live.staticflickr.com/65535/48112336332_2e04deb4f2_n.jpg",
    "id_album": "-15119147",
    "description": "Audi_209726",
    "title": "Audi_209726",
    "link_img": "https://live.staticflickr.com/65535/48112336332_c6a4907363_o.jpg",
    "id_image": "Audi_209726",
    "count_view": 0
  },
  {
    "link_thumb": "https://live.staticflickr.com/65535/48121887038_e29c096a4c_n.jpg",
    "id_album": "-1377335499",
    "description": "RangeRover_251327",
    "title": "RangeRover_251327",
    "link_img": "https://live.staticflickr.com/65535/48121887038_ac1514e6e0_o.jpg",
    "id_image": "RangeRover_251327",
    "count_view": 0
  },
  {
    "link_thumb": "https://live.staticflickr.com/65535/49892445386_a50c720064_n.jpg",
    "id_album": "-822601924",
    "description": "2016_rv_Tesla_rv_Model_rv_3_rv_Prototype_rv_V7_rv_1536",
    "title": "2016_rv_Tesla_rv_Model_rv_3_rv_Prototype_rv_V7_rv_1536",
    "link_img": "https://live.staticflickr.com/65535/49892445386_8da1867394_o.jpg",
    "id_image": "2016_rv_Tesla_rv_Model_rv_3_rv_Prototype_rv_V7_rv_1536",
    "count_view": 0
  },
  {
    "link_thumb": "https://live.staticflickr.com/65535/49891639648_f0ab0bb51c_n.jpg",
    "id_album": "326624747",
    "description": "2019_rv_Porsche_rv_Macan_rv_S_rv_V7_rv_2000",
    "title": "2019_rv_Porsche_rv_Macan_rv_S_rv_V7_rv_2000",
    "link_img": "https://live.staticflickr.com/65535/49891639648_29dfd2bcbc_o.jpg",
    "id_image": "2019_rv_Porsche_rv_Macan_rv_S_rv_V7_rv_2000",
    "count_view": 0
  },
  {
    "link_thumb": "https://live.staticflickr.com/65535/48115920062_737378f54b_n.jpg",
    "id_album": "1364506720",
    "description": "Ferrari_317873",
    "title": "Ferrari_317873",
    "link_img": "https://live.staticflickr.com/65535/48115920062_9a15abf8e0_o.jpg",
    "id_image": "Ferrari_317873",
    "count_view": 0
  },
  {
    "link_thumb": "https://live.staticflickr.com/65535/48112374392_4922595017_n.jpg",
    "id_album": "-15119147",
    "description": "Audi_348830",
    "title": "Audi_348830",
    "link_img": "https://live.staticflickr.com/65535/48112374392_83b9c696e8_o.jpg",
    "id_image": "Audi_348830",
    "count_view": 0
  },
  {
    "link_thumb": "https://live.staticflickr.com/65535/49889853646_e3986a45bb_n.jpg",
    "id_album": "1891022534",
    "description": "1983_rv_Volkswagen_rv_Golf_rv_GTI_rv_Pirelli_rv_V2_rv_1536",
    "title": "1983_rv_Volkswagen_rv_Golf_rv_GTI_rv_Pirelli_rv_V2_rv_1536",
    "link_img": "https://live.staticflickr.com/65535/49889853646_5ca111c180_o.jpg",
    "id_image": "1983_rv_Volkswagen_rv_Golf_rv_GTI_rv_Pirelli_rv_V2_rv_1536",
    "count_view": 0
  },
  {
    "link_thumb": "https://live.staticflickr.com/65535/48113299596_6aa1ae1d29_n.jpg",
    "id_album": "727633301",
    "description": "BMW_994339",
    "title": "BMW_994339",
    "link_img": "https://live.staticflickr.com/65535/48113299596_1b35a44eea_o.jpg",
    "id_image": "BMW_994339",
    "count_view": 0
  },
  {
    "link_thumb": "https://live.staticflickr.com/65535/48114953528_e7f2360229_n.jpg",
    "id_album": "2072464184",
    "description": "Citroen_631084",
    "title": "Citroen_631084",
    "link_img": "https://live.staticflickr.com/65535/48114953528_5d7fe00dea_o.jpg",
    "id_image": "Citroen_631084",
    "count_view": 0
  },
  {
    "link_thumb": "https://live.staticflickr.com/65535/49891620087_094faa3ee0_n.jpg",
    "id_album": "-1209827947",
    "description": "2018_rv_Pogea_rv_Racing_rv_FPlus_rv_Corsa_rv_V6_rv_2000",
    "title": "2018_rv_Pogea_rv_Racing_rv_FPlus_rv_Corsa_rv_V6_rv_2000",
    "link_img": "https://live.staticflickr.com/65535/49891620087_a3857c73ee_o.jpg",
    "id_image": "2018_rv_Pogea_rv_Racing_rv_FPlus_rv_Corsa_rv_V6_rv_2000",
    "count_view": 0
  },
  {
    "link_thumb": "https://live.staticflickr.com/65535/48115650397_a38ccbcc2e_n.jpg",
    "id_album": "594975066",
    "description": "Duesenberg_244462",
    "title": "Duesenberg_244462",
    "link_img": "https://live.staticflickr.com/65535/48115650397_4f4147f6f6_o.jpg",
    "id_image": "Duesenberg_244462",
    "count_view": 0
  },
  {
    "link_thumb": "https://live.staticflickr.com/65535/48117972268_d6819b2b2c_n.jpg",
    "id_album": "427416146",
    "description": "Hummer_192438",
    "title": "Hummer_192438",
    "link_img": "https://live.staticflickr.com/65535/48117972268_ab30aa1714_o.jpg",
    "id_image": "Hummer_192438",
    "count_view": 0
  },
  {
    "link_thumb": "https://live.staticflickr.com/65535/48116561907_7c4e92bd9c_n.jpg",
    "id_album": "-803737857",
    "description": "Fiat_282734",
    "title": "Fiat_282734",
    "link_img": "https://live.staticflickr.com/65535/48116561907_511fb4ef1b_o.jpg",
    "id_image": "Fiat_282734",
    "count_view": 0
  },
  {
    "link_thumb": "https://live.staticflickr.com/65535/48113738512_9f74acf3fe_n.jpg",
    "id_album": "-1721545051",
    "description": "Chevrolet_152917",
    "title": "Chevrolet_152917",
    "link_img": "https://live.staticflickr.com/65535/48113738512_f45654f8ed_o.jpg",
    "id_image": "Chevrolet_152917",
    "count_view": 0
  },
  {
    "link_thumb": "https://live.staticflickr.com/65535/49888799893_029a766f95_n.jpg",
    "id_album": "102624675",
    "description": "2014_rv_Citroen_rv_Divine_rv_DS_rv_Concept_rv_V5_rv_1600",
    "title": "2014_rv_Citroen_rv_Divine_rv_DS_rv_Concept_rv_V5_rv_1600",
    "link_img": "https://live.staticflickr.com/65535/49888799893_3b630b70d7_o.jpg",
    "id_image": "2014_rv_Citroen_rv_Divine_rv_DS_rv_Concept_rv_V5_rv_1600",
    "count_view": 0
  },
  {
    "link_thumb": "https://live.staticflickr.com/65535/48120946031_6cc295a398_n.jpg",
    "id_album": "-1123679742",
    "description": "Plymouth_179105",
    "title": "Plymouth_179105",
    "link_img": "https://live.staticflickr.com/65535/48120946031_5399abd949_o.jpg",
    "id_image": "Plymouth_179105",
    "count_view": 0
  },
  {
    "link_thumb": "https://live.staticflickr.com/65535/49890935766_455870ba9a_n.jpg",
    "id_album": "-353804760",
    "description": "2008_rv_Mini_rv_Cooper_rv_S_rv_John_rv_Cooper_rv_Works_rv_V1_rv_1440",
    "title": "2008_rv_Mini_rv_Cooper_rv_S_rv_John_rv_Cooper_rv_Works_rv_V1_rv_1440",
    "link_img": "https://live.staticflickr.com/65535/49890935766_36ee22efe5_o.jpg",
    "id_image": "2008_rv_Mini_rv_Cooper_rv_S_rv_John_rv_Cooper_rv_Works_rv_V1_rv_1440",
    "count_view": 0
  },
  {
    "link_thumb": "https://live.staticflickr.com/65535/49890317852_9c03f0cced_n.jpg",
    "id_album": "1773051543",
    "description": "2015_rv_Jaguar_rv_XFR_rv_S_rv_Sportbrake_rv_V4_rv_1600",
    "title": "2015_rv_Jaguar_rv_XFR_rv_S_rv_Sportbrake_rv_V4_rv_1600",
    "link_img": "https://live.staticflickr.com/65535/49890317852_6215645af6_o.jpg",
    "id_image": "2015_rv_Jaguar_rv_XFR_rv_S_rv_Sportbrake_rv_V4_rv_1600",
    "count_view": 0
  },
  {
    "link_thumb": "https://live.staticflickr.com/65535/48116808526_04b3e810b4_n.jpg",
    "id_album": "-1846404630",
    "description": "Ford_238075",
    "title": "Ford_238075",
    "link_img": "https://live.staticflickr.com/65535/48116808526_e1843f1c07_o.jpg",
    "id_image": "Ford_238075",
    "count_view": 0
  },
  {
    "link_thumb": "https://live.staticflickr.com/65535/49889757068_3991a201bb_n.jpg",
    "id_album": "1603718572",
    "description": "2013_rv_Lexus_rv_GS_rv_350_rv_F_rv_Sport_rv_V1_rv_1440",
    "title": "2013_rv_Lexus_rv_GS_rv_350_rv_F_rv_Sport_rv_V1_rv_1440",
    "link_img": "https://live.staticflickr.com/65535/49889757068_2cc20133c5_o.jpg",
    "id_image": "2013_rv_Lexus_rv_GS_rv_350_rv_F_rv_Sport_rv_V1_rv_1440",
    "count_view": 0
  },
  {
    "link_thumb": "https://live.staticflickr.com/65535/48113752718_35c0890e9b_n.jpg",
    "id_album": "-1721545051",
    "description": "Chevrolet_173273",
    "title": "Chevrolet_173273",
    "link_img": "https://live.staticflickr.com/65535/48113752718_852fabe1af_o.jpg",
    "id_image": "Chevrolet_173273",
    "count_view": 0
  },
  {
    "link_thumb": "https://live.staticflickr.com/65535/48113823083_899546ec47_n.jpg",
    "id_album": "-1721545051",
    "description": "Chevrolet_204708",
    "title": "Chevrolet_204708",
    "link_img": "https://live.staticflickr.com/65535/48113823083_5ac03778e1_o.jpg",
    "id_image": "Chevrolet_204708",
    "count_view": 0
  },
  {
    "link_thumb": "https://live.staticflickr.com/65535/48115713281_fde82716c8_n.jpg",
    "id_album": "1364506720",
    "description": "Ferrari_272930",
    "title": "Ferrari_272930",
    "link_img": "https://live.staticflickr.com/65535/48115713281_202e71aff8_o.jpg",
    "id_image": "Ferrari_272930",
    "count_view": 0
  },
  {
    "link_thumb": "https://live.staticflickr.com/65535/49889877288_70891b1155_n.jpg",
    "id_album": "-843792943",
    "description": "2018_rv_Lotus_rv_Exige_rv_Sport_rv_410_rv_V6_rv_2160",
    "title": "2018_rv_Lotus_rv_Exige_rv_Sport_rv_410_rv_V6_rv_2160",
    "link_img": "https://live.staticflickr.com/65535/49889877288_8ab62d3aaf_o.jpg",
    "id_image": "2018_rv_Lotus_rv_Exige_rv_Sport_rv_410_rv_V6_rv_2160",
    "count_view": 0
  },
  {
    "link_thumb": "https://live.staticflickr.com/65535/48119713608_59864f21e7_n.jpg",
    "id_album": "-731054311",
    "description": "MercedesBenz_485080",
    "title": "MercedesBenz_485080",
    "link_img": "https://live.staticflickr.com/65535/48119713608_fde981cd41_o.jpg",
    "id_image": "MercedesBenz_485080",
    "count_view": 0
  },
  {
    "link_thumb": "https://live.staticflickr.com/65535/49891833843_38197c171b_n.jpg",
    "id_album": "-839796755",
    "description": "2016_rv_Honda_rv_Civic_rv_Si_rv_Prototype_rv_V3_rv_2000",
    "title": "2016_rv_Honda_rv_Civic_rv_Si_rv_Prototype_rv_V3_rv_2000",
    "link_img": "https://live.staticflickr.com/65535/49891833843_6c71fa7f49_o.jpg",
    "id_image": "2016_rv_Honda_rv_Civic_rv_Si_rv_Prototype_rv_V3_rv_2000",
    "count_view": 0
  },
  {
    "link_thumb": "https://live.staticflickr.com/65535/49892801117_10932c9b84_n.jpg",
    "id_album": "918489258",
    "description": "2020_rv_Toyota_rv_Camry_rv_TRD_rv_V2_rv_2000",
    "title": "2020_rv_Toyota_rv_Camry_rv_TRD_rv_V2_rv_2000",
    "link_img": "https://live.staticflickr.com/65535/49892801117_16501d43b7_o.jpg",
    "id_image": "2020_rv_Toyota_rv_Camry_rv_TRD_rv_V2_rv_2000",
    "count_view": 0
  },
  {
    "link_thumb": "https://live.staticflickr.com/65535/48121070808_bcb40654c0_n.jpg",
    "id_album": "-1123679742",
    "description": "Plymouth_844705",
    "title": "Plymouth_844705",
    "link_img": "https://live.staticflickr.com/65535/48121070808_7e906d4b46_o.jpg",
    "id_image": "Plymouth_844705",
    "count_view": 0
  },
  {
    "link_thumb": "https://live.staticflickr.com/65535/48118768706_2ec88b07f9_n.jpg",
    "id_album": "1986285173",
    "description": "Lancia_379898",
    "title": "Lancia_379898",
    "link_img": "https://live.staticflickr.com/65535/48118768706_760476324b_o.jpg",
    "id_image": "Lancia_379898",
    "count_view": 0
  },
  {
    "link_thumb": "https://live.staticflickr.com/65535/49892098263_09de732e51_n.jpg",
    "id_album": "-842876950",
    "description": "2015_rv_Aston_rv_Martin_rv_V8_rv_Vantage_rv_N430_rv_V8_rv_1600",
    "title": "2015_rv_Aston_rv_Martin_rv_V8_rv_Vantage_rv_N430_rv_V8_rv_1600",
    "link_img": "https://live.staticflickr.com/65535/49892098263_fa6c53ea99_o.jpg",
    "id_image": "2015_rv_Aston_rv_Martin_rv_V8_rv_Vantage_rv_N430_rv_V8_rv_1600",
    "count_view": 0
  },
  {
    "link_thumb": "https://live.staticflickr.com/65535/48116487043_255ffa59b5_n.jpg",
    "id_album": "-803737857",
    "description": "Fiat_249629",
    "title": "Fiat_249629",
    "link_img": "https://live.staticflickr.com/65535/48116487043_b05ac925a0_o.jpg",
    "id_image": "Fiat_249629",
    "count_view": 0
  },
  {
    "link_thumb": "https://live.staticflickr.com/65535/48112510682_ba23c36d85_n.jpg",
    "id_album": "-15119147",
    "description": "Audi_844264",
    "title": "Audi_844264",
    "link_img": "https://live.staticflickr.com/65535/48112510682_a34e24527b_o.jpg",
    "id_image": "Audi_844264",
    "count_view": 0
  },
  {
    "link_thumb": "https://live.staticflickr.com/65535/48121978271_08c385580e_n.jpg",
    "id_album": "-1217333387",
    "description": "Renault_257721",
    "title": "Renault_257721",
    "link_img": "https://live.staticflickr.com/65535/48121978271_35027241fd_o.jpg",
    "id_image": "Renault_257721",
    "count_view": 0
  },
  {
    "link_thumb": "https://live.staticflickr.com/65535/48112744641_d0bbd4fb4a_n.jpg",
    "id_album": "727633301",
    "description": "BMW_417611",
    "title": "BMW_417611",
    "link_img": "https://live.staticflickr.com/65535/48112744641_da3cc40c9b_o.jpg",
    "id_image": "BMW_417611",
    "count_view": 0
  },
  {
    "link_thumb": "https://live.staticflickr.com/65535/49889515116_f23a89f161_n.jpg",
    "id_album": "-1257242429",
    "description": "2011_rv_Ferrari_rv_SA_rv_Aperta_rv_V4_rv_2000",
    "title": "2011_rv_Ferrari_rv_SA_rv_Aperta_rv_V4_rv_2000",
    "link_img": "https://live.staticflickr.com/65535/49889515116_f313a98cd4_o.jpg",
    "id_image": "2011_rv_Ferrari_rv_SA_rv_Aperta_rv_V4_rv_2000",
    "count_view": 0
  },
  {
    "link_thumb": "https://live.staticflickr.com/65535/49889513447_04cc993c10_n.jpg",
    "id_album": "-960933088",
    "description": "2012_rv_BMW_rv_Zagato_rv_Coupe_rv_Concept_rv_V11_rv_1440",
    "title": "2012_rv_BMW_rv_Zagato_rv_Coupe_rv_Concept_rv_V11_rv_1440",
    "link_img": "https://live.staticflickr.com/65535/49889513447_7c71921c37_o.jpg",
    "id_image": "2012_rv_BMW_rv_Zagato_rv_Coupe_rv_Concept_rv_V11_rv_1440",
    "count_view": 0
  },
  {
    "link_thumb": "https://live.staticflickr.com/65535/49892931182_a8bf23c42d_n.jpg",
    "id_album": "-842876950",
    "description": "2019_rv_Aston_rv_Martin_rv_Vantage_rv_V5_rv_2000",
    "title": "2019_rv_Aston_rv_Martin_rv_Vantage_rv_V5_rv_2000",
    "link_img": "https://live.staticflickr.com/65535/49892931182_103fa07a36_o.jpg",
    "id_image": "2019_rv_Aston_rv_Martin_rv_Vantage_rv_V5_rv_2000",
    "count_view": 0
  },
  {
    "link_thumb": "https://live.staticflickr.com/65535/48112551242_2bc640e8e5_n.jpg",
    "id_album": "-15119147",
    "description": "Audi_929346",
    "title": "Audi_929346",
    "link_img": "https://live.staticflickr.com/65535/48112551242_e071beca04_o.jpg",
    "id_image": "Audi_929346",
    "count_view": 0
  },
  {
    "link_thumb": "https://live.staticflickr.com/65535/48112710681_c364d522b2_n.jpg",
    "id_album": "727633301",
    "description": "BMW_318254",
    "title": "BMW_318254",
    "link_img": "https://live.staticflickr.com/65535/48112710681_ca6ec4f311_o.jpg",
    "id_image": "BMW_318254",
    "count_view": 0
  },
  {
    "link_thumb": "https://live.staticflickr.com/65535/48119959312_9f88b8eda4_n.jpg",
    "id_album": "-731054311",
    "description": "MercedesBenz_921732",
    "title": "MercedesBenz_921732",
    "link_img": "https://live.staticflickr.com/65535/48119959312_2bfba2b4ff_o.jpg",
    "id_image": "MercedesBenz_921732",
    "count_view": 0
  },
  {
    "link_thumb": "https://live.staticflickr.com/65535/48119838387_39e1969750_n.jpg",
    "id_album": "-731054311",
    "description": "MercedesBenz_709200",
    "title": "MercedesBenz_709200",
    "link_img": "https://live.staticflickr.com/65535/48119838387_3a308041c2_o.jpg",
    "id_image": "MercedesBenz_709200",
    "count_view": 0
  },
  {
    "link_thumb": "https://live.staticflickr.com/65535/49889376248_d16e4b3200_n.jpg",
    "id_album": "159808189",
    "description": "2018_rv_Holden_rv_Time_rv_Attack_rv_Concept_rv_V2_rv_2000",
    "title": "2018_rv_Holden_rv_Time_rv_Attack_rv_Concept_rv_V2_rv_2000",
    "link_img": "https://live.staticflickr.com/65535/49889376248_15b732a36e_o.jpg",
    "id_image": "2018_rv_Holden_rv_Time_rv_Attack_rv_Concept_rv_V2_rv_2000",
    "count_view": 0
  },
  {
    "link_thumb": "https://live.staticflickr.com/65535/48122140658_695b86fb1a_n.jpg",
    "id_album": "1536700661",
    "description": "RollsRoyce_366288",
    "title": "RollsRoyce_366288",
    "link_img": "https://live.staticflickr.com/65535/48122140658_0b3b161698_o.jpg",
    "id_image": "RollsRoyce_366288",
    "count_view": 0
  },
  {
    "link_thumb": "https://live.staticflickr.com/65535/48122622461_be8454328d_n.jpg",
    "id_album": "1274920659",
    "description": "Toyota_251631",
    "title": "Toyota_251631",
    "link_img": "https://live.staticflickr.com/65535/48122622461_b8c425d893_o.jpg",
    "id_image": "Toyota_251631",
    "count_view": 0
  },
  {
    "link_thumb": "https://live.staticflickr.com/65535/48121450728_f583faec6a_n.jpg",
    "id_album": "-1178450892",
    "description": "Porsche_496625",
    "title": "Porsche_496625",
    "link_img": "https://live.staticflickr.com/65535/48121450728_33b5a4999b_o.jpg",
    "id_image": "Porsche_496625",
    "count_view": 0
  },
  {
    "link_thumb": "https://live.staticflickr.com/65535/48116049603_030c6a6c5a_n.jpg",
    "id_album": "1364506720",
    "description": "Ferrari_466703",
    "title": "Ferrari_466703",
    "link_img": "https://live.staticflickr.com/65535/48116049603_49250f74ab_o.jpg",
    "id_image": "Ferrari_466703",
    "count_view": 0
  },
  {
    "link_thumb": "https://live.staticflickr.com/65535/49889191233_9320f744dd_n.jpg",
    "id_album": "1345325637",
    "description": "2012_rv_Ford_rv_Focus_rv_ST_rv_V6_rv_1536",
    "title": "2012_rv_Ford_rv_Focus_rv_ST_rv_V6_rv_1536",
    "link_img": "https://live.staticflickr.com/65535/49889191233_5cd62b1849_o.jpg",
    "id_image": "2012_rv_Ford_rv_Focus_rv_ST_rv_V6_rv_1536",
    "count_view": 0
  },
  {
    "link_thumb": "https://live.staticflickr.com/65535/48111688843_36d29282c1_n.jpg",
    "id_album": "1482519782",
    "description": "Hyundai_216766",
    "title": "Hyundai_216766",
    "link_img": "https://live.staticflickr.com/65535/48111688843_da55be9936_o.jpg",
    "id_image": "Hyundai_216766",
    "count_view": 0
  },
  {
    "link_thumb": "https://live.staticflickr.com/65535/49889785228_fb99b9f975_n.jpg",
    "id_album": "-318595729",
    "description": "2013_rv_Lexus_rv_LS_rv_460_rv_F_rv_Sport_rv_V2_rv_1440",
    "title": "2013_rv_Lexus_rv_LS_rv_460_rv_F_rv_Sport_rv_V2_rv_1440",
    "link_img": "https://live.staticflickr.com/65535/49889785228_f5c91ded5a_o.jpg",
    "id_image": "2013_rv_Lexus_rv_LS_rv_460_rv_F_rv_Sport_rv_V2_rv_1440",
    "count_view": 0
  },
  {
    "link_thumb": "https://live.staticflickr.com/65535/48120570571_6ca44a707c_n.jpg",
    "id_album": "810634050",
    "description": "Nissan_827358",
    "title": "Nissan_827358",
    "link_img": "https://live.staticflickr.com/65535/48120570571_d0f70cef78_o.jpg",
    "id_image": "Nissan_827358",
    "count_view": 0
  },
  {
    "link_thumb": "https://live.staticflickr.com/65535/48114733436_cd880e41b4_n.jpg",
    "id_album": "939606447",
    "description": "Chrysler_190744",
    "title": "Chrysler_190744",
    "link_img": "https://live.staticflickr.com/65535/48114733436_5e0ced8e64_o.jpg",
    "id_image": "Chrysler_190744",
    "count_view": 0
  },
  {
    "link_thumb": "https://live.staticflickr.com/65535/49888931366_26be89189a_n.jpg",
    "id_album": "1171449162",
    "description": "2015_rv_Audi_rv_E_rv_Tron_rv_Quattro_rv_Concept_rv_V2_rv_1600",
    "title": "2015_rv_Audi_rv_E_rv_Tron_rv_Quattro_rv_Concept_rv_V2_rv_1600",
    "link_img": "https://live.staticflickr.com/65535/49888931366_864803a527_o.jpg",
    "id_image": "2015_rv_Audi_rv_E_rv_Tron_rv_Quattro_rv_Concept_rv_V2_rv_1600",
    "count_view": 0
  },
  {
    "link_thumb": "https://live.staticflickr.com/65535/48112834533_37ba9ecb4f_n.jpg",
    "id_album": "727633301",
    "description": "BMW_457632",
    "title": "BMW_457632",
    "link_img": "https://live.staticflickr.com/65535/48112834533_5c8eaa35ce_o.jpg",
    "id_image": "BMW_457632",
    "count_view": 0
  },
  {
    "link_thumb": "https://live.staticflickr.com/65535/48112438957_1f01a264b6_n.jpg",
    "id_album": "-15119147",
    "description": "Audi_479589",
    "title": "Audi_479589",
    "link_img": "https://live.staticflickr.com/65535/48112438957_64074b3321_o.jpg",
    "id_image": "Audi_479589",
    "count_view": 0
  },
  {
    "link_thumb": "https://live.staticflickr.com/65535/49889088081_180c3788ea_n.jpg",
    "id_album": "-1839907869",
    "description": "2015_rv_BMW_rv_M4_rv_GTS_rv_Concept_rv_V1_rv_1600",
    "title": "2015_rv_BMW_rv_M4_rv_GTS_rv_Concept_rv_V1_rv_1600",
    "link_img": "https://live.staticflickr.com/65535/49889088081_2247ed8ac8_o.jpg",
    "id_image": "2015_rv_BMW_rv_M4_rv_GTS_rv_Concept_rv_V1_rv_1600",
    "count_view": 0
  },
  {
    "link_thumb": "https://live.staticflickr.com/65535/48119699181_21765ed6bd_n.jpg",
    "id_album": "-731054311",
    "description": "MercedesBenz_505459",
    "title": "MercedesBenz_505459",
    "link_img": "https://live.staticflickr.com/65535/48119699181_3f49a5d4aa_o.jpg",
    "id_image": "MercedesBenz_505459",
    "count_view": 0
  },
  {
    "link_thumb": "https://live.staticflickr.com/65535/49891582982_3ef2d963b9_n.jpg",
    "id_album": "64749590",
    "description": "1992_rv_Peugeot_rv_905B_rv_V1_rv_1440",
    "title": "1992_rv_Peugeot_rv_905B_rv_V1_rv_1440",
    "link_img": "https://live.staticflickr.com/65535/49891582982_76890b657b_o.jpg",
    "id_image": "1992_rv_Peugeot_rv_905B_rv_V1_rv_1440",
    "count_view": 0
  },
  {
    "link_thumb": "https://live.staticflickr.com/65535/48113087511_e47172faaf_n.jpg",
    "id_album": "727633301",
    "description": "BMW_844157",
    "title": "BMW_844157",
    "link_img": "https://live.staticflickr.com/65535/48113087511_4758131cbb_o.jpg",
    "id_image": "BMW_844157",
    "count_view": 0
  },
  {
    "link_thumb": "https://live.staticflickr.com/65535/48123296552_a8184fccea_n.jpg",
    "id_album": "1159292543",
    "description": "Volvo_924070",
    "title": "Volvo_924070",
    "link_img": "https://live.staticflickr.com/65535/48123296552_5c98a5abd7_o.jpg",
    "id_image": "Volvo_924070",
    "count_view": 0
  },
  {
    "link_thumb": "https://live.staticflickr.com/65535/49889248541_d37c38f767_n.jpg",
    "id_album": "-843794467",
    "description": "2008_rv_Chevrolet_rv_Corvette_rv_V1_rv_1440",
    "title": "2008_rv_Chevrolet_rv_Corvette_rv_V1_rv_1440",
    "link_img": "https://live.staticflickr.com/65535/49889248541_bbc8ef5443_o.jpg",
    "id_image": "2008_rv_Chevrolet_rv_Corvette_rv_V1_rv_1440",
    "count_view": 0
  },
  {
    "link_thumb": "https://live.staticflickr.com/65535/48113493837_365049db78_n.jpg",
    "id_album": "1456070666",
    "description": "Bugatti_491452",
    "title": "Bugatti_491452",
    "link_img": "https://live.staticflickr.com/65535/48113493837_42e6082d60_o.jpg",
    "id_image": "Bugatti_491452",
    "count_view": 0
  },
  {
    "link_thumb": "https://live.staticflickr.com/65535/48119679192_314ce0e805_n.jpg",
    "id_album": "-731054311",
    "description": "MercedesBenz_318906",
    "title": "MercedesBenz_318906",
    "link_img": "https://live.staticflickr.com/65535/48119679192_80c2bd6d7f_o.jpg",
    "id_image": "MercedesBenz_318906",
    "count_view": 0
  },
  {
    "link_thumb": "https://live.staticflickr.com/65535/49888251833_0b59bde18a_n.jpg",
    "id_album": "921059289",
    "description": "2020_rv_Alfa_rv_Romeo_rv_Giulia_rv_Quadrifoglio_rv_V1_rv_2160",
    "title": "2020_rv_Alfa_rv_Romeo_rv_Giulia_rv_Quadrifoglio_rv_V1_rv_2160",
    "link_img": "https://live.staticflickr.com/65535/49888251833_c641674ae1_o.jpg",
    "id_image": "2020_rv_Alfa_rv_Romeo_rv_Giulia_rv_Quadrifoglio_rv_V1_rv_2160",
    "count_view": 0
  },
  {
    "link_thumb": "https://live.staticflickr.com/65535/48118071602_e07dc234bc_n.jpg",
    "id_album": "-843028318",
    "description": "Jaguar_450650",
    "title": "Jaguar_450650",
    "link_img": "https://live.staticflickr.com/65535/48118071602_1751cab868_o.jpg",
    "id_image": "Jaguar_450650",
    "count_view": 0
  },
  {
    "link_thumb": "https://live.staticflickr.com/65535/49890280242_4d5de2f8bc_n.jpg",
    "id_album": "781714354",
    "description": "2013_rv_Jaguar_rv_C_rv_X17_rv_Concept_rv_V2_rv_1600",
    "title": "2013_rv_Jaguar_rv_C_rv_X17_rv_Concept_rv_V2_rv_1600",
    "link_img": "https://live.staticflickr.com/65535/49890280242_8b3405bac3_o.jpg",
    "id_image": "2013_rv_Jaguar_rv_C_rv_X17_rv_Concept_rv_V2_rv_1600",
    "count_view": 0
  },
  {
    "link_thumb": "https://live.staticflickr.com/65535/48116259786_dc2110d22c_n.jpg",
    "id_album": "1364506720",
    "description": "Ferrari_758263",
    "title": "Ferrari_758263",
    "link_img": "https://live.staticflickr.com/65535/48116259786_50b5ee25b3_o.jpg",
    "id_image": "Ferrari_758263",
    "count_view": 0
  },
  {
    "link_thumb": "https://live.staticflickr.com/65535/48118973657_d550efdb24_n.jpg",
    "id_album": "446908717",
    "description": "Lexus_688301",
    "title": "Lexus_688301",
    "link_img": "https://live.staticflickr.com/65535/48118973657_b720877bb7_o.jpg",
    "id_image": "Lexus_688301",
    "count_view": 0
  },
  {
    "link_thumb": "https://live.staticflickr.com/65535/49891299766_e2ef471e18_n.jpg",
    "id_album": "2122916111",
    "description": "1971_rv_Plymouth_rv_Hemi_rv_Barracuda_rv_V2_rv_1600",
    "title": "1971_rv_Plymouth_rv_Hemi_rv_Barracuda_rv_V2_rv_1600",
    "link_img": "https://live.staticflickr.com/65535/49891299766_1dc7b28750_o.jpg",
    "id_image": "1971_rv_Plymouth_rv_Hemi_rv_Barracuda_rv_V2_rv_1600",
    "count_view": 0
  },
  {
    "link_thumb": "https://live.staticflickr.com/65535/49891899173_8906f178ec_n.jpg",
    "id_album": "874272507",
    "description": "2017_rv_Subaru_rv_BRZ_rv_V7_rv_2000",
    "title": "2017_rv_Subaru_rv_BRZ_rv_V7_rv_2000",
    "link_img": "https://live.staticflickr.com/65535/49891899173_759932b6c9_o.jpg",
    "id_image": "2017_rv_Subaru_rv_BRZ_rv_V7_rv_2000",
    "count_view": 0
  },
  {
    "link_thumb": "https://live.staticflickr.com/65535/48123054211_61d70573c6_n.jpg",
    "id_album": "-150952028",
    "description": "Volkswagen_920616",
    "title": "Volkswagen_920616",
    "link_img": "https://live.staticflickr.com/65535/48123054211_0c2c0da94c_o.jpg",
    "id_image": "Volkswagen_920616",
    "count_view": 0
  },
  {
    "link_thumb": "https://live.staticflickr.com/65535/49890248348_a6f2470e1d_n.jpg",
    "id_album": "-534151904",
    "description": "2014_rv_Mercedes_rv_Benz_rv_E_rv_Class_rv_Coupe_rv_V2_rv_1600",
    "title": "2014_rv_Mercedes_rv_Benz_rv_E_rv_Class_rv_Coupe_rv_V2_rv_1600",
    "link_img": "https://live.staticflickr.com/65535/49890248348_0e6914b98f_o.jpg",
    "id_image": "2014_rv_Mercedes_rv_Benz_rv_E_rv_Class_rv_Coupe_rv_V2_rv_1600",
    "count_view": 0
  },
  {
    "link_thumb": "https://live.staticflickr.com/65535/48113999526_c3851d8f48_n.jpg",
    "id_album": "-1721545051",
    "description": "Chevrolet_288967",
    "title": "Chevrolet_288967",
    "link_img": "https://live.staticflickr.com/65535/48113999526_e5ea03b3a9_o.jpg",
    "id_image": "Chevrolet_288967",
    "count_view": 0
  },
  {
    "link_thumb": "https://live.staticflickr.com/65535/49892059613_b62baccf2f_n.jpg",
    "id_album": "-1220388988",
    "description": "2013_rv_Audi_rv_R8_rv_V10_rv_Plus_rv_V9_rv_1440",
    "title": "2013_rv_Audi_rv_R8_rv_V10_rv_Plus_rv_V9_rv_1440",
    "link_img": "https://live.staticflickr.com/65535/49892059613_73a3dd92cd_o.jpg",
    "id_image": "2013_rv_Audi_rv_R8_rv_V10_rv_Plus_rv_V9_rv_1440",
    "count_view": 0
  },
  {
    "link_thumb": "https://live.staticflickr.com/65535/49891094622_dcab5c8490_n.jpg",
    "id_album": "-1381089085",
    "description": "2019_rv_Formula1_rv_Mercedes_rv_AMG_rv_F1_rv_W10_rv_V2_rv_2160",
    "title": "2019_rv_Formula1_rv_Mercedes_rv_AMG_rv_F1_rv_W10_rv_V2_rv_2160",
    "link_img": "https://live.staticflickr.com/65535/49891094622_4824dbc2fb_o.jpg",
    "id_image": "2019_rv_Formula1_rv_Mercedes_rv_AMG_rv_F1_rv_W10_rv_V2_rv_2160",
    "count_view": 0
  },
  {
    "link_thumb": "https://live.staticflickr.com/65535/48119131718_2b55f3ca14_n.jpg",
    "id_album": "697984456",
    "description": "Maserati_552548",
    "title": "Maserati_552548",
    "link_img": "https://live.staticflickr.com/65535/48119131718_fb12ca1e7e_o.jpg",
    "id_image": "Maserati_552548",
    "count_view": 0
  },
  {
    "link_thumb": "https://live.staticflickr.com/65535/48115939423_e0a782afab_n.jpg",
    "id_album": "1364506720",
    "description": "Ferrari_377420",
    "title": "Ferrari_377420",
    "link_img": "https://live.staticflickr.com/65535/48115939423_20f2fd0b03_o.jpg",
    "id_image": "Ferrari_377420",
    "count_view": 0
  },
  {
    "link_thumb": "https://live.staticflickr.com/65535/48118079432_0205a54e06_n.jpg",
    "id_album": "-843028318",
    "description": "Jaguar_549558",
    "title": "Jaguar_549558",
    "link_img": "https://live.staticflickr.com/65535/48118079432_f1a72fe155_o.jpg",
    "id_image": "Jaguar_549558",
    "count_view": 0
  },
  {
    "link_thumb": "https://live.staticflickr.com/65535/49889262341_0f890e8dfb_n.jpg",
    "id_album": "-843860003",
    "description": "2017_rv_Chevrolet_rv_Corvette_rv_Grand_rv_Sport_rv_V10_rv_1600",
    "title": "2017_rv_Chevrolet_rv_Corvette_rv_Grand_rv_Sport_rv_V10_rv_1600",
    "link_img": "https://live.staticflickr.com/65535/49889262341_d15b10e533_o.jpg",
    "id_image": "2017_rv_Chevrolet_rv_Corvette_rv_Grand_rv_Sport_rv_V10_rv_1600",
    "count_view": 0
  },
  {
    "link_thumb": "https://live.staticflickr.com/65535/49889747658_d59c6f4736_n.jpg",
    "id_album": "-1696197176",
    "description": "2009_rv_Lexus_rv_LF_rv_Ch_rv_Compact_rv_Concept_rv_V2_rv_1536",
    "title": "2009_rv_Lexus_rv_LF_rv_Ch_rv_Compact_rv_Concept_rv_V2_rv_1536",
    "link_img": "https://live.staticflickr.com/65535/49889747658_6991bb42b0_o.jpg",
    "id_image": "2009_rv_Lexus_rv_LF_rv_Ch_rv_Compact_rv_Concept_rv_V2_rv_1536",
    "count_view": 0
  },
  {
    "link_thumb": "https://live.staticflickr.com/65535/49890380706_80e6897bec_n.jpg",
    "id_album": "-391278537",
    "description": "2018_rv_Lotus_rv_Evora_rv_GT430_rv_V4_rv_2000",
    "title": "2018_rv_Lotus_rv_Evora_rv_GT430_rv_V4_rv_2000",
    "link_img": "https://live.staticflickr.com/65535/49890380706_7262528731_o.jpg",
    "id_image": "2018_rv_Lotus_rv_Evora_rv_GT430_rv_V4_rv_2000",
    "count_view": 0
  },
  {
    "link_thumb": "https://live.staticflickr.com/65535/48122502811_0f7ccbb470_n.jpg",
    "id_album": "422322641",
    "description": "Subaru_717028",
    "title": "Subaru_717028",
    "link_img": "https://live.staticflickr.com/65535/48122502811_8a3a8378c3_o.jpg",
    "id_image": "Subaru_717028",
    "count_view": 0
  },
  {
    "link_thumb": "https://live.staticflickr.com/65535/48120445193_3ffa3f53b0_n.jpg",
    "id_album": "810634050",
    "description": "Nissan_444413",
    "title": "Nissan_444413",
    "link_img": "https://live.staticflickr.com/65535/48120445193_5ec9695d88_o.jpg",
    "id_image": "Nissan_444413",
    "count_view": 0
  },
  {
    "link_thumb": "https://live.staticflickr.com/65535/48118989893_8f3324760d_n.jpg",
    "id_album": "446908717",
    "description": "Lexus_961887",
    "title": "Lexus_961887",
    "link_img": "https://live.staticflickr.com/65535/48118989893_2019f85234_o.jpg",
    "id_image": "Lexus_961887",
    "count_view": 0
  },
  {
    "link_thumb": "https://live.staticflickr.com/65535/49888352378_9841e1c929_n.jpg",
    "id_album": "2056908578",
    "description": "2011_rv_Aston_rv_Martin_rv_AMR_rv_One_rv_LMP1_rv_V3_rv_1440",
    "title": "2011_rv_Aston_rv_Martin_rv_AMR_rv_One_rv_LMP1_rv_V3_rv_1440",
    "link_img": "https://live.staticflickr.com/65535/49888352378_2de1702e2d_o.jpg",
    "id_image": "2011_rv_Aston_rv_Martin_rv_AMR_rv_One_rv_LMP1_rv_V3_rv_1440",
    "count_view": 0
  },
  {
    "link_thumb": "https://live.staticflickr.com/65535/48115837678_92548122e0_n.jpg",
    "id_album": "1364506720",
    "description": "Ferrari_317799",
    "title": "Ferrari_317799",
    "link_img": "https://live.staticflickr.com/65535/48115837678_06d94d9309_o.jpg",
    "id_image": "Ferrari_317799",
    "count_view": 0
  },
  {
    "link_thumb": "https://live.staticflickr.com/65535/48112692362_81cda4e113_n.jpg",
    "id_album": "2097036181",
    "description": "Bentley_999467",
    "title": "Bentley_999467",
    "link_img": "https://live.staticflickr.com/65535/48112692362_377da350de_o.jpg",
    "id_image": "Bentley_999467",
    "count_view": 0
  },
  {
    "link_thumb": "https://live.staticflickr.com/65535/48119425497_b7b224fb94_n.jpg",
    "id_album": "990865885",
    "description": "McLaren_695754",
    "title": "McLaren_695754",
    "link_img": "https://live.staticflickr.com/65535/48119425497_3d626935ab_o.jpg",
    "id_image": "McLaren_695754",
    "count_view": 0
  },
  {
    "link_thumb": "https://live.staticflickr.com/65535/48122689977_ae7884ddd4_n.jpg",
    "id_album": "1822826527",
    "description": "TeslaMotors_942549",
    "title": "TeslaMotors_942549",
    "link_img": "https://live.staticflickr.com/65535/48122689977_277c780fd1_o.jpg",
    "id_image": "TeslaMotors_942549",
    "count_view": 0
  },
  {
    "link_thumb": "https://live.staticflickr.com/65535/48118877776_37f9dcbaa6_n.jpg",
    "id_album": "446908717",
    "description": "Lexus_543028",
    "title": "Lexus_543028",
    "link_img": "https://live.staticflickr.com/65535/48118877776_c1b6868cbd_o.jpg",
    "id_image": "Lexus_543028",
    "count_view": 0
  },
  {
    "link_thumb": "https://live.staticflickr.com/65535/49889424803_d6d81fd9e1_n.jpg",
    "id_album": "-1565243236",
    "description": "2019_rv_Hyundai_rv_i30_rv_Fastback_rv_N_rv_V2_rv_2000",
    "title": "2019_rv_Hyundai_rv_i30_rv_Fastback_rv_N_rv_V2_rv_2000",
    "link_img": "https://live.staticflickr.com/65535/49889424803_7979a2906e_o.jpg",
    "id_image": "2019_rv_Hyundai_rv_i30_rv_Fastback_rv_N_rv_V2_rv_2000",
    "count_view": 0
  },
  {
    "link_thumb": "https://live.staticflickr.com/65535/49892474987_d4e5a8aa25_n.jpg",
    "id_album": "-1556411575",
    "description": "2015_rv_Puritalia_rv_427_rv_V1_rv_1600",
    "title": "2015_rv_Puritalia_rv_427_rv_V1_rv_1600",
    "link_img": "https://live.staticflickr.com/65535/49892474987_8ff3a96ca8_o.jpg",
    "id_image": "2015_rv_Puritalia_rv_427_rv_V1_rv_1600",
    "count_view": 0
  },
  {
    "link_thumb": "https://live.staticflickr.com/65535/48122851561_c38bbf0860_n.jpg",
    "id_album": "-150952028",
    "description": "Volkswagen_189566",
    "title": "Volkswagen_189566",
    "link_img": "https://live.staticflickr.com/65535/48122851561_e61ce52543_o.jpg",
    "id_image": "Volkswagen_189566",
    "count_view": 0
  },
  {
    "link_thumb": "https://live.staticflickr.com/65535/48119918967_3b53fae877_n.jpg",
    "id_album": "-731054311",
    "description": "MercedesBenz_892739",
    "title": "MercedesBenz_892739",
    "link_img": "https://live.staticflickr.com/65535/48119918967_0fd7be30b4_o.jpg",
    "id_image": "MercedesBenz_892739",
    "count_view": 0
  },
  {
    "link_thumb": "https://live.staticflickr.com/65535/49889492296_f8d2c2b4a2_n.jpg",
    "id_album": "1471706463",
    "description": "2016_rv_Ferrari_rv_488_rv_Spider_rv_V7_rv_1600",
    "title": "2016_rv_Ferrari_rv_488_rv_Spider_rv_V7_rv_1600",
    "link_img": "https://live.staticflickr.com/65535/49889492296_f21f5a3d18_o.jpg",
    "id_image": "2016_rv_Ferrari_rv_488_rv_Spider_rv_V7_rv_1600",
    "count_view": 0
  },
  {
    "link_thumb": "https://live.staticflickr.com/65535/48121259407_fd9e68d441_n.jpg",
    "id_album": "-2099496752",
    "description": "Pontiac_950007",
    "title": "Pontiac_950007",
    "link_img": "https://live.staticflickr.com/65535/48121259407_e5211006a1_o.jpg",
    "id_image": "Pontiac_950007",
    "count_view": 0
  },
  {
    "link_thumb": "https://live.staticflickr.com/65535/48120170691_2f23bb6863_n.jpg",
    "id_album": "666438681",
    "description": "Motorcycles_249654",
    "title": "Motorcycles_249654",
    "link_img": "https://live.staticflickr.com/65535/48120170691_f50a634a11_o.jpg",
    "id_image": "Motorcycles_249654",
    "count_view": 0
  },
  {
    "link_thumb": "https://live.staticflickr.com/65535/49889268356_86b5aec55d_n.jpg",
    "id_album": "-842876963",
    "description": "2020_rv_Chevrolet_rv_Corvette_rv_Stingray_rv_V8_rv_2160",
    "title": "2020_rv_Chevrolet_rv_Corvette_rv_Stingray_rv_V8_rv_2160",
    "link_img": "https://live.staticflickr.com/65535/49889268356_427e5f6880_o.jpg",
    "id_image": "2020_rv_Chevrolet_rv_Corvette_rv_Stingray_rv_V8_rv_2160",
    "count_view": 0
  },
  {
    "link_thumb": "https://live.staticflickr.com/65535/48113474378_4459e35cd4_n.jpg",
    "id_album": "1456070666",
    "description": "Bugatti_848716",
    "title": "Bugatti_848716",
    "link_img": "https://live.staticflickr.com/65535/48113474378_95b9ab75a3_o.jpg",
    "id_image": "Bugatti_848716",
    "count_view": 0
  },
  {
    "link_thumb": "https://live.staticflickr.com/65535/48112361158_b0ffdb2fb9_n.jpg",
    "id_album": "-15119147",
    "description": "Audi_475937",
    "title": "Audi_475937",
    "link_img": "https://live.staticflickr.com/65535/48112361158_e98140cb56_o.jpg",
    "id_image": "Audi_475937",
    "count_view": 0
  },
  {
    "link_thumb": "https://live.staticflickr.com/65535/48116861356_d261c99c66_n.jpg",
    "id_album": "-1846404630",
    "description": "Ford_250922",
    "title": "Ford_250922",
    "link_img": "https://live.staticflickr.com/65535/48116861356_67c30699a1_o.jpg",
    "id_image": "Ford_250922",
    "count_view": 0
  },
  {
    "link_thumb": "https://live.staticflickr.com/65535/48113829427_69849149fe_n.jpg",
    "id_album": "-1721545051",
    "description": "Chevrolet_180380",
    "title": "Chevrolet_180380",
    "link_img": "https://live.staticflickr.com/65535/48113829427_285df5f471_o.jpg",
    "id_image": "Chevrolet_180380",
    "count_view": 0
  },
  {
    "link_thumb": "https://live.staticflickr.com/65535/48112473017_f721e04b0e_n.jpg",
    "id_album": "-15119147",
    "description": "Audi_679538",
    "title": "Audi_679538",
    "link_img": "https://live.staticflickr.com/65535/48112473017_8969920b09_o.jpg",
    "id_image": "Audi_679538",
    "count_view": 0
  },
  {
    "link_thumb": "https://live.staticflickr.com/65535/48122798753_c0de46cbdf_n.jpg",
    "id_album": "1274920659",
    "description": "Toyota_707464",
    "title": "Toyota_707464",
    "link_img": "https://live.staticflickr.com/65535/48122798753_8bf0d09e01_o.jpg",
    "id_image": "Toyota_707464",
    "count_view": 0
  },
  {
    "link_thumb": "https://live.staticflickr.com/65535/48121577386_67a5a4a340_n.jpg",
    "id_album": "-1178450892",
    "description": "Porsche_708628",
    "title": "Porsche_708628",
    "link_img": "https://live.staticflickr.com/65535/48121577386_5bb2c6374d_o.jpg",
    "id_image": "Porsche_708628",
    "count_view": 0
  },
  {
    "link_thumb": "https://live.staticflickr.com/65535/48113633238_ef03697064_n.jpg",
    "id_album": "-680120434",
    "description": "Cadillac_646148",
    "title": "Cadillac_646148",
    "link_img": "https://live.staticflickr.com/65535/48113633238_9a4b079b35_o.jpg",
    "id_image": "Cadillac_646148",
    "count_view": 0
  },
  {
    "link_thumb": "https://live.staticflickr.com/65535/48122904791_38d655575f_n.jpg",
    "id_album": "-150952028",
    "description": "Volkswagen_273851",
    "title": "Volkswagen_273851",
    "link_img": "https://live.staticflickr.com/65535/48122904791_9e3fe158fa_o.jpg",
    "id_image": "Volkswagen_273851",
    "count_view": 0
  },
  {
    "link_thumb": "https://live.staticflickr.com/65535/48118260351_4668807f8c_n.jpg",
    "id_album": "-2100339805",
    "description": "Lamborghini_256256",
    "title": "Lamborghini_256256",
    "link_img": "https://live.staticflickr.com/65535/48118260351_f0b47b8a1c_o.jpg",
    "id_image": "Lamborghini_256256",
    "count_view": 0
  },
  {
    "link_thumb": "https://live.staticflickr.com/65535/49890457156_c54ff96aaa_n.jpg",
    "id_album": "1935587636",
    "description": "2017_rv_Mazda_rv_Vision_rv_Coupe_rv_Concept_rv_V3_rv_2000",
    "title": "2017_rv_Mazda_rv_Vision_rv_Coupe_rv_Concept_rv_V3_rv_2000",
    "link_img": "https://live.staticflickr.com/65535/49890457156_0d5037f4ef_o.jpg",
    "id_image": "2017_rv_Mazda_rv_Vision_rv_Coupe_rv_Concept_rv_V3_rv_2000",
    "count_view": 0
  },
  {
    "link_thumb": "https://live.staticflickr.com/65535/49892744812_2fc6e230bb_n.jpg",
    "id_album": "-992651525",
    "description": "2015_rv_Subaru_rv_WRX_rv_V5_rv_1600",
    "title": "2015_rv_Subaru_rv_WRX_rv_V5_rv_1600",
    "link_img": "https://live.staticflickr.com/65535/49892744812_9458958493_o.jpg",
    "id_image": "2015_rv_Subaru_rv_WRX_rv_V5_rv_1600",
    "count_view": 0
  },
  {
    "link_thumb": "https://live.staticflickr.com/65535/48112014398_57fd3f68a7_n.jpg",
    "id_album": "1906325017",
    "description": "Infiniti_549189",
    "title": "Infiniti_549189",
    "link_img": "https://live.staticflickr.com/65535/48112014398_eccca39839_o.jpg",
    "id_image": "Infiniti_549189",
    "count_view": 0
  },
  {
    "link_thumb": "https://live.staticflickr.com/65535/49890916152_e4bbf4865b_n.jpg",
    "id_album": "1875498083",
    "description": "2020_rv_McLaren_rv_GT_rv_by_rv_MSO_rv_V1_rv_2160",
    "title": "2020_rv_McLaren_rv_GT_rv_by_rv_MSO_rv_V1_rv_2160",
    "link_img": "https://live.staticflickr.com/65535/49890916152_745ac20bef_o.jpg",
    "id_image": "2020_rv_McLaren_rv_GT_rv_by_rv_MSO_rv_V1_rv_2160",
    "count_view": 0
  },
  {
    "link_thumb": "https://live.staticflickr.com/65535/48112932297_bfde7bfd36_n.jpg",
    "id_album": "727633301",
    "description": "BMW_471069",
    "title": "BMW_471069",
    "link_img": "https://live.staticflickr.com/65535/48112932297_f8b81fefaf_o.jpg",
    "id_image": "BMW_471069",
    "count_view": 0
  }
]