[
  {
    "total_img": 0,
    "number_page": 0,
    "title": "Audi TT",
    "tag": "Audi TT,",
    "description": "Audi TT",
    "link_thumb": "https://live.staticflickr.com/65535/49888482563_4833522660_n.jpg",
    "id_album": "857589277",
    "total_view": 88
  }
]