[
  {
    "link_thumb": "https://live.staticflickr.com/65535/49891902863_1e7683863f_n.jpg",
    "id_album": "1416792536",
    "description": "2000_rv_Subaru_rv_Legacy_rv_B4_rv_RS_rv_V1_rv_1440",
    "title": "2000_rv_Subaru_rv_Legacy_rv_B4_rv_RS_rv_V1_rv_1440",
    "link_img": "https://live.staticflickr.com/65535/49891902863_7d049e389a_o.jpg",
    "id_image": "2000_rv_Subaru_rv_Legacy_rv_B4_rv_RS_rv_V1_rv_1440",
    "count_view": 0
  },
  {
    "link_thumb": "https://live.staticflickr.com/65535/49892730492_0675f94ab5_n.jpg",
    "id_album": "1416792536",
    "description": "2000_rv_Subaru_rv_Legacy_rv_B4_rv_RS_rv_V2_rv_1440",
    "title": "2000_rv_Subaru_rv_Legacy_rv_B4_rv_RS_rv_V2_rv_1440",
    "link_img": "https://live.staticflickr.com/65535/49892730492_2841765109_o.jpg",
    "id_image": "2000_rv_Subaru_rv_Legacy_rv_B4_rv_RS_rv_V2_rv_1440",
    "count_view": 0
  },
  {
    "link_thumb": "https://live.staticflickr.com/65535/49892416996_28bb74a6cd_n.jpg",
    "id_album": "1416792536",
    "description": "2000_rv_Subaru_rv_Legacy_rv_B4_rv_RS_rv_V3_rv_1440",
    "title": "2000_rv_Subaru_rv_Legacy_rv_B4_rv_RS_rv_V3_rv_1440",
    "link_img": "https://live.staticflickr.com/65535/49892416996_9e1d0b7237_o.jpg",
    "id_image": "2000_rv_Subaru_rv_Legacy_rv_B4_rv_RS_rv_V3_rv_1440",
    "count_view": 0
  },
  {
    "link_thumb": "https://live.staticflickr.com/65535/49892417116_4a524cbb1c_n.jpg",
    "id_album": "1416792536",
    "description": "2000_rv_Subaru_rv_Legacy_rv_B4_rv_RS_rv_V4_rv_1440",
    "title": "2000_rv_Subaru_rv_Legacy_rv_B4_rv_RS_rv_V4_rv_1440",
    "link_img": "https://live.staticflickr.com/65535/49892417116_520db2da45_o.jpg",
    "id_image": "2000_rv_Subaru_rv_Legacy_rv_B4_rv_RS_rv_V4_rv_1440",
    "count_view": 0
  },
  {
    "link_thumb": "https://live.staticflickr.com/65535/49892417221_b17636420d_n.jpg",
    "id_album": "1416792536",
    "description": "2000_rv_Subaru_rv_Legacy_rv_B4_rv_RS_rv_V5_rv_1440",
    "title": "2000_rv_Subaru_rv_Legacy_rv_B4_rv_RS_rv_V5_rv_1440",
    "link_img": "https://live.staticflickr.com/65535/49892417221_61b5b92e67_o.jpg",
    "id_image": "2000_rv_Subaru_rv_Legacy_rv_B4_rv_RS_rv_V5_rv_1440",
    "count_view": 0
  },
  {
    "link_thumb": "https://live.staticflickr.com/65535/49892417306_20453bdd09_n.jpg",
    "id_album": "1416792536",
    "description": "2000_rv_Subaru_rv_Legacy_rv_B4_rv_RS_rv_V6_rv_1440",
    "title": "2000_rv_Subaru_rv_Legacy_rv_B4_rv_RS_rv_V6_rv_1440",
    "link_img": "https://live.staticflickr.com/65535/49892417306_160c9a2c78_o.jpg",
    "id_image": "2000_rv_Subaru_rv_Legacy_rv_B4_rv_RS_rv_V6_rv_1440",
    "count_view": 0
  },
  {
    "link_thumb": "https://live.staticflickr.com/65535/49891903578_10ccf03a07_n.jpg",
    "id_album": "1416792536",
    "description": "2002_rv_Subaru_rv_Legacy_rv_B4_rv_Blitzen_rv_V1_rv_1440",
    "title": "2002_rv_Subaru_rv_Legacy_rv_B4_rv_Blitzen_rv_V1_rv_1440",
    "link_img": "https://live.staticflickr.com/65535/49891903578_afc717235e_o.jpg",
    "id_image": "2002_rv_Subaru_rv_Legacy_rv_B4_rv_Blitzen_rv_V1_rv_1440",
    "count_view": 0
  },
  {
    "link_thumb": "https://live.staticflickr.com/65535/49892731247_24ddd0ae72_n.jpg",
    "id_album": "1416792536",
    "description": "2002_rv_Subaru_rv_Legacy_rv_B4_rv_Blitzen_rv_V2_rv_1440",
    "title": "2002_rv_Subaru_rv_Legacy_rv_B4_rv_Blitzen_rv_V2_rv_1440",
    "link_img": "https://live.staticflickr.com/65535/49892731247_6f4fa99a50_o.jpg",
    "id_image": "2002_rv_Subaru_rv_Legacy_rv_B4_rv_Blitzen_rv_V2_rv_1440",
    "count_view": 0
  },
  {
    "link_thumb": "https://live.staticflickr.com/65535/49892417801_f07e24283c_n.jpg",
    "id_album": "1416792536",
    "description": "2002_rv_Subaru_rv_Legacy_rv_B4_rv_Blitzen_rv_V3_rv_1440",
    "title": "2002_rv_Subaru_rv_Legacy_rv_B4_rv_Blitzen_rv_V3_rv_1440",
    "link_img": "https://live.staticflickr.com/65535/49892417801_4c6d7d2569_o.jpg",
    "id_image": "2002_rv_Subaru_rv_Legacy_rv_B4_rv_Blitzen_rv_V3_rv_1440",
    "count_view": 0
  },
  {
    "link_thumb": "https://live.staticflickr.com/65535/49892731542_4a91d9cb7f_n.jpg",
    "id_album": "1416792536",
    "description": "2002_rv_Subaru_rv_Legacy_rv_GT_rv_B_rv_Touring_rv_Wagon_rv_V1_rv_1440",
    "title": "2002_rv_Subaru_rv_Legacy_rv_GT_rv_B_rv_Touring_rv_Wagon_rv_V1_rv_1440",
    "link_img": "https://live.staticflickr.com/65535/49892731542_bd55b36f4e_o.jpg",
    "id_image": "2002_rv_Subaru_rv_Legacy_rv_GT_rv_B_rv_Touring_rv_Wagon_rv_V1_rv_1440",
    "count_view": 0
  },
  {
    "link_thumb": "https://live.staticflickr.com/65535/49892418086_0629f00cb8_n.jpg",
    "id_album": "1416792536",
    "description": "2002_rv_Subaru_rv_Legacy_rv_GT_rv_B_rv_Touring_rv_Wagon_rv_V2_rv_1440",
    "title": "2002_rv_Subaru_rv_Legacy_rv_GT_rv_B_rv_Touring_rv_Wagon_rv_V2_rv_1440",
    "link_img": "https://live.staticflickr.com/65535/49892418086_80fbbf5493_o.jpg",
    "id_image": "2002_rv_Subaru_rv_Legacy_rv_GT_rv_B_rv_Touring_rv_Wagon_rv_V2_rv_1440",
    "count_view": 0
  },
  {
    "link_thumb": "https://live.staticflickr.com/65535/49892731837_99c7625e9b_n.jpg",
    "id_album": "1416792536",
    "description": "2002_rv_Subaru_rv_Legacy_rv_GT_rv_B_rv_Touring_rv_Wagon_rv_V3_rv_1440",
    "title": "2002_rv_Subaru_rv_Legacy_rv_GT_rv_B_rv_Touring_rv_Wagon_rv_V3_rv_1440",
    "link_img": "https://live.staticflickr.com/65535/49892731837_dda980a3f7_o.jpg",
    "id_image": "2002_rv_Subaru_rv_Legacy_rv_GT_rv_B_rv_Touring_rv_Wagon_rv_V3_rv_1440",
    "count_view": 0
  },
  {
    "link_thumb": "https://live.staticflickr.com/65535/49892418341_cef51b8566_n.jpg",
    "id_album": "1416792536",
    "description": "2004_rv_Subaru_rv_Legacy_rv_B4_rv_V1_rv_1440",
    "title": "2004_rv_Subaru_rv_Legacy_rv_B4_rv_V1_rv_1440",
    "link_img": "https://live.staticflickr.com/65535/49892418341_f7ccc103f2_o.jpg",
    "id_image": "2004_rv_Subaru_rv_Legacy_rv_B4_rv_V1_rv_1440",
    "count_view": 0
  },
  {
    "link_thumb": "https://live.staticflickr.com/65535/49891904643_96ea0abe21_n.jpg",
    "id_album": "1416792536",
    "description": "2004_rv_Subaru_rv_Legacy_rv_B4_rv_V2_rv_1440",
    "title": "2004_rv_Subaru_rv_Legacy_rv_B4_rv_V2_rv_1440",
    "link_img": "https://live.staticflickr.com/65535/49891904643_cabce86a3d_o.jpg",
    "id_image": "2004_rv_Subaru_rv_Legacy_rv_B4_rv_V2_rv_1440",
    "count_view": 0
  },
  {
    "link_thumb": "https://live.staticflickr.com/65535/49892418636_61d2527fc2_n.jpg",
    "id_album": "1416792536",
    "description": "2004_rv_Subaru_rv_Legacy_rv_B4_rv_V3_rv_1440",
    "title": "2004_rv_Subaru_rv_Legacy_rv_B4_rv_V3_rv_1440",
    "link_img": "https://live.staticflickr.com/65535/49892418636_1312c6b4f1_o.jpg",
    "id_image": "2004_rv_Subaru_rv_Legacy_rv_B4_rv_V3_rv_1440",
    "count_view": 0
  },
  {
    "link_thumb": "https://live.staticflickr.com/65535/49892732462_025db381f3_n.jpg",
    "id_album": "1416792536",
    "description": "2004_rv_Subaru_rv_Legacy_rv_B4_rv_V4_rv_1440",
    "title": "2004_rv_Subaru_rv_Legacy_rv_B4_rv_V4_rv_1440",
    "link_img": "https://live.staticflickr.com/65535/49892732462_945e97a034_o.jpg",
    "id_image": "2004_rv_Subaru_rv_Legacy_rv_B4_rv_V4_rv_1440",
    "count_view": 0
  },
  {
    "link_thumb": "https://live.staticflickr.com/65535/49892419036_7f13fff5ab_n.jpg",
    "id_album": "1416792536",
    "description": "2004_rv_Subaru_rv_Legacy_rv_B4_rv_V5_rv_1440",
    "title": "2004_rv_Subaru_rv_Legacy_rv_B4_rv_V5_rv_1440",
    "link_img": "https://live.staticflickr.com/65535/49892419036_9e3cc46d65_o.jpg",
    "id_image": "2004_rv_Subaru_rv_Legacy_rv_B4_rv_V5_rv_1440",
    "count_view": 0
  },
  {
    "link_thumb": "https://live.staticflickr.com/65535/49892419191_17ceb482b0_n.jpg",
    "id_album": "1416792536",
    "description": "2004_rv_Subaru_rv_Legacy_rv_B4_rv_V6_rv_1440",
    "title": "2004_rv_Subaru_rv_Legacy_rv_B4_rv_V6_rv_1440",
    "link_img": "https://live.staticflickr.com/65535/49892419191_4fd1ab768c_o.jpg",
    "id_image": "2004_rv_Subaru_rv_Legacy_rv_B4_rv_V6_rv_1440",
    "count_view": 0
  },
  {
    "link_thumb": "https://live.staticflickr.com/65535/49891905358_eed810cb25_n.jpg",
    "id_album": "1416792536",
    "description": "2005_rv_Subaru_rv_Legacy_rv_GT_rv_B4_rv_Spec_rv_B_rv_V1_rv_1440",
    "title": "2005_rv_Subaru_rv_Legacy_rv_GT_rv_B4_rv_Spec_rv_B_rv_V1_rv_1440",
    "link_img": "https://live.staticflickr.com/65535/49891905358_655d86dffe_o.jpg",
    "id_image": "2005_rv_Subaru_rv_Legacy_rv_GT_rv_B4_rv_Spec_rv_B_rv_V1_rv_1440",
    "count_view": 0
  },
  {
    "link_thumb": "https://live.staticflickr.com/65535/49891905468_6610e140c1_n.jpg",
    "id_album": "1416792536",
    "description": "2005_rv_Subaru_rv_Legacy_rv_GT_rv_B4_rv_Spec_rv_B_rv_V2_rv_1440",
    "title": "2005_rv_Subaru_rv_Legacy_rv_GT_rv_B4_rv_Spec_rv_B_rv_V2_rv_1440",
    "link_img": "https://live.staticflickr.com/65535/49891905468_885aaf313c_o.jpg",
    "id_image": "2005_rv_Subaru_rv_Legacy_rv_GT_rv_B4_rv_Spec_rv_B_rv_V2_rv_1440",
    "count_view": 0
  },
  {
    "link_thumb": "https://live.staticflickr.com/65535/49892733187_a837850434_n.jpg",
    "id_album": "1416792536",
    "description": "2005_rv_Subaru_rv_Legacy_rv_GT_rv_B4_rv_Spec_rv_B_rv_V3_rv_1440",
    "title": "2005_rv_Subaru_rv_Legacy_rv_GT_rv_B4_rv_Spec_rv_B_rv_V3_rv_1440",
    "link_img": "https://live.staticflickr.com/65535/49892733187_9031f984a9_o.jpg",
    "id_image": "2005_rv_Subaru_rv_Legacy_rv_GT_rv_B4_rv_Spec_rv_B_rv_V3_rv_1440",
    "count_view": 0
  },
  {
    "link_thumb": "https://live.staticflickr.com/65535/49892733442_926680caff_n.jpg",
    "id_album": "1416792536",
    "description": "2006_rv_Subaru_rv_Legacy_rv_B4_rv_V1_rv_1440",
    "title": "2006_rv_Subaru_rv_Legacy_rv_B4_rv_V1_rv_1440",
    "link_img": "https://live.staticflickr.com/65535/49892733442_97a35e1f8e_o.jpg",
    "id_image": "2006_rv_Subaru_rv_Legacy_rv_B4_rv_V1_rv_1440",
    "count_view": 0
  },
  {
    "link_thumb": "https://live.staticflickr.com/65535/49892733607_c54b747fb9_n.jpg",
    "id_album": "1416792536",
    "description": "2006_rv_Subaru_rv_Legacy_rv_B4_rv_V2_rv_1440",
    "title": "2006_rv_Subaru_rv_Legacy_rv_B4_rv_V2_rv_1440",
    "link_img": "https://live.staticflickr.com/65535/49892733607_329cc9b11e_o.jpg",
    "id_image": "2006_rv_Subaru_rv_Legacy_rv_B4_rv_V2_rv_1440",
    "count_view": 0
  },
  {
    "link_thumb": "https://live.staticflickr.com/65535/49892420091_9a73de2c17_n.jpg",
    "id_album": "1416792536",
    "description": "2006_rv_Subaru_rv_Legacy_rv_B4_rv_V3_rv_1440",
    "title": "2006_rv_Subaru_rv_Legacy_rv_B4_rv_V3_rv_1440",
    "link_img": "https://live.staticflickr.com/65535/49892420091_68d43fea8a_o.jpg",
    "id_image": "2006_rv_Subaru_rv_Legacy_rv_B4_rv_V3_rv_1440",
    "count_view": 0
  },
  {
    "link_thumb": "https://live.staticflickr.com/65535/49891906318_36d107321b_n.jpg",
    "id_album": "1416792536",
    "description": "2006_rv_Subaru_rv_Legacy_rv_B4_rv_V4_rv_1440",
    "title": "2006_rv_Subaru_rv_Legacy_rv_B4_rv_V4_rv_1440",
    "link_img": "https://live.staticflickr.com/65535/49891906318_45993d3bf5_o.jpg",
    "id_image": "2006_rv_Subaru_rv_Legacy_rv_B4_rv_V4_rv_1440",
    "count_view": 0
  },
  {
    "link_thumb": "https://live.staticflickr.com/65535/49892420321_085c0cac44_n.jpg",
    "id_album": "1416792536",
    "description": "2006_rv_Subaru_rv_Legacy_rv_STI_rv_V1_rv_1440",
    "title": "2006_rv_Subaru_rv_Legacy_rv_STI_rv_V1_rv_1440",
    "link_img": "https://live.staticflickr.com/65535/49892420321_ee140352df_o.jpg",
    "id_image": "2006_rv_Subaru_rv_Legacy_rv_STI_rv_V1_rv_1440",
    "count_view": 0
  },
  {
    "link_thumb": "https://live.staticflickr.com/65535/49891906608_7900c4f9b1_n.jpg",
    "id_album": "1416792536",
    "description": "2006_rv_Subaru_rv_Legacy_rv_STI_rv_V2_rv_1440",
    "title": "2006_rv_Subaru_rv_Legacy_rv_STI_rv_V2_rv_1440",
    "link_img": "https://live.staticflickr.com/65535/49891906608_3683feaa2f_o.jpg",
    "id_image": "2006_rv_Subaru_rv_Legacy_rv_STI_rv_V2_rv_1440",
    "count_view": 0
  },
  {
    "link_thumb": "https://live.staticflickr.com/65535/49892420631_2424913c2d_n.jpg",
    "id_album": "1416792536",
    "description": "2006_rv_Subaru_rv_Legacy_rv_STI_rv_V3_rv_1440",
    "title": "2006_rv_Subaru_rv_Legacy_rv_STI_rv_V3_rv_1440",
    "link_img": "https://live.staticflickr.com/65535/49892420631_ba7ac1497a_o.jpg",
    "id_image": "2006_rv_Subaru_rv_Legacy_rv_STI_rv_V3_rv_1440",
    "count_view": 0
  },
  {
    "link_thumb": "https://live.staticflickr.com/65535/49891906918_06c94af587_n.jpg",
    "id_album": "1416792536",
    "description": "2006_rv_Subaru_rv_Legacy_rv_STI_rv_V4_rv_1440",
    "title": "2006_rv_Subaru_rv_Legacy_rv_STI_rv_V4_rv_1440",
    "link_img": "https://live.staticflickr.com/65535/49891906918_743a9f6e20_o.jpg",
    "id_image": "2006_rv_Subaru_rv_Legacy_rv_STI_rv_V4_rv_1440",
    "count_view": 0
  },
  {
    "link_thumb": "https://live.staticflickr.com/65535/49892734617_c58635c680_n.jpg",
    "id_album": "1416792536",
    "description": "2006_rv_Subaru_rv_Legacy_rv_STI_rv_V5_rv_1440",
    "title": "2006_rv_Subaru_rv_Legacy_rv_STI_rv_V5_rv_1440",
    "link_img": "https://live.staticflickr.com/65535/49892734617_b37ce3772c_o.jpg",
    "id_image": "2006_rv_Subaru_rv_Legacy_rv_STI_rv_V5_rv_1440",
    "count_view": 0
  },
  {
    "link_thumb": "https://live.staticflickr.com/65535/49892734822_8cd0ae808c_n.jpg",
    "id_album": "1416792536",
    "description": "2006_rv_Subaru_rv_Legacy_rv_STI_rv_V6_rv_1600",
    "title": "2006_rv_Subaru_rv_Legacy_rv_STI_rv_V6_rv_1600",
    "link_img": "https://live.staticflickr.com/65535/49892734822_fa603fd02f_o.jpg",
    "id_image": "2006_rv_Subaru_rv_Legacy_rv_STI_rv_V6_rv_1600",
    "count_view": 0
  },
  {
    "link_thumb": "https://live.staticflickr.com/65535/49892421286_1971199c65_n.jpg",
    "id_album": "1416792536",
    "description": "2007_rv_Subaru_rv_Legacy_rv_GT_rv_Touring_rv_Wagon_rv_V1_rv_1440",
    "title": "2007_rv_Subaru_rv_Legacy_rv_GT_rv_Touring_rv_Wagon_rv_V1_rv_1440",
    "link_img": "https://live.staticflickr.com/65535/49892421286_497f322185_o.jpg",
    "id_image": "2007_rv_Subaru_rv_Legacy_rv_GT_rv_Touring_rv_Wagon_rv_V1_rv_1440",
    "count_view": 0
  },
  {
    "link_thumb": "https://live.staticflickr.com/65535/49892421516_8c94eeb90b_n.jpg",
    "id_album": "1416792536",
    "description": "2007_rv_Subaru_rv_Legacy_rv_GT_rv_Touring_rv_Wagon_rv_V2_rv_1440",
    "title": "2007_rv_Subaru_rv_Legacy_rv_GT_rv_Touring_rv_Wagon_rv_V2_rv_1440",
    "link_img": "https://live.staticflickr.com/65535/49892421516_d5298ff6f7_o.jpg",
    "id_image": "2007_rv_Subaru_rv_Legacy_rv_GT_rv_Touring_rv_Wagon_rv_V2_rv_1440",
    "count_view": 0
  },
  {
    "link_thumb": "https://live.staticflickr.com/65535/49892735442_c1cae5b499_n.jpg",
    "id_album": "1416792536",
    "description": "2007_rv_Subaru_rv_Legacy_rv_GT_rv_Touring_rv_Wagon_rv_V3_rv_1440",
    "title": "2007_rv_Subaru_rv_Legacy_rv_GT_rv_Touring_rv_Wagon_rv_V3_rv_1440",
    "link_img": "https://live.staticflickr.com/65535/49892735442_2dea34ae75_o.jpg",
    "id_image": "2007_rv_Subaru_rv_Legacy_rv_GT_rv_Touring_rv_Wagon_rv_V3_rv_1440",
    "count_view": 0
  },
  {
    "link_thumb": "https://live.staticflickr.com/65535/49892421846_21fa27ce6a_n.jpg",
    "id_album": "1416792536",
    "description": "2008_rv_Subaru_rv_Legacy_rv_STI_rv_S402_rv_V1_rv_1440",
    "title": "2008_rv_Subaru_rv_Legacy_rv_STI_rv_S402_rv_V1_rv_1440",
    "link_img": "https://live.staticflickr.com/65535/49892421846_56e8fbefdf_o.jpg",
    "id_image": "2008_rv_Subaru_rv_Legacy_rv_STI_rv_S402_rv_V1_rv_1440",
    "count_view": 0
  },
  {
    "link_thumb": "https://live.staticflickr.com/65535/49892422041_ed9c2f63d5_n.jpg",
    "id_album": "1416792536",
    "description": "2008_rv_Subaru_rv_Legacy_rv_STI_rv_S402_rv_V2_rv_1440",
    "title": "2008_rv_Subaru_rv_Legacy_rv_STI_rv_S402_rv_V2_rv_1440",
    "link_img": "https://live.staticflickr.com/65535/49892422041_a9d2042f3b_o.jpg",
    "id_image": "2008_rv_Subaru_rv_Legacy_rv_STI_rv_S402_rv_V2_rv_1440",
    "count_view": 0
  },
  {
    "link_thumb": "https://live.staticflickr.com/65535/49892422211_0d44cd8be6_n.jpg",
    "id_album": "1416792536",
    "description": "2010_rv_Subaru_rv_Legacy_rv_B4_rv_tS_rv_V1_rv_1600",
    "title": "2010_rv_Subaru_rv_Legacy_rv_B4_rv_tS_rv_V1_rv_1600",
    "link_img": "https://live.staticflickr.com/65535/49892422211_8a1725686e_o.jpg",
    "id_image": "2010_rv_Subaru_rv_Legacy_rv_B4_rv_tS_rv_V1_rv_1600",
    "count_view": 0
  },
  {
    "link_thumb": "https://live.staticflickr.com/65535/49892736057_a038fb154d_n.jpg",
    "id_album": "1416792536",
    "description": "2010_rv_Subaru_rv_Legacy_rv_B4_rv_tS_rv_V2_rv_1600",
    "title": "2010_rv_Subaru_rv_Legacy_rv_B4_rv_tS_rv_V2_rv_1600",
    "link_img": "https://live.staticflickr.com/65535/49892736057_e73751d314_o.jpg",
    "id_image": "2010_rv_Subaru_rv_Legacy_rv_B4_rv_tS_rv_V2_rv_1600",
    "count_view": 0
  },
  {
    "link_thumb": "https://live.staticflickr.com/65535/49892736487_a42320d0bc_n.jpg",
    "id_album": "1416792536",
    "description": "2010_rv_Subaru_rv_Legacy_rv_B4_rv_tS_rv_V4_rv_1600",
    "title": "2010_rv_Subaru_rv_Legacy_rv_B4_rv_tS_rv_V4_rv_1600",
    "link_img": "https://live.staticflickr.com/65535/49892736487_4ae27faa75_o.jpg",
    "id_image": "2010_rv_Subaru_rv_Legacy_rv_B4_rv_tS_rv_V4_rv_1600",
    "count_view": 0
  },
  {
    "link_thumb": "https://live.staticflickr.com/65535/49892423016_1b73c935fb_n.jpg",
    "id_album": "1416792536",
    "description": "2010_rv_Subaru_rv_Legacy_rv_B4_rv_tS_rv_V5_rv_1600",
    "title": "2010_rv_Subaru_rv_Legacy_rv_B4_rv_tS_rv_V5_rv_1600",
    "link_img": "https://live.staticflickr.com/65535/49892423016_17318fc4cc_o.jpg",
    "id_image": "2010_rv_Subaru_rv_Legacy_rv_B4_rv_tS_rv_V5_rv_1600",
    "count_view": 0
  },
  {
    "link_thumb": "https://live.staticflickr.com/65535/49892423201_90ff43a843_n.jpg",
    "id_album": "1416792536",
    "description": "2010_rv_Subaru_rv_Legacy_rv_B4_rv_tS_rv_V6_rv_1600",
    "title": "2010_rv_Subaru_rv_Legacy_rv_B4_rv_tS_rv_V6_rv_1600",
    "link_img": "https://live.staticflickr.com/65535/49892423201_82876f7d63_o.jpg",
    "id_image": "2010_rv_Subaru_rv_Legacy_rv_B4_rv_tS_rv_V6_rv_1600",
    "count_view": 0
  },
  {
    "link_thumb": "https://live.staticflickr.com/65535/49891909378_4aa35e57b8_n.jpg",
    "id_album": "1416792536",
    "description": "2013_rv_Subaru_rv_Legacy_rv_Concept_rv_V1_rv_1600",
    "title": "2013_rv_Subaru_rv_Legacy_rv_Concept_rv_V1_rv_1600",
    "link_img": "https://live.staticflickr.com/65535/49891909378_ba2ea47720_o.jpg",
    "id_image": "2013_rv_Subaru_rv_Legacy_rv_Concept_rv_V1_rv_1600",
    "count_view": 0
  },
  {
    "link_thumb": "https://live.staticflickr.com/65535/49891909528_8cd047a28f_n.jpg",
    "id_album": "1416792536",
    "description": "2013_rv_Subaru_rv_Legacy_rv_Concept_rv_V2_rv_1600",
    "title": "2013_rv_Subaru_rv_Legacy_rv_Concept_rv_V2_rv_1600",
    "link_img": "https://live.staticflickr.com/65535/49891909528_1007e27e43_o.jpg",
    "id_image": "2013_rv_Subaru_rv_Legacy_rv_Concept_rv_V2_rv_1600",
    "count_view": 0
  },
  {
    "link_thumb": "https://live.staticflickr.com/65535/49891909798_736e249eca_n.jpg",
    "id_album": "1416792536",
    "description": "2013_rv_Subaru_rv_Legacy_rv_Concept_rv_V3_rv_1600",
    "title": "2013_rv_Subaru_rv_Legacy_rv_Concept_rv_V3_rv_1600",
    "link_img": "https://live.staticflickr.com/65535/49891909798_d3d9523ef1_o.jpg",
    "id_image": "2013_rv_Subaru_rv_Legacy_rv_Concept_rv_V3_rv_1600",
    "count_view": 0
  }
]