[
  {
    "link_thumb": "https://live.staticflickr.com/65535/48119318948_611bb1caf7_n.jpg",
    "id_album": "990865885",
    "description": "McLaren_494634",
    "title": "McLaren_494634",
    "link_img": "https://live.staticflickr.com/65535/48119318948_757f9e23f5_o.jpg",
    "id_image": "McLaren_494634",
    "count_view": 0
  },
  {
    "link_thumb": "https://live.staticflickr.com/65535/48119378422_d0dcf0c57d_n.jpg",
    "id_album": "990865885",
    "description": "McLaren_494635",
    "title": "McLaren_494635",
    "link_img": "https://live.staticflickr.com/65535/48119378422_5e99014703_o.jpg",
    "id_image": "McLaren_494635",
    "count_view": 0
  },
  {
    "link_thumb": "https://live.staticflickr.com/65535/48119319283_36ce36c811_n.jpg",
    "id_album": "990865885",
    "description": "McLaren_494636",
    "title": "McLaren_494636",
    "link_img": "https://live.staticflickr.com/65535/48119319283_c7ae08cd6f_o.jpg",
    "id_image": "McLaren_494636",
    "count_view": 0
  },
  {
    "link_thumb": "https://live.staticflickr.com/65535/48119378692_7f5e7c7967_n.jpg",
    "id_album": "990865885",
    "description": "McLaren_494637",
    "title": "McLaren_494637",
    "link_img": "https://live.staticflickr.com/65535/48119378692_47b86b22c6_o.jpg",
    "id_image": "McLaren_494637",
    "count_view": 0
  },
  {
    "link_thumb": "https://live.staticflickr.com/65535/48119319493_f93e7a86fd_n.jpg",
    "id_album": "990865885",
    "description": "McLaren_494639",
    "title": "McLaren_494639",
    "link_img": "https://live.staticflickr.com/65535/48119319493_3d86ff6ce2_o.jpg",
    "id_image": "McLaren_494639",
    "count_view": 0
  },
  {
    "link_thumb": "https://live.staticflickr.com/65535/48119319638_6e9db2a58c_n.jpg",
    "id_album": "990865885",
    "description": "McLaren_494640",
    "title": "McLaren_494640",
    "link_img": "https://live.staticflickr.com/65535/48119319638_b871caaf24_o.jpg",
    "id_image": "McLaren_494640",
    "count_view": 0
  },
  {
    "link_thumb": "https://live.staticflickr.com/65535/48119319813_8e78fe11e6_n.jpg",
    "id_album": "990865885",
    "description": "McLaren_494641",
    "title": "McLaren_494641",
    "link_img": "https://live.staticflickr.com/65535/48119319813_15024ee82d_o.jpg",
    "id_image": "McLaren_494641",
    "count_view": 0
  },
  {
    "link_thumb": "https://live.staticflickr.com/65535/48119319988_c30432e969_n.jpg",
    "id_album": "990865885",
    "description": "McLaren_494642",
    "title": "McLaren_494642",
    "link_img": "https://live.staticflickr.com/65535/48119319988_2be29ae26b_o.jpg",
    "id_image": "McLaren_494642",
    "count_view": 0
  },
  {
    "link_thumb": "https://live.staticflickr.com/65535/48119320233_2868b2f739_n.jpg",
    "id_album": "990865885",
    "description": "McLaren_494643",
    "title": "McLaren_494643",
    "link_img": "https://live.staticflickr.com/65535/48119320233_fe922fb94d_o.jpg",
    "id_image": "McLaren_494643",
    "count_view": 0
  },
  {
    "link_thumb": "https://live.staticflickr.com/65535/48119287051_7e2dc25e71_n.jpg",
    "id_album": "990865885",
    "description": "McLaren_494644",
    "title": "McLaren_494644",
    "link_img": "https://live.staticflickr.com/65535/48119287051_a0218ac435_o.jpg",
    "id_image": "McLaren_494644",
    "count_view": 0
  },
  {
    "link_thumb": "https://live.staticflickr.com/65535/48119320633_5366f2d13a_n.jpg",
    "id_album": "990865885",
    "description": "McLaren_494645",
    "title": "McLaren_494645",
    "link_img": "https://live.staticflickr.com/65535/48119320633_1936de8f40_o.jpg",
    "id_image": "McLaren_494645",
    "count_view": 0
  },
  {
    "link_thumb": "https://live.staticflickr.com/65535/48119287421_8b1b277722_n.jpg",
    "id_album": "990865885",
    "description": "McLaren_494646",
    "title": "McLaren_494646",
    "link_img": "https://live.staticflickr.com/65535/48119287421_156de8b48c_o.jpg",
    "id_image": "McLaren_494646",
    "count_view": 0
  },
  {
    "link_thumb": "https://live.staticflickr.com/65535/48119380267_0171547980_n.jpg",
    "id_album": "990865885",
    "description": "McLaren_494647",
    "title": "McLaren_494647",
    "link_img": "https://live.staticflickr.com/65535/48119380267_76b9732817_o.jpg",
    "id_image": "McLaren_494647",
    "count_view": 0
  },
  {
    "link_thumb": "https://live.staticflickr.com/65535/48119380447_78c69a18a6_n.jpg",
    "id_album": "990865885",
    "description": "McLaren_494648",
    "title": "McLaren_494648",
    "link_img": "https://live.staticflickr.com/65535/48119380447_a0b32f318a_o.jpg",
    "id_image": "McLaren_494648",
    "count_view": 0
  },
  {
    "link_thumb": "https://live.staticflickr.com/65535/48119321503_2fcf33f856_n.jpg",
    "id_album": "990865885",
    "description": "McLaren_494650",
    "title": "McLaren_494650",
    "link_img": "https://live.staticflickr.com/65535/48119321503_26868f59e6_o.jpg",
    "id_image": "McLaren_494650",
    "count_view": 0
  },
  {
    "link_thumb": "https://live.staticflickr.com/65535/48119321663_4ffb0c175a_n.jpg",
    "id_album": "990865885",
    "description": "McLaren_494651",
    "title": "McLaren_494651",
    "link_img": "https://live.staticflickr.com/65535/48119321663_5f71a55648_o.jpg",
    "id_image": "McLaren_494651",
    "count_view": 0
  },
  {
    "link_thumb": "https://live.staticflickr.com/65535/48119288571_2779f162a5_n.jpg",
    "id_album": "990865885",
    "description": "McLaren_494652",
    "title": "McLaren_494652",
    "link_img": "https://live.staticflickr.com/65535/48119288571_3053dd040e_o.jpg",
    "id_image": "McLaren_494652",
    "count_view": 0
  },
  {
    "link_thumb": "https://live.staticflickr.com/65535/48119321943_bcc458b753_n.jpg",
    "id_album": "990865885",
    "description": "McLaren_494653",
    "title": "McLaren_494653",
    "link_img": "https://live.staticflickr.com/65535/48119321943_f212e34aa0_o.jpg",
    "id_image": "McLaren_494653",
    "count_view": 0
  },
  {
    "link_thumb": "https://live.staticflickr.com/65535/48119288811_e0cbb516c8_n.jpg",
    "id_album": "990865885",
    "description": "McLaren_494654",
    "title": "McLaren_494654",
    "link_img": "https://live.staticflickr.com/65535/48119288811_feeb768a0f_o.jpg",
    "id_image": "McLaren_494654",
    "count_view": 0
  },
  {
    "link_thumb": "https://live.staticflickr.com/65535/48119322143_df6c38b21f_n.jpg",
    "id_album": "990865885",
    "description": "McLaren_494655",
    "title": "McLaren_494655",
    "link_img": "https://live.staticflickr.com/65535/48119322143_08dd09bacc_o.jpg",
    "id_image": "McLaren_494655",
    "count_view": 0
  },
  {
    "link_thumb": "https://live.staticflickr.com/65535/48119322278_b43598e653_n.jpg",
    "id_album": "990865885",
    "description": "McLaren_494656",
    "title": "McLaren_494656",
    "link_img": "https://live.staticflickr.com/65535/48119322278_757ab1ca9c_o.jpg",
    "id_image": "McLaren_494656",
    "count_view": 0
  },
  {
    "link_thumb": "https://live.staticflickr.com/65535/48119289181_bf2d8aed5c_n.jpg",
    "id_album": "990865885",
    "description": "McLaren_494657",
    "title": "McLaren_494657",
    "link_img": "https://live.staticflickr.com/65535/48119289181_02bd0ebb9a_o.jpg",
    "id_image": "McLaren_494657",
    "count_view": 0
  },
  {
    "link_thumb": "https://live.staticflickr.com/65535/48119322538_f7d25d8be1_n.jpg",
    "id_album": "990865885",
    "description": "McLaren_494658",
    "title": "McLaren_494658",
    "link_img": "https://live.staticflickr.com/65535/48119322538_0f95a8c5a7_o.jpg",
    "id_image": "McLaren_494658",
    "count_view": 0
  },
  {
    "link_thumb": "https://live.staticflickr.com/65535/48119322663_cd3a92d4e3_n.jpg",
    "id_album": "990865885",
    "description": "McLaren_494659",
    "title": "McLaren_494659",
    "link_img": "https://live.staticflickr.com/65535/48119322663_90bd69e8b7_o.jpg",
    "id_image": "McLaren_494659",
    "count_view": 0
  },
  {
    "link_thumb": "https://live.staticflickr.com/65535/48119382197_06d036378e_n.jpg",
    "id_album": "990865885",
    "description": "McLaren_494660",
    "title": "McLaren_494660",
    "link_img": "https://live.staticflickr.com/65535/48119382197_1ce7895593_o.jpg",
    "id_image": "McLaren_494660",
    "count_view": 0
  },
  {
    "link_thumb": "https://live.staticflickr.com/65535/48119322923_7b5fff213f_n.jpg",
    "id_album": "990865885",
    "description": "McLaren_494661",
    "title": "McLaren_494661",
    "link_img": "https://live.staticflickr.com/65535/48119322923_c8753a22bb_o.jpg",
    "id_image": "McLaren_494661",
    "count_view": 0
  },
  {
    "link_thumb": "https://live.staticflickr.com/65535/48119382407_0cf88cb52f_n.jpg",
    "id_album": "990865885",
    "description": "McLaren_494662",
    "title": "McLaren_494662",
    "link_img": "https://live.staticflickr.com/65535/48119382407_bc6100ff5a_o.jpg",
    "id_image": "McLaren_494662",
    "count_view": 0
  },
  {
    "link_thumb": "https://live.staticflickr.com/65535/48119382632_0214167e60_n.jpg",
    "id_album": "990865885",
    "description": "McLaren_494663",
    "title": "McLaren_494663",
    "link_img": "https://live.staticflickr.com/65535/48119382632_c39e60c355_o.jpg",
    "id_image": "McLaren_494663",
    "count_view": 0
  },
  {
    "link_thumb": "https://live.staticflickr.com/65535/48119290231_29f8e181b3_n.jpg",
    "id_album": "990865885",
    "description": "McLaren_494664",
    "title": "McLaren_494664",
    "link_img": "https://live.staticflickr.com/65535/48119290231_1581ac88aa_o.jpg",
    "id_image": "McLaren_494664",
    "count_view": 0
  },
  {
    "link_thumb": "https://live.staticflickr.com/65535/48119323588_bebc6c2608_n.jpg",
    "id_album": "990865885",
    "description": "McLaren_494665",
    "title": "McLaren_494665",
    "link_img": "https://live.staticflickr.com/65535/48119323588_ff48d248cc_o.jpg",
    "id_image": "McLaren_494665",
    "count_view": 0
  },
  {
    "link_thumb": "https://live.staticflickr.com/65535/48119323708_aae3a40baa_n.jpg",
    "id_album": "990865885",
    "description": "McLaren_507313",
    "title": "McLaren_507313",
    "link_img": "https://live.staticflickr.com/65535/48119323708_c9d4def64c_o.jpg",
    "id_image": "McLaren_507313",
    "count_view": 0
  },
  {
    "link_thumb": "https://live.staticflickr.com/65535/48119290731_e5174c8678_n.jpg",
    "id_album": "990865885",
    "description": "McLaren_507315",
    "title": "McLaren_507315",
    "link_img": "https://live.staticflickr.com/65535/48119290731_b5ee44e030_o.jpg",
    "id_image": "McLaren_507315",
    "count_view": 0
  },
  {
    "link_thumb": "https://live.staticflickr.com/65535/48119290801_69e451cf09_n.jpg",
    "id_album": "990865885",
    "description": "McLaren_507316",
    "title": "McLaren_507316",
    "link_img": "https://live.staticflickr.com/65535/48119290801_d029a3607c_o.jpg",
    "id_image": "McLaren_507316",
    "count_view": 0
  },
  {
    "link_thumb": "https://live.staticflickr.com/65535/48119324083_36a19f99f3_n.jpg",
    "id_album": "990865885",
    "description": "McLaren_507317",
    "title": "McLaren_507317",
    "link_img": "https://live.staticflickr.com/65535/48119324083_084253ff0f_o.jpg",
    "id_image": "McLaren_507317",
    "count_view": 0
  },
  {
    "link_thumb": "https://live.staticflickr.com/65535/48119383487_c96a9b72bf_n.jpg",
    "id_album": "990865885",
    "description": "McLaren_507318",
    "title": "McLaren_507318",
    "link_img": "https://live.staticflickr.com/65535/48119383487_fcefa98b14_o.jpg",
    "id_image": "McLaren_507318",
    "count_view": 0
  },
  {
    "link_thumb": "https://live.staticflickr.com/65535/48119324288_2554e0d0a4_n.jpg",
    "id_album": "990865885",
    "description": "McLaren_507319",
    "title": "McLaren_507319",
    "link_img": "https://live.staticflickr.com/65535/48119324288_7e198518b0_o.jpg",
    "id_image": "McLaren_507319",
    "count_view": 0
  },
  {
    "link_thumb": "https://live.staticflickr.com/65535/48119324433_42c2e54ee8_n.jpg",
    "id_album": "990865885",
    "description": "McLaren_507320",
    "title": "McLaren_507320",
    "link_img": "https://live.staticflickr.com/65535/48119324433_f1a4a3f849_o.jpg",
    "id_image": "McLaren_507320",
    "count_view": 0
  },
  {
    "link_thumb": "https://live.staticflickr.com/65535/48119291461_3f66bf09e6_n.jpg",
    "id_album": "990865885",
    "description": "McLaren_507321",
    "title": "McLaren_507321",
    "link_img": "https://live.staticflickr.com/65535/48119291461_872b428c69_o.jpg",
    "id_image": "McLaren_507321",
    "count_view": 0
  },
  {
    "link_thumb": "https://live.staticflickr.com/65535/48119291636_72d88ee266_n.jpg",
    "id_album": "990865885",
    "description": "McLaren_507322",
    "title": "McLaren_507322",
    "link_img": "https://live.staticflickr.com/65535/48119291636_493ecaa89d_o.jpg",
    "id_image": "McLaren_507322",
    "count_view": 0
  },
  {
    "link_thumb": "https://live.staticflickr.com/65535/48119384272_4c36975a1e_n.jpg",
    "id_album": "990865885",
    "description": "McLaren_507323",
    "title": "McLaren_507323",
    "link_img": "https://live.staticflickr.com/65535/48119384272_2c46a8f3eb_o.jpg",
    "id_image": "McLaren_507323",
    "count_view": 0
  },
  {
    "link_thumb": "https://live.staticflickr.com/65535/48119292056_7dee26d89f_n.jpg",
    "id_album": "990865885",
    "description": "McLaren_507324",
    "title": "McLaren_507324",
    "link_img": "https://live.staticflickr.com/65535/48119292056_e96ff21f2a_o.jpg",
    "id_image": "McLaren_507324",
    "count_view": 0
  },
  {
    "link_thumb": "https://live.staticflickr.com/65535/48119384622_dc788b8b4f_n.jpg",
    "id_album": "990865885",
    "description": "McLaren_507325",
    "title": "McLaren_507325",
    "link_img": "https://live.staticflickr.com/65535/48119384622_bf79991e6c_o.jpg",
    "id_image": "McLaren_507325",
    "count_view": 0
  },
  {
    "link_thumb": "https://live.staticflickr.com/65535/48119325468_1dae31ca21_n.jpg",
    "id_album": "990865885",
    "description": "McLaren_507326",
    "title": "McLaren_507326",
    "link_img": "https://live.staticflickr.com/65535/48119325468_4184aa6430_o.jpg",
    "id_image": "McLaren_507326",
    "count_view": 0
  },
  {
    "link_thumb": "https://live.staticflickr.com/65535/48119292571_07c333612c_n.jpg",
    "id_album": "990865885",
    "description": "McLaren_507327",
    "title": "McLaren_507327",
    "link_img": "https://live.staticflickr.com/65535/48119292571_9c15599b1a_o.jpg",
    "id_image": "McLaren_507327",
    "count_view": 0
  },
  {
    "link_thumb": "https://live.staticflickr.com/65535/48119325803_4f7f1eb10b_n.jpg",
    "id_album": "990865885",
    "description": "McLaren_507328",
    "title": "McLaren_507328",
    "link_img": "https://live.staticflickr.com/65535/48119325803_d9297a2f8f_o.jpg",
    "id_image": "McLaren_507328",
    "count_view": 0
  },
  {
    "link_thumb": "https://live.staticflickr.com/65535/48119325943_fd8380595b_n.jpg",
    "id_album": "990865885",
    "description": "McLaren_507329",
    "title": "McLaren_507329",
    "link_img": "https://live.staticflickr.com/65535/48119325943_0835601fa8_o.jpg",
    "id_image": "McLaren_507329",
    "count_view": 0
  },
  {
    "link_thumb": "https://live.staticflickr.com/65535/48119385382_5d30a18184_n.jpg",
    "id_album": "990865885",
    "description": "McLaren_507330",
    "title": "McLaren_507330",
    "link_img": "https://live.staticflickr.com/65535/48119385382_4ab911e976_o.jpg",
    "id_image": "McLaren_507330",
    "count_view": 0
  },
  {
    "link_thumb": "https://live.staticflickr.com/65535/48119293166_e39a3c0455_n.jpg",
    "id_album": "990865885",
    "description": "McLaren_507331",
    "title": "McLaren_507331",
    "link_img": "https://live.staticflickr.com/65535/48119293166_bf8b7aa86f_o.jpg",
    "id_image": "McLaren_507331",
    "count_view": 0
  },
  {
    "link_thumb": "https://live.staticflickr.com/65535/48119293366_7e7d81c84d_n.jpg",
    "id_album": "990865885",
    "description": "McLaren_507332",
    "title": "McLaren_507332",
    "link_img": "https://live.staticflickr.com/65535/48119293366_3b2ea82985_o.jpg",
    "id_image": "McLaren_507332",
    "count_view": 0
  },
  {
    "link_thumb": "https://live.staticflickr.com/65535/48119326443_59842c9f51_n.jpg",
    "id_album": "990865885",
    "description": "McLaren_507333",
    "title": "McLaren_507333",
    "link_img": "https://live.staticflickr.com/65535/48119326443_072c36f57a_o.jpg",
    "id_image": "McLaren_507333",
    "count_view": 0
  },
  {
    "link_thumb": "https://live.staticflickr.com/65535/48119293651_18ddac315b_n.jpg",
    "id_album": "990865885",
    "description": "McLaren_507334",
    "title": "McLaren_507334",
    "link_img": "https://live.staticflickr.com/65535/48119293651_1cfb0dca42_o.jpg",
    "id_image": "McLaren_507334",
    "count_view": 0
  },
  {
    "link_thumb": "https://live.staticflickr.com/65535/48119293806_d543bc479f_n.jpg",
    "id_album": "990865885",
    "description": "McLaren_507335",
    "title": "McLaren_507335",
    "link_img": "https://live.staticflickr.com/65535/48119293806_6f77d884c6_o.jpg",
    "id_image": "McLaren_507335",
    "count_view": 0
  },
  {
    "link_thumb": "https://live.staticflickr.com/65535/48119293966_09f80df267_n.jpg",
    "id_album": "990865885",
    "description": "McLaren_507336",
    "title": "McLaren_507336",
    "link_img": "https://live.staticflickr.com/65535/48119293966_03553a96cb_o.jpg",
    "id_image": "McLaren_507336",
    "count_view": 0
  },
  {
    "link_thumb": "https://live.staticflickr.com/65535/48119326988_1e42eb679f_n.jpg",
    "id_album": "990865885",
    "description": "McLaren_507337",
    "title": "McLaren_507337",
    "link_img": "https://live.staticflickr.com/65535/48119326988_a034334dd8_o.jpg",
    "id_image": "McLaren_507337",
    "count_view": 0
  },
  {
    "link_thumb": "https://live.staticflickr.com/65535/48119327213_190128d60b_n.jpg",
    "id_album": "990865885",
    "description": "McLaren_507338",
    "title": "McLaren_507338",
    "link_img": "https://live.staticflickr.com/65535/48119327213_5a206c2a67_o.jpg",
    "id_image": "McLaren_507338",
    "count_view": 0
  },
  {
    "link_thumb": "https://live.staticflickr.com/65535/48119386847_de44949583_n.jpg",
    "id_album": "990865885",
    "description": "McLaren_507339",
    "title": "McLaren_507339",
    "link_img": "https://live.staticflickr.com/65535/48119386847_d51cb574bb_o.jpg",
    "id_image": "McLaren_507339",
    "count_view": 0
  },
  {
    "link_thumb": "https://live.staticflickr.com/65535/48119387022_b79d6537cd_n.jpg",
    "id_album": "990865885",
    "description": "McLaren_507340",
    "title": "McLaren_507340",
    "link_img": "https://live.staticflickr.com/65535/48119387022_0023a7ca95_o.jpg",
    "id_image": "McLaren_507340",
    "count_view": 0
  },
  {
    "link_thumb": "https://live.staticflickr.com/65535/48119294821_2e071483a6_n.jpg",
    "id_album": "990865885",
    "description": "McLaren_507341",
    "title": "McLaren_507341",
    "link_img": "https://live.staticflickr.com/65535/48119294821_b65bdf6987_o.jpg",
    "id_image": "McLaren_507341",
    "count_view": 0
  },
  {
    "link_thumb": "https://live.staticflickr.com/65535/48119387367_b057817a80_n.jpg",
    "id_album": "990865885",
    "description": "McLaren_507342",
    "title": "McLaren_507342",
    "link_img": "https://live.staticflickr.com/65535/48119387367_8e8a22506d_o.jpg",
    "id_image": "McLaren_507342",
    "count_view": 0
  },
  {
    "link_thumb": "https://live.staticflickr.com/65535/48119387577_e742d7d272_n.jpg",
    "id_album": "990865885",
    "description": "McLaren_508028",
    "title": "McLaren_508028",
    "link_img": "https://live.staticflickr.com/65535/48119387577_7a75bf7aa3_o.jpg",
    "id_image": "McLaren_508028",
    "count_view": 0
  },
  {
    "link_thumb": "https://live.staticflickr.com/65535/48119328268_4bfdbcc846_n.jpg",
    "id_album": "990865885",
    "description": "McLaren_508029",
    "title": "McLaren_508029",
    "link_img": "https://live.staticflickr.com/65535/48119328268_66b3589c62_o.jpg",
    "id_image": "McLaren_508029",
    "count_view": 0
  },
  {
    "link_thumb": "https://live.staticflickr.com/65535/48119387872_55e96b0b96_n.jpg",
    "id_album": "990865885",
    "description": "McLaren_508030",
    "title": "McLaren_508030",
    "link_img": "https://live.staticflickr.com/65535/48119387872_3aca914064_o.jpg",
    "id_image": "McLaren_508030",
    "count_view": 0
  },
  {
    "link_thumb": "https://live.staticflickr.com/65535/48119388047_da34038475_n.jpg",
    "id_album": "990865885",
    "description": "McLaren_508031",
    "title": "McLaren_508031",
    "link_img": "https://live.staticflickr.com/65535/48119388047_7bde01b01b_o.jpg",
    "id_image": "McLaren_508031",
    "count_view": 0
  },
  {
    "link_thumb": "https://live.staticflickr.com/65535/48119388202_285e1003e9_n.jpg",
    "id_album": "990865885",
    "description": "McLaren_508032",
    "title": "McLaren_508032",
    "link_img": "https://live.staticflickr.com/65535/48119388202_4f0d78c58f_o.jpg",
    "id_image": "McLaren_508032",
    "count_view": 0
  },
  {
    "link_thumb": "https://live.staticflickr.com/65535/48119296041_7e51af3c83_n.jpg",
    "id_album": "990865885",
    "description": "McLaren_508033",
    "title": "McLaren_508033",
    "link_img": "https://live.staticflickr.com/65535/48119296041_001a1d6a4c_o.jpg",
    "id_image": "McLaren_508033",
    "count_view": 0
  },
  {
    "link_thumb": "https://live.staticflickr.com/65535/48119328868_b4b2efe0e0_n.jpg",
    "id_album": "990865885",
    "description": "McLaren_508034",
    "title": "McLaren_508034",
    "link_img": "https://live.staticflickr.com/65535/48119328868_ed35920430_o.jpg",
    "id_image": "McLaren_508034",
    "count_view": 0
  },
  {
    "link_thumb": "https://live.staticflickr.com/65535/48119296311_b45db6b8c9_n.jpg",
    "id_album": "990865885",
    "description": "McLaren_508035",
    "title": "McLaren_508035",
    "link_img": "https://live.staticflickr.com/65535/48119296311_bc09bafeb8_o.jpg",
    "id_image": "McLaren_508035",
    "count_view": 0
  },
  {
    "link_thumb": "https://live.staticflickr.com/65535/48119329128_edc274b706_n.jpg",
    "id_album": "990865885",
    "description": "McLaren_508036",
    "title": "McLaren_508036",
    "link_img": "https://live.staticflickr.com/65535/48119329128_58ae4309c4_o.jpg",
    "id_image": "McLaren_508036",
    "count_view": 0
  },
  {
    "link_thumb": "https://live.staticflickr.com/65535/48119329243_36b606368e_n.jpg",
    "id_album": "990865885",
    "description": "McLaren_508037",
    "title": "McLaren_508037",
    "link_img": "https://live.staticflickr.com/65535/48119329243_916156951e_o.jpg",
    "id_image": "McLaren_508037",
    "count_view": 0
  },
  {
    "link_thumb": "https://live.staticflickr.com/65535/48119296621_c475d2f409_n.jpg",
    "id_album": "990865885",
    "description": "McLaren_508038",
    "title": "McLaren_508038",
    "link_img": "https://live.staticflickr.com/65535/48119296621_34d2c05ee0_o.jpg",
    "id_image": "McLaren_508038",
    "count_view": 0
  },
  {
    "link_thumb": "https://live.staticflickr.com/65535/48119329488_839614e232_n.jpg",
    "id_album": "990865885",
    "description": "McLaren_508039",
    "title": "McLaren_508039",
    "link_img": "https://live.staticflickr.com/65535/48119329488_19fcb5528f_o.jpg",
    "id_image": "McLaren_508039",
    "count_view": 0
  },
  {
    "link_thumb": "https://live.staticflickr.com/65535/48119329618_13bcc15858_n.jpg",
    "id_album": "990865885",
    "description": "McLaren_508040",
    "title": "McLaren_508040",
    "link_img": "https://live.staticflickr.com/65535/48119329618_6570b22ac8_o.jpg",
    "id_image": "McLaren_508040",
    "count_view": 0
  },
  {
    "link_thumb": "https://live.staticflickr.com/65535/48119297041_ff2e4c00b0_n.jpg",
    "id_album": "990865885",
    "description": "McLaren_508041",
    "title": "McLaren_508041",
    "link_img": "https://live.staticflickr.com/65535/48119297041_57946d622f_o.jpg",
    "id_image": "McLaren_508041",
    "count_view": 0
  },
  {
    "link_thumb": "https://live.staticflickr.com/65535/48119389602_dda89efab9_n.jpg",
    "id_album": "990865885",
    "description": "McLaren_508042",
    "title": "McLaren_508042",
    "link_img": "https://live.staticflickr.com/65535/48119389602_cac0036de8_o.jpg",
    "id_image": "McLaren_508042",
    "count_view": 0
  },
  {
    "link_thumb": "https://live.staticflickr.com/65535/48119330028_3cde60cdbb_n.jpg",
    "id_album": "990865885",
    "description": "McLaren_508043",
    "title": "McLaren_508043",
    "link_img": "https://live.staticflickr.com/65535/48119330028_e293cd36aa_o.jpg",
    "id_image": "McLaren_508043",
    "count_view": 0
  },
  {
    "link_thumb": "https://live.staticflickr.com/65535/48119330158_2a3d1bae30_n.jpg",
    "id_album": "990865885",
    "description": "McLaren_508044",
    "title": "McLaren_508044",
    "link_img": "https://live.staticflickr.com/65535/48119330158_567a141a27_o.jpg",
    "id_image": "McLaren_508044",
    "count_view": 0
  },
  {
    "link_thumb": "https://live.staticflickr.com/65535/48119297611_b084b1a302_n.jpg",
    "id_album": "990865885",
    "description": "McLaren_508045",
    "title": "McLaren_508045",
    "link_img": "https://live.staticflickr.com/65535/48119297611_68054a61d0_o.jpg",
    "id_image": "McLaren_508045",
    "count_view": 0
  },
  {
    "link_thumb": "https://live.staticflickr.com/65535/48119330483_3624a68249_n.jpg",
    "id_album": "990865885",
    "description": "McLaren_508046",
    "title": "McLaren_508046",
    "link_img": "https://live.staticflickr.com/65535/48119330483_79cc9f2457_o.jpg",
    "id_image": "McLaren_508046",
    "count_view": 0
  },
  {
    "link_thumb": "https://live.staticflickr.com/65535/48119330583_3d2220a88f_n.jpg",
    "id_album": "990865885",
    "description": "McLaren_508047",
    "title": "McLaren_508047",
    "link_img": "https://live.staticflickr.com/65535/48119330583_cd437f3d8b_o.jpg",
    "id_image": "McLaren_508047",
    "count_view": 0
  },
  {
    "link_thumb": "https://live.staticflickr.com/65535/48119298131_3843f65fbc_n.jpg",
    "id_album": "990865885",
    "description": "McLaren_508048",
    "title": "McLaren_508048",
    "link_img": "https://live.staticflickr.com/65535/48119298131_1f826f77a8_o.jpg",
    "id_image": "McLaren_508048",
    "count_view": 0
  },
  {
    "link_thumb": "https://live.staticflickr.com/65535/48119330948_77af339773_n.jpg",
    "id_album": "990865885",
    "description": "McLaren_508049",
    "title": "McLaren_508049",
    "link_img": "https://live.staticflickr.com/65535/48119330948_e074ae71a2_o.jpg",
    "id_image": "McLaren_508049",
    "count_view": 0
  },
  {
    "link_thumb": "https://live.staticflickr.com/65535/48119390942_fec7459472_n.jpg",
    "id_album": "990865885",
    "description": "McLaren_508050",
    "title": "McLaren_508050",
    "link_img": "https://live.staticflickr.com/65535/48119390942_0b99b68059_o.jpg",
    "id_image": "McLaren_508050",
    "count_view": 0
  },
  {
    "link_thumb": "https://live.staticflickr.com/65535/48119331233_0b971254c7_n.jpg",
    "id_album": "990865885",
    "description": "McLaren_508051",
    "title": "McLaren_508051",
    "link_img": "https://live.staticflickr.com/65535/48119331233_465b8c75fe_o.jpg",
    "id_image": "McLaren_508051",
    "count_view": 0
  },
  {
    "link_thumb": "https://live.staticflickr.com/65535/48119298826_c5bb623065_n.jpg",
    "id_album": "990865885",
    "description": "McLaren_508052",
    "title": "McLaren_508052",
    "link_img": "https://live.staticflickr.com/65535/48119298826_551ef839a4_o.jpg",
    "id_image": "McLaren_508052",
    "count_view": 0
  },
  {
    "link_thumb": "https://live.staticflickr.com/65535/48119331548_abac48b604_n.jpg",
    "id_album": "990865885",
    "description": "McLaren_508053",
    "title": "McLaren_508053",
    "link_img": "https://live.staticflickr.com/65535/48119331548_bbcb6d081e_o.jpg",
    "id_image": "McLaren_508053",
    "count_view": 0
  },
  {
    "link_thumb": "https://live.staticflickr.com/65535/48119299131_33bb7e6ddf_n.jpg",
    "id_album": "990865885",
    "description": "McLaren_508054",
    "title": "McLaren_508054",
    "link_img": "https://live.staticflickr.com/65535/48119299131_ede5b8e82c_o.jpg",
    "id_image": "McLaren_508054",
    "count_view": 0
  },
  {
    "link_thumb": "https://live.staticflickr.com/65535/48119391722_52c123fb31_n.jpg",
    "id_album": "990865885",
    "description": "McLaren_508055",
    "title": "McLaren_508055",
    "link_img": "https://live.staticflickr.com/65535/48119391722_a0e1d85684_o.jpg",
    "id_image": "McLaren_508055",
    "count_view": 0
  },
  {
    "link_thumb": "https://live.staticflickr.com/65535/48119391857_f97d3b7cdd_n.jpg",
    "id_album": "990865885",
    "description": "McLaren_508056",
    "title": "McLaren_508056",
    "link_img": "https://live.staticflickr.com/65535/48119391857_53517dfc92_o.jpg",
    "id_image": "McLaren_508056",
    "count_view": 0
  },
  {
    "link_thumb": "https://live.staticflickr.com/65535/48119332058_13eb4c7a28_n.jpg",
    "id_album": "990865885",
    "description": "McLaren_508057",
    "title": "McLaren_508057",
    "link_img": "https://live.staticflickr.com/65535/48119332058_b5f6f861d4_o.jpg",
    "id_image": "McLaren_508057",
    "count_view": 0
  },
  {
    "link_thumb": "https://live.staticflickr.com/65535/48119299641_fe7a51465e_n.jpg",
    "id_album": "990865885",
    "description": "McLaren_508058",
    "title": "McLaren_508058",
    "link_img": "https://live.staticflickr.com/65535/48119299641_e22f50ea48_o.jpg",
    "id_image": "McLaren_508058",
    "count_view": 0
  },
  {
    "link_thumb": "https://live.staticflickr.com/65535/48119332318_a611fc36a0_n.jpg",
    "id_album": "990865885",
    "description": "McLaren_508059",
    "title": "McLaren_508059",
    "link_img": "https://live.staticflickr.com/65535/48119332318_8abea50e4f_o.jpg",
    "id_image": "McLaren_508059",
    "count_view": 0
  },
  {
    "link_thumb": "https://live.staticflickr.com/65535/48119299921_f8c7923b12_n.jpg",
    "id_album": "990865885",
    "description": "McLaren_508060",
    "title": "McLaren_508060",
    "link_img": "https://live.staticflickr.com/65535/48119299921_a4582d8784_o.jpg",
    "id_image": "McLaren_508060",
    "count_view": 0
  },
  {
    "link_thumb": "https://live.staticflickr.com/65535/48119392612_c34e241e32_n.jpg",
    "id_album": "990865885",
    "description": "McLaren_508061",
    "title": "McLaren_508061",
    "link_img": "https://live.staticflickr.com/65535/48119392612_1a57a73770_o.jpg",
    "id_image": "McLaren_508061",
    "count_view": 0
  },
  {
    "link_thumb": "https://live.staticflickr.com/65535/48119392722_645ab8b0f4_n.jpg",
    "id_album": "990865885",
    "description": "McLaren_508062",
    "title": "McLaren_508062",
    "link_img": "https://live.staticflickr.com/65535/48119392722_062cedda34_o.jpg",
    "id_image": "McLaren_508062",
    "count_view": 0
  },
  {
    "link_thumb": "https://live.staticflickr.com/65535/48119332943_bd4ec70690_n.jpg",
    "id_album": "990865885",
    "description": "McLaren_508063",
    "title": "McLaren_508063",
    "link_img": "https://live.staticflickr.com/65535/48119332943_3402517405_o.jpg",
    "id_image": "McLaren_508063",
    "count_view": 0
  },
  {
    "link_thumb": "https://live.staticflickr.com/65535/48119393047_c214a77ebe_n.jpg",
    "id_album": "990865885",
    "description": "McLaren_508064",
    "title": "McLaren_508064",
    "link_img": "https://live.staticflickr.com/65535/48119393047_4db68d23f6_o.jpg",
    "id_image": "McLaren_508064",
    "count_view": 0
  },
  {
    "link_thumb": "https://live.staticflickr.com/65535/48119333268_7e29e8b5d1_n.jpg",
    "id_album": "990865885",
    "description": "McLaren_508066",
    "title": "McLaren_508066",
    "link_img": "https://live.staticflickr.com/65535/48119333268_bf5387825f_o.jpg",
    "id_image": "McLaren_508066",
    "count_view": 0
  },
  {
    "link_thumb": "https://live.staticflickr.com/65535/48119300826_de4a32efef_n.jpg",
    "id_album": "990865885",
    "description": "McLaren_508068",
    "title": "McLaren_508068",
    "link_img": "https://live.staticflickr.com/65535/48119300826_06fc4e4230_o.jpg",
    "id_image": "McLaren_508068",
    "count_view": 0
  },
  {
    "link_thumb": "https://live.staticflickr.com/65535/48119333538_69bd362bcf_n.jpg",
    "id_album": "990865885",
    "description": "McLaren_508070",
    "title": "McLaren_508070",
    "link_img": "https://live.staticflickr.com/65535/48119333538_5341d5b397_o.jpg",
    "id_image": "McLaren_508070",
    "count_view": 0
  },
  {
    "link_thumb": "https://live.staticflickr.com/65535/48119393667_84332f9ed3_n.jpg",
    "id_album": "990865885",
    "description": "McLaren_508071",
    "title": "McLaren_508071",
    "link_img": "https://live.staticflickr.com/65535/48119393667_f19ee7afd1_o.jpg",
    "id_image": "McLaren_508071",
    "count_view": 0
  },
  {
    "link_thumb": "https://live.staticflickr.com/65535/48119301316_e43fce28fc_n.jpg",
    "id_album": "990865885",
    "description": "McLaren_508072",
    "title": "McLaren_508072",
    "link_img": "https://live.staticflickr.com/65535/48119301316_5db054ee77_o.jpg",
    "id_image": "McLaren_508072",
    "count_view": 0
  },
  {
    "link_thumb": "https://live.staticflickr.com/65535/48119393997_a9dba33610_n.jpg",
    "id_album": "990865885",
    "description": "McLaren_508074",
    "title": "McLaren_508074",
    "link_img": "https://live.staticflickr.com/65535/48119393997_49f5cb0ae1_o.jpg",
    "id_image": "McLaren_508074",
    "count_view": 0
  },
  {
    "link_thumb": "https://live.staticflickr.com/65535/48119334118_6a8e6cc297_n.jpg",
    "id_album": "990865885",
    "description": "McLaren_508076",
    "title": "McLaren_508076",
    "link_img": "https://live.staticflickr.com/65535/48119334118_56cc5e8076_o.jpg",
    "id_image": "McLaren_508076",
    "count_view": 0
  },
  {
    "link_thumb": "https://live.staticflickr.com/65535/48119334263_32481b2a15_n.jpg",
    "id_album": "990865885",
    "description": "McLaren_508078",
    "title": "McLaren_508078",
    "link_img": "https://live.staticflickr.com/65535/48119334263_65070264fc_o.jpg",
    "id_image": "McLaren_508078",
    "count_view": 0
  },
  {
    "link_thumb": "https://live.staticflickr.com/65535/48119334368_3d10299270_n.jpg",
    "id_album": "990865885",
    "description": "McLaren_508080",
    "title": "McLaren_508080",
    "link_img": "https://live.staticflickr.com/65535/48119334368_d624f021da_o.jpg",
    "id_image": "McLaren_508080",
    "count_view": 0
  },
  {
    "link_thumb": "https://live.staticflickr.com/65535/48119394552_c39447d370_n.jpg",
    "id_album": "990865885",
    "description": "McLaren_508081",
    "title": "McLaren_508081",
    "link_img": "https://live.staticflickr.com/65535/48119394552_42d9df689a_o.jpg",
    "id_image": "McLaren_508081",
    "count_view": 0
  },
  {
    "link_thumb": "https://live.staticflickr.com/65535/48119394707_5b7efa50c4_n.jpg",
    "id_album": "990865885",
    "description": "McLaren_508082",
    "title": "McLaren_508082",
    "link_img": "https://live.staticflickr.com/65535/48119394707_c6cae10a4c_o.jpg",
    "id_image": "McLaren_508082",
    "count_view": 0
  },
  {
    "link_thumb": "https://live.staticflickr.com/65535/48119394902_732b41d10e_n.jpg",
    "id_album": "990865885",
    "description": "McLaren_508084",
    "title": "McLaren_508084",
    "link_img": "https://live.staticflickr.com/65535/48119394902_3a7ee7fa25_o.jpg",
    "id_image": "McLaren_508084",
    "count_view": 0
  },
  {
    "link_thumb": "https://live.staticflickr.com/65535/48119335008_6a57553c34_n.jpg",
    "id_album": "990865885",
    "description": "McLaren_508085",
    "title": "McLaren_508085",
    "link_img": "https://live.staticflickr.com/65535/48119335008_56b75d3f3f_o.jpg",
    "id_image": "McLaren_508085",
    "count_view": 0
  },
  {
    "link_thumb": "https://live.staticflickr.com/65535/48119335138_4cbbf4466f_n.jpg",
    "id_album": "990865885",
    "description": "McLaren_508086",
    "title": "McLaren_508086",
    "link_img": "https://live.staticflickr.com/65535/48119335138_57d4ded632_o.jpg",
    "id_image": "McLaren_508086",
    "count_view": 0
  },
  {
    "link_thumb": "https://live.staticflickr.com/65535/48119302811_f954bf20d2_n.jpg",
    "id_album": "990865885",
    "description": "McLaren_508088",
    "title": "McLaren_508088",
    "link_img": "https://live.staticflickr.com/65535/48119302811_6f68bfbc36_o.jpg",
    "id_image": "McLaren_508088",
    "count_view": 0
  },
  {
    "link_thumb": "https://live.staticflickr.com/65535/48119302966_dfe4a619a2_n.jpg",
    "id_album": "990865885",
    "description": "McLaren_508089",
    "title": "McLaren_508089",
    "link_img": "https://live.staticflickr.com/65535/48119302966_a2a7449583_o.jpg",
    "id_image": "McLaren_508089",
    "count_view": 0
  },
  {
    "link_thumb": "https://live.staticflickr.com/65535/48119335558_22a552f4e4_n.jpg",
    "id_album": "990865885",
    "description": "McLaren_511410",
    "title": "McLaren_511410",
    "link_img": "https://live.staticflickr.com/65535/48119335558_bce0b80279_o.jpg",
    "id_image": "McLaren_511410",
    "count_view": 0
  },
  {
    "link_thumb": "https://live.staticflickr.com/65535/48119395727_d2c6468ace_n.jpg",
    "id_album": "990865885",
    "description": "McLaren_511412",
    "title": "McLaren_511412",
    "link_img": "https://live.staticflickr.com/65535/48119395727_1c583b8f14_o.jpg",
    "id_image": "McLaren_511412",
    "count_view": 0
  },
  {
    "link_thumb": "https://live.staticflickr.com/65535/48119303331_0e58473f54_n.jpg",
    "id_album": "990865885",
    "description": "McLaren_511414",
    "title": "McLaren_511414",
    "link_img": "https://live.staticflickr.com/65535/48119303331_7f4065e8cc_o.jpg",
    "id_image": "McLaren_511414",
    "count_view": 0
  },
  {
    "link_thumb": "https://live.staticflickr.com/65535/48119395907_02aa7ce6c0_n.jpg",
    "id_album": "990865885",
    "description": "McLaren_515161",
    "title": "McLaren_515161",
    "link_img": "https://live.staticflickr.com/65535/48119395907_6d0f133109_o.jpg",
    "id_image": "McLaren_515161",
    "count_view": 0
  },
  {
    "link_thumb": "https://live.staticflickr.com/65535/48119396002_4aa1dd1d43_n.jpg",
    "id_album": "990865885",
    "description": "McLaren_520155",
    "title": "McLaren_520155",
    "link_img": "https://live.staticflickr.com/65535/48119396002_18edd54c79_o.jpg",
    "id_image": "McLaren_520155",
    "count_view": 0
  },
  {
    "link_thumb": "https://live.staticflickr.com/65535/48119396142_3643723fd3_n.jpg",
    "id_album": "990865885",
    "description": "McLaren_520987",
    "title": "McLaren_520987",
    "link_img": "https://live.staticflickr.com/65535/48119396142_6b4098df06_o.jpg",
    "id_image": "McLaren_520987",
    "count_view": 0
  },
  {
    "link_thumb": "https://live.staticflickr.com/65535/48119336228_e1f907b716_n.jpg",
    "id_album": "990865885",
    "description": "McLaren_522919",
    "title": "McLaren_522919",
    "link_img": "https://live.staticflickr.com/65535/48119336228_6c7ec9b6e0_o.jpg",
    "id_image": "McLaren_522919",
    "count_view": 0
  },
  {
    "link_thumb": "https://live.staticflickr.com/65535/48119397097_f75ddf2cdf_n.jpg",
    "id_album": "990865885",
    "description": "McLaren_534009",
    "title": "McLaren_534009",
    "link_img": "https://live.staticflickr.com/65535/48119397097_5927775b2a_o.jpg",
    "id_image": "McLaren_534009",
    "count_view": 0
  },
  {
    "link_thumb": "https://live.staticflickr.com/65535/48119304781_fb6c091d48_n.jpg",
    "id_album": "990865885",
    "description": "McLaren_539161",
    "title": "McLaren_539161",
    "link_img": "https://live.staticflickr.com/65535/48119304781_dd03eba900_o.jpg",
    "id_image": "McLaren_539161",
    "count_view": 0
  },
  {
    "link_thumb": "https://live.staticflickr.com/65535/48119304971_b3b21b2395_n.jpg",
    "id_album": "990865885",
    "description": "McLaren_539162",
    "title": "McLaren_539162",
    "link_img": "https://live.staticflickr.com/65535/48119304971_16868fb319_o.jpg",
    "id_image": "McLaren_539162",
    "count_view": 0
  },
  {
    "link_thumb": "https://live.staticflickr.com/65535/48119397557_1df88ede98_n.jpg",
    "id_album": "990865885",
    "description": "McLaren_539171",
    "title": "McLaren_539171",
    "link_img": "https://live.staticflickr.com/65535/48119397557_c509caf543_o.jpg",
    "id_image": "McLaren_539171",
    "count_view": 0
  },
  {
    "link_thumb": "https://live.staticflickr.com/65535/48119337603_d1e18e6b4c_n.jpg",
    "id_album": "990865885",
    "description": "McLaren_541172",
    "title": "McLaren_541172",
    "link_img": "https://live.staticflickr.com/65535/48119337603_4b9b69ccb8_o.jpg",
    "id_image": "McLaren_541172",
    "count_view": 0
  },
  {
    "link_thumb": "https://live.staticflickr.com/65535/48119397827_a0ae6e1f9d_n.jpg",
    "id_album": "990865885",
    "description": "McLaren_541177",
    "title": "McLaren_541177",
    "link_img": "https://live.staticflickr.com/65535/48119397827_2f35ebda08_o.jpg",
    "id_image": "McLaren_541177",
    "count_view": 0
  },
  {
    "link_thumb": "https://live.staticflickr.com/65535/48119398002_d8f7421b8a_n.jpg",
    "id_album": "990865885",
    "description": "McLaren_541179",
    "title": "McLaren_541179",
    "link_img": "https://live.staticflickr.com/65535/48119398002_93695f24a0_o.jpg",
    "id_image": "McLaren_541179",
    "count_view": 0
  },
  {
    "link_thumb": "https://live.staticflickr.com/65535/48119305741_d1c4141075_n.jpg",
    "id_album": "990865885",
    "description": "McLaren_541180",
    "title": "McLaren_541180",
    "link_img": "https://live.staticflickr.com/65535/48119305741_e95317c0aa_o.jpg",
    "id_image": "McLaren_541180",
    "count_view": 0
  },
  {
    "link_thumb": "https://live.staticflickr.com/65535/48119305941_c0eaa35719_n.jpg",
    "id_album": "990865885",
    "description": "McLaren_541181",
    "title": "McLaren_541181",
    "link_img": "https://live.staticflickr.com/65535/48119305941_647508789e_o.jpg",
    "id_image": "McLaren_541181",
    "count_view": 0
  },
  {
    "link_thumb": "https://live.staticflickr.com/65535/48119398577_3cacfbe454_n.jpg",
    "id_album": "990865885",
    "description": "McLaren_541182",
    "title": "McLaren_541182",
    "link_img": "https://live.staticflickr.com/65535/48119398577_ced4a8297c_o.jpg",
    "id_image": "McLaren_541182",
    "count_view": 0
  },
  {
    "link_thumb": "https://live.staticflickr.com/65535/48119398722_f081319329_n.jpg",
    "id_album": "990865885",
    "description": "McLaren_541186",
    "title": "McLaren_541186",
    "link_img": "https://live.staticflickr.com/65535/48119398722_0c17aec423_o.jpg",
    "id_image": "McLaren_541186",
    "count_view": 0
  },
  {
    "link_thumb": "https://live.staticflickr.com/65535/48119306401_aeb4da9602_n.jpg",
    "id_album": "990865885",
    "description": "McLaren_541187",
    "title": "McLaren_541187",
    "link_img": "https://live.staticflickr.com/65535/48119306401_753de2e245_o.jpg",
    "id_image": "McLaren_541187",
    "count_view": 0
  },
  {
    "link_thumb": "https://live.staticflickr.com/65535/48119399032_ec824e9da0_n.jpg",
    "id_album": "990865885",
    "description": "McLaren_541188",
    "title": "McLaren_541188",
    "link_img": "https://live.staticflickr.com/65535/48119399032_f046d401ea_o.jpg",
    "id_image": "McLaren_541188",
    "count_view": 0
  },
  {
    "link_thumb": "https://live.staticflickr.com/65535/48119306711_394382fc24_n.jpg",
    "id_album": "990865885",
    "description": "McLaren_542682",
    "title": "McLaren_542682",
    "link_img": "https://live.staticflickr.com/65535/48119306711_e58e825bd8_o.jpg",
    "id_image": "McLaren_542682",
    "count_view": 0
  },
  {
    "link_thumb": "https://live.staticflickr.com/65535/48119306836_bb83ed7a4a_n.jpg",
    "id_album": "990865885",
    "description": "McLaren_542754",
    "title": "McLaren_542754",
    "link_img": "https://live.staticflickr.com/65535/48119306836_3ea91cacfb_o.jpg",
    "id_image": "McLaren_542754",
    "count_view": 0
  },
  {
    "link_thumb": "https://live.staticflickr.com/65535/48119306906_7127fa9fd7_n.jpg",
    "id_album": "990865885",
    "description": "McLaren_546028",
    "title": "McLaren_546028",
    "link_img": "https://live.staticflickr.com/65535/48119306906_6ce0c284d9_o.jpg",
    "id_image": "McLaren_546028",
    "count_view": 0
  },
  {
    "link_thumb": "https://live.staticflickr.com/65535/48119399547_da79d964c0_n.jpg",
    "id_album": "990865885",
    "description": "McLaren_546426",
    "title": "McLaren_546426",
    "link_img": "https://live.staticflickr.com/65535/48119399547_590c32b182_o.jpg",
    "id_image": "McLaren_546426",
    "count_view": 0
  },
  {
    "link_thumb": "https://live.staticflickr.com/65535/48119307271_cda135b026_n.jpg",
    "id_album": "990865885",
    "description": "McLaren_548869",
    "title": "McLaren_548869",
    "link_img": "https://live.staticflickr.com/65535/48119307271_d5917e526b_o.jpg",
    "id_image": "McLaren_548869",
    "count_view": 0
  },
  {
    "link_thumb": "https://live.staticflickr.com/65535/48119400072_2ee49f43b7_n.jpg",
    "id_album": "990865885",
    "description": "McLaren_548870",
    "title": "McLaren_548870",
    "link_img": "https://live.staticflickr.com/65535/48119400072_32fda1802d_o.jpg",
    "id_image": "McLaren_548870",
    "count_view": 0
  },
  {
    "link_thumb": "https://live.staticflickr.com/65535/48119340313_3b282a852d_n.jpg",
    "id_album": "990865885",
    "description": "McLaren_548871",
    "title": "McLaren_548871",
    "link_img": "https://live.staticflickr.com/65535/48119340313_059f74a99a_o.jpg",
    "id_image": "McLaren_548871",
    "count_view": 0
  },
  {
    "link_thumb": "https://live.staticflickr.com/65535/48119307911_2e51f1c7e8_n.jpg",
    "id_album": "990865885",
    "description": "McLaren_549801",
    "title": "McLaren_549801",
    "link_img": "https://live.staticflickr.com/65535/48119307911_08f6e62054_o.jpg",
    "id_image": "McLaren_549801",
    "count_view": 0
  },
  {
    "link_thumb": "https://live.staticflickr.com/65535/48119340748_20a14cccdf_n.jpg",
    "id_album": "990865885",
    "description": "McLaren_552271",
    "title": "McLaren_552271",
    "link_img": "https://live.staticflickr.com/65535/48119340748_cc3f014677_o.jpg",
    "id_image": "McLaren_552271",
    "count_view": 0
  },
  {
    "link_thumb": "https://live.staticflickr.com/65535/48119340878_bf771049a9_n.jpg",
    "id_album": "990865885",
    "description": "McLaren_552272",
    "title": "McLaren_552272",
    "link_img": "https://live.staticflickr.com/65535/48119340878_ef6b5d098e_o.jpg",
    "id_image": "McLaren_552272",
    "count_view": 0
  },
  {
    "link_thumb": "https://live.staticflickr.com/65535/48119340978_2650e607bc_n.jpg",
    "id_album": "990865885",
    "description": "McLaren_552273",
    "title": "McLaren_552273",
    "link_img": "https://live.staticflickr.com/65535/48119340978_96c37787e6_o.jpg",
    "id_image": "McLaren_552273",
    "count_view": 0
  },
  {
    "link_thumb": "https://live.staticflickr.com/65535/48119341148_70a4c288f8_n.jpg",
    "id_album": "990865885",
    "description": "McLaren_552274",
    "title": "McLaren_552274",
    "link_img": "https://live.staticflickr.com/65535/48119341148_b36cde2264_o.jpg",
    "id_image": "McLaren_552274",
    "count_view": 0
  },
  {
    "link_thumb": "https://live.staticflickr.com/65535/48119401372_247d4793f6_n.jpg",
    "id_album": "990865885",
    "description": "McLaren_554891",
    "title": "McLaren_554891",
    "link_img": "https://live.staticflickr.com/65535/48119401372_c7fb706ffe_o.jpg",
    "id_image": "McLaren_554891",
    "count_view": 0
  },
  {
    "link_thumb": "https://live.staticflickr.com/65535/48119401617_4f49d79e55_n.jpg",
    "id_album": "990865885",
    "description": "McLaren_569727",
    "title": "McLaren_569727",
    "link_img": "https://live.staticflickr.com/65535/48119401617_613ba12753_o.jpg",
    "id_image": "McLaren_569727",
    "count_view": 0
  },
  {
    "link_thumb": "https://live.staticflickr.com/65535/48119401732_50760a94f7_n.jpg",
    "id_album": "990865885",
    "description": "McLaren_574190",
    "title": "McLaren_574190",
    "link_img": "https://live.staticflickr.com/65535/48119401732_9d6807986b_o.jpg",
    "id_image": "McLaren_574190",
    "count_view": 0
  },
  {
    "link_thumb": "https://live.staticflickr.com/65535/48119341853_a937f2bf26_n.jpg",
    "id_album": "990865885",
    "description": "McLaren_582864",
    "title": "McLaren_582864",
    "link_img": "https://live.staticflickr.com/65535/48119341853_daba15e060_o.jpg",
    "id_image": "McLaren_582864",
    "count_view": 0
  },
  {
    "link_thumb": "https://live.staticflickr.com/65535/48119309371_9bfa71262c_n.jpg",
    "id_album": "990865885",
    "description": "McLaren_582865",
    "title": "McLaren_582865",
    "link_img": "https://live.staticflickr.com/65535/48119309371_55a33bf40a_o.jpg",
    "id_image": "McLaren_582865",
    "count_view": 0
  },
  {
    "link_thumb": "https://live.staticflickr.com/65535/48119342098_700e94f7a4_n.jpg",
    "id_album": "990865885",
    "description": "McLaren_582867",
    "title": "McLaren_582867",
    "link_img": "https://live.staticflickr.com/65535/48119342098_da1cc55559_o.jpg",
    "id_image": "McLaren_582867",
    "count_view": 0
  },
  {
    "link_thumb": "https://live.staticflickr.com/65535/48119402247_aa81ee352d_n.jpg",
    "id_album": "990865885",
    "description": "McLaren_590860",
    "title": "McLaren_590860",
    "link_img": "https://live.staticflickr.com/65535/48119402247_ce7515db0d_o.jpg",
    "id_image": "McLaren_590860",
    "count_view": 0
  },
  {
    "link_thumb": "https://live.staticflickr.com/65535/48119309841_aa955ed1a1_n.jpg",
    "id_album": "990865885",
    "description": "McLaren_593276",
    "title": "McLaren_593276",
    "link_img": "https://live.staticflickr.com/65535/48119309841_13a5c49855_o.jpg",
    "id_image": "McLaren_593276",
    "count_view": 0
  },
  {
    "link_thumb": "https://live.staticflickr.com/65535/48119402587_2b57bb9cce_n.jpg",
    "id_album": "990865885",
    "description": "McLaren_594898",
    "title": "McLaren_594898",
    "link_img": "https://live.staticflickr.com/65535/48119402587_87e1eb6659_o.jpg",
    "id_image": "McLaren_594898",
    "count_view": 0
  },
  {
    "link_thumb": "https://live.staticflickr.com/65535/48119342793_30f6c8b2ff_n.jpg",
    "id_album": "990865885",
    "description": "McLaren_595259",
    "title": "McLaren_595259",
    "link_img": "https://live.staticflickr.com/65535/48119342793_a448826acd_o.jpg",
    "id_image": "McLaren_595259",
    "count_view": 0
  },
  {
    "link_thumb": "https://live.staticflickr.com/65535/48119310371_f1ed667171_n.jpg",
    "id_album": "990865885",
    "description": "McLaren_597629",
    "title": "McLaren_597629",
    "link_img": "https://live.staticflickr.com/65535/48119310371_4bae93011e_o.jpg",
    "id_image": "McLaren_597629",
    "count_view": 0
  },
  {
    "link_thumb": "https://live.staticflickr.com/65535/48119403412_45c24926e4_n.jpg",
    "id_album": "990865885",
    "description": "McLaren_600135",
    "title": "McLaren_600135",
    "link_img": "https://live.staticflickr.com/65535/48119403412_0e6c0dd871_o.jpg",
    "id_image": "McLaren_600135",
    "count_view": 0
  },
  {
    "link_thumb": "https://live.staticflickr.com/65535/48119344018_3a3d069f2c_n.jpg",
    "id_album": "990865885",
    "description": "McLaren_600148",
    "title": "McLaren_600148",
    "link_img": "https://live.staticflickr.com/65535/48119344018_b9573faac8_o.jpg",
    "id_image": "McLaren_600148",
    "count_view": 0
  },
  {
    "link_thumb": "https://live.staticflickr.com/65535/48119344948_d4ef58a9e8_n.jpg",
    "id_album": "990865885",
    "description": "McLaren_611890",
    "title": "McLaren_611890",
    "link_img": "https://live.staticflickr.com/65535/48119344948_bd1c8fc63c_o.jpg",
    "id_image": "McLaren_611890",
    "count_view": 0
  },
  {
    "link_thumb": "https://live.staticflickr.com/65535/48119405132_4bf2010229_n.jpg",
    "id_album": "990865885",
    "description": "McLaren_611905",
    "title": "McLaren_611905",
    "link_img": "https://live.staticflickr.com/65535/48119405132_680b35ee6d_o.jpg",
    "id_image": "McLaren_611905",
    "count_view": 0
  },
  {
    "link_thumb": "https://live.staticflickr.com/65535/48119345278_fbdb919a41_n.jpg",
    "id_album": "990865885",
    "description": "McLaren_611922",
    "title": "McLaren_611922",
    "link_img": "https://live.staticflickr.com/65535/48119345278_657a798366_o.jpg",
    "id_image": "McLaren_611922",
    "count_view": 0
  },
  {
    "link_thumb": "https://live.staticflickr.com/65535/48119345553_c615f8db6f_n.jpg",
    "id_album": "990865885",
    "description": "McLaren_611924",
    "title": "McLaren_611924",
    "link_img": "https://live.staticflickr.com/65535/48119345553_409d2872ac_o.jpg",
    "id_image": "McLaren_611924",
    "count_view": 0
  },
  {
    "link_thumb": "https://live.staticflickr.com/65535/48119345753_87500eccc5_n.jpg",
    "id_album": "990865885",
    "description": "McLaren_612337",
    "title": "McLaren_612337",
    "link_img": "https://live.staticflickr.com/65535/48119345753_9fddd6f8ca_o.jpg",
    "id_image": "McLaren_612337",
    "count_view": 0
  },
  {
    "link_thumb": "https://live.staticflickr.com/65535/48119313141_6e1df68f70_n.jpg",
    "id_album": "990865885",
    "description": "McLaren_612348",
    "title": "McLaren_612348",
    "link_img": "https://live.staticflickr.com/65535/48119313141_34007a0567_o.jpg",
    "id_image": "McLaren_612348",
    "count_view": 0
  },
  {
    "link_thumb": "https://live.staticflickr.com/65535/48119406072_6edd429002_n.jpg",
    "id_album": "990865885",
    "description": "McLaren_612352",
    "title": "McLaren_612352",
    "link_img": "https://live.staticflickr.com/65535/48119406072_ee38dac85f_o.jpg",
    "id_image": "McLaren_612352",
    "count_view": 0
  },
  {
    "link_thumb": "https://live.staticflickr.com/65535/48119313436_673cd6855a_n.jpg",
    "id_album": "990865885",
    "description": "McLaren_612362",
    "title": "McLaren_612362",
    "link_img": "https://live.staticflickr.com/65535/48119313436_b6c3598b4c_o.jpg",
    "id_image": "McLaren_612362",
    "count_view": 0
  },
  {
    "link_thumb": "https://live.staticflickr.com/65535/48119313636_8050771c52_n.jpg",
    "id_album": "990865885",
    "description": "McLaren_614639",
    "title": "McLaren_614639",
    "link_img": "https://live.staticflickr.com/65535/48119313636_418cab378a_o.jpg",
    "id_image": "McLaren_614639",
    "count_view": 0
  },
  {
    "link_thumb": "https://live.staticflickr.com/65535/48119313856_482ceee574_n.jpg",
    "id_album": "990865885",
    "description": "McLaren_615307",
    "title": "McLaren_615307",
    "link_img": "https://live.staticflickr.com/65535/48119313856_38519fab5f_o.jpg",
    "id_image": "McLaren_615307",
    "count_view": 0
  },
  {
    "link_thumb": "https://live.staticflickr.com/65535/48119406692_18d63267a1_n.jpg",
    "id_album": "990865885",
    "description": "McLaren_615326",
    "title": "McLaren_615326",
    "link_img": "https://live.staticflickr.com/65535/48119406692_6eccf18f5d_o.jpg",
    "id_image": "McLaren_615326",
    "count_view": 0
  },
  {
    "link_thumb": "https://live.staticflickr.com/65535/48119406857_9b97a98d4d_n.jpg",
    "id_album": "990865885",
    "description": "McLaren_615561",
    "title": "McLaren_615561",
    "link_img": "https://live.staticflickr.com/65535/48119406857_ba785b19e4_o.jpg",
    "id_image": "McLaren_615561",
    "count_view": 0
  },
  {
    "link_thumb": "https://live.staticflickr.com/65535/48119346993_1c01ab7aae_n.jpg",
    "id_album": "990865885",
    "description": "McLaren_618128",
    "title": "McLaren_618128",
    "link_img": "https://live.staticflickr.com/65535/48119346993_3a44c03d4b_o.jpg",
    "id_image": "McLaren_618128",
    "count_view": 0
  },
  {
    "link_thumb": "https://live.staticflickr.com/65535/48119314451_77d3096430_n.jpg",
    "id_album": "990865885",
    "description": "McLaren_618336",
    "title": "McLaren_618336",
    "link_img": "https://live.staticflickr.com/65535/48119314451_f8b8bb8edb_o.jpg",
    "id_image": "McLaren_618336",
    "count_view": 0
  },
  {
    "link_thumb": "https://live.staticflickr.com/65535/48119347263_3f22abf194_n.jpg",
    "id_album": "990865885",
    "description": "McLaren_631462",
    "title": "McLaren_631462",
    "link_img": "https://live.staticflickr.com/65535/48119347263_f05a80b35e_o.jpg",
    "id_image": "McLaren_631462",
    "count_view": 0
  },
  {
    "link_thumb": "https://live.staticflickr.com/65535/48119347433_e81bba9dc3_n.jpg",
    "id_album": "990865885",
    "description": "McLaren_644377",
    "title": "McLaren_644377",
    "link_img": "https://live.staticflickr.com/65535/48119347433_357d31e609_o.jpg",
    "id_image": "McLaren_644377",
    "count_view": 0
  },
  {
    "link_thumb": "https://live.staticflickr.com/65535/48119347563_78dbd6ab70_n.jpg",
    "id_album": "990865885",
    "description": "McLaren_645885",
    "title": "McLaren_645885",
    "link_img": "https://live.staticflickr.com/65535/48119347563_a0c9ced1be_o.jpg",
    "id_image": "McLaren_645885",
    "count_view": 0
  },
  {
    "link_thumb": "https://live.staticflickr.com/65535/48119315161_14fdc33a6a_n.jpg",
    "id_album": "990865885",
    "description": "McLaren_646121",
    "title": "McLaren_646121",
    "link_img": "https://live.staticflickr.com/65535/48119315161_53acac4ca9_o.jpg",
    "id_image": "McLaren_646121",
    "count_view": 0
  },
  {
    "link_thumb": "https://live.staticflickr.com/65535/48119315296_6deb026dd7_n.jpg",
    "id_album": "990865885",
    "description": "McLaren_646142",
    "title": "McLaren_646142",
    "link_img": "https://live.staticflickr.com/65535/48119315296_f9a29ee96a_o.jpg",
    "id_image": "McLaren_646142",
    "count_view": 0
  },
  {
    "link_thumb": "https://live.staticflickr.com/65535/48119348048_fa5bd77d54_n.jpg",
    "id_album": "990865885",
    "description": "McLaren_646162",
    "title": "McLaren_646162",
    "link_img": "https://live.staticflickr.com/65535/48119348048_3e483c617f_o.jpg",
    "id_image": "McLaren_646162",
    "count_view": 0
  },
  {
    "link_thumb": "https://live.staticflickr.com/65535/48119348213_0ca013574a_n.jpg",
    "id_album": "990865885",
    "description": "McLaren_646178",
    "title": "McLaren_646178",
    "link_img": "https://live.staticflickr.com/65535/48119348213_08a929a0dc_o.jpg",
    "id_image": "McLaren_646178",
    "count_view": 0
  },
  {
    "link_thumb": "https://live.staticflickr.com/65535/48119408607_24dddb3f41_n.jpg",
    "id_album": "990865885",
    "description": "McLaren_646189",
    "title": "McLaren_646189",
    "link_img": "https://live.staticflickr.com/65535/48119408607_7d2a324a26_o.jpg",
    "id_image": "McLaren_646189",
    "count_view": 0
  },
  {
    "link_thumb": "https://live.staticflickr.com/65535/48119409022_ce10fa1b02_n.jpg",
    "id_album": "990865885",
    "description": "McLaren_646191",
    "title": "McLaren_646191",
    "link_img": "https://live.staticflickr.com/65535/48119409022_42996da980_o.jpg",
    "id_image": "McLaren_646191",
    "count_view": 0
  },
  {
    "link_thumb": "https://live.staticflickr.com/65535/48119316851_74987c99a9_n.jpg",
    "id_album": "990865885",
    "description": "McLaren_646233",
    "title": "McLaren_646233",
    "link_img": "https://live.staticflickr.com/65535/48119316851_186f47691a_o.jpg",
    "id_image": "McLaren_646233",
    "count_view": 0
  },
  {
    "link_thumb": "https://live.staticflickr.com/65535/48119317111_f6680e901d_n.jpg",
    "id_album": "990865885",
    "description": "McLaren_652761",
    "title": "McLaren_652761",
    "link_img": "https://live.staticflickr.com/65535/48119317111_22afe50de0_o.jpg",
    "id_image": "McLaren_652761",
    "count_view": 0
  },
  {
    "link_thumb": "https://live.staticflickr.com/65535/48119409827_fa0c92fec1_n.jpg",
    "id_album": "990865885",
    "description": "McLaren_656922",
    "title": "McLaren_656922",
    "link_img": "https://live.staticflickr.com/65535/48119409827_12e8d5b0c7_o.jpg",
    "id_image": "McLaren_656922",
    "count_view": 0
  },
  {
    "link_thumb": "https://live.staticflickr.com/65535/48119317426_a102587181_n.jpg",
    "id_album": "990865885",
    "description": "McLaren_657382",
    "title": "McLaren_657382",
    "link_img": "https://live.staticflickr.com/65535/48119317426_5e3e56e40b_o.jpg",
    "id_image": "McLaren_657382",
    "count_view": 0
  },
  {
    "link_thumb": "https://live.staticflickr.com/65535/48119317716_40b8b7f863_n.jpg",
    "id_album": "990865885",
    "description": "McLaren_657487",
    "title": "McLaren_657487",
    "link_img": "https://live.staticflickr.com/65535/48119317716_6152a0f6a8_o.jpg",
    "id_image": "McLaren_657487",
    "count_view": 0
  },
  {
    "link_thumb": "https://live.staticflickr.com/65535/48119410377_059f147937_n.jpg",
    "id_album": "990865885",
    "description": "McLaren_658552",
    "title": "McLaren_658552",
    "link_img": "https://live.staticflickr.com/65535/48119410377_51cae4858f_o.jpg",
    "id_image": "McLaren_658552",
    "count_view": 0
  },
  {
    "link_thumb": "https://live.staticflickr.com/65535/48119318081_83f4e418e9_n.jpg",
    "id_album": "990865885",
    "description": "McLaren_669389",
    "title": "McLaren_669389",
    "link_img": "https://live.staticflickr.com/65535/48119318081_23760b8a52_o.jpg",
    "id_image": "McLaren_669389",
    "count_view": 0
  },
  {
    "link_thumb": "https://live.staticflickr.com/65535/48119410727_0d3a867c1e_n.jpg",
    "id_album": "990865885",
    "description": "McLaren_675196",
    "title": "McLaren_675196",
    "link_img": "https://live.staticflickr.com/65535/48119410727_d2f3a0578a_o.jpg",
    "id_image": "McLaren_675196",
    "count_view": 0
  },
  {
    "link_thumb": "https://live.staticflickr.com/65535/48119350738_2bb7269c5f_n.jpg",
    "id_album": "990865885",
    "description": "McLaren_678542",
    "title": "McLaren_678542",
    "link_img": "https://live.staticflickr.com/65535/48119350738_a6eeaca641_o.jpg",
    "id_image": "McLaren_678542",
    "count_view": 0
  },
  {
    "link_thumb": "https://live.staticflickr.com/65535/48119350973_a5cabfd0be_n.jpg",
    "id_album": "990865885",
    "description": "McLaren_679914",
    "title": "McLaren_679914",
    "link_img": "https://live.staticflickr.com/65535/48119350973_b320e7bdd2_o.jpg",
    "id_image": "McLaren_679914",
    "count_view": 0
  },
  {
    "link_thumb": "https://live.staticflickr.com/65535/48119318956_c518484d0d_n.jpg",
    "id_album": "990865885",
    "description": "McLaren_680350",
    "title": "McLaren_680350",
    "link_img": "https://live.staticflickr.com/65535/48119318956_b40f37473e_o.jpg",
    "id_image": "McLaren_680350",
    "count_view": 0
  },
  {
    "link_thumb": "https://live.staticflickr.com/65535/48119351463_a4e33460e3_n.jpg",
    "id_album": "990865885",
    "description": "McLaren_682757",
    "title": "McLaren_682757",
    "link_img": "https://live.staticflickr.com/65535/48119351463_f7931f2784_o.jpg",
    "id_image": "McLaren_682757",
    "count_view": 0
  },
  {
    "link_thumb": "https://live.staticflickr.com/65535/48119319316_96d3d5e0de_n.jpg",
    "id_album": "990865885",
    "description": "McLaren_683618",
    "title": "McLaren_683618",
    "link_img": "https://live.staticflickr.com/65535/48119319316_62f92ea1b6_o.jpg",
    "id_image": "McLaren_683618",
    "count_view": 0
  },
  {
    "link_thumb": "https://live.staticflickr.com/65535/48119412037_1886fb850d_n.jpg",
    "id_album": "990865885",
    "description": "McLaren_683619",
    "title": "McLaren_683619",
    "link_img": "https://live.staticflickr.com/65535/48119412037_6c3e9d6b12_o.jpg",
    "id_image": "McLaren_683619",
    "count_view": 0
  },
  {
    "link_thumb": "https://live.staticflickr.com/65535/48119412217_f2d3536248_n.jpg",
    "id_album": "990865885",
    "description": "McLaren_683620",
    "title": "McLaren_683620",
    "link_img": "https://live.staticflickr.com/65535/48119412217_11351b0f38_o.jpg",
    "id_image": "McLaren_683620",
    "count_view": 0
  },
  {
    "link_thumb": "https://live.staticflickr.com/65535/48119352173_a0a08a8af8_n.jpg",
    "id_album": "990865885",
    "description": "McLaren_683621",
    "title": "McLaren_683621",
    "link_img": "https://live.staticflickr.com/65535/48119352173_9b0d895820_o.jpg",
    "id_image": "McLaren_683621",
    "count_view": 0
  },
  {
    "link_thumb": "https://live.staticflickr.com/65535/48119352433_f886febfe1_n.jpg",
    "id_album": "990865885",
    "description": "McLaren_683623",
    "title": "McLaren_683623",
    "link_img": "https://live.staticflickr.com/65535/48119352433_2b48674851_o.jpg",
    "id_image": "McLaren_683623",
    "count_view": 0
  },
  {
    "link_thumb": "https://live.staticflickr.com/65535/48119320461_28bae7da3e_n.jpg",
    "id_album": "990865885",
    "description": "McLaren_683624",
    "title": "McLaren_683624",
    "link_img": "https://live.staticflickr.com/65535/48119320461_9936183eef_o.jpg",
    "id_image": "McLaren_683624",
    "count_view": 0
  },
  {
    "link_thumb": "https://live.staticflickr.com/65535/48119320781_2d38e3ac18_n.jpg",
    "id_album": "990865885",
    "description": "McLaren_683625",
    "title": "McLaren_683625",
    "link_img": "https://live.staticflickr.com/65535/48119320781_525bc39340_o.jpg",
    "id_image": "McLaren_683625",
    "count_view": 0
  },
  {
    "link_thumb": "https://live.staticflickr.com/65535/48119321336_1ac115c75c_n.jpg",
    "id_album": "990865885",
    "description": "McLaren_683626",
    "title": "McLaren_683626",
    "link_img": "https://live.staticflickr.com/65535/48119321336_55e68beb99_o.jpg",
    "id_image": "McLaren_683626",
    "count_view": 0
  }
]