[
  {
    "total_img": 0,
    "number_page": 0,
    "title": "BMW",
    "tag": "BMW,",
    "description": "BMW",
    "link_thumb": "https://live.staticflickr.com/65535/49888522458_904814cda8_n.jpg",
    "id_album": "727633301",
    "total_view": 3216
  },
  {
    "total_img": 0,
    "number_page": 0,
    "title": "BMW Z4",
    "tag": "BMW Z4,",
    "description": "BMW Z4",
    "link_thumb": "https://live.staticflickr.com/65535/49889500622_f80ab4f583_n.jpg",
    "id_album": "2085194193",
    "total_view": 43
  }
]