[
  {
    "link_thumb": "https://live.staticflickr.com/65535/49891389602_975231963a_n.jpg",
    "id_album": "511911558",
    "description": "2008_rv_Nissan_rv_370Z_rv_V1_rv_1440",
    "title": "2008_rv_Nissan_rv_370Z_rv_V1_rv_1440",
    "link_img": "https://live.staticflickr.com/65535/49891389602_7a04c6d31c_o.jpg",
    "id_image": "2008_rv_Nissan_rv_370Z_rv_V1_rv_1440",
    "count_view": 0
  },
  {
    "link_thumb": "https://live.staticflickr.com/65535/49891078391_1a71f04986_n.jpg",
    "id_album": "511911558",
    "description": "2008_rv_Nissan_rv_370Z_rv_V2_rv_1440",
    "title": "2008_rv_Nissan_rv_370Z_rv_V2_rv_1440",
    "link_img": "https://live.staticflickr.com/65535/49891078391_93e7d8bc2c_o.jpg",
    "id_image": "2008_rv_Nissan_rv_370Z_rv_V2_rv_1440",
    "count_view": 0
  },
  {
    "link_thumb": "https://live.staticflickr.com/65535/49890565183_c133e3ac85_n.jpg",
    "id_album": "511911558",
    "description": "2008_rv_Nissan_rv_370Z_rv_V3_rv_1440",
    "title": "2008_rv_Nissan_rv_370Z_rv_V3_rv_1440",
    "link_img": "https://live.staticflickr.com/65535/49890565183_54198076b5_o.jpg",
    "id_image": "2008_rv_Nissan_rv_370Z_rv_V3_rv_1440",
    "count_view": 0
  },
  {
    "link_thumb": "https://live.staticflickr.com/65535/49891078916_ffdaab8539_n.jpg",
    "id_album": "511911558",
    "description": "2008_rv_Nissan_rv_370Z_rv_V4_rv_1440",
    "title": "2008_rv_Nissan_rv_370Z_rv_V4_rv_1440",
    "link_img": "https://live.staticflickr.com/65535/49891078916_3ac0b761f3_o.jpg",
    "id_image": "2008_rv_Nissan_rv_370Z_rv_V4_rv_1440",
    "count_view": 0
  },
  {
    "link_thumb": "https://live.staticflickr.com/65535/49891390442_e34c7af3be_n.jpg",
    "id_album": "511911558",
    "description": "2008_rv_Nissan_rv_370Z_rv_V5_rv_1440",
    "title": "2008_rv_Nissan_rv_370Z_rv_V5_rv_1440",
    "link_img": "https://live.staticflickr.com/65535/49891390442_b74cf39263_o.jpg",
    "id_image": "2008_rv_Nissan_rv_370Z_rv_V5_rv_1440",
    "count_view": 0
  },
  {
    "link_thumb": "https://live.staticflickr.com/65535/49891390602_d84420e637_n.jpg",
    "id_album": "511911558",
    "description": "2008_rv_Nissan_rv_370Z_rv_V6_rv_1440",
    "title": "2008_rv_Nissan_rv_370Z_rv_V6_rv_1440",
    "link_img": "https://live.staticflickr.com/65535/49891390602_724a0e9484_o.jpg",
    "id_image": "2008_rv_Nissan_rv_370Z_rv_V6_rv_1440",
    "count_view": 0
  },
  {
    "link_thumb": "https://live.staticflickr.com/65535/49891391077_667b4d36c5_n.jpg",
    "id_album": "511911558",
    "description": "2009_rv_Nissan_rv_370Z_rv_Roadster_rv_V1_rv_1440",
    "title": "2009_rv_Nissan_rv_370Z_rv_Roadster_rv_V1_rv_1440",
    "link_img": "https://live.staticflickr.com/65535/49891391077_16fb0d8441_o.jpg",
    "id_image": "2009_rv_Nissan_rv_370Z_rv_Roadster_rv_V1_rv_1440",
    "count_view": 0
  },
  {
    "link_thumb": "https://live.staticflickr.com/65535/49890566433_42889b3da7_n.jpg",
    "id_album": "511911558",
    "description": "2009_rv_Nissan_rv_370Z_rv_Roadster_rv_V2_rv_1440",
    "title": "2009_rv_Nissan_rv_370Z_rv_Roadster_rv_V2_rv_1440",
    "link_img": "https://live.staticflickr.com/65535/49890566433_dcac6aff8a_o.jpg",
    "id_image": "2009_rv_Nissan_rv_370Z_rv_Roadster_rv_V2_rv_1440",
    "count_view": 0
  },
  {
    "link_thumb": "https://live.staticflickr.com/65535/49891391652_360790dc67_n.jpg",
    "id_album": "511911558",
    "description": "2009_rv_Nissan_rv_370Z_rv_Roadster_rv_V4_rv_1440",
    "title": "2009_rv_Nissan_rv_370Z_rv_Roadster_rv_V4_rv_1440",
    "link_img": "https://live.staticflickr.com/65535/49891391652_522a8d4e02_o.jpg",
    "id_image": "2009_rv_Nissan_rv_370Z_rv_Roadster_rv_V4_rv_1440",
    "count_view": 0
  },
  {
    "link_thumb": "https://live.staticflickr.com/65535/49891391862_e16ec0fd2c_n.jpg",
    "id_album": "511911558",
    "description": "2009_rv_Nissan_rv_370Z_rv_Roadster_rv_V5_rv_1440",
    "title": "2009_rv_Nissan_rv_370Z_rv_Roadster_rv_V5_rv_1440",
    "link_img": "https://live.staticflickr.com/65535/49891391862_54f416bd00_o.jpg",
    "id_image": "2009_rv_Nissan_rv_370Z_rv_Roadster_rv_V5_rv_1440",
    "count_view": 0
  },
  {
    "link_thumb": "https://live.staticflickr.com/65535/49891080766_fd4e957965_n.jpg",
    "id_album": "511911558",
    "description": "2009_rv_Nissan_rv_370Z_rv_Roadster_rv_V6_rv_1440",
    "title": "2009_rv_Nissan_rv_370Z_rv_Roadster_rv_V6_rv_1440",
    "link_img": "https://live.staticflickr.com/65535/49891080766_e235bcb56f_o.jpg",
    "id_image": "2009_rv_Nissan_rv_370Z_rv_Roadster_rv_V6_rv_1440",
    "count_view": 0
  },
  {
    "link_thumb": "https://live.staticflickr.com/65535/49891080936_1d64394412_n.jpg",
    "id_album": "511911558",
    "description": "2009_rv_Nissan_rv_370Z_rv_V1_rv_1536",
    "title": "2009_rv_Nissan_rv_370Z_rv_V1_rv_1536",
    "link_img": "https://live.staticflickr.com/65535/49891080936_354046a1d0_o.jpg",
    "id_image": "2009_rv_Nissan_rv_370Z_rv_V1_rv_1536",
    "count_view": 0
  },
  {
    "link_thumb": "https://live.staticflickr.com/65535/49891081166_12344ce9ae_n.jpg",
    "id_album": "511911558",
    "description": "2009_rv_Nissan_rv_370Z_rv_V2_rv_1536",
    "title": "2009_rv_Nissan_rv_370Z_rv_V2_rv_1536",
    "link_img": "https://live.staticflickr.com/65535/49891081166_4288d6d7cd_o.jpg",
    "id_image": "2009_rv_Nissan_rv_370Z_rv_V2_rv_1536",
    "count_view": 0
  },
  {
    "link_thumb": "https://live.staticflickr.com/65535/49890567848_f825c68aa9_n.jpg",
    "id_album": "511911558",
    "description": "2009_rv_Nissan_rv_370Z_rv_V3_rv_1536",
    "title": "2009_rv_Nissan_rv_370Z_rv_V3_rv_1536",
    "link_img": "https://live.staticflickr.com/65535/49890567848_2ac0e35e28_o.jpg",
    "id_image": "2009_rv_Nissan_rv_370Z_rv_V3_rv_1536",
    "count_view": 0
  },
  {
    "link_thumb": "https://live.staticflickr.com/65535/49891392792_db140d533e_n.jpg",
    "id_album": "511911558",
    "description": "2009_rv_Nissan_rv_370Z_rv_V4_rv_1440",
    "title": "2009_rv_Nissan_rv_370Z_rv_V4_rv_1440",
    "link_img": "https://live.staticflickr.com/65535/49891392792_c9ed301c84_o.jpg",
    "id_image": "2009_rv_Nissan_rv_370Z_rv_V4_rv_1440",
    "count_view": 0
  },
  {
    "link_thumb": "https://live.staticflickr.com/65535/49891393002_abe4241d68_n.jpg",
    "id_album": "511911558",
    "description": "2009_rv_Nissan_rv_370Z_rv_V5_rv_1440",
    "title": "2009_rv_Nissan_rv_370Z_rv_V5_rv_1440",
    "link_img": "https://live.staticflickr.com/65535/49891393002_bbcf895bc4_o.jpg",
    "id_image": "2009_rv_Nissan_rv_370Z_rv_V5_rv_1440",
    "count_view": 0
  },
  {
    "link_thumb": "https://live.staticflickr.com/65535/49891393282_a3c4daf783_n.jpg",
    "id_album": "511911558",
    "description": "2009_rv_Nissan_rv_370Z_rv_V6_rv_1440",
    "title": "2009_rv_Nissan_rv_370Z_rv_V6_rv_1440",
    "link_img": "https://live.staticflickr.com/65535/49891393282_0b9fb4ee5e_o.jpg",
    "id_image": "2009_rv_Nissan_rv_370Z_rv_V6_rv_1440",
    "count_view": 0
  },
  {
    "link_thumb": "https://live.staticflickr.com/65535/49891393502_54f9b66fa2_n.jpg",
    "id_album": "511911558",
    "description": "2010_rv_Nissan_rv_370Z_rv_40th_rv_Anniversary_rv_Edition_rv_V1_rv_1440",
    "title": "2010_rv_Nissan_rv_370Z_rv_40th_rv_Anniversary_rv_Edition_rv_V1_rv_1440",
    "link_img": "https://live.staticflickr.com/65535/49891393502_f55f67d8fc_o.jpg",
    "id_image": "2010_rv_Nissan_rv_370Z_rv_40th_rv_Anniversary_rv_Edition_rv_V1_rv_1440",
    "count_view": 0
  },
  {
    "link_thumb": "https://live.staticflickr.com/65535/49891393827_d77b1eaf7a_n.jpg",
    "id_album": "511911558",
    "description": "2010_rv_Nissan_rv_370Z_rv_40th_rv_Anniversary_rv_Edition_rv_V2_rv_1440",
    "title": "2010_rv_Nissan_rv_370Z_rv_40th_rv_Anniversary_rv_Edition_rv_V2_rv_1440",
    "link_img": "https://live.staticflickr.com/65535/49891393827_073b6f2303_o.jpg",
    "id_image": "2010_rv_Nissan_rv_370Z_rv_40th_rv_Anniversary_rv_Edition_rv_V2_rv_1440",
    "count_view": 0
  },
  {
    "link_thumb": "https://live.staticflickr.com/65535/49891082596_cda6b395da_n.jpg",
    "id_album": "511911558",
    "description": "2010_rv_Nissan_rv_370Z_rv_40th_rv_Anniversary_rv_Edition_rv_V3_rv_1440",
    "title": "2010_rv_Nissan_rv_370Z_rv_40th_rv_Anniversary_rv_Edition_rv_V3_rv_1440",
    "link_img": "https://live.staticflickr.com/65535/49891082596_bbbe2f640c_o.jpg",
    "id_image": "2010_rv_Nissan_rv_370Z_rv_40th_rv_Anniversary_rv_Edition_rv_V3_rv_1440",
    "count_view": 0
  },
  {
    "link_thumb": "https://live.staticflickr.com/65535/49890569103_5c506536f4_n.jpg",
    "id_album": "511911558",
    "description": "2010_rv_Nissan_rv_370Z_rv_40th_rv_Anniversary_rv_Edition_rv_V4_rv_1440",
    "title": "2010_rv_Nissan_rv_370Z_rv_40th_rv_Anniversary_rv_Edition_rv_V4_rv_1440",
    "link_img": "https://live.staticflickr.com/65535/49890569103_71df161dd7_o.jpg",
    "id_image": "2010_rv_Nissan_rv_370Z_rv_40th_rv_Anniversary_rv_Edition_rv_V4_rv_1440",
    "count_view": 0
  },
  {
    "link_thumb": "https://live.staticflickr.com/65535/49890569263_0a520c56d1_n.jpg",
    "id_album": "511911558",
    "description": "2010_rv_Nissan_rv_370Z_rv_40th_rv_Anniversary_rv_Edition_rv_V5_rv_1440",
    "title": "2010_rv_Nissan_rv_370Z_rv_40th_rv_Anniversary_rv_Edition_rv_V5_rv_1440",
    "link_img": "https://live.staticflickr.com/65535/49890569263_f2ac949773_o.jpg",
    "id_image": "2010_rv_Nissan_rv_370Z_rv_40th_rv_Anniversary_rv_Edition_rv_V5_rv_1440",
    "count_view": 0
  },
  {
    "link_thumb": "https://live.staticflickr.com/65535/49890569498_dcf320132f_n.jpg",
    "id_album": "511911558",
    "description": "2010_rv_Nissan_rv_370Z_rv_V1_rv_1440",
    "title": "2010_rv_Nissan_rv_370Z_rv_V1_rv_1440",
    "link_img": "https://live.staticflickr.com/65535/49890569498_9c68ac40bc_o.jpg",
    "id_image": "2010_rv_Nissan_rv_370Z_rv_V1_rv_1440",
    "count_view": 0
  },
  {
    "link_thumb": "https://live.staticflickr.com/65535/49891083346_92be7018f2_n.jpg",
    "id_album": "511911558",
    "description": "2010_rv_Nissan_rv_370Z_rv_V2_rv_1440",
    "title": "2010_rv_Nissan_rv_370Z_rv_V2_rv_1440",
    "link_img": "https://live.staticflickr.com/65535/49891083346_bf5f61c014_o.jpg",
    "id_image": "2010_rv_Nissan_rv_370Z_rv_V2_rv_1440",
    "count_view": 0
  },
  {
    "link_thumb": "https://live.staticflickr.com/65535/49890569863_f64430107e_n.jpg",
    "id_album": "511911558",
    "description": "2010_rv_Nissan_rv_370Z_rv_V3_rv_1440",
    "title": "2010_rv_Nissan_rv_370Z_rv_V3_rv_1440",
    "link_img": "https://live.staticflickr.com/65535/49890569863_d95f2a2f27_o.jpg",
    "id_image": "2010_rv_Nissan_rv_370Z_rv_V3_rv_1440",
    "count_view": 0
  },
  {
    "link_thumb": "https://live.staticflickr.com/65535/49891395142_c8b0f6ece0_n.jpg",
    "id_album": "511911558",
    "description": "2011_rv_Nissan_rv_370Z_rv_GT_rv_V1_rv_1440",
    "title": "2011_rv_Nissan_rv_370Z_rv_GT_rv_V1_rv_1440",
    "link_img": "https://live.staticflickr.com/65535/49891395142_116f11c30f_o.jpg",
    "id_image": "2011_rv_Nissan_rv_370Z_rv_GT_rv_V1_rv_1440",
    "count_view": 0
  },
  {
    "link_thumb": "https://live.staticflickr.com/65535/49891083921_4f2354ce15_n.jpg",
    "id_album": "511911558",
    "description": "2011_rv_Nissan_rv_370Z_rv_GT_rv_V2_rv_1440",
    "title": "2011_rv_Nissan_rv_370Z_rv_GT_rv_V2_rv_1440",
    "link_img": "https://live.staticflickr.com/65535/49891083921_c89fe807c4_o.jpg",
    "id_image": "2011_rv_Nissan_rv_370Z_rv_GT_rv_V2_rv_1440",
    "count_view": 0
  },
  {
    "link_thumb": "https://live.staticflickr.com/65535/49891395572_6f2c8b6050_n.jpg",
    "id_album": "511911558",
    "description": "2011_rv_Nissan_rv_370Z_rv_GT_rv_V3_rv_1440",
    "title": "2011_rv_Nissan_rv_370Z_rv_GT_rv_V3_rv_1440",
    "link_img": "https://live.staticflickr.com/65535/49891395572_b796748e94_o.jpg",
    "id_image": "2011_rv_Nissan_rv_370Z_rv_GT_rv_V3_rv_1440",
    "count_view": 0
  },
  {
    "link_thumb": "https://live.staticflickr.com/65535/49891395757_f70cdd68e4_n.jpg",
    "id_album": "511911558",
    "description": "2011_rv_Nissan_rv_370Z_rv_GT_rv_V4_rv_1440",
    "title": "2011_rv_Nissan_rv_370Z_rv_GT_rv_V4_rv_1440",
    "link_img": "https://live.staticflickr.com/65535/49891395757_f2b6ddda52_o.jpg",
    "id_image": "2011_rv_Nissan_rv_370Z_rv_GT_rv_V4_rv_1440",
    "count_view": 0
  },
  {
    "link_thumb": "https://live.staticflickr.com/65535/49891396002_8e8a778bdd_n.jpg",
    "id_album": "511911558",
    "description": "2011_rv_Nissan_rv_370Z_rv_GT_rv_V5_rv_1440",
    "title": "2011_rv_Nissan_rv_370Z_rv_GT_rv_V5_rv_1440",
    "link_img": "https://live.staticflickr.com/65535/49891396002_d53dd4ed3e_o.jpg",
    "id_image": "2011_rv_Nissan_rv_370Z_rv_GT_rv_V5_rv_1440",
    "count_view": 0
  },
  {
    "link_thumb": "https://live.staticflickr.com/65535/49890571043_2349f3994e_n.jpg",
    "id_album": "511911558",
    "description": "2011_rv_Nissan_rv_370Z_rv_GT_rv_V6_rv_1440",
    "title": "2011_rv_Nissan_rv_370Z_rv_GT_rv_V6_rv_1440",
    "link_img": "https://live.staticflickr.com/65535/49890571043_8f4dc30c96_o.jpg",
    "id_image": "2011_rv_Nissan_rv_370Z_rv_GT_rv_V6_rv_1440",
    "count_view": 0
  },
  {
    "link_thumb": "https://live.staticflickr.com/65535/49891085011_ba449b752d_n.jpg",
    "id_album": "511911558",
    "description": "2013_rv_Nissan_rv_370Z_rv_V1_rv_1440",
    "title": "2013_rv_Nissan_rv_370Z_rv_V1_rv_1440",
    "link_img": "https://live.staticflickr.com/65535/49891085011_890607abe2_o.jpg",
    "id_image": "2013_rv_Nissan_rv_370Z_rv_V1_rv_1440",
    "count_view": 0
  },
  {
    "link_thumb": "https://live.staticflickr.com/65535/49891085291_1f40b9a522_n.jpg",
    "id_album": "511911558",
    "description": "2013_rv_Nissan_rv_370Z_rv_V2_rv_1440",
    "title": "2013_rv_Nissan_rv_370Z_rv_V2_rv_1440",
    "link_img": "https://live.staticflickr.com/65535/49891085291_1c06ef6e71_o.jpg",
    "id_image": "2013_rv_Nissan_rv_370Z_rv_V2_rv_1440",
    "count_view": 0
  },
  {
    "link_thumb": "https://live.staticflickr.com/65535/49891396782_07d58530f1_n.jpg",
    "id_album": "511911558",
    "description": "2013_rv_Nissan_rv_370Z_rv_V3_rv_1440",
    "title": "2013_rv_Nissan_rv_370Z_rv_V3_rv_1440",
    "link_img": "https://live.staticflickr.com/65535/49891396782_2381c6e744_o.jpg",
    "id_image": "2013_rv_Nissan_rv_370Z_rv_V3_rv_1440",
    "count_view": 0
  },
  {
    "link_thumb": "https://live.staticflickr.com/65535/49890571898_8b87553164_n.jpg",
    "id_album": "511911558",
    "description": "2013_rv_Nissan_rv_370Z_rv_V4_rv_1440",
    "title": "2013_rv_Nissan_rv_370Z_rv_V4_rv_1440",
    "link_img": "https://live.staticflickr.com/65535/49890571898_c7fb7121f8_o.jpg",
    "id_image": "2013_rv_Nissan_rv_370Z_rv_V4_rv_1440",
    "count_view": 0
  },
  {
    "link_thumb": "https://live.staticflickr.com/65535/49891085941_fec690e493_n.jpg",
    "id_album": "511911558",
    "description": "2013_rv_Nissan_rv_370Z_rv_V5_rv_1440",
    "title": "2013_rv_Nissan_rv_370Z_rv_V5_rv_1440",
    "link_img": "https://live.staticflickr.com/65535/49891085941_2bf1e9ff4e_o.jpg",
    "id_image": "2013_rv_Nissan_rv_370Z_rv_V5_rv_1440",
    "count_view": 0
  },
  {
    "link_thumb": "https://live.staticflickr.com/65535/49891086216_687d85dff0_n.jpg",
    "id_album": "511911558",
    "description": "2013_rv_Nissan_rv_370Z_rv_V6_rv_1440",
    "title": "2013_rv_Nissan_rv_370Z_rv_V6_rv_1440",
    "link_img": "https://live.staticflickr.com/65535/49891086216_15a4bf0ef4_o.jpg",
    "id_image": "2013_rv_Nissan_rv_370Z_rv_V6_rv_1440",
    "count_view": 0
  },
  {
    "link_thumb": "https://live.staticflickr.com/65535/49891397917_313558a603_n.jpg",
    "id_album": "511911558",
    "description": "2014_rv_Nissan_rv_370Z_rv_NISMO_rv_V1_rv_1600",
    "title": "2014_rv_Nissan_rv_370Z_rv_NISMO_rv_V1_rv_1600",
    "link_img": "https://live.staticflickr.com/65535/49891397917_f84dfc56cc_o.jpg",
    "id_image": "2014_rv_Nissan_rv_370Z_rv_NISMO_rv_V1_rv_1600",
    "count_view": 0
  },
  {
    "link_thumb": "https://live.staticflickr.com/65535/49890572958_6a2805b005_n.jpg",
    "id_album": "511911558",
    "description": "2014_rv_Nissan_rv_370Z_rv_NISMO_rv_V2_rv_1600",
    "title": "2014_rv_Nissan_rv_370Z_rv_NISMO_rv_V2_rv_1600",
    "link_img": "https://live.staticflickr.com/65535/49890572958_6f9267416f_o.jpg",
    "id_image": "2014_rv_Nissan_rv_370Z_rv_NISMO_rv_V2_rv_1600",
    "count_view": 0
  },
  {
    "link_thumb": "https://live.staticflickr.com/65535/49891398402_8b38dccb1a_n.jpg",
    "id_album": "511911558",
    "description": "2014_rv_Nissan_rv_370Z_rv_NISMO_rv_V3_rv_1600",
    "title": "2014_rv_Nissan_rv_370Z_rv_NISMO_rv_V3_rv_1600",
    "link_img": "https://live.staticflickr.com/65535/49891398402_486af9602c_o.jpg",
    "id_image": "2014_rv_Nissan_rv_370Z_rv_NISMO_rv_V3_rv_1600",
    "count_view": 0
  },
  {
    "link_thumb": "https://live.staticflickr.com/65535/49891087566_03ac4d0218_n.jpg",
    "id_album": "511911558",
    "description": "2014_rv_Nissan_rv_370Z_rv_NISMO_rv_V4_rv_1600",
    "title": "2014_rv_Nissan_rv_370Z_rv_NISMO_rv_V4_rv_1600",
    "link_img": "https://live.staticflickr.com/65535/49891087566_62b7521213_o.jpg",
    "id_image": "2014_rv_Nissan_rv_370Z_rv_NISMO_rv_V4_rv_1600",
    "count_view": 0
  },
  {
    "link_thumb": "https://live.staticflickr.com/65535/49891399022_db1db1d5fc_n.jpg",
    "id_album": "511911558",
    "description": "2014_rv_Nissan_rv_370Z_rv_NISMO_rv_V5_rv_1600",
    "title": "2014_rv_Nissan_rv_370Z_rv_NISMO_rv_V5_rv_1600",
    "link_img": "https://live.staticflickr.com/65535/49891399022_acc941c1e8_o.jpg",
    "id_image": "2014_rv_Nissan_rv_370Z_rv_NISMO_rv_V5_rv_1600",
    "count_view": 0
  },
  {
    "link_thumb": "https://live.staticflickr.com/65535/49890574078_81005c529b_n.jpg",
    "id_album": "511911558",
    "description": "2014_rv_Nissan_rv_370Z_rv_NISMO_rv_V6_rv_1600",
    "title": "2014_rv_Nissan_rv_370Z_rv_NISMO_rv_V6_rv_1600",
    "link_img": "https://live.staticflickr.com/65535/49890574078_6b18a72770_o.jpg",
    "id_image": "2014_rv_Nissan_rv_370Z_rv_NISMO_rv_V6_rv_1600",
    "count_view": 0
  },
  {
    "link_thumb": "https://live.staticflickr.com/65535/49890574298_d68ab0d388_n.jpg",
    "id_album": "511911558",
    "description": "2014_rv_Nissan_rv_370Z_rv_NISMO_rv_V7_rv_1600",
    "title": "2014_rv_Nissan_rv_370Z_rv_NISMO_rv_V7_rv_1600",
    "link_img": "https://live.staticflickr.com/65535/49890574298_ea3be4cbab_o.jpg",
    "id_image": "2014_rv_Nissan_rv_370Z_rv_NISMO_rv_V7_rv_1600",
    "count_view": 0
  },
  {
    "link_thumb": "https://live.staticflickr.com/65535/49891088501_6ba7576967_n.jpg",
    "id_album": "511911558",
    "description": "2014_rv_Nissan_rv_370Z_rv_NISMO_rv_V8_rv_1600",
    "title": "2014_rv_Nissan_rv_370Z_rv_NISMO_rv_V8_rv_1600",
    "link_img": "https://live.staticflickr.com/65535/49891088501_be3bdf4818_o.jpg",
    "id_image": "2014_rv_Nissan_rv_370Z_rv_NISMO_rv_V8_rv_1600",
    "count_view": 0
  },
  {
    "link_thumb": "https://live.staticflickr.com/65535/49890574683_d4c4e997d2_n.jpg",
    "id_album": "511911558",
    "description": "2015_rv_Nissan_rv_370Z_rv_Nismo_rv_Roadster_rv_Concept_rv_V1_rv_1600",
    "title": "2015_rv_Nissan_rv_370Z_rv_Nismo_rv_Roadster_rv_Concept_rv_V1_rv_1600",
    "link_img": "https://live.staticflickr.com/65535/49890574683_3dd66c07f7_o.jpg",
    "id_image": "2015_rv_Nissan_rv_370Z_rv_Nismo_rv_Roadster_rv_Concept_rv_V1_rv_1600",
    "count_view": 0
  },
  {
    "link_thumb": "https://live.staticflickr.com/65535/49891088881_75cb6d230b_n.jpg",
    "id_album": "511911558",
    "description": "2015_rv_Nissan_rv_370Z_rv_Nismo_rv_Roadster_rv_Concept_rv_V2_rv_1600",
    "title": "2015_rv_Nissan_rv_370Z_rv_Nismo_rv_Roadster_rv_Concept_rv_V2_rv_1600",
    "link_img": "https://live.staticflickr.com/65535/49891088881_7a31ae3ae4_o.jpg",
    "id_image": "2015_rv_Nissan_rv_370Z_rv_Nismo_rv_Roadster_rv_Concept_rv_V2_rv_1600",
    "count_view": 0
  },
  {
    "link_thumb": "https://live.staticflickr.com/65535/49891400337_1117218ae9_n.jpg",
    "id_album": "511911558",
    "description": "2015_rv_Nissan_rv_370Z_rv_Nismo_rv_Roadster_rv_Concept_rv_V3_rv_1600",
    "title": "2015_rv_Nissan_rv_370Z_rv_Nismo_rv_Roadster_rv_Concept_rv_V3_rv_1600",
    "link_img": "https://live.staticflickr.com/65535/49891400337_18f752e1a0_o.jpg",
    "id_image": "2015_rv_Nissan_rv_370Z_rv_Nismo_rv_Roadster_rv_Concept_rv_V3_rv_1600",
    "count_view": 0
  },
  {
    "link_thumb": "https://live.staticflickr.com/65535/49891400502_6ed8f3e21d_n.jpg",
    "id_album": "511911558",
    "description": "2015_rv_Nissan_rv_370Z_rv_Nismo_rv_Roadster_rv_Concept_rv_V4_rv_1600",
    "title": "2015_rv_Nissan_rv_370Z_rv_Nismo_rv_Roadster_rv_Concept_rv_V4_rv_1600",
    "link_img": "https://live.staticflickr.com/65535/49891400502_fab27f7c95_o.jpg",
    "id_image": "2015_rv_Nissan_rv_370Z_rv_Nismo_rv_Roadster_rv_Concept_rv_V4_rv_1600",
    "count_view": 0
  },
  {
    "link_thumb": "https://live.staticflickr.com/65535/49891089411_51565351cd_n.jpg",
    "id_album": "511911558",
    "description": "2015_rv_Nissan_rv_370Z_rv_Nismo_rv_Roadster_rv_Concept_rv_V5_rv_1600",
    "title": "2015_rv_Nissan_rv_370Z_rv_Nismo_rv_Roadster_rv_Concept_rv_V5_rv_1600",
    "link_img": "https://live.staticflickr.com/65535/49891089411_e90aafc489_o.jpg",
    "id_image": "2015_rv_Nissan_rv_370Z_rv_Nismo_rv_Roadster_rv_Concept_rv_V5_rv_1600",
    "count_view": 0
  },
  {
    "link_thumb": "https://live.staticflickr.com/65535/49891400932_3e5216b4d0_n.jpg",
    "id_album": "511911558",
    "description": "2015_rv_Nissan_rv_370Z_rv_Nismo_rv_Roadster_rv_Concept_rv_V6_rv_1600",
    "title": "2015_rv_Nissan_rv_370Z_rv_Nismo_rv_Roadster_rv_Concept_rv_V6_rv_1600",
    "link_img": "https://live.staticflickr.com/65535/49891400932_9655cfffa1_o.jpg",
    "id_image": "2015_rv_Nissan_rv_370Z_rv_Nismo_rv_Roadster_rv_Concept_rv_V6_rv_1600",
    "count_view": 0
  },
  {
    "link_thumb": "https://live.staticflickr.com/65535/49891401287_574937dff7_n.jpg",
    "id_album": "511911558",
    "description": "2015_rv_Nissan_rv_370Z_rv_Nismo_rv_V1_rv_1600",
    "title": "2015_rv_Nissan_rv_370Z_rv_Nismo_rv_V1_rv_1600",
    "link_img": "https://live.staticflickr.com/65535/49891401287_59889aa99a_o.jpg",
    "id_image": "2015_rv_Nissan_rv_370Z_rv_Nismo_rv_V1_rv_1600",
    "count_view": 0
  },
  {
    "link_thumb": "https://live.staticflickr.com/65535/49891401582_5d67a5dea2_n.jpg",
    "id_album": "511911558",
    "description": "2015_rv_Nissan_rv_370Z_rv_Nismo_rv_V2_rv_1600",
    "title": "2015_rv_Nissan_rv_370Z_rv_Nismo_rv_V2_rv_1600",
    "link_img": "https://live.staticflickr.com/65535/49891401582_98334d6b31_o.jpg",
    "id_image": "2015_rv_Nissan_rv_370Z_rv_Nismo_rv_V2_rv_1600",
    "count_view": 0
  },
  {
    "link_thumb": "https://live.staticflickr.com/65535/49890576703_bc7de5a9ab_n.jpg",
    "id_album": "511911558",
    "description": "2015_rv_Nissan_rv_370Z_rv_Nismo_rv_V3_rv_1600",
    "title": "2015_rv_Nissan_rv_370Z_rv_Nismo_rv_V3_rv_1600",
    "link_img": "https://live.staticflickr.com/65535/49890576703_e64ee2e65c_o.jpg",
    "id_image": "2015_rv_Nissan_rv_370Z_rv_Nismo_rv_V3_rv_1600",
    "count_view": 0
  },
  {
    "link_thumb": "https://live.staticflickr.com/65535/49891402162_75114c78e3_n.jpg",
    "id_album": "511911558",
    "description": "2015_rv_Nissan_rv_370Z_rv_Nismo_rv_V4_rv_1600",
    "title": "2015_rv_Nissan_rv_370Z_rv_Nismo_rv_V4_rv_1600",
    "link_img": "https://live.staticflickr.com/65535/49891402162_164beedda5_o.jpg",
    "id_image": "2015_rv_Nissan_rv_370Z_rv_Nismo_rv_V4_rv_1600",
    "count_view": 0
  },
  {
    "link_thumb": "https://live.staticflickr.com/65535/49890577178_8c7bb61496_n.jpg",
    "id_album": "511911558",
    "description": "2015_rv_Nissan_rv_370Z_rv_Nismo_rv_V5_rv_1600",
    "title": "2015_rv_Nissan_rv_370Z_rv_Nismo_rv_V5_rv_1600",
    "link_img": "https://live.staticflickr.com/65535/49890577178_aa5da3aa46_o.jpg",
    "id_image": "2015_rv_Nissan_rv_370Z_rv_Nismo_rv_V5_rv_1600",
    "count_view": 0
  },
  {
    "link_thumb": "https://live.staticflickr.com/65535/49891402702_616970faff_n.jpg",
    "id_album": "511911558",
    "description": "2015_rv_Nissan_rv_370Z_rv_Nismo_rv_V6_rv_1600",
    "title": "2015_rv_Nissan_rv_370Z_rv_Nismo_rv_V6_rv_1600",
    "link_img": "https://live.staticflickr.com/65535/49891402702_dfafa5ef69_o.jpg",
    "id_image": "2015_rv_Nissan_rv_370Z_rv_Nismo_rv_V6_rv_1600",
    "count_view": 0
  },
  {
    "link_thumb": "https://live.staticflickr.com/65535/49890577588_b0aacdd45f_n.jpg",
    "id_album": "511911558",
    "description": "2015_rv_Nissan_rv_370Z_rv_Nismo_rv_V7_rv_1600",
    "title": "2015_rv_Nissan_rv_370Z_rv_Nismo_rv_V7_rv_1600",
    "link_img": "https://live.staticflickr.com/65535/49890577588_05bdd68d8e_o.jpg",
    "id_image": "2015_rv_Nissan_rv_370Z_rv_Nismo_rv_V7_rv_1600",
    "count_view": 0
  },
  {
    "link_thumb": "https://live.staticflickr.com/65535/49891403187_ee612368a9_n.jpg",
    "id_album": "511911558",
    "description": "2015_rv_Nissan_rv_370Z_rv_Nismo_rv_V8_rv_1600",
    "title": "2015_rv_Nissan_rv_370Z_rv_Nismo_rv_V8_rv_1600",
    "link_img": "https://live.staticflickr.com/65535/49891403187_a1c05414e6_o.jpg",
    "id_image": "2015_rv_Nissan_rv_370Z_rv_Nismo_rv_V8_rv_1600",
    "count_view": 0
  },
  {
    "link_thumb": "https://live.staticflickr.com/65535/49890577973_b3f50b39df_n.jpg",
    "id_album": "511911558",
    "description": "2015_rv_Nissan_rv_370Z_rv_Nismo_rv_V9_rv_1600",
    "title": "2015_rv_Nissan_rv_370Z_rv_Nismo_rv_V9_rv_1600",
    "link_img": "https://live.staticflickr.com/65535/49890577973_4f9ac7a72c_o.jpg",
    "id_image": "2015_rv_Nissan_rv_370Z_rv_Nismo_rv_V9_rv_1600",
    "count_view": 0
  },
  {
    "link_thumb": "https://live.staticflickr.com/65535/49891403602_3c3494f35f_n.jpg",
    "id_album": "511911558",
    "description": "2018_rv_Nissan_rv_370Z_rv_Heritage_rv_Edition_rv_V1_rv_2000",
    "title": "2018_rv_Nissan_rv_370Z_rv_Heritage_rv_Edition_rv_V1_rv_2000",
    "link_img": "https://live.staticflickr.com/65535/49891403602_59ea20685a_o.jpg",
    "id_image": "2018_rv_Nissan_rv_370Z_rv_Heritage_rv_Edition_rv_V1_rv_2000",
    "count_view": 0
  },
  {
    "link_thumb": "https://live.staticflickr.com/65535/49891403827_2ee32cc80a_n.jpg",
    "id_album": "511911558",
    "description": "2018_rv_Nissan_rv_370Z_rv_Heritage_rv_Edition_rv_V2_rv_2000",
    "title": "2018_rv_Nissan_rv_370Z_rv_Heritage_rv_Edition_rv_V2_rv_2000",
    "link_img": "https://live.staticflickr.com/65535/49891403827_3a64464533_o.jpg",
    "id_image": "2018_rv_Nissan_rv_370Z_rv_Heritage_rv_Edition_rv_V2_rv_2000",
    "count_view": 0
  },
  {
    "link_thumb": "https://live.staticflickr.com/65535/49891404187_c30abef903_n.jpg",
    "id_album": "511911558",
    "description": "2018_rv_Nissan_rv_370Z_rv_Heritage_rv_Edition_rv_V3_rv_2000",
    "title": "2018_rv_Nissan_rv_370Z_rv_Heritage_rv_Edition_rv_V3_rv_2000",
    "link_img": "https://live.staticflickr.com/65535/49891404187_8836198da9_o.jpg",
    "id_image": "2018_rv_Nissan_rv_370Z_rv_Heritage_rv_Edition_rv_V3_rv_2000",
    "count_view": 0
  },
  {
    "link_thumb": "https://live.staticflickr.com/65535/49891404497_e451e488d7_n.jpg",
    "id_album": "511911558",
    "description": "2018_rv_Nissan_rv_370Z_rv_Heritage_rv_Edition_rv_V4_rv_2000",
    "title": "2018_rv_Nissan_rv_370Z_rv_Heritage_rv_Edition_rv_V4_rv_2000",
    "link_img": "https://live.staticflickr.com/65535/49891404497_bf19a02027_o.jpg",
    "id_image": "2018_rv_Nissan_rv_370Z_rv_Heritage_rv_Edition_rv_V4_rv_2000",
    "count_view": 0
  },
  {
    "link_thumb": "https://live.staticflickr.com/65535/49891404747_df07d045b8_n.jpg",
    "id_album": "511911558",
    "description": "2018_rv_Nissan_rv_370Z_rv_Heritage_rv_Edition_rv_V5_rv_2000",
    "title": "2018_rv_Nissan_rv_370Z_rv_Heritage_rv_Edition_rv_V5_rv_2000",
    "link_img": "https://live.staticflickr.com/65535/49891404747_b7ecce64bd_o.jpg",
    "id_image": "2018_rv_Nissan_rv_370Z_rv_Heritage_rv_Edition_rv_V5_rv_2000",
    "count_view": 0
  },
  {
    "link_thumb": "https://live.staticflickr.com/65535/49891093696_2e60247078_n.jpg",
    "id_album": "511911558",
    "description": "2018_rv_Nissan_rv_370Z_rv_Heritage_rv_Edition_rv_V6_rv_2000",
    "title": "2018_rv_Nissan_rv_370Z_rv_Heritage_rv_Edition_rv_V6_rv_2000",
    "link_img": "https://live.staticflickr.com/65535/49891093696_8f9a5ac866_o.jpg",
    "id_image": "2018_rv_Nissan_rv_370Z_rv_Heritage_rv_Edition_rv_V6_rv_2000",
    "count_view": 0
  },
  {
    "link_thumb": "https://live.staticflickr.com/65535/49891405247_f8f702e670_n.jpg",
    "id_album": "511911558",
    "description": "2018_rv_Nissan_rv_370Z_rv_Project_rv_Clubsport_rv_23_rv_V1_rv_2000",
    "title": "2018_rv_Nissan_rv_370Z_rv_Project_rv_Clubsport_rv_23_rv_V1_rv_2000",
    "link_img": "https://live.staticflickr.com/65535/49891405247_50b5274c8e_o.jpg",
    "id_image": "2018_rv_Nissan_rv_370Z_rv_Project_rv_Clubsport_rv_23_rv_V1_rv_2000",
    "count_view": 0
  },
  {
    "link_thumb": "https://live.staticflickr.com/65535/49890580063_a6c0464b20_n.jpg",
    "id_album": "511911558",
    "description": "2018_rv_Nissan_rv_370Z_rv_Project_rv_Clubsport_rv_23_rv_V2_rv_2000",
    "title": "2018_rv_Nissan_rv_370Z_rv_Project_rv_Clubsport_rv_23_rv_V2_rv_2000",
    "link_img": "https://live.staticflickr.com/65535/49890580063_82365cd563_o.jpg",
    "id_image": "2018_rv_Nissan_rv_370Z_rv_Project_rv_Clubsport_rv_23_rv_V2_rv_2000",
    "count_view": 0
  },
  {
    "link_thumb": "https://live.staticflickr.com/65535/49890580228_9a11531c51_n.jpg",
    "id_album": "511911558",
    "description": "2018_rv_Nissan_rv_370Z_rv_Project_rv_Clubsport_rv_23_rv_V3_rv_2000",
    "title": "2018_rv_Nissan_rv_370Z_rv_Project_rv_Clubsport_rv_23_rv_V3_rv_2000",
    "link_img": "https://live.staticflickr.com/65535/49890580228_e2581849cd_o.jpg",
    "id_image": "2018_rv_Nissan_rv_370Z_rv_Project_rv_Clubsport_rv_23_rv_V3_rv_2000",
    "count_view": 0
  },
  {
    "link_thumb": "https://live.staticflickr.com/65535/49891405797_1a1cf8604a_n.jpg",
    "id_album": "511911558",
    "description": "2018_rv_Nissan_rv_370Z_rv_Project_rv_Clubsport_rv_23_rv_V4_rv_2000",
    "title": "2018_rv_Nissan_rv_370Z_rv_Project_rv_Clubsport_rv_23_rv_V4_rv_2000",
    "link_img": "https://live.staticflickr.com/65535/49891405797_cd962b4315_o.jpg",
    "id_image": "2018_rv_Nissan_rv_370Z_rv_Project_rv_Clubsport_rv_23_rv_V4_rv_2000",
    "count_view": 0
  },
  {
    "link_thumb": "https://live.staticflickr.com/65535/49891406047_7f41ef89c8_n.jpg",
    "id_album": "511911558",
    "description": "2018_rv_Nissan_rv_370Z_rv_Project_rv_Clubsport_rv_23_rv_V5_rv_2000",
    "title": "2018_rv_Nissan_rv_370Z_rv_Project_rv_Clubsport_rv_23_rv_V5_rv_2000",
    "link_img": "https://live.staticflickr.com/65535/49891406047_bdfcef3f55_o.jpg",
    "id_image": "2018_rv_Nissan_rv_370Z_rv_Project_rv_Clubsport_rv_23_rv_V5_rv_2000",
    "count_view": 0
  },
  {
    "link_thumb": "https://live.staticflickr.com/65535/49891095166_3c2477cc18_n.jpg",
    "id_album": "511911558",
    "description": "2020_rv_Nissan_rv_370Z_rv_50th_rv_Anniversary_rv_Edition_rv_V1_rv_2160",
    "title": "2020_rv_Nissan_rv_370Z_rv_50th_rv_Anniversary_rv_Edition_rv_V1_rv_2160",
    "link_img": "https://live.staticflickr.com/65535/49891095166_ba5f9ce7b1_o.jpg",
    "id_image": "2020_rv_Nissan_rv_370Z_rv_50th_rv_Anniversary_rv_Edition_rv_V1_rv_2160",
    "count_view": 0
  },
  {
    "link_thumb": "https://live.staticflickr.com/65535/49891095451_0b9b41c5f0_n.jpg",
    "id_album": "511911558",
    "description": "2020_rv_Nissan_rv_370Z_rv_50th_rv_Anniversary_rv_Edition_rv_V2_rv_2160",
    "title": "2020_rv_Nissan_rv_370Z_rv_50th_rv_Anniversary_rv_Edition_rv_V2_rv_2160",
    "link_img": "https://live.staticflickr.com/65535/49891095451_006b44ee2e_o.jpg",
    "id_image": "2020_rv_Nissan_rv_370Z_rv_50th_rv_Anniversary_rv_Edition_rv_V2_rv_2160",
    "count_view": 0
  },
  {
    "link_thumb": "https://live.staticflickr.com/65535/49891095661_ebeb884a80_n.jpg",
    "id_album": "511911558",
    "description": "2020_rv_Nissan_rv_370Z_rv_50th_rv_Anniversary_rv_Edition_rv_V3_rv_2160",
    "title": "2020_rv_Nissan_rv_370Z_rv_50th_rv_Anniversary_rv_Edition_rv_V3_rv_2160",
    "link_img": "https://live.staticflickr.com/65535/49891095661_ce4b420e47_o.jpg",
    "id_image": "2020_rv_Nissan_rv_370Z_rv_50th_rv_Anniversary_rv_Edition_rv_V3_rv_2160",
    "count_view": 0
  },
  {
    "link_thumb": "https://live.staticflickr.com/65535/49891095861_3449a3b711_n.jpg",
    "id_album": "511911558",
    "description": "2020_rv_Nissan_rv_370Z_rv_50th_rv_Anniversary_rv_Edition_rv_V4_rv_2160",
    "title": "2020_rv_Nissan_rv_370Z_rv_50th_rv_Anniversary_rv_Edition_rv_V4_rv_2160",
    "link_img": "https://live.staticflickr.com/65535/49891095861_4f800f48e3_o.jpg",
    "id_image": "2020_rv_Nissan_rv_370Z_rv_50th_rv_Anniversary_rv_Edition_rv_V4_rv_2160",
    "count_view": 0
  },
  {
    "link_thumb": "https://live.staticflickr.com/65535/49891096181_36da524bac_n.jpg",
    "id_album": "511911558",
    "description": "2020_rv_Nissan_rv_370Z_rv_50th_rv_Anniversary_rv_Edition_rv_V5_rv_2160",
    "title": "2020_rv_Nissan_rv_370Z_rv_50th_rv_Anniversary_rv_Edition_rv_V5_rv_2160",
    "link_img": "https://live.staticflickr.com/65535/49891096181_ac015ae827_o.jpg",
    "id_image": "2020_rv_Nissan_rv_370Z_rv_50th_rv_Anniversary_rv_Edition_rv_V5_rv_2160",
    "count_view": 0
  },
  {
    "link_thumb": "https://live.staticflickr.com/65535/49891096411_4d835b7418_n.jpg",
    "id_album": "511911558",
    "description": "2020_rv_Nissan_rv_Global_rv_Time_rv_Attack_rv_TT_rv_370Z_rv_V1_rv_2160",
    "title": "2020_rv_Nissan_rv_Global_rv_Time_rv_Attack_rv_TT_rv_370Z_rv_V1_rv_2160",
    "link_img": "https://live.staticflickr.com/65535/49891096411_11f01c9b86_o.jpg",
    "id_image": "2020_rv_Nissan_rv_Global_rv_Time_rv_Attack_rv_TT_rv_370Z_rv_V1_rv_2160",
    "count_view": 0
  },
  {
    "link_thumb": "https://live.staticflickr.com/65535/49891096741_b8ac157d72_n.jpg",
    "id_album": "511911558",
    "description": "2020_rv_Nissan_rv_Global_rv_Time_rv_Attack_rv_TT_rv_370Z_rv_V2_rv_2160",
    "title": "2020_rv_Nissan_rv_Global_rv_Time_rv_Attack_rv_TT_rv_370Z_rv_V2_rv_2160",
    "link_img": "https://live.staticflickr.com/65535/49891096741_e394259796_o.jpg",
    "id_image": "2020_rv_Nissan_rv_Global_rv_Time_rv_Attack_rv_TT_rv_370Z_rv_V2_rv_2160",
    "count_view": 0
  },
  {
    "link_thumb": "https://live.staticflickr.com/65535/49890582788_e3fe0c1828_n.jpg",
    "id_album": "511911558",
    "description": "2020_rv_Nissan_rv_Global_rv_Time_rv_Attack_rv_TT_rv_370Z_rv_V3_rv_2160",
    "title": "2020_rv_Nissan_rv_Global_rv_Time_rv_Attack_rv_TT_rv_370Z_rv_V3_rv_2160",
    "link_img": "https://live.staticflickr.com/65535/49890582788_18c1f68419_o.jpg",
    "id_image": "2020_rv_Nissan_rv_Global_rv_Time_rv_Attack_rv_TT_rv_370Z_rv_V3_rv_2160",
    "count_view": 0
  },
  {
    "link_thumb": "https://live.staticflickr.com/65535/49891408417_5a009106b6_n.jpg",
    "id_album": "511911558",
    "description": "2020_rv_Nissan_rv_Global_rv_Time_rv_Attack_rv_TT_rv_370Z_rv_V4_rv_2160",
    "title": "2020_rv_Nissan_rv_Global_rv_Time_rv_Attack_rv_TT_rv_370Z_rv_V4_rv_2160",
    "link_img": "https://live.staticflickr.com/65535/49891408417_e281ff5791_o.jpg",
    "id_image": "2020_rv_Nissan_rv_Global_rv_Time_rv_Attack_rv_TT_rv_370Z_rv_V4_rv_2160",
    "count_view": 0
  },
  {
    "link_thumb": "https://live.staticflickr.com/65535/49890583453_acf6853b4e_n.jpg",
    "id_album": "511911558",
    "description": "2020_rv_Nissan_rv_Global_rv_Time_rv_Attack_rv_TT_rv_370Z_rv_V5_rv_2160",
    "title": "2020_rv_Nissan_rv_Global_rv_Time_rv_Attack_rv_TT_rv_370Z_rv_V5_rv_2160",
    "link_img": "https://live.staticflickr.com/65535/49890583453_9a97e02204_o.jpg",
    "id_image": "2020_rv_Nissan_rv_Global_rv_Time_rv_Attack_rv_TT_rv_370Z_rv_V5_rv_2160",
    "count_view": 0
  },
  {
    "link_thumb": "https://live.staticflickr.com/65535/49891098001_9de7b645dc_n.jpg",
    "id_album": "511911558",
    "description": "2020_rv_Nissan_rv_Global_rv_Time_rv_Attack_rv_TT_rv_370Z_rv_V6_rv_2160",
    "title": "2020_rv_Nissan_rv_Global_rv_Time_rv_Attack_rv_TT_rv_370Z_rv_V6_rv_2160",
    "link_img": "https://live.staticflickr.com/65535/49891098001_e3c04a0775_o.jpg",
    "id_image": "2020_rv_Nissan_rv_Global_rv_Time_rv_Attack_rv_TT_rv_370Z_rv_V6_rv_2160",
    "count_view": 0
  }
]