[
  {
    "link_thumb": "https://live.staticflickr.com/65535/49891731602_5a0030fb07_n.jpg",
    "id_album": "1795407418",
    "description": "2020_rv_Porsche_rv_718_rv_Cayman_rv_GT4_rv_V6_rv_2160",
    "title": "2020_rv_Porsche_rv_718_rv_Cayman_rv_GT4_rv_V6_rv_2160",
    "link_img": "https://live.staticflickr.com/65535/49891731602_f19c00c85b_o.jpg",
    "id_image": "2020_rv_Porsche_rv_718_rv_Cayman_rv_GT4_rv_V6_rv_2160",
    "count_view": 0
  },
  {
    "link_thumb": "https://live.staticflickr.com/65535/49891047967_c56e7ca9f9_n.jpg",
    "id_album": "-1036470022",
    "description": "2012_rv_Mercedes_rv_Benz_rv_Ener_rv_G_rv_Force_rv_Concept_rv_V1_rv_1440",
    "title": "2012_rv_Mercedes_rv_Benz_rv_Ener_rv_G_rv_Force_rv_Concept_rv_V1_rv_1440",
    "link_img": "https://live.staticflickr.com/65535/49891047967_08679e634b_o.jpg",
    "id_image": "2012_rv_Mercedes_rv_Benz_rv_Ener_rv_G_rv_Force_rv_Concept_rv_V1_rv_1440",
    "count_view": 0
  },
  {
    "link_thumb": "https://live.staticflickr.com/65535/48119297457_341d933dbd_n.jpg",
    "id_album": "898314866",
    "description": "Mazda_450658",
    "title": "Mazda_450658",
    "link_img": "https://live.staticflickr.com/65535/48119297457_a5fdeaeee0_o.jpg",
    "id_image": "Mazda_450658",
    "count_view": 0
  },
  {
    "link_thumb": "https://live.staticflickr.com/65535/48115739961_ac71ccd98f_n.jpg",
    "id_album": "1364506720",
    "description": "Ferrari_289116",
    "title": "Ferrari_289116",
    "link_img": "https://live.staticflickr.com/65535/48115739961_eefae1279f_o.jpg",
    "id_image": "Ferrari_289116",
    "count_view": 0
  },
  {
    "link_thumb": "https://live.staticflickr.com/65535/49889756893_2749d5e78c_n.jpg",
    "id_album": "1603718572",
    "description": "2013_rv_Lexus_rv_GS_rv_350_rv_F_rv_Sport_rv_Supercharged_rv_V3_rv_1440",
    "title": "2013_rv_Lexus_rv_GS_rv_350_rv_F_rv_Sport_rv_Supercharged_rv_V3_rv_1440",
    "link_img": "https://live.staticflickr.com/65535/49889756893_d202f08dbd_o.jpg",
    "id_image": "2013_rv_Lexus_rv_GS_rv_350_rv_F_rv_Sport_rv_Supercharged_rv_V3_rv_1440",
    "count_view": 0
  },
  {
    "link_thumb": "https://live.staticflickr.com/65535/48112579997_1503da6fd4_n.jpg",
    "id_album": "-15119147",
    "description": "Audi_995449",
    "title": "Audi_995449",
    "link_img": "https://live.staticflickr.com/65535/48112579997_e20528ac2d_o.jpg",
    "id_image": "Audi_995449",
    "count_view": 0
  },
  {
    "link_thumb": "https://live.staticflickr.com/65535/49889840888_ce4b921298_n.jpg",
    "id_album": "764198353",
    "description": "2015_rv_Lotus_rv_Elise_rv_S_rv_Cup_rv_V4_rv_1600",
    "title": "2015_rv_Lotus_rv_Elise_rv_S_rv_Cup_rv_V4_rv_1600",
    "link_img": "https://live.staticflickr.com/65535/49889840888_50cd99e523_o.jpg",
    "id_image": "2015_rv_Lotus_rv_Elise_rv_S_rv_Cup_rv_V4_rv_1600",
    "count_view": 0
  },
  {
    "link_thumb": "https://live.staticflickr.com/65535/48114452018_82b18f8d33_n.jpg",
    "id_album": "-1721545051",
    "description": "Chevrolet_60422",
    "title": "Chevrolet_60422",
    "link_img": "https://live.staticflickr.com/65535/48114452018_aa22453014_o.jpg",
    "id_image": "Chevrolet_60422",
    "count_view": 0
  },
  {
    "link_thumb": "https://live.staticflickr.com/65535/49892657106_fa89f21423_n.jpg",
    "id_album": "-1197081173",
    "description": "2015_rv_Volkswagen_rv_GTI_rv_Supersport_rv_Vision_rv_Gran_rv_Turismo_rv_Concept_rv_V1_rv_1600",
    "title": "2015_rv_Volkswagen_rv_GTI_rv_Supersport_rv_Vision_rv_Gran_rv_Turismo_rv_Concept_rv_V1_rv_1600",
    "link_img": "https://live.staticflickr.com/65535/49892657106_bd66c68a0a_o.jpg",
    "id_image": "2015_rv_Volkswagen_rv_GTI_rv_Supersport_rv_Vision_rv_Gran_rv_Turismo_rv_Concept_rv_V1_rv_1600",
    "count_view": 0
  },
  {
    "link_thumb": "https://live.staticflickr.com/65535/48113917247_570f16ce80_n.jpg",
    "id_album": "-1721545051",
    "description": "Chevrolet_217153",
    "title": "Chevrolet_217153",
    "link_img": "https://live.staticflickr.com/65535/48113917247_128ca4ea2a_o.jpg",
    "id_image": "Chevrolet_217153",
    "count_view": 0
  },
  {
    "link_thumb": "https://live.staticflickr.com/65535/49889786706_76301e7cb6_n.jpg",
    "id_album": "-837371943",
    "description": "2003_rv_Bentley_rv_Continental_rv_GT_rv_V9_rv_1536",
    "title": "2003_rv_Bentley_rv_Continental_rv_GT_rv_V9_rv_1536",
    "link_img": "https://live.staticflickr.com/65535/49889786706_d673cfc770_o.jpg",
    "id_image": "2003_rv_Bentley_rv_Continental_rv_GT_rv_V9_rv_1536",
    "count_view": 0
  },
  {
    "link_thumb": "https://live.staticflickr.com/65535/49889058772_33185556f0_n.jpg",
    "id_album": "1831597390",
    "description": "2015_rv_Alfa_rv_Romeo_rv_4C_rv_V8_rv_1600",
    "title": "2015_rv_Alfa_rv_Romeo_rv_4C_rv_V8_rv_1600",
    "link_img": "https://live.staticflickr.com/65535/49889058772_aae3004161_o.jpg",
    "id_image": "2015_rv_Alfa_rv_Romeo_rv_4C_rv_V8_rv_1600",
    "count_view": 0
  },
  {
    "link_thumb": "https://live.staticflickr.com/65535/48122492672_306f26d746_n.jpg",
    "id_album": "422322641",
    "description": "Subaru_259049",
    "title": "Subaru_259049",
    "link_img": "https://live.staticflickr.com/65535/48122492672_df8be644fb_o.jpg",
    "id_image": "Subaru_259049",
    "count_view": 0
  },
  {
    "link_thumb": "https://live.staticflickr.com/65535/48117411172_c52cf1bce7_n.jpg",
    "id_album": "-1846404630",
    "description": "Ford_591734",
    "title": "Ford_591734",
    "link_img": "https://live.staticflickr.com/65535/48117411172_5f3ea7471d_o.jpg",
    "id_image": "Ford_591734",
    "count_view": 0
  },
  {
    "link_thumb": "https://live.staticflickr.com/65535/49889263891_5d0aedf147_n.jpg",
    "id_album": "-843860003",
    "description": "2018_rv_Chevrolet_rv_Corvette_rv_Carbon_rv_65_rv_Edition_rv_V3_rv_2000",
    "title": "2018_rv_Chevrolet_rv_Corvette_rv_Carbon_rv_65_rv_Edition_rv_V3_rv_2000",
    "link_img": "https://live.staticflickr.com/65535/49889263891_dfd31285d9_o.jpg",
    "id_image": "2018_rv_Chevrolet_rv_Corvette_rv_Carbon_rv_65_rv_Edition_rv_V3_rv_2000",
    "count_view": 0
  },
  {
    "link_thumb": "https://live.staticflickr.com/65535/48112379087_5d07df1f1c_n.jpg",
    "id_album": "-15119147",
    "description": "Audi_360625",
    "title": "Audi_360625",
    "link_img": "https://live.staticflickr.com/65535/48112379087_d2b974b2a9_o.jpg",
    "id_image": "Audi_360625",
    "count_view": 0
  },
  {
    "link_thumb": "https://live.staticflickr.com/65535/48115892783_d146bc8e47_n.jpg",
    "id_album": "1364506720",
    "description": "Ferrari_353925",
    "title": "Ferrari_353925",
    "link_img": "https://live.staticflickr.com/65535/48115892783_43fe2bc2e0_o.jpg",
    "id_image": "Ferrari_353925",
    "count_view": 0
  },
  {
    "link_thumb": "https://live.staticflickr.com/65535/48120435528_0bcd657290_n.jpg",
    "id_album": "810634050",
    "description": "Nissan_411300",
    "title": "Nissan_411300",
    "link_img": "https://live.staticflickr.com/65535/48120435528_cd0365b04e_o.jpg",
    "id_image": "Nissan_411300",
    "count_view": 0
  },
  {
    "link_thumb": "https://live.staticflickr.com/65535/48116391421_295e240427_n.jpg",
    "id_album": "1364506720",
    "description": "Ferrari_920276",
    "title": "Ferrari_920276",
    "link_img": "https://live.staticflickr.com/65535/48116391421_2c25a1cdb3_o.jpg",
    "id_image": "Ferrari_920276",
    "count_view": 0
  },
  {
    "link_thumb": "https://live.staticflickr.com/65535/48112292083_0341da6bf4_n.jpg",
    "id_album": "-15119147",
    "description": "Audi_253674",
    "title": "Audi_253674",
    "link_img": "https://live.staticflickr.com/65535/48112292083_4b2d99fcca_o.jpg",
    "id_image": "Audi_253674",
    "count_view": 0
  },
  {
    "link_thumb": "https://live.staticflickr.com/65535/48118415233_28cccab9e9_n.jpg",
    "id_album": "-2100339805",
    "description": "Lamborghini_369966",
    "title": "Lamborghini_369966",
    "link_img": "https://live.staticflickr.com/65535/48118415233_c258b4e849_o.jpg",
    "id_image": "Lamborghini_369966",
    "count_view": 0
  },
  {
    "link_thumb": "https://live.staticflickr.com/65535/48120431731_a67d9cc738_n.jpg",
    "id_album": "810634050",
    "description": "Nissan_450415",
    "title": "Nissan_450415",
    "link_img": "https://live.staticflickr.com/65535/48120431731_b27a39d7d5_o.jpg",
    "id_image": "Nissan_450415",
    "count_view": 0
  },
  {
    "link_thumb": "https://live.staticflickr.com/65535/49892051938_77810d77fb_n.jpg",
    "id_album": "-1913470588",
    "description": "2005_rv_Ultima_rv_GTR_rv_V1_rv_2160",
    "title": "2005_rv_Ultima_rv_GTR_rv_V1_rv_2160",
    "link_img": "https://live.staticflickr.com/65535/49892051938_432f1926bc_o.jpg",
    "id_image": "2005_rv_Ultima_rv_GTR_rv_V1_rv_2160",
    "count_view": 0
  },
  {
    "link_thumb": "https://live.staticflickr.com/65535/48122347298_386e207ef7_n.jpg",
    "id_album": "-58240507",
    "description": "Studebaker_928968",
    "title": "Studebaker_928968",
    "link_img": "https://live.staticflickr.com/65535/48122347298_94c968325b_o.jpg",
    "id_image": "Studebaker_928968",
    "count_view": 0
  },
  {
    "link_thumb": "https://live.staticflickr.com/65535/48117556281_4715afea08_n.jpg",
    "id_album": "-1846404630",
    "description": "Ford_931208",
    "title": "Ford_931208",
    "link_img": "https://live.staticflickr.com/65535/48117556281_5fa4830647_o.jpg",
    "id_image": "Ford_931208",
    "count_view": 0
  },
  {
    "link_thumb": "https://live.staticflickr.com/65535/48120826771_745dbdecab_n.jpg",
    "id_album": "1965631892",
    "description": "Peugeot_186746",
    "title": "Peugeot_186746",
    "link_img": "https://live.staticflickr.com/65535/48120826771_0ee6f95daa_o.jpg",
    "id_image": "Peugeot_186746",
    "count_view": 0
  },
  {
    "link_thumb": "https://live.staticflickr.com/65535/48122820331_d71afc7c58_n.jpg",
    "id_album": "1274920659",
    "description": "Toyota_964870",
    "title": "Toyota_964870",
    "link_img": "https://live.staticflickr.com/65535/48122820331_43c32f5f95_o.jpg",
    "id_image": "Toyota_964870",
    "count_view": 0
  },
  {
    "link_thumb": "https://live.staticflickr.com/65535/48122365348_5dd13f1a85_n.jpg",
    "id_album": "-58240507",
    "description": "Studebaker_929355",
    "title": "Studebaker_929355",
    "link_img": "https://live.staticflickr.com/65535/48122365348_5ef6ed67de_o.jpg",
    "id_image": "Studebaker_929355",
    "count_view": 0
  },
  {
    "link_thumb": "https://live.staticflickr.com/65535/49889747113_01a5faf0a2_n.jpg",
    "id_album": "446908717",
    "description": "2017_rv_Lexus_rv_RC_rv_F_rv_GT3_rv_V3_rv_2000",
    "title": "2017_rv_Lexus_rv_RC_rv_F_rv_GT3_rv_V3_rv_2000",
    "link_img": "https://live.staticflickr.com/65535/49889747113_0ded0d2417_o.jpg",
    "id_image": "2017_rv_Lexus_rv_RC_rv_F_rv_GT3_rv_V3_rv_2000",
    "count_view": 0
  },
  {
    "link_thumb": "https://live.staticflickr.com/65535/48117955307_afb5dda2d3_n.jpg",
    "id_album": "-354267407",
    "description": "Honda_684298",
    "title": "Honda_684298",
    "link_img": "https://live.staticflickr.com/65535/48117955307_8cba3aff2d_o.jpg",
    "id_image": "Honda_684298",
    "count_view": 0
  },
  {
    "link_thumb": "https://live.staticflickr.com/65535/48113695421_99456afc95_n.jpg",
    "id_album": "-1721545051",
    "description": "Chevrolet_166256",
    "title": "Chevrolet_166256",
    "link_img": "https://live.staticflickr.com/65535/48113695421_3c72f76ca8_o.jpg",
    "id_image": "Chevrolet_166256",
    "count_view": 0
  },
  {
    "link_thumb": "https://live.staticflickr.com/65535/48112665911_fbf14c53f9_n.jpg",
    "id_album": "727633301",
    "description": "BMW_254102",
    "title": "BMW_254102",
    "link_img": "https://live.staticflickr.com/65535/48112665911_41622d97a4_o.jpg",
    "id_image": "BMW_254102",
    "count_view": 0
  },
  {
    "link_thumb": "https://live.staticflickr.com/65535/49890521201_61e34996b5_n.jpg",
    "id_album": "819163142",
    "description": "2016_rv_McLaren_rv_570S_rv_Coupe_rv_V20_rv_1600",
    "title": "2016_rv_McLaren_rv_570S_rv_Coupe_rv_V20_rv_1600",
    "link_img": "https://live.staticflickr.com/65535/49890521201_80d0d7520b_o.jpg",
    "id_image": "2016_rv_McLaren_rv_570S_rv_Coupe_rv_V20_rv_1600",
    "count_view": 0
  },
  {
    "link_thumb": "https://live.staticflickr.com/65535/49890038743_6385c78a48_n.jpg",
    "id_album": "-646872376",
    "description": "2016_rv_McLaren_rv_675LT_rv_V11_rv_1600",
    "title": "2016_rv_McLaren_rv_675LT_rv_V11_rv_1600",
    "link_img": "https://live.staticflickr.com/65535/49890038743_7314df0e9d_o.jpg",
    "id_image": "2016_rv_McLaren_rv_675LT_rv_V11_rv_1600",
    "count_view": 0
  },
  {
    "link_thumb": "https://live.staticflickr.com/65535/48112186278_89e9fb3cbb_n.jpg",
    "id_album": "996272974",
    "description": "AstonMartin_472286",
    "title": "AstonMartin_472286",
    "link_img": "https://live.staticflickr.com/65535/48112186278_eba4d72ae0_o.jpg",
    "id_image": "AstonMartin_472286",
    "count_view": 0
  },
  {
    "link_thumb": "https://live.staticflickr.com/65535/48112636767_d81fdd1fbf_n.jpg",
    "id_album": "2097036181",
    "description": "Bentley_470815",
    "title": "Bentley_470815",
    "link_img": "https://live.staticflickr.com/65535/48112636767_d22ef7a4a5_o.jpg",
    "id_image": "Bentley_470815",
    "count_view": 0
  },
  {
    "link_thumb": "https://live.staticflickr.com/65535/48114543726_db31b19592_n.jpg",
    "id_album": "-1721545051",
    "description": "Chevrolet_778609",
    "title": "Chevrolet_778609",
    "link_img": "https://live.staticflickr.com/65535/48114543726_36a6335505_o.jpg",
    "id_image": "Chevrolet_778609",
    "count_view": 0
  },
  {
    "link_thumb": "https://live.staticflickr.com/65535/48119648351_fef75319d0_n.jpg",
    "id_album": "-731054311",
    "description": "MercedesBenz_393465",
    "title": "MercedesBenz_393465",
    "link_img": "https://live.staticflickr.com/65535/48119648351_1b3e6e83b5_o.jpg",
    "id_image": "MercedesBenz_393465",
    "count_view": 0
  },
  {
    "link_thumb": "https://live.staticflickr.com/65535/49113028171_e2f037e510_n.jpg",
    "id_album": "555757480",
    "description": "AstonMartin_470290_1",
    "title": "AstonMartin_470290_1",
    "link_img": "https://live.staticflickr.com/65535/49113028171_2c9ab84b72_o.jpg",
    "id_image": "AstonMartin_470290_1",
    "count_view": 0
  },
  {
    "link_thumb": "https://live.staticflickr.com/65535/48113461333_a313270b19_n.jpg",
    "id_album": "1456070666",
    "description": "Bugatti_700303",
    "title": "Bugatti_700303",
    "link_img": "https://live.staticflickr.com/65535/48113461333_796840de19_o.jpg",
    "id_image": "Bugatti_700303",
    "count_view": 0
  },
  {
    "link_thumb": "https://live.staticflickr.com/65535/48122127386_7c090499ca_n.jpg",
    "id_album": "1536700661",
    "description": "RollsRoyce_729511",
    "title": "RollsRoyce_729511",
    "link_img": "https://live.staticflickr.com/65535/48122127386_483c8d24c9_o.jpg",
    "id_image": "RollsRoyce_729511",
    "count_view": 0
  },
  {
    "link_thumb": "https://live.staticflickr.com/65535/49889311096_37bcd0640a_n.jpg",
    "id_album": "-111605365",
    "description": "2005_rv_Chrysler_rv_Firepower_rv_Concept_rv_V2_rv_1536",
    "title": "2005_rv_Chrysler_rv_Firepower_rv_Concept_rv_V2_rv_1536",
    "link_img": "https://live.staticflickr.com/65535/49889311096_dbb38c3b73_o.jpg",
    "id_image": "2005_rv_Chrysler_rv_Firepower_rv_Concept_rv_V2_rv_1536",
    "count_view": 0
  },
  {
    "link_thumb": "https://live.staticflickr.com/65535/48118486642_f537a67c12_n.jpg",
    "id_album": "-2100339805",
    "description": "Lamborghini_378494",
    "title": "Lamborghini_378494",
    "link_img": "https://live.staticflickr.com/65535/48118486642_fd4020a551_o.jpg",
    "id_image": "Lamborghini_378494",
    "count_view": 0
  },
  {
    "link_thumb": "https://live.staticflickr.com/65535/48116957258_f8bab50587_n.jpg",
    "id_album": "-1846404630",
    "description": "Ford_273070",
    "title": "Ford_273070",
    "link_img": "https://live.staticflickr.com/65535/48116957258_18547c1ea9_o.jpg",
    "id_image": "Ford_273070",
    "count_view": 0
  },
  {
    "link_thumb": "https://live.staticflickr.com/65535/48113514791_b7d03dc461_n.jpg",
    "id_album": "-680120434",
    "description": "Cadillac_217700",
    "title": "Cadillac_217700",
    "link_img": "https://live.staticflickr.com/65535/48113514791_cf7e3d4890_o.jpg",
    "id_image": "Cadillac_217700",
    "count_view": 0
  },
  {
    "link_thumb": "https://live.staticflickr.com/65535/48115880436_847a772acf_n.jpg",
    "id_album": "1364506720",
    "description": "Ferrari_366060",
    "title": "Ferrari_366060",
    "link_img": "https://live.staticflickr.com/65535/48115880436_3b11ccc744_o.jpg",
    "id_image": "Ferrari_366060",
    "count_view": 0
  },
  {
    "link_thumb": "https://live.staticflickr.com/65535/49040981911_3ffc7f83ef_n.jpg",
    "id_album": "-2126948992",
    "description": "AlfaRomeo_907224",
    "title": "AlfaRomeo_907224",
    "link_img": "https://live.staticflickr.com/65535/49040981911_08d8546350_o.jpg",
    "id_image": "AlfaRomeo_907224",
    "count_view": 0
  },
  {
    "link_thumb": "https://live.staticflickr.com/65535/48118668733_294334ea35_n.jpg",
    "id_album": "-2100339805",
    "description": "Lamborghini_876235",
    "title": "Lamborghini_876235",
    "link_img": "https://live.staticflickr.com/65535/48118668733_7511330a41_o.jpg",
    "id_image": "Lamborghini_876235",
    "count_view": 0
  },
  {
    "link_thumb": "https://live.staticflickr.com/65535/48122550301_787290c14c_n.jpg",
    "id_album": "1645818674",
    "description": "Suzuki_825136",
    "title": "Suzuki_825136",
    "link_img": "https://live.staticflickr.com/65535/48122550301_4365e96b16_o.jpg",
    "id_image": "Suzuki_825136",
    "count_view": 0
  },
  {
    "link_thumb": "https://live.staticflickr.com/65535/49892614991_29201553b1_n.jpg",
    "id_album": "-842876950",
    "description": "2017_rv_Aston_rv_Martin_rv_Vantage_rv_GT8_rv_V1_rv_2000",
    "title": "2017_rv_Aston_rv_Martin_rv_Vantage_rv_GT8_rv_V1_rv_2000",
    "link_img": "https://live.staticflickr.com/65535/49892614991_98812910d2_o.jpg",
    "id_image": "2017_rv_Aston_rv_Martin_rv_Vantage_rv_GT8_rv_V1_rv_2000",
    "count_view": 0
  },
  {
    "link_thumb": "https://live.staticflickr.com/65535/48113379527_acaa130e66_n.jpg",
    "id_album": "727633301",
    "description": "BMW_982270",
    "title": "BMW_982270",
    "link_img": "https://live.staticflickr.com/65535/48113379527_ef162fb461_o.jpg",
    "id_image": "BMW_982270",
    "count_view": 0
  },
  {
    "link_thumb": "https://live.staticflickr.com/65535/48119955073_942b58f77b_n.jpg",
    "id_album": "-731054311",
    "description": "MercedesBenz_939205",
    "title": "MercedesBenz_939205",
    "link_img": "https://live.staticflickr.com/65535/48119955073_7ded5738e3_o.jpg",
    "id_image": "MercedesBenz_939205",
    "count_view": 0
  },
  {
    "link_thumb": "https://live.staticflickr.com/65535/49889099978_69b987b235_n.jpg",
    "id_album": "-76453360",
    "description": "2010_rv_Fiat_rv_Abarth_rv_695_rv_Tributo_rv_Ferrari_rv_V2_rv_1440",
    "title": "2010_rv_Fiat_rv_Abarth_rv_695_rv_Tributo_rv_Ferrari_rv_V2_rv_1440",
    "link_img": "https://live.staticflickr.com/65535/49889099978_bc9f916270_o.jpg",
    "id_image": "2010_rv_Fiat_rv_Abarth_rv_695_rv_Tributo_rv_Ferrari_rv_V2_rv_1440",
    "count_view": 0
  },
  {
    "link_thumb": "https://live.staticflickr.com/65535/48114577232_a90829f0d7_n.jpg",
    "id_album": "-1721545051",
    "description": "Chevrolet_741548",
    "title": "Chevrolet_741548",
    "link_img": "https://live.staticflickr.com/65535/48114577232_cab3659764_o.jpg",
    "id_image": "Chevrolet_741548",
    "count_view": 0
  },
  {
    "link_thumb": "https://live.staticflickr.com/65535/49890468628_065feb561d_n.jpg",
    "id_album": "384023011",
    "description": "2011_rv_Morgan_rv_3_rv_Wheeler_rv_V6_rv_1536",
    "title": "2011_rv_Morgan_rv_3_rv_Wheeler_rv_V6_rv_1536",
    "link_img": "https://live.staticflickr.com/65535/49890468628_f17f22b7a6_o.jpg",
    "id_image": "2011_rv_Morgan_rv_3_rv_Wheeler_rv_V6_rv_1536",
    "count_view": 0
  },
  {
    "link_thumb": "https://live.staticflickr.com/65535/48122406951_1556cca39e_n.jpg",
    "id_album": "422322641",
    "description": "Subaru_259086",
    "title": "Subaru_259086",
    "link_img": "https://live.staticflickr.com/65535/48122406951_a5a2f3278c_o.jpg",
    "id_image": "Subaru_259086",
    "count_view": 0
  },
  {
    "link_thumb": "https://live.staticflickr.com/65535/48118467561_9ecba01979_n.jpg",
    "id_album": "-2100339805",
    "description": "Lamborghini_446074",
    "title": "Lamborghini_446074",
    "link_img": "https://live.staticflickr.com/65535/48118467561_5b555380fc_o.jpg",
    "id_image": "Lamborghini_446074",
    "count_view": 0
  },
  {
    "link_thumb": "https://live.staticflickr.com/65535/49890717676_fdbe66c0af_n.jpg",
    "id_album": "1310566757",
    "description": "2020_rv_Mercedes_rv_AMG_rv_CLA45_rv_V1_rv_2160",
    "title": "2020_rv_Mercedes_rv_AMG_rv_CLA45_rv_V1_rv_2160",
    "link_img": "https://live.staticflickr.com/65535/49890717676_9a578fa210_o.jpg",
    "id_image": "2020_rv_Mercedes_rv_AMG_rv_CLA45_rv_V1_rv_2160",
    "count_view": 0
  },
  {
    "link_thumb": "https://live.staticflickr.com/65535/49890326572_6e291f2ea2_n.jpg",
    "id_album": "-1171889069",
    "description": "1992_rv_Jaguar_rv_XJ220_rv_V3_rv_1440",
    "title": "1992_rv_Jaguar_rv_XJ220_rv_V3_rv_1440",
    "link_img": "https://live.staticflickr.com/65535/49890326572_22f6a5179d_o.jpg",
    "id_image": "1992_rv_Jaguar_rv_XJ220_rv_V3_rv_1440",
    "count_view": 0
  },
  {
    "link_thumb": "https://live.staticflickr.com/65535/49890876178_769271f466_n.jpg",
    "id_album": "-857328710",
    "description": "2017_rv_Porsche_rv_718_rv_Boxster_rv_V10_rv_2000",
    "title": "2017_rv_Porsche_rv_718_rv_Boxster_rv_V10_rv_2000",
    "link_img": "https://live.staticflickr.com/65535/49890876178_17ca58ebc4_o.jpg",
    "id_image": "2017_rv_Porsche_rv_718_rv_Boxster_rv_V10_rv_2000",
    "count_view": 0
  },
  {
    "link_thumb": "https://live.staticflickr.com/65535/48121287602_1edb345943_n.jpg",
    "id_album": "-1178450892",
    "description": "Porsche_215718",
    "title": "Porsche_215718",
    "link_img": "https://live.staticflickr.com/65535/48121287602_c46760e0db_o.jpg",
    "id_image": "Porsche_215718",
    "count_view": 0
  },
  {
    "link_thumb": "https://live.staticflickr.com/65535/48114813706_ef11d608e8_n.jpg",
    "id_album": "2072464184",
    "description": "Citroen_187939",
    "title": "Citroen_187939",
    "link_img": "https://live.staticflickr.com/65535/48114813706_7f790aa167_o.jpg",
    "id_image": "Citroen_187939",
    "count_view": 0
  },
  {
    "link_thumb": "https://live.staticflickr.com/65535/49890225817_b29e1ced11_n.jpg",
    "id_album": "-865647970",
    "description": "2004_rv_Honda_rv_NSX_rv_R_rv_V2_rv_1440",
    "title": "2004_rv_Honda_rv_NSX_rv_R_rv_V2_rv_1440",
    "link_img": "https://live.staticflickr.com/65535/49890225817_dafc52f976_o.jpg",
    "id_image": "2004_rv_Honda_rv_NSX_rv_R_rv_V2_rv_1440",
    "count_view": 0
  },
  {
    "link_thumb": "https://live.staticflickr.com/65535/49888894038_4960c9516f_n.jpg",
    "id_album": "-1783171482",
    "description": "1988_rv_Formula1_rv_Williams_rv_FW12_rv_V2_rv_1440",
    "title": "1988_rv_Formula1_rv_Williams_rv_FW12_rv_V2_rv_1440",
    "link_img": "https://live.staticflickr.com/65535/49888894038_8101a8ddeb_o.jpg",
    "id_image": "1988_rv_Formula1_rv_Williams_rv_FW12_rv_V2_rv_1440",
    "count_view": 0
  },
  {
    "link_thumb": "https://live.staticflickr.com/65535/49891877508_1d545a973e_n.jpg",
    "id_album": "-445476543",
    "description": "2020_rv_Sony_rv_VISION_rv_S_rv_V3_rv_2160",
    "title": "2020_rv_Sony_rv_VISION_rv_S_rv_V3_rv_2160",
    "link_img": "https://live.staticflickr.com/65535/49891877508_579818fbef_o.jpg",
    "id_image": "2020_rv_Sony_rv_VISION_rv_S_rv_V3_rv_2160",
    "count_view": 0
  },
  {
    "link_thumb": "https://live.staticflickr.com/65535/49891646012_71b38f6ebd_n.jpg",
    "id_album": "-923669998",
    "description": "1966_rv_Pontiac_rv_Tempest_rv_GTO_rv_V2_rv_1536",
    "title": "1966_rv_Pontiac_rv_Tempest_rv_GTO_rv_V2_rv_1536",
    "link_img": "https://live.staticflickr.com/65535/49891646012_c9d3df4244_o.jpg",
    "id_image": "1966_rv_Pontiac_rv_Tempest_rv_GTO_rv_V2_rv_1536",
    "count_view": 0
  },
  {
    "link_thumb": "https://live.staticflickr.com/65535/48120501861_08fb7fb2ce_n.jpg",
    "id_album": "810634050",
    "description": "Nissan_512450",
    "title": "Nissan_512450",
    "link_img": "https://live.staticflickr.com/65535/48120501861_0842dda1d6_o.jpg",
    "id_image": "Nissan_512450",
    "count_view": 0
  },
  {
    "link_thumb": "https://live.staticflickr.com/65535/48121888077_8a965b846b_n.jpg",
    "id_album": "-1178450892",
    "description": "Porsche_947855",
    "title": "Porsche_947855",
    "link_img": "https://live.staticflickr.com/65535/48121888077_b86ea1b3d1_o.jpg",
    "id_image": "Porsche_947855",
    "count_view": 0
  },
  {
    "link_thumb": "https://live.staticflickr.com/65535/49890051162_ab95d21810_n.jpg",
    "id_album": "697195276",
    "description": "1984_rv_Ford_rv_RS200_rv_V5_rv_1600",
    "title": "1984_rv_Ford_rv_RS200_rv_V5_rv_1600",
    "link_img": "https://live.staticflickr.com/65535/49890051162_6952da0f0f_o.jpg",
    "id_image": "1984_rv_Ford_rv_RS200_rv_V5_rv_1600",
    "count_view": 0
  },
  {
    "link_thumb": "https://live.staticflickr.com/65535/49892119318_427181ef3c_n.jpg",
    "id_album": "-1185886385",
    "description": "2014_rv_Vauxhall_rv_VXR8_rv_V3_rv_1600",
    "title": "2014_rv_Vauxhall_rv_VXR8_rv_V3_rv_1600",
    "link_img": "https://live.staticflickr.com/65535/49892119318_8090bfed73_o.jpg",
    "id_image": "2014_rv_Vauxhall_rv_VXR8_rv_V3_rv_1600",
    "count_view": 0
  },
  {
    "link_thumb": "https://live.staticflickr.com/65535/48119663823_cb111545d4_n.jpg",
    "id_album": "-731054311",
    "description": "MercedesBenz_353950",
    "title": "MercedesBenz_353950",
    "link_img": "https://live.staticflickr.com/65535/48119663823_e719dfc062_o.jpg",
    "id_image": "MercedesBenz_353950",
    "count_view": 0
  },
  {
    "link_thumb": "https://live.staticflickr.com/65535/48119475272_0b7a1f72a2_n.jpg",
    "id_album": "990865885",
    "description": "McLaren_905673",
    "title": "McLaren_905673",
    "link_img": "https://live.staticflickr.com/65535/48119475272_62867a243f_o.jpg",
    "id_image": "McLaren_905673",
    "count_view": 0
  },
  {
    "link_thumb": "https://live.staticflickr.com/65535/48119701101_00062e335e_n.jpg",
    "id_album": "-731054311",
    "description": "MercedesBenz_517449",
    "title": "MercedesBenz_517449",
    "link_img": "https://live.staticflickr.com/65535/48119701101_35cb58c8d5_o.jpg",
    "id_image": "MercedesBenz_517449",
    "count_view": 0
  },
  {
    "link_thumb": "https://live.staticflickr.com/65535/48122687622_915df90e48_n.jpg",
    "id_album": "1822826527",
    "description": "TeslaMotors_942540",
    "title": "TeslaMotors_942540",
    "link_img": "https://live.staticflickr.com/65535/48122687622_c530ee44cd_o.jpg",
    "id_image": "TeslaMotors_942540",
    "count_view": 0
  },
  {
    "link_thumb": "https://live.staticflickr.com/65535/48115982628_63c1a94ac7_n.jpg",
    "id_album": "1364506720",
    "description": "Ferrari_426980",
    "title": "Ferrari_426980",
    "link_img": "https://live.staticflickr.com/65535/48115982628_9f816a9fcf_o.jpg",
    "id_image": "Ferrari_426980",
    "count_view": 0
  },
  {
    "link_thumb": "https://live.staticflickr.com/65535/49891041107_275c9c0514_n.jpg",
    "id_album": "-2130466459",
    "description": "2015_rv_Mercedes_rv_Benz_rv_CLS63_rv_AMG_rv_V6_rv_1600",
    "title": "2015_rv_Mercedes_rv_Benz_rv_CLS63_rv_AMG_rv_V6_rv_1600",
    "link_img": "https://live.staticflickr.com/65535/49891041107_00cf3c1577_o.jpg",
    "id_image": "2015_rv_Mercedes_rv_Benz_rv_CLS63_rv_AMG_rv_V6_rv_1600",
    "count_view": 0
  },
  {
    "link_thumb": "https://live.staticflickr.com/65535/48118648821_b27089d6e7_n.jpg",
    "id_album": "-2100339805",
    "description": "Lamborghini_899590",
    "title": "Lamborghini_899590",
    "link_img": "https://live.staticflickr.com/65535/48118648821_2bc3224c6a_o.jpg",
    "id_image": "Lamborghini_899590",
    "count_view": 0
  },
  {
    "link_thumb": "https://live.staticflickr.com/65535/49889669552_255d981d72_n.jpg",
    "id_album": "-2027154665",
    "description": "2001_rv_BMW_rv_M3_rv_Coupe_rv_V3_rv_1440",
    "title": "2001_rv_BMW_rv_M3_rv_Coupe_rv_V3_rv_1440",
    "link_img": "https://live.staticflickr.com/65535/49889669552_efe00ff055_o.jpg",
    "id_image": "2001_rv_BMW_rv_M3_rv_Coupe_rv_V3_rv_1440",
    "count_view": 0
  },
  {
    "link_thumb": "https://live.staticflickr.com/65535/48121697777_07097ec0ac_n.jpg",
    "id_album": "-1178450892",
    "description": "Porsche_721584",
    "title": "Porsche_721584",
    "link_img": "https://live.staticflickr.com/65535/48121697777_a8f38623c2_o.jpg",
    "id_image": "Porsche_721584",
    "count_view": 0
  },
  {
    "link_thumb": "https://live.staticflickr.com/65535/48121482498_f00f69f6e8_n.jpg",
    "id_album": "-1178450892",
    "description": "Porsche_593223",
    "title": "Porsche_593223",
    "link_img": "https://live.staticflickr.com/65535/48121482498_4a32d80011_o.jpg",
    "id_image": "Porsche_593223",
    "count_view": 0
  },
  {
    "link_thumb": "https://live.staticflickr.com/65535/49889019392_47d74301d3_n.jpg",
    "id_album": "-1199458397",
    "description": "2013_rv_Bugatti_rv_Veyron_rv_Grand_rv_Sport_rv_Vitesse_rv_World_rv_Speed_rv_Record_rv_V6_rv_1600",
    "title": "2013_rv_Bugatti_rv_Veyron_rv_Grand_rv_Sport_rv_Vitesse_rv_World_rv_Speed_rv_Record_rv_V6_rv_1600",
    "link_img": "https://live.staticflickr.com/65535/49889019392_e9a1b7d9ed_o.jpg",
    "id_image": "2013_rv_Bugatti_rv_Veyron_rv_Grand_rv_Sport_rv_Vitesse_rv_World_rv_Speed_rv_Record_rv_V6_rv_1600",
    "count_view": 0
  },
  {
    "link_thumb": "https://live.staticflickr.com/65535/49891706382_f89c15c3b7_n.jpg",
    "id_album": "-857328710",
    "description": "2020_rv_Porsche_rv_718_rv_Spyder_rv_V4_rv_2160",
    "title": "2020_rv_Porsche_rv_718_rv_Spyder_rv_V4_rv_2160",
    "link_img": "https://live.staticflickr.com/65535/49891706382_0670764c7d_o.jpg",
    "id_image": "2020_rv_Porsche_rv_718_rv_Spyder_rv_V4_rv_2160",
    "count_view": 0
  },
  {
    "link_thumb": "https://live.staticflickr.com/65535/48119647236_098aa47e25_n.jpg",
    "id_album": "-731054311",
    "description": "MercedesBenz_391969",
    "title": "MercedesBenz_391969",
    "link_img": "https://live.staticflickr.com/65535/48119647236_c19f04bd14_o.jpg",
    "id_image": "MercedesBenz_391969",
    "count_view": 0
  },
  {
    "link_thumb": "https://live.staticflickr.com/65535/48112970321_0aa5b87ffa_n.jpg",
    "id_album": "727633301",
    "description": "BMW_534535",
    "title": "BMW_534535",
    "link_img": "https://live.staticflickr.com/65535/48112970321_c02c5701a0_o.jpg",
    "id_image": "BMW_534535",
    "count_view": 0
  },
  {
    "link_thumb": "https://live.staticflickr.com/65535/49890445037_d6786e39d4_n.jpg",
    "id_album": "1422448701",
    "description": "1972_rv_Lamborghini_rv_Espada_rv_400_rv_GTE_rv_V2_rv_1440",
    "title": "1972_rv_Lamborghini_rv_Espada_rv_400_rv_GTE_rv_V2_rv_1440",
    "link_img": "https://live.staticflickr.com/65535/49890445037_fec28e03a9_o.jpg",
    "id_image": "1972_rv_Lamborghini_rv_Espada_rv_400_rv_GTE_rv_V2_rv_1440",
    "count_view": 0
  },
  {
    "link_thumb": "https://live.staticflickr.com/65535/49889576047_5f254d1772_n.jpg",
    "id_album": "-842876963",
    "description": "2020_rv_Chevrolet_rv_Corvette_rv_Stingray_rv_V1_rv_2160",
    "title": "2020_rv_Chevrolet_rv_Corvette_rv_Stingray_rv_V1_rv_2160",
    "link_img": "https://live.staticflickr.com/65535/49889576047_a681bc2c9e_o.jpg",
    "id_image": "2020_rv_Chevrolet_rv_Corvette_rv_Stingray_rv_V1_rv_2160",
    "count_view": 0
  },
  {
    "link_thumb": "https://live.staticflickr.com/65535/49890287312_f04647c3a7_n.jpg",
    "id_album": "-139568481",
    "description": "2014_rv_Jaguar_rv_Lightweight_rv_E_rv_Type_rv_V5_rv_1600",
    "title": "2014_rv_Jaguar_rv_Lightweight_rv_E_rv_Type_rv_V5_rv_1600",
    "link_img": "https://live.staticflickr.com/65535/49890287312_7024063c45_o.jpg",
    "id_image": "2014_rv_Jaguar_rv_Lightweight_rv_E_rv_Type_rv_V5_rv_1600",
    "count_view": 0
  },
  {
    "link_thumb": "https://live.staticflickr.com/65535/48116042151_4c90c4e62d_n.jpg",
    "id_album": "1364506720",
    "description": "Ferrari_520552",
    "title": "Ferrari_520552",
    "link_img": "https://live.staticflickr.com/65535/48116042151_5c8bb45cf2_o.jpg",
    "id_image": "Ferrari_520552",
    "count_view": 0
  },
  {
    "link_thumb": "https://live.staticflickr.com/65535/48123250256_542b67f663_n.jpg",
    "id_album": "1274920659",
    "description": "Toyota_571112",
    "title": "Toyota_571112",
    "link_img": "https://live.staticflickr.com/65535/48123250256_4040c7e3b4_o.jpg",
    "id_image": "Toyota_571112",
    "count_view": 0
  },
  {
    "link_thumb": "https://live.staticflickr.com/65535/48118418253_0f077a484d_n.jpg",
    "id_album": "-2100339805",
    "description": "Lamborghini_373812",
    "title": "Lamborghini_373812",
    "link_img": "https://live.staticflickr.com/65535/48118418253_15c6cb5875_o.jpg",
    "id_image": "Lamborghini_373812",
    "count_view": 0
  },
  {
    "link_thumb": "https://live.staticflickr.com/65535/48113298236_b465248a53_n.jpg",
    "id_album": "727633301",
    "description": "BMW_992922",
    "title": "BMW_992922",
    "link_img": "https://live.staticflickr.com/65535/48113298236_59db3bdaac_o.jpg",
    "id_image": "BMW_992922",
    "count_view": 0
  },
  {
    "link_thumb": "https://live.staticflickr.com/65535/49889685461_e8a26d3fe8_n.jpg",
    "id_album": "-1846404630",
    "description": "1966_rv_Ford_rv_GT40_rv_Le_rv_Mans_rv_V2_rv_1440",
    "title": "1966_rv_Ford_rv_GT40_rv_Le_rv_Mans_rv_V2_rv_1440",
    "link_img": "https://live.staticflickr.com/65535/49889685461_7d22dc254c_o.jpg",
    "id_image": "1966_rv_Ford_rv_GT40_rv_Le_rv_Mans_rv_V2_rv_1440",
    "count_view": 0
  },
  {
    "link_thumb": "https://live.staticflickr.com/65535/49893034917_57560d60f5_n.jpg",
    "id_album": "-1985851063",
    "description": "2016_rv_Zenvo_rv_TS1_rv_V2_rv_1600",
    "title": "2016_rv_Zenvo_rv_TS1_rv_V2_rv_1600",
    "link_img": "https://live.staticflickr.com/65535/49893034917_eee946a700_o.jpg",
    "id_image": "2016_rv_Zenvo_rv_TS1_rv_V2_rv_1600",
    "count_view": 0
  },
  {
    "link_thumb": "https://live.staticflickr.com/65535/48123209156_727b02411e_n.jpg",
    "id_album": "1159292543",
    "description": "Volvo_990962",
    "title": "Volvo_990962",
    "link_img": "https://live.staticflickr.com/65535/48123209156_6543fa86c0_o.jpg",
    "id_image": "Volvo_990962",
    "count_view": 0
  },
  {
    "link_thumb": "https://live.staticflickr.com/65535/48115469003_16c338d9b9_n.jpg",
    "id_album": "413141323",
    "description": "Dodge_616222",
    "title": "Dodge_616222",
    "link_img": "https://live.staticflickr.com/65535/48115469003_3d52a09b5d_o.jpg",
    "id_image": "Dodge_616222",
    "count_view": 0
  },
  {
    "link_thumb": "https://live.staticflickr.com/65535/48121896161_5b1fc78420_n.jpg",
    "id_album": "-1377335499",
    "description": "RangeRover_485062",
    "title": "RangeRover_485062",
    "link_img": "https://live.staticflickr.com/65535/48121896161_56bfb70032_o.jpg",
    "id_image": "RangeRover_485062",
    "count_view": 0
  },
  {
    "link_thumb": "https://live.staticflickr.com/65535/48114575736_dc226c52e6_n.jpg",
    "id_album": "-1721545051",
    "description": "Chevrolet_825041",
    "title": "Chevrolet_825041",
    "link_img": "https://live.staticflickr.com/65535/48114575736_c84185371a_o.jpg",
    "id_image": "Chevrolet_825041",
    "count_view": 0
  },
  {
    "link_thumb": "https://live.staticflickr.com/65535/49041192572_560b9e53de_n.jpg",
    "id_album": "-2126948992",
    "description": "AlfaRomeo_960371",
    "title": "AlfaRomeo_960371",
    "link_img": "https://live.staticflickr.com/65535/49041192572_d6cdec7a11_o.jpg",
    "id_image": "AlfaRomeo_960371",
    "count_view": 0
  },
  {
    "link_thumb": "https://live.staticflickr.com/65535/48114577932_cc8c5f363b_n.jpg",
    "id_album": "-1721545051",
    "description": "Chevrolet_741550",
    "title": "Chevrolet_741550",
    "link_img": "https://live.staticflickr.com/65535/48114577932_547cba20d5_o.jpg",
    "id_image": "Chevrolet_741550",
    "count_view": 0
  },
  {
    "link_thumb": "https://live.staticflickr.com/65535/49889526962_a3724525cf_n.jpg",
    "id_album": "-1678364421",
    "description": "2019_rv_Bugatti_rv_Chiron_rv_Sport_rv_V2_rv_2000",
    "title": "2019_rv_Bugatti_rv_Chiron_rv_Sport_rv_V2_rv_2000",
    "link_img": "https://live.staticflickr.com/65535/49889526962_cf0f707340_o.jpg",
    "id_image": "2019_rv_Bugatti_rv_Chiron_rv_Sport_rv_V2_rv_2000",
    "count_view": 0
  },
  {
    "link_thumb": "https://live.staticflickr.com/65535/48117062416_25afffd650_n.jpg",
    "id_album": "-1846404630",
    "description": "Ford_378256",
    "title": "Ford_378256",
    "link_img": "https://live.staticflickr.com/65535/48117062416_40c46a8cd7_o.jpg",
    "id_image": "Ford_378256",
    "count_view": 0
  },
  {
    "link_thumb": "https://live.staticflickr.com/65535/48113439762_4df03a298b_n.jpg",
    "id_album": "1456070666",
    "description": "Bugatti_282813",
    "title": "Bugatti_282813",
    "link_img": "https://live.staticflickr.com/65535/48113439762_d6ced59a4d_o.jpg",
    "id_image": "Bugatti_282813",
    "count_view": 0
  },
  {
    "link_thumb": "https://live.staticflickr.com/65535/49891818193_2bbf27b959_n.jpg",
    "id_album": "-283016394",
    "description": "2007_rv_Subaru_rv_Impreza_rv_WRX_rv_STI_rv_V10_rv_1536",
    "title": "2007_rv_Subaru_rv_Impreza_rv_WRX_rv_STI_rv_V10_rv_1536",
    "link_img": "https://live.staticflickr.com/65535/49891818193_5deb204a50_o.jpg",
    "id_image": "2007_rv_Subaru_rv_Impreza_rv_WRX_rv_STI_rv_V10_rv_1536",
    "count_view": 0
  },
  {
    "link_thumb": "https://live.staticflickr.com/65535/48119521616_5689d0728a_n.jpg",
    "id_album": "-731054311",
    "description": "MercedesBenz_257173",
    "title": "MercedesBenz_257173",
    "link_img": "https://live.staticflickr.com/65535/48119521616_f12bf6b853_o.jpg",
    "id_image": "MercedesBenz_257173",
    "count_view": 0
  },
  {
    "link_thumb": "https://live.staticflickr.com/65535/49890076766_838ed90d89_n.jpg",
    "id_album": "465737886",
    "description": "2016_rv_Koenigsegg_rv_Regera_rv_V12_rv_1600",
    "title": "2016_rv_Koenigsegg_rv_Regera_rv_V12_rv_1600",
    "link_img": "https://live.staticflickr.com/65535/49890076766_1eb73cce22_o.jpg",
    "id_image": "2016_rv_Koenigsegg_rv_Regera_rv_V12_rv_1600",
    "count_view": 0
  },
  {
    "link_thumb": "https://live.staticflickr.com/65535/48112741918_644ec0b387_n.jpg",
    "id_album": "727633301",
    "description": "BMW_317501",
    "title": "BMW_317501",
    "link_img": "https://live.staticflickr.com/65535/48112741918_83d5f6c483_o.jpg",
    "id_image": "BMW_317501",
    "count_view": 0
  },
  {
    "link_thumb": "https://live.staticflickr.com/65535/48121014882_7e2dba0566_n.jpg",
    "id_album": "1965631892",
    "description": "Peugeot_996750",
    "title": "Peugeot_996750",
    "link_img": "https://live.staticflickr.com/65535/48121014882_243655a3f6_o.jpg",
    "id_image": "Peugeot_996750",
    "count_view": 0
  },
  {
    "link_thumb": "https://live.staticflickr.com/65535/48118250458_6fc9b09f17_n.jpg",
    "id_album": "1911063798",
    "description": "Koenigsegg_881368",
    "title": "Koenigsegg_881368",
    "link_img": "https://live.staticflickr.com/65535/48118250458_4383be56a5_o.jpg",
    "id_image": "Koenigsegg_881368",
    "count_view": 0
  },
  {
    "link_thumb": "https://live.staticflickr.com/65535/49890366676_93594b5266_n.jpg",
    "id_album": "1985230094",
    "description": "2002_rv_Lotus_rv_Esprit_rv_V8_rv_V4_rv_1440",
    "title": "2002_rv_Lotus_rv_Esprit_rv_V8_rv_V4_rv_1440",
    "link_img": "https://live.staticflickr.com/65535/49890366676_73f0a04e7d_o.jpg",
    "id_image": "2002_rv_Lotus_rv_Esprit_rv_V8_rv_V4_rv_1440",
    "count_view": 0
  },
  {
    "link_thumb": "https://live.staticflickr.com/65535/49892060313_3b26446a8e_n.jpg",
    "id_album": "-1220388988",
    "description": "2013_rv_Audi_rv_R8_rv_V10_rv_V3_rv_1440",
    "title": "2013_rv_Audi_rv_R8_rv_V10_rv_V3_rv_1440",
    "link_img": "https://live.staticflickr.com/65535/49892060313_8b1df34a69_o.jpg",
    "id_image": "2013_rv_Audi_rv_R8_rv_V10_rv_V3_rv_1440",
    "count_view": 0
  },
  {
    "link_thumb": "https://live.staticflickr.com/65535/48119226066_4ce5d6ea73_n.jpg",
    "id_album": "898314866",
    "description": "Mazda_736985",
    "title": "Mazda_736985",
    "link_img": "https://live.staticflickr.com/65535/48119226066_de0af6cf81_o.jpg",
    "id_image": "Mazda_736985",
    "count_view": 0
  },
  {
    "link_thumb": "https://live.staticflickr.com/65535/49889205028_931d17edda_n.jpg",
    "id_album": "524349362",
    "description": "2002_rv_Ford_rv_GT40_rv_Concept_rv_V2_rv_1440",
    "title": "2002_rv_Ford_rv_GT40_rv_Concept_rv_V2_rv_1440",
    "link_img": "https://live.staticflickr.com/65535/49889205028_22cd2a0009_o.jpg",
    "id_image": "2002_rv_Ford_rv_GT40_rv_Concept_rv_V2_rv_1440",
    "count_view": 0
  },
  {
    "link_thumb": "https://live.staticflickr.com/65535/48115735617_28080aaac5_n.jpg",
    "id_album": "1364506720",
    "description": "Ferrari_207444",
    "title": "Ferrari_207444",
    "link_img": "https://live.staticflickr.com/65535/48115735617_8285e36292_o.jpg",
    "id_image": "Ferrari_207444",
    "count_view": 0
  },
  {
    "link_thumb": "https://live.staticflickr.com/65535/48113165823_bb693b5010_n.jpg",
    "id_album": "727633301",
    "description": "BMW_880707",
    "title": "BMW_880707",
    "link_img": "https://live.staticflickr.com/65535/48113165823_547c5e2f19_o.jpg",
    "id_image": "BMW_880707",
    "count_view": 0
  },
  {
    "link_thumb": "https://live.staticflickr.com/65535/49889019526_ea4566a04c_n.jpg",
    "id_album": "-885766951",
    "description": "2011_rv_Bac_rv_Mono_rv_V2_rv_1600",
    "title": "2011_rv_Bac_rv_Mono_rv_V2_rv_1600",
    "link_img": "https://live.staticflickr.com/65535/49889019526_7014a5fcae_o.jpg",
    "id_image": "2011_rv_Bac_rv_Mono_rv_V2_rv_1600",
    "count_view": 0
  },
  {
    "link_thumb": "https://live.staticflickr.com/65535/48112921727_7a499bf3ff_n.jpg",
    "id_album": "727633301",
    "description": "BMW_470970",
    "title": "BMW_470970",
    "link_img": "https://live.staticflickr.com/65535/48112921727_51ba94d49b_o.jpg",
    "id_image": "BMW_470970",
    "count_view": 0
  },
  {
    "link_thumb": "https://live.staticflickr.com/65535/49889259536_7406992049_n.jpg",
    "id_album": "-843860003",
    "description": "2015_rv_Chevrolet_rv_Corvette_rv_Z06_rv_V14_rv_1600",
    "title": "2015_rv_Chevrolet_rv_Corvette_rv_Z06_rv_V14_rv_1600",
    "link_img": "https://live.staticflickr.com/65535/49889259536_eb8ab3fc50_o.jpg",
    "id_image": "2015_rv_Chevrolet_rv_Corvette_rv_Z06_rv_V14_rv_1600",
    "count_view": 0
  },
  {
    "link_thumb": "https://live.staticflickr.com/65535/48118674798_92d7c0d799_n.jpg",
    "id_album": "-2100339805",
    "description": "Lamborghini_886866",
    "title": "Lamborghini_886866",
    "link_img": "https://live.staticflickr.com/65535/48118674798_eefb970306_o.jpg",
    "id_image": "Lamborghini_886866",
    "count_view": 0
  },
  {
    "link_thumb": "https://live.staticflickr.com/65535/48118865948_44a69e2daa_n.jpg",
    "id_album": "446908717",
    "description": "Lexus_226325",
    "title": "Lexus_226325",
    "link_img": "https://live.staticflickr.com/65535/48118865948_38548e9944_o.jpg",
    "id_image": "Lexus_226325",
    "count_view": 0
  },
  {
    "link_thumb": "https://live.staticflickr.com/65535/49892476966_57d58c2351_n.jpg",
    "id_album": "746165216",
    "description": "2017_rv_Toyota_rv_86_rv_V11_rv_2000",
    "title": "2017_rv_Toyota_rv_86_rv_V11_rv_2000",
    "link_img": "https://live.staticflickr.com/65535/49892476966_ecbc086103_o.jpg",
    "id_image": "2017_rv_Toyota_rv_86_rv_V11_rv_2000",
    "count_view": 0
  },
  {
    "link_thumb": "https://live.staticflickr.com/65535/48117001136_e9184e5604_n.jpg",
    "id_album": "-1846404630",
    "description": "Ford_318089",
    "title": "Ford_318089",
    "link_img": "https://live.staticflickr.com/65535/48117001136_f89065e6cd_o.jpg",
    "id_image": "Ford_318089",
    "count_view": 0
  },
  {
    "link_thumb": "https://live.staticflickr.com/65535/48118460093_968bc14bff_n.jpg",
    "id_album": "-2100339805",
    "description": "Lamborghini_405445",
    "title": "Lamborghini_405445",
    "link_img": "https://live.staticflickr.com/65535/48118460093_3ac0b49d8d_o.jpg",
    "id_image": "Lamborghini_405445",
    "count_view": 0
  },
  {
    "link_thumb": "https://live.staticflickr.com/65535/49890413372_dbd3b65686_n.jpg",
    "id_album": "-59902933",
    "description": "2019_rv_Lamborghini_rv_Aventador_rv_SVJ_rv_V17_rv_1600",
    "title": "2019_rv_Lamborghini_rv_Aventador_rv_SVJ_rv_V17_rv_1600",
    "link_img": "https://live.staticflickr.com/65535/49890413372_a31b622556_o.jpg",
    "id_image": "2019_rv_Lamborghini_rv_Aventador_rv_SVJ_rv_V17_rv_1600",
    "count_view": 0
  },
  {
    "link_thumb": "https://live.staticflickr.com/65535/49889221576_8112f265d8_n.jpg",
    "id_album": "1218390043",
    "description": "2019_rv_Bugatti_rv_Divo_rv_V12_rv_2000",
    "title": "2019_rv_Bugatti_rv_Divo_rv_V12_rv_2000",
    "link_img": "https://live.staticflickr.com/65535/49889221576_32bbb406e9_o.jpg",
    "id_image": "2019_rv_Bugatti_rv_Divo_rv_V12_rv_2000",
    "count_view": 0
  },
  {
    "link_thumb": "https://live.staticflickr.com/65535/49889424803_d6d81fd9e1_n.jpg",
    "id_album": "-1565243236",
    "description": "2019_rv_Hyundai_rv_i30_rv_Fastback_rv_N_rv_V2_rv_2000",
    "title": "2019_rv_Hyundai_rv_i30_rv_Fastback_rv_N_rv_V2_rv_2000",
    "link_img": "https://live.staticflickr.com/65535/49889424803_7979a2906e_o.jpg",
    "id_image": "2019_rv_Hyundai_rv_i30_rv_Fastback_rv_N_rv_V2_rv_2000",
    "count_view": 0
  },
  {
    "link_thumb": "https://live.staticflickr.com/65535/48122820033_d7d15fab15_n.jpg",
    "id_album": "1274920659",
    "description": "Toyota_882684",
    "title": "Toyota_882684",
    "link_img": "https://live.staticflickr.com/65535/48122820033_97caf7762b_o.jpg",
    "id_image": "Toyota_882684",
    "count_view": 0
  },
  {
    "link_thumb": "https://live.staticflickr.com/65535/48119805612_a4b4ea1acb_n.jpg",
    "id_album": "-731054311",
    "description": "MercedesBenz_612859",
    "title": "MercedesBenz_612859",
    "link_img": "https://live.staticflickr.com/65535/48119805612_f9cc4b764c_o.jpg",
    "id_image": "MercedesBenz_612859",
    "count_view": 0
  },
  {
    "link_thumb": "https://live.staticflickr.com/65535/48113459387_a788417320_n.jpg",
    "id_album": "1456070666",
    "description": "Bugatti_366003",
    "title": "Bugatti_366003",
    "link_img": "https://live.staticflickr.com/65535/48113459387_2cb7b678ce_o.jpg",
    "id_image": "Bugatti_366003",
    "count_view": 0
  },
  {
    "link_thumb": "https://live.staticflickr.com/65535/49041137807_492aefe67d_n.jpg",
    "id_album": "904180535",
    "description": "AlfaRomeo_919108",
    "title": "AlfaRomeo_919108",
    "link_img": "https://live.staticflickr.com/65535/49041137807_1705b7d7a0_o.jpg",
    "id_image": "AlfaRomeo_919108",
    "count_view": 0
  },
  {
    "link_thumb": "https://live.staticflickr.com/65535/48112426178_74990bf97a_n.jpg",
    "id_album": "-15119147",
    "description": "Audi_724529",
    "title": "Audi_724529",
    "link_img": "https://live.staticflickr.com/65535/48112426178_b540e64847_o.jpg",
    "id_image": "Audi_724529",
    "count_view": 0
  },
  {
    "link_thumb": "https://live.staticflickr.com/65535/48119851866_72337aca2a_n.jpg",
    "id_album": "-731054311",
    "description": "MercedesBenz_906660",
    "title": "MercedesBenz_906660",
    "link_img": "https://live.staticflickr.com/65535/48119851866_d648c453c7_o.jpg",
    "id_image": "MercedesBenz_906660",
    "count_view": 0
  },
  {
    "link_thumb": "https://live.staticflickr.com/65535/49892475602_8144c97033_n.jpg",
    "id_album": "-1556411575",
    "description": "2019_rv_Puritalia_rv_Berlinetta_rv_V5_rv_2160",
    "title": "2019_rv_Puritalia_rv_Berlinetta_rv_V5_rv_2160",
    "link_img": "https://live.staticflickr.com/65535/49892475602_9efd217f2f_o.jpg",
    "id_image": "2019_rv_Puritalia_rv_Berlinetta_rv_V5_rv_2160",
    "count_view": 0
  },
  {
    "link_thumb": "https://live.staticflickr.com/65535/48122059762_0879bf9268_n.jpg",
    "id_album": "-1217333387",
    "description": "Renault_190059",
    "title": "Renault_190059",
    "link_img": "https://live.staticflickr.com/65535/48122059762_d271a88275_o.jpg",
    "id_image": "Renault_190059",
    "count_view": 0
  },
  {
    "link_thumb": "https://live.staticflickr.com/65535/48118515866_b02418c4ee_n.jpg",
    "id_album": "-2100339805",
    "description": "Lamborghini_523943",
    "title": "Lamborghini_523943",
    "link_img": "https://live.staticflickr.com/65535/48118515866_c575a35310_o.jpg",
    "id_image": "Lamborghini_523943",
    "count_view": 0
  },
  {
    "link_thumb": "https://live.staticflickr.com/65535/48119471173_5c21e8768f_n.jpg",
    "id_album": "-731054311",
    "description": "MercedesBenz_142371",
    "title": "MercedesBenz_142371",
    "link_img": "https://live.staticflickr.com/65535/48119471173_813e09693d_o.jpg",
    "id_image": "MercedesBenz_142371",
    "count_view": 0
  },
  {
    "link_thumb": "https://live.staticflickr.com/65535/48114322788_682793601c_n.jpg",
    "id_album": "-1721545051",
    "description": "Chevrolet_471709",
    "title": "Chevrolet_471709",
    "link_img": "https://live.staticflickr.com/65535/48114322788_9be0c355a8_o.jpg",
    "id_image": "Chevrolet_471709",
    "count_view": 0
  },
  {
    "link_thumb": "https://live.staticflickr.com/65535/49889205368_33804a7497_n.jpg",
    "id_album": "524349362",
    "description": "2002_rv_Ford_rv_GT40_rv_Concept_rv_V4_rv_1440",
    "title": "2002_rv_Ford_rv_GT40_rv_Concept_rv_V4_rv_1440",
    "link_img": "https://live.staticflickr.com/65535/49889205368_f7962f073d_o.jpg",
    "id_image": "2002_rv_Ford_rv_GT40_rv_Concept_rv_V4_rv_1440",
    "count_view": 0
  },
  {
    "link_thumb": "https://live.staticflickr.com/65535/48121975301_431e8fc943_n.jpg",
    "id_album": "-1217333387",
    "description": "Renault_251550",
    "title": "Renault_251550",
    "link_img": "https://live.staticflickr.com/65535/48121975301_7a775757f6_o.jpg",
    "id_image": "Renault_251550",
    "count_view": 0
  },
  {
    "link_thumb": "https://live.staticflickr.com/65535/49890251502_4aaa66f326_n.jpg",
    "id_album": "-1565243236",
    "description": "2015_rv_Hyundai_rv_i30_rv_Turbo_rv_V5_rv_1600",
    "title": "2015_rv_Hyundai_rv_i30_rv_Turbo_rv_V5_rv_1600",
    "link_img": "https://live.staticflickr.com/65535/49890251502_69eac74934_o.jpg",
    "id_image": "2015_rv_Hyundai_rv_i30_rv_Turbo_rv_V5_rv_1600",
    "count_view": 0
  },
  {
    "link_thumb": "https://live.staticflickr.com/65535/48118766228_4c727c2663_n.jpg",
    "id_album": "-2100339805",
    "description": "Lamborghini_985691",
    "title": "Lamborghini_985691",
    "link_img": "https://live.staticflickr.com/65535/48118766228_24b5d1372a_o.jpg",
    "id_image": "Lamborghini_985691",
    "count_view": 0
  },
  {
    "link_thumb": "https://live.staticflickr.com/65535/48122262122_01d5080251_n.jpg",
    "id_album": "1536700661",
    "description": "RollsRoyce_942896",
    "title": "RollsRoyce_942896",
    "link_img": "https://live.staticflickr.com/65535/48122262122_e8aa3ca004_o.jpg",
    "id_image": "RollsRoyce_942896",
    "count_view": 0
  },
  {
    "link_thumb": "https://live.staticflickr.com/65535/48112463996_31f0d342ed_n.jpg",
    "id_album": "-15119147",
    "description": "Audi_960693",
    "title": "Audi_960693",
    "link_img": "https://live.staticflickr.com/65535/48112463996_d32971bfe7_o.jpg",
    "id_image": "Audi_960693",
    "count_view": 0
  },
  {
    "link_thumb": "https://live.staticflickr.com/65535/48117053398_0dfbe98132_n.jpg",
    "id_album": "-1846404630",
    "description": "Ford_329785",
    "title": "Ford_329785",
    "link_img": "https://live.staticflickr.com/65535/48117053398_85a680a41c_o.jpg",
    "id_image": "Ford_329785",
    "count_view": 0
  },
  {
    "link_thumb": "https://live.staticflickr.com/65535/49891503457_e47b107931_n.jpg",
    "id_album": "-420675233",
    "description": "2015_rv_Novitec_rv_Torado_rv_Lamborghini_rv_Huracan_rv_N_rv_Largo_rv_V2_rv_2000",
    "title": "2015_rv_Novitec_rv_Torado_rv_Lamborghini_rv_Huracan_rv_N_rv_Largo_rv_V2_rv_2000",
    "link_img": "https://live.staticflickr.com/65535/49891503457_ed6ef07628_o.jpg",
    "id_image": "2015_rv_Novitec_rv_Torado_rv_Lamborghini_rv_Huracan_rv_N_rv_Largo_rv_V2_rv_2000",
    "count_view": 0
  },
  {
    "link_thumb": "https://live.staticflickr.com/65535/49889013847_38e67b6c7a_n.jpg",
    "id_album": "-1199458397",
    "description": "2010_rv_Bugatti_rv_Veyron_rv_16_rv_4_rv_Super_rv_Sport_rv_V7_rv_1600",
    "title": "2010_rv_Bugatti_rv_Veyron_rv_16_rv_4_rv_Super_rv_Sport_rv_V7_rv_1600",
    "link_img": "https://live.staticflickr.com/65535/49889013847_e1671be12e_o.jpg",
    "id_image": "2010_rv_Bugatti_rv_Veyron_rv_16_rv_4_rv_Super_rv_Sport_rv_V7_rv_1600",
    "count_view": 0
  },
  {
    "link_thumb": "https://live.staticflickr.com/65535/48112392957_e54f272352_n.jpg",
    "id_album": "-15119147",
    "description": "Audi_420749",
    "title": "Audi_420749",
    "link_img": "https://live.staticflickr.com/65535/48112392957_8fa235f5b1_o.jpg",
    "id_image": "Audi_420749",
    "count_view": 0
  },
  {
    "link_thumb": "https://live.staticflickr.com/65535/49890737937_807847d0f2_n.jpg",
    "id_album": "-1470719774",
    "description": "2013_rv_Maserati_rv_GranTurismo_rv_Sport_rv_V3_rv_1600",
    "title": "2013_rv_Maserati_rv_GranTurismo_rv_Sport_rv_V3_rv_1600",
    "link_img": "https://live.staticflickr.com/65535/49890737937_edf9d77fda_o.jpg",
    "id_image": "2013_rv_Maserati_rv_GranTurismo_rv_Sport_rv_V3_rv_1600",
    "count_view": 0
  },
  {
    "link_thumb": "https://live.staticflickr.com/65535/48118359881_e6ea7281e3_n.jpg",
    "id_album": "-2100339805",
    "description": "Lamborghini_352061",
    "title": "Lamborghini_352061",
    "link_img": "https://live.staticflickr.com/65535/48118359881_91cf0079d3_o.jpg",
    "id_image": "Lamborghini_352061",
    "count_view": 0
  },
  {
    "link_thumb": "https://live.staticflickr.com/65535/48120422223_a95858502b_n.jpg",
    "id_album": "810634050",
    "description": "Nissan_367079",
    "title": "Nissan_367079",
    "link_img": "https://live.staticflickr.com/65535/48120422223_712b63e4cb_o.jpg",
    "id_image": "Nissan_367079",
    "count_view": 0
  },
  {
    "link_thumb": "https://live.staticflickr.com/65535/48120988748_a716c1eccc_n.jpg",
    "id_album": "-1123679742",
    "description": "Plymouth_194314",
    "title": "Plymouth_194314",
    "link_img": "https://live.staticflickr.com/65535/48120988748_d37c02606c_o.jpg",
    "id_image": "Plymouth_194314",
    "count_view": 0
  },
  {
    "link_thumb": "https://live.staticflickr.com/65535/48118518292_2350e4fdb5_n.jpg",
    "id_album": "-2100339805",
    "description": "Lamborghini_403904",
    "title": "Lamborghini_403904",
    "link_img": "https://live.staticflickr.com/65535/48118518292_3f02b299a3_o.jpg",
    "id_image": "Lamborghini_403904",
    "count_view": 0
  },
  {
    "link_thumb": "https://live.staticflickr.com/65535/48118388632_309879d7fe_n.jpg",
    "id_album": "-2100339805",
    "description": "Lamborghini_292247",
    "title": "Lamborghini_292247",
    "link_img": "https://live.staticflickr.com/65535/48118388632_9da5f54473_o.jpg",
    "id_image": "Lamborghini_292247",
    "count_view": 0
  },
  {
    "link_thumb": "https://live.staticflickr.com/65535/48112349771_f689336db9_n.jpg",
    "id_album": "-15119147",
    "description": "Audi_501207",
    "title": "Audi_501207",
    "link_img": "https://live.staticflickr.com/65535/48112349771_98a7709bae_o.jpg",
    "id_image": "Audi_501207",
    "count_view": 0
  },
  {
    "link_thumb": "https://live.staticflickr.com/65535/48117898238_e2f19413c0_n.jpg",
    "id_album": "-354267407",
    "description": "Honda_684292",
    "title": "Honda_684292",
    "link_img": "https://live.staticflickr.com/65535/48117898238_a2b0fb63c8_o.jpg",
    "id_image": "Honda_684292",
    "count_view": 0
  },
  {
    "link_thumb": "https://live.staticflickr.com/65535/48113650097_279007009b_n.jpg",
    "id_album": "-680120434",
    "description": "Cadillac_382191",
    "title": "Cadillac_382191",
    "link_img": "https://live.staticflickr.com/65535/48113650097_4a86dda4db_o.jpg",
    "id_image": "Cadillac_382191",
    "count_view": 0
  },
  {
    "link_thumb": "https://live.staticflickr.com/65535/48113088826_f77b1ce2b5_n.jpg",
    "id_album": "727633301",
    "description": "BMW_849415",
    "title": "BMW_849415",
    "link_img": "https://live.staticflickr.com/65535/48113088826_9fb851b4bb_o.jpg",
    "id_image": "BMW_849415",
    "count_view": 0
  },
  {
    "link_thumb": "https://live.staticflickr.com/65535/49889224032_753984546f_n.jpg",
    "id_album": "216453960",
    "description": "2017_rv_Aston_rv_Martin_rv_Vanquish_rv_Zagato_rv_Volante_rv_V5_rv_2000",
    "title": "2017_rv_Aston_rv_Martin_rv_Vanquish_rv_Zagato_rv_Volante_rv_V5_rv_2000",
    "link_img": "https://live.staticflickr.com/65535/49889224032_97aacfe704_o.jpg",
    "id_image": "2017_rv_Aston_rv_Martin_rv_Vanquish_rv_Zagato_rv_Volante_rv_V5_rv_2000",
    "count_view": 0
  },
  {
    "link_thumb": "https://live.staticflickr.com/65535/48122805071_ee4c2a2a81_n.jpg",
    "id_album": "1274920659",
    "description": "Toyota_919034",
    "title": "Toyota_919034",
    "link_img": "https://live.staticflickr.com/65535/48122805071_d1f40af89e_o.jpg",
    "id_image": "Toyota_919034",
    "count_view": 0
  },
  {
    "link_thumb": "https://live.staticflickr.com/65535/48116893387_b08b947ae6_n.jpg",
    "id_album": "-1846404630",
    "description": "Ford_237940",
    "title": "Ford_237940",
    "link_img": "https://live.staticflickr.com/65535/48116893387_96b47f007c_o.jpg",
    "id_image": "Ford_237940",
    "count_view": 0
  },
  {
    "link_thumb": "https://live.staticflickr.com/65535/48112917572_8b4973c9a6_n.jpg",
    "id_album": "727633301",
    "description": "BMW_470922",
    "title": "BMW_470922",
    "link_img": "https://live.staticflickr.com/65535/48112917572_607a6f05f1_o.jpg",
    "id_image": "BMW_470922",
    "count_view": 0
  },
  {
    "link_thumb": "https://live.staticflickr.com/65535/48118201377_6a4fbe2a5f_n.jpg",
    "id_album": "-2009218697",
    "description": "Jeep_616797",
    "title": "Jeep_616797",
    "link_img": "https://live.staticflickr.com/65535/48118201377_1da7d07d22_o.jpg",
    "id_image": "Jeep_616797",
    "count_view": 0
  },
  {
    "link_thumb": "https://live.staticflickr.com/65535/48118456086_5f65a8082c_n.jpg",
    "id_album": "-2100339805",
    "description": "Lamborghini_440100",
    "title": "Lamborghini_440100",
    "link_img": "https://live.staticflickr.com/65535/48118456086_ed03ef9ce2_o.jpg",
    "id_image": "Lamborghini_440100",
    "count_view": 0
  },
  {
    "link_thumb": "https://live.staticflickr.com/65535/48112440232_ec84c76659_n.jpg",
    "id_album": "-15119147",
    "description": "Audi_479829",
    "title": "Audi_479829",
    "link_img": "https://live.staticflickr.com/65535/48112440232_c4a1d438ce_o.jpg",
    "id_image": "Audi_479829",
    "count_view": 0
  },
  {
    "link_thumb": "https://live.staticflickr.com/65535/49889774833_e60891977c_n.jpg",
    "id_album": "917675375",
    "description": "2017_rv_Lexus_rv_LC_rv_500h_rv_V2_rv_2000",
    "title": "2017_rv_Lexus_rv_LC_rv_500h_rv_V2_rv_2000",
    "link_img": "https://live.staticflickr.com/65535/49889774833_063b5ba11e_o.jpg",
    "id_image": "2017_rv_Lexus_rv_LC_rv_500h_rv_V2_rv_2000",
    "count_view": 0
  },
  {
    "link_thumb": "https://live.staticflickr.com/65535/49889900046_868726416a_n.jpg",
    "id_album": "2135768675",
    "description": "2017_rv_Holden_rv_HSV_rv_GTSR_rv_V9_rv_2000",
    "title": "2017_rv_Holden_rv_HSV_rv_GTSR_rv_V9_rv_2000",
    "link_img": "https://live.staticflickr.com/65535/49889900046_6765d02d07_o.jpg",
    "id_image": "2017_rv_Holden_rv_HSV_rv_GTSR_rv_V9_rv_2000",
    "count_view": 0
  },
  {
    "link_thumb": "https://live.staticflickr.com/65535/48112331687_9711383c21_n.jpg",
    "id_album": "-15119147",
    "description": "Audi_154708",
    "title": "Audi_154708",
    "link_img": "https://live.staticflickr.com/65535/48112331687_601a7bf171_o.jpg",
    "id_image": "Audi_154708",
    "count_view": 0
  },
  {
    "link_thumb": "https://live.staticflickr.com/65535/49888806441_f865d5b832_n.jpg",
    "id_album": "1030621216",
    "description": "2016_rv_Apollo_rv_Arrow_rv_V5_rv_2000",
    "title": "2016_rv_Apollo_rv_Arrow_rv_V5_rv_2000",
    "link_img": "https://live.staticflickr.com/65535/49888806441_5185058e1a_o.jpg",
    "id_image": "2016_rv_Apollo_rv_Arrow_rv_V5_rv_2000",
    "count_view": 0
  },
  {
    "link_thumb": "https://live.staticflickr.com/65535/49891745258_54e4946319_n.jpg",
    "id_album": "-1387225061",
    "description": "2010_rv_Renault_rv_Laguna_rv_Coupe_rv_Monaco_rv_GP_rv_V2_rv_1536",
    "title": "2010_rv_Renault_rv_Laguna_rv_Coupe_rv_Monaco_rv_GP_rv_V2_rv_1536",
    "link_img": "https://live.staticflickr.com/65535/49891745258_fa6025e8d1_o.jpg",
    "id_image": "2010_rv_Renault_rv_Laguna_rv_Coupe_rv_Monaco_rv_GP_rv_V2_rv_1536",
    "count_view": 0
  },
  {
    "link_thumb": "https://live.staticflickr.com/65535/48117590393_0f6de06b89_n.jpg",
    "id_album": "-1846404630",
    "description": "Ford_931210",
    "title": "Ford_931210",
    "link_img": "https://live.staticflickr.com/65535/48117590393_f7b6b5891a_o.jpg",
    "id_image": "Ford_931210",
    "count_view": 0
  },
  {
    "link_thumb": "https://live.staticflickr.com/65535/49890297343_96f93aa886_n.jpg",
    "id_album": "-21475779",
    "description": "2016_rv_Mercedes_rv_Benz_rv_AMG_rv_GT_rv_S_rv_V10_rv_1600",
    "title": "2016_rv_Mercedes_rv_Benz_rv_AMG_rv_GT_rv_S_rv_V10_rv_1600",
    "link_img": "https://live.staticflickr.com/65535/49890297343_9bc178c741_o.jpg",
    "id_image": "2016_rv_Mercedes_rv_Benz_rv_AMG_rv_GT_rv_S_rv_V10_rv_1600",
    "count_view": 0
  },
  {
    "link_thumb": "https://live.staticflickr.com/65535/48117617918_7fe7ec5a81_n.jpg",
    "id_album": "-1846404630",
    "description": "Ford_931864",
    "title": "Ford_931864",
    "link_img": "https://live.staticflickr.com/65535/48117617918_4d25f32ea3_o.jpg",
    "id_image": "Ford_931864",
    "count_view": 0
  },
  {
    "link_thumb": "https://live.staticflickr.com/65535/48121244126_b6e372e6dc_n.jpg",
    "id_album": "-1178450892",
    "description": "Porsche_254259",
    "title": "Porsche_254259",
    "link_img": "https://live.staticflickr.com/65535/48121244126_d479ecb70a_o.jpg",
    "id_image": "Porsche_254259",
    "count_view": 0
  },
  {
    "link_thumb": "https://live.staticflickr.com/65535/48121595581_3834885434_n.jpg",
    "id_album": "-1178450892",
    "description": "Porsche_717036",
    "title": "Porsche_717036",
    "link_img": "https://live.staticflickr.com/65535/48121595581_2bc75d7528_o.jpg",
    "id_image": "Porsche_717036",
    "count_view": 0
  },
  {
    "link_thumb": "https://live.staticflickr.com/65535/48114622408_6db76f80e2_n.jpg",
    "id_album": "-1721545051",
    "description": "Chevrolet_84611",
    "title": "Chevrolet_84611",
    "link_img": "https://live.staticflickr.com/65535/48114622408_8b756f17ca_o.jpg",
    "id_image": "Chevrolet_84611",
    "count_view": 0
  },
  {
    "link_thumb": "https://live.staticflickr.com/65535/48115359063_b4b86d5936_n.jpg",
    "id_album": "413141323",
    "description": "Dodge_472182",
    "title": "Dodge_472182",
    "link_img": "https://live.staticflickr.com/65535/48115359063_45a75af318_o.jpg",
    "id_image": "Dodge_472182",
    "count_view": 0
  },
  {
    "link_thumb": "https://live.staticflickr.com/65535/48121923307_dcd66caa47_n.jpg",
    "id_album": "-1178450892",
    "description": "Porsche_993101",
    "title": "Porsche_993101",
    "link_img": "https://live.staticflickr.com/65535/48121923307_218bdcf0fb_o.jpg",
    "id_image": "Porsche_993101",
    "count_view": 0
  },
  {
    "link_thumb": "https://live.staticflickr.com/65535/48116311767_0888c9fa80_n.jpg",
    "id_album": "1364506720",
    "description": "Ferrari_757621",
    "title": "Ferrari_757621",
    "link_img": "https://live.staticflickr.com/65535/48116311767_c7fa96f467_o.jpg",
    "id_image": "Ferrari_757621",
    "count_view": 0
  },
  {
    "link_thumb": "https://live.staticflickr.com/65535/48119486863_1fea49e1a9_n.jpg",
    "id_album": "-731054311",
    "description": "MercedesBenz_171044",
    "title": "MercedesBenz_171044",
    "link_img": "https://live.staticflickr.com/65535/48119486863_6943fe5d9e_o.jpg",
    "id_image": "MercedesBenz_171044",
    "count_view": 0
  },
  {
    "link_thumb": "https://live.staticflickr.com/65535/48113301058_e610507d47_n.jpg",
    "id_album": "727633301",
    "description": "BMW_952158",
    "title": "BMW_952158",
    "link_img": "https://live.staticflickr.com/65535/48113301058_30ef478af2_o.jpg",
    "id_image": "BMW_952158",
    "count_view": 0
  },
  {
    "link_thumb": "https://live.staticflickr.com/65535/49892095093_9b36283ac9_n.jpg",
    "id_album": "-842876950",
    "description": "2012_rv_Bentley_rv_Continental_rv_GTC_rv_V8_rv_V3_rv_1440",
    "title": "2012_rv_Bentley_rv_Continental_rv_GTC_rv_V8_rv_V3_rv_1440",
    "link_img": "https://live.staticflickr.com/65535/49892095093_3fc4c4b128_o.jpg",
    "id_image": "2012_rv_Bentley_rv_Continental_rv_GTC_rv_V8_rv_V3_rv_1440",
    "count_view": 0
  },
  {
    "link_thumb": "https://live.staticflickr.com/65535/48119796772_ef3f65d5e9_n.jpg",
    "id_album": "-731054311",
    "description": "MercedesBenz_552275",
    "title": "MercedesBenz_552275",
    "link_img": "https://live.staticflickr.com/65535/48119796772_143fc1456a_o.jpg",
    "id_image": "MercedesBenz_552275",
    "count_view": 0
  },
  {
    "link_thumb": "https://live.staticflickr.com/65535/48115202626_eac714af0a_n.jpg",
    "id_album": "413141323",
    "description": "Dodge_393798",
    "title": "Dodge_393798",
    "link_img": "https://live.staticflickr.com/65535/48115202626_a59539c6f2_o.jpg",
    "id_image": "Dodge_393798",
    "count_view": 0
  },
  {
    "link_thumb": "https://live.staticflickr.com/65535/48112331711_daac46c525_n.jpg",
    "id_album": "-15119147",
    "description": "Audi_479178",
    "title": "Audi_479178",
    "link_img": "https://live.staticflickr.com/65535/48112331711_f052b8f6cc_o.jpg",
    "id_image": "Audi_479178",
    "count_view": 0
  },
  {
    "link_thumb": "https://live.staticflickr.com/65535/48115976902_42f5331217_n.jpg",
    "id_album": "1364506720",
    "description": "Ferrari_366071",
    "title": "Ferrari_366071",
    "link_img": "https://live.staticflickr.com/65535/48115976902_d0f8d5ba3c_o.jpg",
    "id_image": "Ferrari_366071",
    "count_view": 0
  },
  {
    "link_thumb": "https://live.staticflickr.com/65535/49890327906_1a3be691f3_n.jpg",
    "id_album": "384187950",
    "description": "1991_rv_Mazda_rv_787B_rv_V2_rv_1600",
    "title": "1991_rv_Mazda_rv_787B_rv_V2_rv_1600",
    "link_img": "https://live.staticflickr.com/65535/49890327906_d9b515c98b_o.jpg",
    "id_image": "1991_rv_Mazda_rv_787B_rv_V2_rv_1600",
    "count_view": 0
  },
  {
    "link_thumb": "https://live.staticflickr.com/65535/49889251387_06a717c3b7_n.jpg",
    "id_album": "1878898510",
    "description": "2014_rv_Audi_rv_RS_rv_Q3_rv_V4_rv_1600",
    "title": "2014_rv_Audi_rv_RS_rv_Q3_rv_V4_rv_1600",
    "link_img": "https://live.staticflickr.com/65535/49889251387_63d66e69e5_o.jpg",
    "id_image": "2014_rv_Audi_rv_RS_rv_Q3_rv_V4_rv_1600",
    "count_view": 0
  },
  {
    "link_thumb": "https://live.staticflickr.com/65535/48114359976_90bce39d33_n.jpg",
    "id_album": "-1721545051",
    "description": "Chevrolet_505427",
    "title": "Chevrolet_505427",
    "link_img": "https://live.staticflickr.com/65535/48114359976_aed881d2b0_o.jpg",
    "id_image": "Chevrolet_505427",
    "count_view": 0
  },
  {
    "link_thumb": "https://live.staticflickr.com/65535/48119900776_23ca4aeec9_n.jpg",
    "id_album": "-731054311",
    "description": "MercedesBenz_926587",
    "title": "MercedesBenz_926587",
    "link_img": "https://live.staticflickr.com/65535/48119900776_8aae620260_o.jpg",
    "id_image": "MercedesBenz_926587",
    "count_view": 0
  },
  {
    "link_thumb": "https://live.staticflickr.com/65535/48112234906_02504f0dd0_n.jpg",
    "id_album": "-15119147",
    "description": "Audi_215643",
    "title": "Audi_215643",
    "link_img": "https://live.staticflickr.com/65535/48112234906_80bd83930b_o.jpg",
    "id_image": "Audi_215643",
    "count_view": 0
  },
  {
    "link_thumb": "https://live.staticflickr.com/65535/48114560092_de9dd412da_n.jpg",
    "id_album": "-1721545051",
    "description": "Chevrolet_723466",
    "title": "Chevrolet_723466",
    "link_img": "https://live.staticflickr.com/65535/48114560092_8d240a7769_o.jpg",
    "id_image": "Chevrolet_723466",
    "count_view": 0
  },
  {
    "link_thumb": "https://live.staticflickr.com/65535/48116235952_ae2a70a30d_n.jpg",
    "id_album": "1364506720",
    "description": "Ferrari_668033",
    "title": "Ferrari_668033",
    "link_img": "https://live.staticflickr.com/65535/48116235952_50672a0815_o.jpg",
    "id_image": "Ferrari_668033",
    "count_view": 0
  },
  {
    "link_thumb": "https://live.staticflickr.com/65535/48118781671_4b19d1b285_n.jpg",
    "id_album": "1234246491",
    "description": "LandRover_152537",
    "title": "LandRover_152537",
    "link_img": "https://live.staticflickr.com/65535/48118781671_eb830d668e_o.jpg",
    "id_image": "LandRover_152537",
    "count_view": 0
  },
  {
    "link_thumb": "https://live.staticflickr.com/65535/48120230442_16c2b41393_n.jpg",
    "id_album": "666438681",
    "description": "Motorcycles_183175",
    "title": "Motorcycles_183175",
    "link_img": "https://live.staticflickr.com/65535/48120230442_596a30e0e1_o.jpg",
    "id_image": "Motorcycles_183175",
    "count_view": 0
  },
  {
    "link_thumb": "https://live.staticflickr.com/65535/48113955172_31b288c8c5_n.jpg",
    "id_album": "-1721545051",
    "description": "Chevrolet_240566",
    "title": "Chevrolet_240566",
    "link_img": "https://live.staticflickr.com/65535/48113955172_fed6c8f274_o.jpg",
    "id_image": "Chevrolet_240566",
    "count_view": 0
  },
  {
    "link_thumb": "https://live.staticflickr.com/65535/49892570896_a16655ed68_n.jpg",
    "id_album": "-1220388988",
    "description": "2009_rv_Audi_rv_R8_rv_5_rv_2_rv_FSI_rv_Quattro_rv_V2_rv_1440",
    "title": "2009_rv_Audi_rv_R8_rv_5_rv_2_rv_FSI_rv_Quattro_rv_V2_rv_1440",
    "link_img": "https://live.staticflickr.com/65535/49892570896_755d355557_o.jpg",
    "id_image": "2009_rv_Audi_rv_R8_rv_5_rv_2_rv_FSI_rv_Quattro_rv_V2_rv_1440",
    "count_view": 0
  },
  {
    "link_thumb": "https://live.staticflickr.com/65535/48115650708_a3292a54ee_n.jpg",
    "id_album": "1364506720",
    "description": "Ferrari_142702",
    "title": "Ferrari_142702",
    "link_img": "https://live.staticflickr.com/65535/48115650708_a8c7c610d3_o.jpg",
    "id_image": "Ferrari_142702",
    "count_view": 0
  },
  {
    "link_thumb": "https://live.staticflickr.com/65535/48117094927_f9a9d56c56_n.jpg",
    "id_album": "-1846404630",
    "description": "Ford_318088",
    "title": "Ford_318088",
    "link_img": "https://live.staticflickr.com/65535/48117094927_b14e844442_o.jpg",
    "id_image": "Ford_318088",
    "count_view": 0
  },
  {
    "link_thumb": "https://live.staticflickr.com/65535/49890634696_0f02745475_n.jpg",
    "id_album": "1873728602",
    "description": "2014_rv_McLaren_rv_P1_rv_V3_rv_1600",
    "title": "2014_rv_McLaren_rv_P1_rv_V3_rv_1600",
    "link_img": "https://live.staticflickr.com/65535/49890634696_6e88f12b4e_o.jpg",
    "id_image": "2014_rv_McLaren_rv_P1_rv_V3_rv_1600",
    "count_view": 0
  },
  {
    "link_thumb": "https://live.staticflickr.com/65535/49890133902_ff7df96f24_n.jpg",
    "id_album": "-1617578684",
    "description": "2017_rv_Porsche_rv_911_rv_GT3_rv_Cup_rv_V3_rv_2000",
    "title": "2017_rv_Porsche_rv_911_rv_GT3_rv_Cup_rv_V3_rv_2000",
    "link_img": "https://live.staticflickr.com/65535/49890133902_b487e56ede_o.jpg",
    "id_image": "2017_rv_Porsche_rv_911_rv_GT3_rv_Cup_rv_V3_rv_2000",
    "count_view": 0
  },
  {
    "link_thumb": "https://live.staticflickr.com/65535/48120403258_cede19dbed_n.jpg",
    "id_album": "810634050",
    "description": "Nissan_319319",
    "title": "Nissan_319319",
    "link_img": "https://live.staticflickr.com/65535/48120403258_29384b732d_o.jpg",
    "id_image": "Nissan_319319",
    "count_view": 0
  },
  {
    "link_thumb": "https://live.staticflickr.com/65535/49889583556_bb55a151f7_n.jpg",
    "id_album": "89481110",
    "description": "2014_rv_Ferrari_rv_LaFerrari_rv_V4_rv_1600",
    "title": "2014_rv_Ferrari_rv_LaFerrari_rv_V4_rv_1600",
    "link_img": "https://live.staticflickr.com/65535/49889583556_d29f5e0988_o.jpg",
    "id_image": "2014_rv_Ferrari_rv_LaFerrari_rv_V4_rv_1600",
    "count_view": 0
  },
  {
    "link_thumb": "https://live.staticflickr.com/65535/48119722936_c42c53df17_n.jpg",
    "id_album": "-731054311",
    "description": "MercedesBenz_645903",
    "title": "MercedesBenz_645903",
    "link_img": "https://live.staticflickr.com/65535/48119722936_acef6cd2ea_o.jpg",
    "id_image": "MercedesBenz_645903",
    "count_view": 0
  },
  {
    "link_thumb": "https://live.staticflickr.com/65535/48118096018_ecf929af61_n.jpg",
    "id_album": "-2009218697",
    "description": "Jeep_151935",
    "title": "Jeep_151935",
    "link_img": "https://live.staticflickr.com/65535/48118096018_83517233f0_o.jpg",
    "id_image": "Jeep_151935",
    "count_view": 0
  },
  {
    "link_thumb": "https://live.staticflickr.com/65535/48113591337_d89eb52cff_n.jpg",
    "id_album": "1246496342",
    "description": "Buick_728289",
    "title": "Buick_728289",
    "link_img": "https://live.staticflickr.com/65535/48113591337_7c61f1f30e_o.jpg",
    "id_image": "Buick_728289",
    "count_view": 0
  },
  {
    "link_thumb": "https://live.staticflickr.com/65535/48112775792_a4cb6b5de5_n.jpg",
    "id_album": "-15119147",
    "description": "Audi_683808",
    "title": "Audi_683808",
    "link_img": "https://live.staticflickr.com/65535/48112775792_05815b9951_o.jpg",
    "id_image": "Audi_683808",
    "count_view": 0
  },
  {
    "link_thumb": "https://live.staticflickr.com/65535/49889831781_302a4e10dc_n.jpg",
    "id_album": "-289181366",
    "description": "1966_rv_Shelby_rv_GT350_rv_V8_rv_1536",
    "title": "1966_rv_Shelby_rv_GT350_rv_V8_rv_1536",
    "link_img": "https://live.staticflickr.com/65535/49889831781_f817d310b3_o.jpg",
    "id_image": "1966_rv_Shelby_rv_GT350_rv_V8_rv_1536",
    "count_view": 0
  },
  {
    "link_thumb": "https://live.staticflickr.com/65535/48112576112_1b0d64568d_n.jpg",
    "id_album": "-15119147",
    "description": "Audi_990441",
    "title": "Audi_990441",
    "link_img": "https://live.staticflickr.com/65535/48112576112_9a4af9315b_o.jpg",
    "id_image": "Audi_990441",
    "count_view": 0
  },
  {
    "link_thumb": "https://live.staticflickr.com/65535/48116567952_117c9c7a23_n.jpg",
    "id_album": "-803737857",
    "description": "Fiat_396650",
    "title": "Fiat_396650",
    "link_img": "https://live.staticflickr.com/65535/48116567952_94bdb64315_o.jpg",
    "id_image": "Fiat_396650",
    "count_view": 0
  },
  {
    "link_thumb": "https://live.staticflickr.com/65535/48116532262_869765d2ed_n.jpg",
    "id_album": "1364506720",
    "description": "Ferrari_985652",
    "title": "Ferrari_985652",
    "link_img": "https://live.staticflickr.com/65535/48116532262_1c93fa8605_o.jpg",
    "id_image": "Ferrari_985652",
    "count_view": 0
  },
  {
    "link_thumb": "https://live.staticflickr.com/65535/49889391568_f5307b3d8a_n.jpg",
    "id_album": "1134182312",
    "description": "2015_rv_Honda_rv_CR_rv_Z_rv_V2_rv_1600",
    "title": "2015_rv_Honda_rv_CR_rv_Z_rv_V2_rv_1600",
    "link_img": "https://live.staticflickr.com/65535/49889391568_5106cc99ca_o.jpg",
    "id_image": "2015_rv_Honda_rv_CR_rv_Z_rv_V2_rv_1600",
    "count_view": 0
  },
  {
    "link_thumb": "https://live.staticflickr.com/65535/48111778892_b1c29e7812_n.jpg",
    "id_album": "1482519782",
    "description": "Hyundai_798781",
    "title": "Hyundai_798781",
    "link_img": "https://live.staticflickr.com/65535/48111778892_6b09daa33c_o.jpg",
    "id_image": "Hyundai_798781",
    "count_view": 0
  },
  {
    "link_thumb": "https://live.staticflickr.com/65535/48116353886_5e58992d70_n.jpg",
    "id_album": "1364506720",
    "description": "Ferrari_87868",
    "title": "Ferrari_87868",
    "link_img": "https://live.staticflickr.com/65535/48116353886_945a47e8e8_o.jpg",
    "id_image": "Ferrari_87868",
    "count_view": 0
  },
  {
    "link_thumb": "https://live.staticflickr.com/65535/48122861077_64db47b064_n.jpg",
    "id_album": "1274920659",
    "description": "Toyota_717801",
    "title": "Toyota_717801",
    "link_img": "https://live.staticflickr.com/65535/48122861077_2b951c25e0_o.jpg",
    "id_image": "Toyota_717801",
    "count_view": 0
  },
  {
    "link_thumb": "https://live.staticflickr.com/65535/48119958436_dca392f10c_n.jpg",
    "id_album": "-731054311",
    "description": "MercedesBenz_988561",
    "title": "MercedesBenz_988561",
    "link_img": "https://live.staticflickr.com/65535/48119958436_8957773957_o.jpg",
    "id_image": "MercedesBenz_988561",
    "count_view": 0
  },
  {
    "link_thumb": "https://live.staticflickr.com/65535/48114851811_2d04b6003f_n.jpg",
    "id_album": "2072464184",
    "description": "Citroen_291698",
    "title": "Citroen_291698",
    "link_img": "https://live.staticflickr.com/65535/48114851811_17cf93e746_o.jpg",
    "id_image": "Citroen_291698",
    "count_view": 0
  },
  {
    "link_thumb": "https://live.staticflickr.com/65535/48121429512_8bf650e09a_n.jpg",
    "id_album": "-1178450892",
    "description": "Porsche_397317",
    "title": "Porsche_397317",
    "link_img": "https://live.staticflickr.com/65535/48121429512_99b7acb316_o.jpg",
    "id_image": "Porsche_397317",
    "count_view": 0
  },
  {
    "link_thumb": "https://live.staticflickr.com/65535/48113579861_49f744dbb3_n.jpg",
    "id_album": "-680120434",
    "description": "Cadillac_498521",
    "title": "Cadillac_498521",
    "link_img": "https://live.staticflickr.com/65535/48113579861_ef56ffa0ee_o.jpg",
    "id_image": "Cadillac_498521",
    "count_view": 0
  },
  {
    "link_thumb": "https://live.staticflickr.com/65535/48114849448_be8c5ef36f_n.jpg",
    "id_album": "2072464184",
    "description": "Citroen_187936",
    "title": "Citroen_187936",
    "link_img": "https://live.staticflickr.com/65535/48114849448_6245b4d0a9_o.jpg",
    "id_image": "Citroen_187936",
    "count_view": 0
  },
  {
    "link_thumb": "https://live.staticflickr.com/65535/49889840646_2e40e333db_n.jpg",
    "id_album": "-318023040",
    "description": "1969_rv_Shelby_rv_GT500_rv_V9_rv_1536",
    "title": "1969_rv_Shelby_rv_GT500_rv_V9_rv_1536",
    "link_img": "https://live.staticflickr.com/65535/49889840646_d1ea801b22_o.jpg",
    "id_image": "1969_rv_Shelby_rv_GT500_rv_V9_rv_1536",
    "count_view": 0
  },
  {
    "link_thumb": "https://live.staticflickr.com/65535/48123010032_30a65113ed_n.jpg",
    "id_album": "-150952028",
    "description": "Volkswagen_319459",
    "title": "Volkswagen_319459",
    "link_img": "https://live.staticflickr.com/65535/48123010032_f857ef8e88_o.jpg",
    "id_image": "Volkswagen_319459",
    "count_view": 0
  },
  {
    "link_thumb": "https://live.staticflickr.com/65535/48118735603_ff31264c29_n.jpg",
    "id_album": "-2100339805",
    "description": "Lamborghini_960232",
    "title": "Lamborghini_960232",
    "link_img": "https://live.staticflickr.com/65535/48118735603_939e1ba4ce_o.jpg",
    "id_image": "Lamborghini_960232",
    "count_view": 0
  },
  {
    "link_thumb": "https://live.staticflickr.com/65535/49892890132_d5b2c8073c_n.jpg",
    "id_album": "-1220388988",
    "description": "2016_rv_Audi_rv_R8_rv_V10_rv_Plus_rv_Selection_rv_24h_rv_V1_rv_2000",
    "title": "2016_rv_Audi_rv_R8_rv_V10_rv_Plus_rv_Selection_rv_24h_rv_V1_rv_2000",
    "link_img": "https://live.staticflickr.com/65535/49892890132_7b5e765bf5_o.jpg",
    "id_image": "2016_rv_Audi_rv_R8_rv_V10_rv_Plus_rv_Selection_rv_24h_rv_V1_rv_2000",
    "count_view": 0
  },
  {
    "link_thumb": "https://live.staticflickr.com/65535/48115777773_fe5435f18f_n.jpg",
    "id_album": "1364506720",
    "description": "Ferrari_289165",
    "title": "Ferrari_289165",
    "link_img": "https://live.staticflickr.com/65535/48115777773_44f1bba225_o.jpg",
    "id_image": "Ferrari_289165",
    "count_view": 0
  },
  {
    "link_thumb": "https://live.staticflickr.com/65535/48118593103_4d0def3b84_n.jpg",
    "id_album": "-2100339805",
    "description": "Lamborghini_685682",
    "title": "Lamborghini_685682",
    "link_img": "https://live.staticflickr.com/65535/48118593103_53a09231a6_o.jpg",
    "id_image": "Lamborghini_685682",
    "count_view": 0
  },
  {
    "link_thumb": "https://live.staticflickr.com/65535/49891385541_0ddbf1f422_n.jpg",
    "id_album": "-857328710",
    "description": "2013_rv_Porsche_rv_Boxster_rv_V3_rv_1536",
    "title": "2013_rv_Porsche_rv_Boxster_rv_V3_rv_1536",
    "link_img": "https://live.staticflickr.com/65535/49891385541_fd4438c402_o.jpg",
    "id_image": "2013_rv_Porsche_rv_Boxster_rv_V3_rv_1536",
    "count_view": 0
  },
  {
    "link_thumb": "https://live.staticflickr.com/65535/49892205613_0a11cfc54a_n.jpg",
    "id_album": "1158113959",
    "description": "2017_rv_Aston_rv_Martin_rv_Vanquish_rv_Zagato_rv_Volante_rv_V2_rv_2000",
    "title": "2017_rv_Aston_rv_Martin_rv_Vanquish_rv_Zagato_rv_Volante_rv_V2_rv_2000",
    "link_img": "https://live.staticflickr.com/65535/49892205613_81eb668387_o.jpg",
    "id_image": "2017_rv_Aston_rv_Martin_rv_Vanquish_rv_Zagato_rv_Volante_rv_V2_rv_2000",
    "count_view": 0
  },
  {
    "link_thumb": "https://live.staticflickr.com/65535/49890325652_781c8c0119_n.jpg",
    "id_album": "-1171889069",
    "description": "1992_rv_Jaguar_rv_XJ220_rv_V1_rv_1440",
    "title": "1992_rv_Jaguar_rv_XJ220_rv_V1_rv_1440",
    "link_img": "https://live.staticflickr.com/65535/49890325652_b785f47ffe_o.jpg",
    "id_image": "1992_rv_Jaguar_rv_XJ220_rv_V1_rv_1440",
    "count_view": 0
  },
  {
    "link_thumb": "https://live.staticflickr.com/65535/48112644773_0b7487eacc_n.jpg",
    "id_album": "727633301",
    "description": "BMW_183133",
    "title": "BMW_183133",
    "link_img": "https://live.staticflickr.com/65535/48112644773_f1985bd7e6_o.jpg",
    "id_image": "BMW_183133",
    "count_view": 0
  },
  {
    "link_thumb": "https://live.staticflickr.com/65535/49889421002_c6003a9574_n.jpg",
    "id_album": "-1839908067",
    "description": "2013_rv_BMW_rv_M6_rv_Coupe_rv_V1_rv_1440",
    "title": "2013_rv_BMW_rv_M6_rv_Coupe_rv_V1_rv_1440",
    "link_img": "https://live.staticflickr.com/65535/49889421002_cfaf4c7d0d_o.jpg",
    "id_image": "2013_rv_BMW_rv_M6_rv_Coupe_rv_V1_rv_1440",
    "count_view": 0
  },
  {
    "link_thumb": "https://live.staticflickr.com/65535/48112415752_4ce000804e_n.jpg",
    "id_album": "-15119147",
    "description": "Audi_474773",
    "title": "Audi_474773",
    "link_img": "https://live.staticflickr.com/65535/48112415752_d10879ba87_o.jpg",
    "id_image": "Audi_474773",
    "count_view": 0
  },
  {
    "link_thumb": "https://live.staticflickr.com/65535/48121763537_c17036b0eb_n.jpg",
    "id_album": "-1178450892",
    "description": "Porsche_854853",
    "title": "Porsche_854853",
    "link_img": "https://live.staticflickr.com/65535/48121763537_cee1f65444_o.jpg",
    "id_image": "Porsche_854853",
    "count_view": 0
  },
  {
    "link_thumb": "https://live.staticflickr.com/65535/48120190288_f025b866f9_n.jpg",
    "id_album": "666438681",
    "description": "Motorcycles_216879",
    "title": "Motorcycles_216879",
    "link_img": "https://live.staticflickr.com/65535/48120190288_05b1215543_o.jpg",
    "id_image": "Motorcycles_216879",
    "count_view": 0
  },
  {
    "link_thumb": "https://live.staticflickr.com/65535/49891776638_76ae3779fb_n.jpg",
    "id_album": "-1852242586",
    "description": "2016_rv_Rolls_rv_Royce_rv_103EX_rv_Vision_rv_Next_rv_100_rv_Concept_rv_V2_rv_2000",
    "title": "2016_rv_Rolls_rv_Royce_rv_103EX_rv_Vision_rv_Next_rv_100_rv_Concept_rv_V2_rv_2000",
    "link_img": "https://live.staticflickr.com/65535/49891776638_48833b3827_o.jpg",
    "id_image": "2016_rv_Rolls_rv_Royce_rv_103EX_rv_Vision_rv_Next_rv_100_rv_Concept_rv_V2_rv_2000",
    "count_view": 0
  },
  {
    "link_thumb": "https://live.staticflickr.com/65535/48119514738_9548ef1c70_n.jpg",
    "id_album": "-731054311",
    "description": "MercedesBenz_219954",
    "title": "MercedesBenz_219954",
    "link_img": "https://live.staticflickr.com/65535/48119514738_ec328c5d14_o.jpg",
    "id_image": "MercedesBenz_219954",
    "count_view": 0
  },
  {
    "link_thumb": "https://live.staticflickr.com/65535/49888576343_529a7b1112_n.jpg",
    "id_album": "-1839907869",
    "description": "2018_rv_BMW_rv_M4_rv_V9_rv_2000",
    "title": "2018_rv_BMW_rv_M4_rv_V9_rv_2000",
    "link_img": "https://live.staticflickr.com/65535/49888576343_006aa56a91_o.jpg",
    "id_image": "2018_rv_BMW_rv_M4_rv_V9_rv_2000",
    "count_view": 0
  },
  {
    "link_thumb": "https://live.staticflickr.com/65535/49892645447_2e3bb57760_n.jpg",
    "id_album": "-283016394",
    "description": "2007_rv_Subaru_rv_Impreza_rv_WRX_rv_STI_rv_V8_rv_1536",
    "title": "2007_rv_Subaru_rv_Impreza_rv_WRX_rv_STI_rv_V8_rv_1536",
    "link_img": "https://live.staticflickr.com/65535/49892645447_82994244a6_o.jpg",
    "id_image": "2007_rv_Subaru_rv_Impreza_rv_WRX_rv_STI_rv_V8_rv_1536",
    "count_view": 0
  },
  {
    "link_thumb": "https://live.staticflickr.com/65535/48116774241_da0c6e43fd_n.jpg",
    "id_album": "-1846404630",
    "description": "Ford_223584",
    "title": "Ford_223584",
    "link_img": "https://live.staticflickr.com/65535/48116774241_532c84deae_o.jpg",
    "id_image": "Ford_223584",
    "count_view": 0
  },
  {
    "link_thumb": "https://live.staticflickr.com/65535/48112871781_c5794c88c7_n.jpg",
    "id_album": "727633301",
    "description": "BMW_484795",
    "title": "BMW_484795",
    "link_img": "https://live.staticflickr.com/65535/48112871781_bcb4e0d457_o.jpg",
    "id_image": "BMW_484795",
    "count_view": 0
  },
  {
    "link_thumb": "https://live.staticflickr.com/65535/49889244282_49f09af044_n.jpg",
    "id_album": "1171449162",
    "description": "2018_rv_Audi_rv_E_rv_Tron_rv_GT_rv_Concept_rv_V6_rv_2000",
    "title": "2018_rv_Audi_rv_E_rv_Tron_rv_GT_rv_Concept_rv_V6_rv_2000",
    "link_img": "https://live.staticflickr.com/65535/49889244282_ac9ec35134_o.jpg",
    "id_image": "2018_rv_Audi_rv_E_rv_Tron_rv_GT_rv_Concept_rv_V6_rv_2000",
    "count_view": 0
  },
  {
    "link_thumb": "https://live.staticflickr.com/65535/49891955953_967b4f4df1_n.jpg",
    "id_album": "746165216",
    "description": "2013_rv_Toyota_rv_GT_rv_86_rv_V11_rv_1440",
    "title": "2013_rv_Toyota_rv_GT_rv_86_rv_V11_rv_1440",
    "link_img": "https://live.staticflickr.com/65535/49891955953_d90abf19f9_o.jpg",
    "id_image": "2013_rv_Toyota_rv_GT_rv_86_rv_V11_rv_1440",
    "count_view": 0
  },
  {
    "link_thumb": "https://live.staticflickr.com/65535/49889356172_c4e583958a_n.jpg",
    "id_album": "-1839907970",
    "description": "2008_rv_BMW_rv_M1_rv_Homage_rv_Concept_rv_V1_rv_1536",
    "title": "2008_rv_BMW_rv_M1_rv_Homage_rv_Concept_rv_V1_rv_1536",
    "link_img": "https://live.staticflickr.com/65535/49889356172_06f55be0b5_o.jpg",
    "id_image": "2008_rv_BMW_rv_M1_rv_Homage_rv_Concept_rv_V1_rv_1536",
    "count_view": 0
  },
  {
    "link_thumb": "https://live.staticflickr.com/65535/48112737133_214acb555b_n.jpg",
    "id_album": "727633301",
    "description": "BMW_317467",
    "title": "BMW_317467",
    "link_img": "https://live.staticflickr.com/65535/48112737133_2cdced8a06_o.jpg",
    "id_image": "BMW_317467",
    "count_view": 0
  },
  {
    "link_thumb": "https://live.staticflickr.com/65535/48115376362_8bc71867ca_n.jpg",
    "id_album": "413141323",
    "description": "Dodge_472029",
    "title": "Dodge_472029",
    "link_img": "https://live.staticflickr.com/65535/48115376362_2d8ab8b0de_o.jpg",
    "id_image": "Dodge_472029",
    "count_view": 0
  },
  {
    "link_thumb": "https://live.staticflickr.com/65535/49889074251_14273f5b3e_n.jpg",
    "id_album": "-1839907869",
    "description": "2013_rv_BMW_rv_4_rv_Series_rv_Coupe_rv_Concept_rv_V11_rv_1600",
    "title": "2013_rv_BMW_rv_4_rv_Series_rv_Coupe_rv_Concept_rv_V11_rv_1600",
    "link_img": "https://live.staticflickr.com/65535/49889074251_852fc3c97e_o.jpg",
    "id_image": "2013_rv_BMW_rv_4_rv_Series_rv_Coupe_rv_Concept_rv_V11_rv_1600",
    "count_view": 0
  },
  {
    "link_thumb": "https://live.staticflickr.com/65535/49889611357_1284ba69ef_n.jpg",
    "id_album": "210584256",
    "description": "2016_rv_Chevrolet_rv_Chevelle_rv_Slammer_rv_Concept_rv_V2_rv_2000",
    "title": "2016_rv_Chevrolet_rv_Chevelle_rv_Slammer_rv_Concept_rv_V2_rv_2000",
    "link_img": "https://live.staticflickr.com/65535/49889611357_3cb742564a_o.jpg",
    "id_image": "2016_rv_Chevrolet_rv_Chevelle_rv_Slammer_rv_Concept_rv_V2_rv_2000",
    "count_view": 0
  },
  {
    "link_thumb": "https://live.staticflickr.com/65535/48119656078_03a2c1ce60_n.jpg",
    "id_album": "-731054311",
    "description": "MercedesBenz_327373",
    "title": "MercedesBenz_327373",
    "link_img": "https://live.staticflickr.com/65535/48119656078_5d824a8776_o.jpg",
    "id_image": "MercedesBenz_327373",
    "count_view": 0
  },
  {
    "link_thumb": "https://live.staticflickr.com/65535/48116536158_ba25aa25cc_n.jpg",
    "id_album": "-803737857",
    "description": "Fiat_959405",
    "title": "Fiat_959405",
    "link_img": "https://live.staticflickr.com/65535/48116536158_a8ec70008a_o.jpg",
    "id_image": "Fiat_959405",
    "count_view": 0
  },
  {
    "link_thumb": "https://live.staticflickr.com/65535/48119825118_e2810735f1_n.jpg",
    "id_album": "-731054311",
    "description": "MercedesBenz_844135",
    "title": "MercedesBenz_844135",
    "link_img": "https://live.staticflickr.com/65535/48119825118_8bedc3cae8_o.jpg",
    "id_image": "MercedesBenz_844135",
    "count_view": 0
  },
  {
    "link_thumb": "https://live.staticflickr.com/65535/49888312868_59a3e1faac_n.jpg",
    "id_album": "1601696203",
    "description": "1960_rv_Aston_rv_Martin_rv_DB4_rv_GTZ_rv_V5_rv_1440",
    "title": "1960_rv_Aston_rv_Martin_rv_DB4_rv_GTZ_rv_V5_rv_1440",
    "link_img": "https://live.staticflickr.com/65535/49888312868_63038911eb_o.jpg",
    "id_image": "1960_rv_Aston_rv_Martin_rv_DB4_rv_GTZ_rv_V5_rv_1440",
    "count_view": 0
  },
  {
    "link_thumb": "https://live.staticflickr.com/65535/48114874283_4bdb0358f8_n.jpg",
    "id_album": "2072464184",
    "description": "Citroen_254338",
    "title": "Citroen_254338",
    "link_img": "https://live.staticflickr.com/65535/48114874283_c64df7a2d6_o.jpg",
    "id_image": "Citroen_254338",
    "count_view": 0
  }
]