[
  {
    "total_img": 0,
    "number_page": 0,
    "title": "Toyota Aygo",
    "tag": "Toyota Aygo,",
    "description": "Toyota Aygo",
    "link_thumb": "https://live.staticflickr.com/65535/49891970083_beb14a608a_n.jpg",
    "id_album": "15421369",
    "total_view": 3
  }
]